{"grid_number":1,"channels":[{"id":"12585-channel","name":"Chị gái qua đường","description":"Ngày đó ở thôn quê vẫn còn nghèo chẳng có tivi điện thoại như bây giờ đám trẻ thường chơi cùng nhau nam nữ đều chơi chung, Nhà nó thì cũng làm nông dân như những nhà khác thôi...","image":null,"label":null,"display":"text-only","type":"text","enable_detail":true,"related":{"url":"https://truyenx.link/truyensextv/channels/related/12585","request_headers":[]},"share":{"url":"https://truyenx.link/truyensextv/channels/share/chi-gai-qua-duong"},"remote_data":{"url":"https://truyenx.link/truyensextv/channels/chi-gai-qua-duong"}},{"id":"12584-channel","name":"Ba đời ở đợ","description":"Nô lệ tình dục cho bà chủ cả Ba đời làm đầy tớ cho quan Đốc Phủ xứ, đến đời Hai Lẹ là đời thứ Tư. Biết thân, biết phận, nó ngủ ở lẩm lúa sau chái bếp. Coi vậy chứ...","image":null,"label":null,"display":"text-only","type":"text","enable_detail":true,"related":{"url":"https://truyenx.link/truyensextv/channels/related/12584","request_headers":[]},"share":{"url":"https://truyenx.link/truyensextv/channels/share/ba-doi-o-do"},"remote_data":{"url":"https://truyenx.link/truyensextv/channels/ba-doi-o-do"}},{"id":"12583-channel","name":"Vương Trường Sinh - Quyển 4","description":"Vương Minh Nhân quan hệ rộng khắp Vương Hoa Phong cúi người hành lễ với Vương Trường Sinh, cung kính nói: “Tôn nhi bái kiến lão tổ tông và hai vị tiền bối.” Ngón tay Uông...","image":null,"label":null,"display":"text-only","type":"text","enable_detail":true,"related":{"url":"https://truyenx.link/truyensextv/channels/related/12583","request_headers":[]},"share":{"url":"https://truyenx.link/truyensextv/channels/share/vuong-truong-sinh-quyen-4"},"remote_data":{"url":"https://truyenx.link/truyensextv/channels/vuong-truong-sinh-quyen-4"}},{"id":"4552-channel","name":"Chinh phục mẹ xinh","description":"Chinh Phục Mẹ Xinh Khó Tính Mẹ ra tay “Cộp, cộp, cộp, cộp...” Hành lang khu lớp học vang lên tiếng giày cao gót nện xuống sàn, giòn giã và vang dội. Âm thanh càng lúc càng...","image":null,"label":null,"display":"text-only","type":"text","enable_detail":true,"related":{"url":"https://truyenx.link/truyensextv/channels/related/4552","request_headers":[]},"share":{"url":"https://truyenx.link/truyensextv/channels/share/chinh-phuc-me-xinh"},"remote_data":{"url":"https://truyenx.link/truyensextv/channels/chinh-phuc-me-xinh"}},{"id":"4551-channel","name":"Hiếp dâm nhỏ giúp việc","description":"Khánh chàng trai lai tây 23 tuổi vừa trở về Việt Nam sau 5 năm học tập tại Mỹ, cha anh là người gốc Mỹ còn mẹ anh là người Việt Nam vì sống với nhau không hợp nên cả 2 đã ly...","image":null,"label":null,"display":"text-only","type":"text","enable_detail":true,"related":{"url":"https://truyenx.link/truyensextv/channels/related/4551","request_headers":[]},"share":{"url":"https://truyenx.link/truyensextv/channels/share/hiep-dam-nho-giup-viec"},"remote_data":{"url":"https://truyenx.link/truyensextv/channels/hiep-dam-nho-giup-viec"}},{"id":"4550-channel","name":"Ba đứa bạn thân","description":"Một buổi tối yên tĩnh tại khu phố nhỏ, bầu trời đêm điểm một vài ánh sao, gió nhẹ thoảng mát mẻ, thổi vào căn phòng nhỏ khiến vài trang giấy lật lên. Một giọng nói tinh...","image":null,"label":null,"display":"text-only","type":"text","enable_detail":true,"related":{"url":"https://truyenx.link/truyensextv/channels/related/4550","request_headers":[]},"share":{"url":"https://truyenx.link/truyensextv/channels/share/ba-dua-ban-than"},"remote_data":{"url":"https://truyenx.link/truyensextv/channels/ba-dua-ban-than"}},{"id":"4510-channel","name":"Thi - Quyển 4","description":"Sau khi lên xe, Nhậm Bảo cũng nhanh chóng khởi động ô tô mà lao về phía trước. Chẳng bao lâu thì đã nhìn thấy lão Phong đang đứng ở đầu phố, trong tay của cậu ấy cầm một cái...","image":null,"label":null,"display":"text-only","type":"text","enable_detail":true,"related":{"url":"https://truyenx.link/truyensextv/channels/related/4510","request_headers":[]},"share":{"url":"https://truyenx.link/truyensextv/channels/share/thi-quyen-4"},"remote_data":{"url":"https://truyenx.link/truyensextv/channels/thi-quyen-4"}},{"id":"4502-channel","name":"Vân Thiên","description":"Đối với mỗi người trong chúng ta ai cũng có bí mật riêng của mình và bí mật đó có để chôn sâu trong lòng đến khi lìa đời. Thiên cũng vậy, Thiên là một học sinh giỏi học tập...","image":null,"label":null,"display":"text-only","type":"text","enable_detail":true,"related":{"url":"https://truyenx.link/truyensextv/channels/related/4502","request_headers":[]},"share":{"url":"https://truyenx.link/truyensextv/channels/share/van-thien"},"remote_data":{"url":"https://truyenx.link/truyensextv/channels/van-thien"}},{"id":"4501-channel","name":"Vai diễn sau cánh gà","description":"Phim trường về khuya. Gió lùa qua hành lang dài, mang theo mùi hóa trang và ánh sáng bạc từ những ngọn đèn cao áp. Hương tháo bộ váy đỏ, lau đi lớp son nhòe ở khóe môi. Một ngày quay...","image":null,"label":null,"display":"text-only","type":"text","enable_detail":true,"related":{"url":"https://truyenx.link/truyensextv/channels/related/4501","request_headers":[]},"share":{"url":"https://truyenx.link/truyensextv/channels/share/vai-dien-sau-canh-ga"},"remote_data":{"url":"https://truyenx.link/truyensextv/channels/vai-dien-sau-canh-ga"}},{"id":"4500-channel","name":"Chuyện tình chị em họ và bạn thân","description":"Chuyện tình của tôi và ái là người yêu tôi cùng lan là em họ của ái và trinh là bạn thân của lan, chuyện có thật 100% và nó diễn ra như sau. Thời sinh viên Lúc tôi và ái quen nhau...","image":null,"label":null,"display":"text-only","type":"text","enable_detail":true,"related":{"url":"https://truyenx.link/truyensextv/channels/related/4500","request_headers":[]},"share":{"url":"https://truyenx.link/truyensextv/channels/share/chuyen-tinh-chi-em-ho-va-ban-than"},"remote_data":{"url":"https://truyenx.link/truyensextv/channels/chuyen-tinh-chi-em-ho-va-ban-than"}},{"id":"4482-channel","name":"Tí ơi, mợ sướng","description":"Từ hôm đó, trưa nào Tí cũng lẻn sang nhà mợ Năm để giúp mợ Năm giải nứng lồn. Được mợ năm chỉ bảo cặn kẽ, thằng Tí bây giờ đã biết làm thế nào để bú lồn đàn bà...","image":null,"label":null,"display":"text-only","type":"text","enable_detail":true,"related":{"url":"https://truyenx.link/truyensextv/channels/related/4482","request_headers":[]},"share":{"url":"https://truyenx.link/truyensextv/channels/share/ti-oi-mo-suong"},"remote_data":{"url":"https://truyenx.link/truyensextv/channels/ti-oi-mo-suong"}},{"id":"4473-channel","name":"Trung và hai mẹ con","description":"Trung là sinh viên năm 2, mướn trọ ở gần trường. Trung đã đổi nhiều lần, nhưng cơ duyên sau Trung đã gắn bó được với căn trọ cũ giá rẻ hơn 1 năm trời. Nhưng nhờ có sự việc...","image":null,"label":null,"display":"text-only","type":"text","enable_detail":true,"related":{"url":"https://truyenx.link/truyensextv/channels/related/4473","request_headers":[]},"share":{"url":"https://truyenx.link/truyensextv/channels/share/trung-va-hai-me-con"},"remote_data":{"url":"https://truyenx.link/truyensextv/channels/trung-va-hai-me-con"}},{"id":"4469-channel","name":"Mẹ và dì của tôi","description":"Câu chuyện bắt đầu khi mẹ tôi bỏ dọn ra khỏi nhà cũng gã tên Hung, chỉ vì gã phát hiện tôi và mẹ tôi ôm ấp và ân ái ở biển, trong khoảng thời gian trước tôi và mẹ tôi ngủ...","image":null,"label":null,"display":"text-only","type":"text","enable_detail":true,"related":{"url":"https://truyenx.link/truyensextv/channels/related/4469","request_headers":[]},"share":{"url":"https://truyenx.link/truyensextv/channels/share/me-va-di-cua-toi"},"remote_data":{"url":"https://truyenx.link/truyensextv/channels/me-va-di-cua-toi"}},{"id":"4100-channel","name":"Chịch ké bồ thằng bạn ở chung phòng","description":"Nhắc đến việc threesome nhiều chày giã chung 1 cối tui nghĩ nhiều anh em ở đây khá hứng thú nhưng có mấy người đã được thử qua cảm giác đó, tui may mắn hơn 1 chút từng được...","image":null,"label":null,"display":"text-only","type":"text","enable_detail":true,"related":{"url":"https://truyenx.link/truyensextv/channels/related/4100","request_headers":[]},"share":{"url":"https://truyenx.link/truyensextv/channels/share/chich-ke-bo-thang-ban-o-chung-phong"},"remote_data":{"url":"https://truyenx.link/truyensextv/channels/chich-ke-bo-thang-ban-o-chung-phong"}},{"id":"4099-channel","name":"Thôi miên thu thập nô lệ","description":"Mở đầu Nam sinh ra trong một gia đình nghèo khó đông thành viên, ngoài cha mẹ hắn thì còn có một anh trai hơn hắn năm tuổi, và hai đứa em gái kém hắn lần lượt một và hai tuổi...","image":null,"label":null,"display":"text-only","type":"text","enable_detail":true,"related":{"url":"https://truyenx.link/truyensextv/channels/related/4099","request_headers":[]},"share":{"url":"https://truyenx.link/truyensextv/channels/share/thoi-mien-thu-thap-no-le"},"remote_data":{"url":"https://truyenx.link/truyensextv/channels/thoi-mien-thu-thap-no-le"}},{"id":"4098-channel","name":"Chồng đi công tác vợ ở nhà địt em rể","description":"Chuyện là tôi có 1 thằng em trai tên Hiếu, thằng em trai tôi muốn lên chung ở với tôi, nhà tôi có 1 cô vợ tên là nhi đang ở chung sống tôi hơn 7 tháng, em trai tôi hơi dâm nhưng tôi...","image":null,"label":null,"display":"text-only","type":"text","enable_detail":true,"related":{"url":"https://truyenx.link/truyensextv/channels/related/4098","request_headers":[]},"share":{"url":"https://truyenx.link/truyensextv/channels/share/chong-di-cong-tac-vo-o-nha-dit-em-re"},"remote_data":{"url":"https://truyenx.link/truyensextv/channels/chong-di-cong-tac-vo-o-nha-dit-em-re"}},{"id":"4097-channel","name":"Anh trai nhìn em gái bị thằng bắt nạt phá trinh biến thành đĩ","description":"Tôi tên là Đạt, một thằng lớp 12 bình thường, sống trong một gia đình mà ai nhìn vào cũng phải ghen tị. Ba tôi là giám đốc công ty lớn, mẹ tôi là giáo viên cấp ba, cả hai đều...","image":null,"label":null,"display":"text-only","type":"text","enable_detail":true,"related":{"url":"https://truyenx.link/truyensextv/channels/related/4097","request_headers":[]},"share":{"url":"https://truyenx.link/truyensextv/channels/share/anh-trai-nhin-em-gai-bi-thang-bat-nat-pha-trinh-bien-thanh-di"},"remote_data":{"url":"https://truyenx.link/truyensextv/channels/anh-trai-nhin-em-gai-bi-thang-bat-nat-pha-trinh-bien-thanh-di"}},{"id":"4096-channel","name":"Bạn thân của người yêu là con đĩ của tôi","description":"Cô bạn thân dâm đãng của người yêu tôi Mình hiện tại 20 tuổi và xin phép giấu tên. Hồi trước lúc còn học lớp 12 mình có quen một cô người yêu tên Y, mình tự nhận bản thân...","image":null,"label":null,"display":"text-only","type":"text","enable_detail":true,"related":{"url":"https://truyenx.link/truyensextv/channels/related/4096","request_headers":[]},"share":{"url":"https://truyenx.link/truyensextv/channels/share/ban-than-cua-nguoi-yeu-la-con-di-cua-toi"},"remote_data":{"url":"https://truyenx.link/truyensextv/channels/ban-than-cua-nguoi-yeu-la-con-di-cua-toi"}},{"id":"4095-channel","name":"Những cuộc tình không ràng buộc","description":"Hải và Trân là đồng nghiệp, một sự thân thiết tự nhiên hình thành giữa hai con người trưởng thành, cùng chí hướng nhưng không có ràng buộc về tình cảm nam nữ. Trân, từ lâu...","image":null,"label":null,"display":"text-only","type":"text","enable_detail":true,"related":{"url":"https://truyenx.link/truyensextv/channels/related/4095","request_headers":[]},"share":{"url":"https://truyenx.link/truyensextv/channels/share/nhung-cuoc-tinh-khong-rang-buoc"},"remote_data":{"url":"https://truyenx.link/truyensextv/channels/nhung-cuoc-tinh-khong-rang-buoc"}},{"id":"4094-channel","name":"Mưa và em","description":"Cơn mưa lúc này đây cứ mỗi lúc lại thêm nặng hạt, tiếng mưa đã không còn nhẹ nhàng lãng mạn như lúc đầu mà dần chuyển sang trạng thái dồn dập hơn. Bên kia đường, từng...","image":null,"label":null,"display":"text-only","type":"text","enable_detail":true,"related":{"url":"https://truyenx.link/truyensextv/channels/related/4094","request_headers":[]},"share":{"url":"https://truyenx.link/truyensextv/channels/share/mua-va-em"},"remote_data":{"url":"https://truyenx.link/truyensextv/channels/mua-va-em"}},{"id":"4093-channel","name":"Hành trình nữ thần hóa điếm","description":"Em xin anh... huhuhu... anh nghĩ đến tình nghĩa bao lâu nay anh bỏ qua cho em... huhuhu... Bỏ qua ư, em làm tôi đau đớn nhục nhã tận cùng vậy em muốn tôi tha thứ tôi quên đi đc sao. Huhuhu...","image":null,"label":null,"display":"text-only","type":"text","enable_detail":true,"related":{"url":"https://truyenx.link/truyensextv/channels/related/4093","request_headers":[]},"share":{"url":"https://truyenx.link/truyensextv/channels/share/hanh-trinh-nu-than-hoa-diem"},"remote_data":{"url":"https://truyenx.link/truyensextv/channels/hanh-trinh-nu-than-hoa-diem"}},{"id":"4092-channel","name":"Phẩm giá con dâu","description":"Ra mắt bố chồng An sinh ra và lớn lên ở vùng quê nông thôn, vì không chịu được cảnh cực khổ nên anh lên thành phố lập nghiệp. An cố gắng làm việc chăm chỉ cuối cùng anh cũng...","image":null,"label":null,"display":"text-only","type":"text","enable_detail":true,"related":{"url":"https://truyenx.link/truyensextv/channels/related/4092","request_headers":[]},"share":{"url":"https://truyenx.link/truyensextv/channels/share/pham-gia-con-dau"},"remote_data":{"url":"https://truyenx.link/truyensextv/channels/pham-gia-con-dau"}},{"id":"4091-channel","name":"Cậu nam sinh đào hoa","description":"Cô thực tập sinh dâm đãng Ở cái trường cấp 3 tư thục X không ai lại không biết đến Duy, một cậu học sinh được xem là thiếu gia sát gái. Duy năm nay 18 tuổi, tuy nhiên cậu hiện...","image":null,"label":null,"display":"text-only","type":"text","enable_detail":true,"related":{"url":"https://truyenx.link/truyensextv/channels/related/4091","request_headers":[]},"share":{"url":"https://truyenx.link/truyensextv/channels/share/cau-nam-sinh-dao-hoa"},"remote_data":{"url":"https://truyenx.link/truyensextv/channels/cau-nam-sinh-dao-hoa"}},{"id":"4090-channel","name":"Ngải Tình","description":"Lâm Phong 23 tuổi. Một chàng trai rất hợp mắt chị em bởi hắn có một thân hình quá cân đối không vạm vỡ như mấy gã tập gym mà cơ thịt hắn chỗ nào ra chỗ đó, vì học võ của...","image":null,"label":null,"display":"text-only","type":"text","enable_detail":true,"related":{"url":"https://truyenx.link/truyensextv/channels/related/4090","request_headers":[]},"share":{"url":"https://truyenx.link/truyensextv/channels/share/ngai-tinh"},"remote_data":{"url":"https://truyenx.link/truyensextv/channels/ngai-tinh"}},{"id":"4089-channel","name":"Đứa con ngoan","description":"Đạt là đứa con thứ 2 trong gia đình 3 chị em. Linh là chị cả đạt là anh hai và trang là em út . Đạt là đứa quậy phá nhất nhà dù đã 20 tuổi nhưng vẫn còn ăn chơi đàn đúm lêu...","image":null,"label":null,"display":"text-only","type":"text","enable_detail":true,"related":{"url":"https://truyenx.link/truyensextv/channels/related/4089","request_headers":[]},"share":{"url":"https://truyenx.link/truyensextv/channels/share/dua-con-ngoan"},"remote_data":{"url":"https://truyenx.link/truyensextv/channels/dua-con-ngoan"}},{"id":"4088-channel","name":"Cô giảng viên tên Ngân","description":"Một ngày nọ Trung được lớp trưởng nhờ, khi nào về nhà thì ghé nhà cô Ngân lấy đồ dùm. Do nhà cô Ngân nằm trên đoạn đường về nhà của Trung. Cô Ngân là giảng viên của khoa...","image":null,"label":null,"display":"text-only","type":"text","enable_detail":true,"related":{"url":"https://truyenx.link/truyensextv/channels/related/4088","request_headers":[]},"share":{"url":"https://truyenx.link/truyensextv/channels/share/co-giang-vien-ten-ngan"},"remote_data":{"url":"https://truyenx.link/truyensextv/channels/co-giang-vien-ten-ngan"}},{"id":"4087-channel","name":"Đụ bà dì","description":"Tôi tên K, sinh sống và làm việc tại Bình Dương. Hôm nay tôi sẽ kể cho các bạn câu chuyện mà tôi đã giấu kín từ năm tôi 15 tuổi đến bây giờ là 22 tuổi. Tôi sống ở Bình...","image":null,"label":null,"display":"text-only","type":"text","enable_detail":true,"related":{"url":"https://truyenx.link/truyensextv/channels/related/4087","request_headers":[]},"share":{"url":"https://truyenx.link/truyensextv/channels/share/du-ba-di"},"remote_data":{"url":"https://truyenx.link/truyensextv/channels/du-ba-di"}},{"id":"4086-channel","name":"Nhà 3 người hạnh phúc","description":"Tôi tên Nam, năm nay 33 tuổi, lấy vợ đã được 1 năm. Vợ tôi tên Ngọc thua tôi 9 tuổi, năm nay 24 tuổi, cao 1m60, xinh đẹp, nóng bỏng. Tôi đã mất 3 năm trời mới cua được và cưới...","image":null,"label":null,"display":"text-only","type":"text","enable_detail":true,"related":{"url":"https://truyenx.link/truyensextv/channels/related/4086","request_headers":[]},"share":{"url":"https://truyenx.link/truyensextv/channels/share/nha-3-nguoi-hanh-phuc"},"remote_data":{"url":"https://truyenx.link/truyensextv/channels/nha-3-nguoi-hanh-phuc"}},{"id":"4085-channel","name":"Hệ thống đụ gái","description":"Lan, cô gái mà tôi đã từng Cuộc đời thật nhàm chán. Tôi không biết nữa. Cặc tôi cửng lên mỗi khi thấy những cô bạn cùng trang lứa nên ít khi tôi tập trung cố định vào một...","image":null,"label":null,"display":"text-only","type":"text","enable_detail":true,"related":{"url":"https://truyenx.link/truyensextv/channels/related/4085","request_headers":[]},"share":{"url":"https://truyenx.link/truyensextv/channels/share/he-thong-du-gai"},"remote_data":{"url":"https://truyenx.link/truyensextv/channels/he-thong-du-gai"}},{"id":"4084-channel","name":"Chồng nhìn vợ bị cướp mất bởi một thằng nhóc","description":"Tôi là Thành Nhân, 35 tuổi, một người đàn ông thành đạt với sự nghiệp vững vàng, địa vị xã hội cao, và học thức sâu rộng. Vợ tôi, Xuân Hương, cũng 35 tuổi, cao 1m85, thân...","image":null,"label":null,"display":"text-only","type":"text","enable_detail":true,"related":{"url":"https://truyenx.link/truyensextv/channels/related/4084","request_headers":[]},"share":{"url":"https://truyenx.link/truyensextv/channels/share/chong-nhin-vo-bi-cuop-mat-boi-mot-thang-nhoc"},"remote_data":{"url":"https://truyenx.link/truyensextv/channels/chong-nhin-vo-bi-cuop-mat-boi-mot-thang-nhoc"}}],"load_more":{"remote_data":{"url":"https://truyenx.link/truyensextv/channels/search?q=undefined","request_headers":[]},"paging":{"page_key":"page","size_key":"size"},"pageInfo":{"current_page":1,"last_page":34,"per_page":30,"total":1000}}}