{"grid_number":1,"channels":[{"id":"13455-channel","name":"Thư ký và người tình","description":"Ánh nắng cuối ngày vẽ một lớp bóng vàng cam lên khung cửa kính. Tầng 11, văn phòng Tổng Giám đốc công ty Pham’s Bamboo King tên quốc tế là PBK Group. Ông Danh khẽ nghiêng người...","image":null,"label":null,"display":"text-only","type":"text","enable_detail":true,"related":{"url":"https://truyenx.link/truyensextv/channels/related/13455","request_headers":[]},"share":{"url":"https://truyenx.link/truyensextv/channels/share/thu-ky-va-nguoi-tinh"},"remote_data":{"url":"https://truyenx.link/truyensextv/channels/thu-ky-va-nguoi-tinh"}},{"id":"13454-channel","name":"Hành hạ chị đồng nghiệp","description":"Nuôi cổ trùng Người không biết được bản chất thật của Lưu Tân Vũ đều cho rằng Lưu Tân Vũ trầm mặc, ít nói chuyện, là một thanh niên nhút nhát, ngây ngô, hơn nữa lại có...","image":null,"label":null,"display":"text-only","type":"text","enable_detail":true,"related":{"url":"https://truyenx.link/truyensextv/channels/related/13454","request_headers":[]},"share":{"url":"https://truyenx.link/truyensextv/channels/share/hanh-ha-chi-dong-nghiep"},"remote_data":{"url":"https://truyenx.link/truyensextv/channels/hanh-ha-chi-dong-nghiep"}},{"id":"13453-channel","name":"Vương Trường Sinh - Quyển 6","description":"Thỉnh cầu của Lục Đao Nhìn những cái tên quen thuộc trên linh bài, Vương Trường Sinh cảm giác ngày xưa tựa như chỉ mới hôm qua. Chớp mắt, những tộc nhân này đều mất đi. Nhưng...","image":null,"label":null,"display":"text-only","type":"text","enable_detail":true,"related":{"url":"https://truyenx.link/truyensextv/channels/related/13453","request_headers":[]},"share":{"url":"https://truyenx.link/truyensextv/channels/share/vuong-truong-sinh-quyen-6"},"remote_data":{"url":"https://truyenx.link/truyensextv/channels/vuong-truong-sinh-quyen-6"}},{"id":"13452-channel","name":"Cẩm Y Vệ Đại Minh - Quyển 1","description":"Kỳ Châu Thành “Đề Kỵ tới!” Một tiếng thét kinh hãi thật sự giống như tiếng nổ giữa không trung, chợ Nam Kỳ Châu thành phồn hoa tấp nập nhất thời trở nên hỗn loạn...","image":null,"label":null,"display":"text-only","type":"text","enable_detail":true,"related":{"url":"https://truyenx.link/truyensextv/channels/related/13452","request_headers":[]},"share":{"url":"https://truyenx.link/truyensextv/channels/share/cam-y-ve-dai-minh-quyen-1"},"remote_data":{"url":"https://truyenx.link/truyensextv/channels/cam-y-ve-dai-minh-quyen-1"}},{"id":"12830-channel","name":"Con đường bá chủ - Quyển 18","description":"Cự kiếm đỏ rực như máu xông thẳng thương khung, hóa thân Nguyệt Hồng, sau đó ầm ầm phân ảnh... Trong ánh mắt chấn kinh của tất cả, chỉ thấy một vạn thanh Siêu Thần Binh...","image":null,"label":null,"display":"text-only","type":"text","enable_detail":true,"related":{"url":"https://truyenx.link/truyensextv/channels/related/12830","request_headers":[]},"share":{"url":"https://truyenx.link/truyensextv/channels/share/con-duong-ba-chu-quyen-18"},"remote_data":{"url":"https://truyenx.link/truyensextv/channels/con-duong-ba-chu-quyen-18"}},{"id":"13451-channel","name":"Nữ Phi Công","description":"Chừng còn hơn 1 tiếng nữa, chuyến bay của hãng Cathay Pacific sẽ đáp xuống phi trường Hông Kông. Liếc nhìn người con gái bên cạnh vẫn vô tư dựa vào ngực của mình, say sưa ngủ...","image":null,"label":null,"display":"text-only","type":"text","enable_detail":true,"related":{"url":"https://truyenx.link/truyensextv/channels/related/13451","request_headers":[]},"share":{"url":"https://truyenx.link/truyensextv/channels/share/nu-phi-cong"},"remote_data":{"url":"https://truyenx.link/truyensextv/channels/nu-phi-cong"}},{"id":"13450-channel","name":"Hắc phủ ký","description":"HẮC NGỌC CƯỚI VỢ DÂM Xưa kia, vào thời nhà Minh, có một chàng họ Hắc tên Ngọc, tự Văn Thước, hiệu là Ô Tinh. Họ Hắc này vốn nhiều đời làm quan, gia sản đếm không xuể...","image":null,"label":null,"display":"text-only","type":"text","enable_detail":true,"related":{"url":"https://truyenx.link/truyensextv/channels/related/13450","request_headers":[]},"share":{"url":"https://truyenx.link/truyensextv/channels/share/hac-phu-ky"},"remote_data":{"url":"https://truyenx.link/truyensextv/channels/hac-phu-ky"}},{"id":"3256-channel","name":"Mẹ là hiệu trưởng","description":"Nghịch Dại Tôi tên là Hạ Lưu Phong, vì cách phát âm tương tự nên tôi thường bị các bạn học và bạn bè gọi thành Phong Hạ Lưu, ài thật ra tôi cũng phàn nàn với bố mẹ vì sao...","image":null,"label":null,"display":"text-only","type":"text","enable_detail":true,"related":{"url":"https://truyenx.link/truyensextv/channels/related/3256","request_headers":[]},"share":{"url":"https://truyenx.link/truyensextv/channels/share/me-la-hieu-truong"},"remote_data":{"url":"https://truyenx.link/truyensextv/channels/me-la-hieu-truong"}},{"id":"13262-channel","name":"Vợ cũ","description":"Tiếng cành cạnh... cành cạch của vang lên mỗi khi đoàn tàu lăn bánh qua cái khớp nối giữa các thanh ray. Ngả lưng trên cái ghế nhìn qua tấm kính xuống dòng sông đỏ rực phù sa phía...","image":null,"label":null,"display":"text-only","type":"text","enable_detail":true,"related":{"url":"https://truyenx.link/truyensextv/channels/related/13262","request_headers":[]},"share":{"url":"https://truyenx.link/truyensextv/channels/share/vo-cu"},"remote_data":{"url":"https://truyenx.link/truyensextv/channels/vo-cu"}},{"id":"13327-channel","name":"Anh Ba Quất","description":"Mới qua ngoài tuổi 50, vợ chồng anh Ba đã tính chuyện hồi hương về VN. Một mình theo đoàn vượt biên qua Mỹ từ năm 15 tuổi, bươn chải kiếm sống bằng nghề cắt cỏ thuê. Lập...","image":null,"label":null,"display":"text-only","type":"text","enable_detail":true,"related":{"url":"https://truyenx.link/truyensextv/channels/related/13327","request_headers":[]},"share":{"url":"https://truyenx.link/truyensextv/channels/share/anh-ba-quat"},"remote_data":{"url":"https://truyenx.link/truyensextv/channels/anh-ba-quat"}},{"id":"12995-channel","name":"Vương Trường Sinh - Quyển 5","description":"Những cây linh hoa màu vàng héo rũ, ngã xuống trong biển lửa, nhiệt độ phụ cận chợt tăng cao. Một tràng tiếng rít quái dị vang lên, một đám con rết màu vàng nhạt từ trong biển...","image":null,"label":null,"display":"text-only","type":"text","enable_detail":true,"related":{"url":"https://truyenx.link/truyensextv/channels/related/12995","request_headers":[]},"share":{"url":"https://truyenx.link/truyensextv/channels/share/vuong-truong-sinh-quyen-5"},"remote_data":{"url":"https://truyenx.link/truyensextv/channels/vuong-truong-sinh-quyen-5"}},{"id":"4030-channel","name":"Lão ăn mày","description":"Lão ăn mày Tất cả mọi sai lầm đều đến từ sự ham muốn của bản thân... trong tất cả những ham muốn của con người, sự khao khát về tình dục là một sự mơ tưởng đáng sợ...","image":null,"label":null,"display":"text-only","type":"text","enable_detail":true,"related":{"url":"https://truyenx.link/truyensextv/channels/related/4030","request_headers":[]},"share":{"url":"https://truyenx.link/truyensextv/channels/share/lao-an-may"},"remote_data":{"url":"https://truyenx.link/truyensextv/channels/lao-an-may"}},{"id":"12994-channel","name":"Thi - Quyển 5","description":"Trước cửa hang được dùng đá tảng xây dựng lại, trông giống như một đường hầm vậy. Hai bên, còn được đặt hai con bò đá. Thứ này rõ ràng được dùng để trấn áp dòng...","image":null,"label":null,"display":"text-only","type":"text","enable_detail":true,"related":{"url":"https://truyenx.link/truyensextv/channels/related/12994","request_headers":[]},"share":{"url":"https://truyenx.link/truyensextv/channels/share/thi-quyen-5"},"remote_data":{"url":"https://truyenx.link/truyensextv/channels/thi-quyen-5"}},{"id":"13265-channel","name":"Thuần nữ thần công","description":"Thiên Phong đại lục, một mảnh đại lục sầm uất. Nơi đây sáu trăm năm trước tồn tại một đại đế quốc khổng lồ. Tuy nhiên vì quá khổng lồ nhưng lạ không có phương pháp...","image":null,"label":null,"display":"text-only","type":"text","enable_detail":true,"related":{"url":"https://truyenx.link/truyensextv/channels/related/13265","request_headers":[]},"share":{"url":"https://truyenx.link/truyensextv/channels/share/thuan-nu-than-cong"},"remote_data":{"url":"https://truyenx.link/truyensextv/channels/thuan-nu-than-cong"}},{"id":"13345-channel","name":"Âm thanh tình dục","description":"Tôi là Mai Anh, tôi đã kết hôn được hơn 1 năm. Sau 6 tháng kết hôn tôi phát hiện ra chồng đã có bồ bên ngoài. Kể sơ về nhà tôi: Nhà tôi có chồng tôi và 1 người bạn của chồng...","image":null,"label":null,"display":"text-only","type":"text","enable_detail":true,"related":{"url":"https://truyenx.link/truyensextv/channels/related/13345","request_headers":[]},"share":{"url":"https://truyenx.link/truyensextv/channels/share/am-thanh-tinh-duc"},"remote_data":{"url":"https://truyenx.link/truyensextv/channels/am-thanh-tinh-duc"}},{"id":"13346-channel","name":"Làm tình phá trinh em họ","description":"Tôi tên là Tuấn, vào hè năm đó lúc đó tôi tầm 16 tuổi vì được nghỉ hè nên tôi có 1 chuyến về quê chơi cụ thể là ở Huế, và ở lại của chú thím nhà chú thì có 1 đứa con...","image":null,"label":null,"display":"text-only","type":"text","enable_detail":true,"related":{"url":"https://truyenx.link/truyensextv/channels/related/13346","request_headers":[]},"share":{"url":"https://truyenx.link/truyensextv/channels/share/lam-tinh-pha-trinh-em-ho"},"remote_data":{"url":"https://truyenx.link/truyensextv/channels/lam-tinh-pha-trinh-em-ho"}},{"id":"13326-channel","name":"Truyện sex công sở","description":"Tháng 7 năm 2022, nhiều doanh nghiệp đổi chủ sau đại dịch, cả doanh nghiệp ôtô cũng không ngoại lệ vì cạn vốn. Trong số ấy, doanh nghiệp ôtô sau khi đổi người chủ và tay mới...","image":null,"label":null,"display":"text-only","type":"text","enable_detail":true,"related":{"url":"https://truyenx.link/truyensextv/channels/related/13326","request_headers":[]},"share":{"url":"https://truyenx.link/truyensextv/channels/share/truyen-sex-cong-so"},"remote_data":{"url":"https://truyenx.link/truyensextv/channels/truyen-sex-cong-so"}},{"id":"13268-channel","name":"Biến cố tuổi 16","description":"Cuộc gặp gỡ Tôi Là Nhật Lân năm nay 16 gia đình tương đối khá giả tôi là 1 học sinh ngoan ngoãn khá nổi bật với khuôn mặt tuyệt sắc giai nhân cùng với body và chiều cao cực...","image":null,"label":null,"display":"text-only","type":"text","enable_detail":true,"related":{"url":"https://truyenx.link/truyensextv/channels/related/13268","request_headers":[]},"share":{"url":"https://truyenx.link/truyensextv/channels/share/bien-co-tuoi-16"},"remote_data":{"url":"https://truyenx.link/truyensextv/channels/bien-co-tuoi-16"}},{"id":"13290-channel","name":"Vợ tôi rất dâm","description":"Cuộc sống hôn nhân của tôi và Linh, vợ tôi, có thể nói là một bức tranh đầy màu sắc, nơi những gam màu đậm nhạt hòa quyện, tạo nên một câu chuyện không giống bất kỳ ai...","image":null,"label":null,"display":"text-only","type":"text","enable_detail":true,"related":{"url":"https://truyenx.link/truyensextv/channels/related/13290","request_headers":[]},"share":{"url":"https://truyenx.link/truyensextv/channels/share/vo-toi-rat-dam"},"remote_data":{"url":"https://truyenx.link/truyensextv/channels/vo-toi-rat-dam"}},{"id":"13266-channel","name":"Đèn không hắt bóng","description":"Khương trở mình thức giấc nhìn đồng hồ mới có 3 giờ sáng, anh chàng nhẹ nhàng bước ra nhà bếp lọ dọ pha ly cà phê mang ra ngồi ngoài patio. Khương không dám mở đèn sợ làm kinh...","image":null,"label":null,"display":"text-only","type":"text","enable_detail":true,"related":{"url":"https://truyenx.link/truyensextv/channels/related/13266","request_headers":[]},"share":{"url":"https://truyenx.link/truyensextv/channels/share/den-khong-hat-bong"},"remote_data":{"url":"https://truyenx.link/truyensextv/channels/den-khong-hat-bong"}},{"id":"13247-channel","name":"Dụ gái xa chồng","description":"Giữa trưa hè oi ả, cái nóng khiến cho người phụ nữ vừa nấu xong bữa cơm cũng lấm tấm mồ hôi. Nàng đứng trước quạt kéo cổ áo ra cho hơi mát phả vào trong người nhiều hơn...","image":null,"label":null,"display":"text-only","type":"text","enable_detail":true,"related":{"url":"https://truyenx.link/truyensextv/channels/related/13247","request_headers":[]},"share":{"url":"https://truyenx.link/truyensextv/channels/share/du-gai-xa-chong"},"remote_data":{"url":"https://truyenx.link/truyensextv/channels/du-gai-xa-chong"}},{"id":"13280-channel","name":"Hội cai nghiện tình dục","description":"Ở thành phố X nọ, có một cộng đồng cai nghiện dành cho những con nghiện tình dục Đây là một hội kín gồm 8 người, 4 nam, 4 nữ. Họ là con nghiện tình dục thực sự, vì nghiện...","image":null,"label":null,"display":"text-only","type":"text","enable_detail":true,"related":{"url":"https://truyenx.link/truyensextv/channels/related/13280","request_headers":[]},"share":{"url":"https://truyenx.link/truyensextv/channels/share/hoi-cai-nghien-tinh-duc"},"remote_data":{"url":"https://truyenx.link/truyensextv/channels/hoi-cai-nghien-tinh-duc"}},{"id":"13279-channel","name":"Tuyệt thế dâm thần","description":"Nhất Đại Tông Sư Bước trước thất tinh bước sau vượt qua hổ, hai trăm hoa sen làm đầu pháo, kim cang đập chùy... Mấy chiêu Thái Cực Quyền hạ xuống như nước chảy mây trôi...","image":null,"label":null,"display":"text-only","type":"text","enable_detail":true,"related":{"url":"https://truyenx.link/truyensextv/channels/related/13279","request_headers":[]},"share":{"url":"https://truyenx.link/truyensextv/channels/share/tuyet-the-dam-than"},"remote_data":{"url":"https://truyenx.link/truyensextv/channels/tuyet-the-dam-than"}},{"id":"13269-channel","name":"Truyện sex ngoại tình","description":"Xin chào, tôi xin giấu thông tin cá nhân để tránh những phiền phức sau đây tôi sẽ kể cho các bạn 1 câu chuyện vừa xảy ra gần đây ở nhà tôi, vì tôi còn khá hứng thú nên muốn...","image":null,"label":null,"display":"text-only","type":"text","enable_detail":true,"related":{"url":"https://truyenx.link/truyensextv/channels/related/13269","request_headers":[]},"share":{"url":"https://truyenx.link/truyensextv/channels/share/truyen-sex-ngoai-tinh"},"remote_data":{"url":"https://truyenx.link/truyensextv/channels/truyen-sex-ngoai-tinh"}},{"id":"13263-channel","name":"Âm Dương Hóa Ma Quyết","description":"Tia Sáng Trong Địa Ngục Tiếng kim loại ma sát chói tai, lạnh lẽo đến tận xương tủy, kéo Leo ra khỏi cõi hỗn mang vô tận. Cậu cố gắng mở mắt, nhưng mí mắt nặng tựa ngàn cân...","image":null,"label":null,"display":"text-only","type":"text","enable_detail":true,"related":{"url":"https://truyenx.link/truyensextv/channels/related/13263","request_headers":[]},"share":{"url":"https://truyenx.link/truyensextv/channels/share/am-duong-hoa-ma-quyet"},"remote_data":{"url":"https://truyenx.link/truyensextv/channels/am-duong-hoa-ma-quyet"}},{"id":"13267-channel","name":"Nàng và những trải nghiệm tình dục","description":"Chúng tôi là hai người con xa xứ đang làm việc ở châu Âu nơi những trải nghiệm mới luôn chờ đón. Từ cái nhìn đầu tiên khi gặp em: “Hà Nguyên” người yêu hiện tại của...","image":null,"label":null,"display":"text-only","type":"text","enable_detail":true,"related":{"url":"https://truyenx.link/truyensextv/channels/related/13267","request_headers":[]},"share":{"url":"https://truyenx.link/truyensextv/channels/share/nang-va-nhung-trai-nghiem-tinh-duc"},"remote_data":{"url":"https://truyenx.link/truyensextv/channels/nang-va-nhung-trai-nghiem-tinh-duc"}},{"id":"4069-channel","name":"Hoan Du Thánh Nữ","description":"Sự lạ “Hộc... hộc...” Lý Uyển Như bừng tỉnh. Cơn đau nhức dữ dội như búa bổ khiến cô không kịp thở nổi, từng nhịp tim như có hàng ngàn mũi kim đâm xuyên qua não...","image":null,"label":null,"display":"text-only","type":"text","enable_detail":true,"related":{"url":"https://truyenx.link/truyensextv/channels/related/4069","request_headers":[]},"share":{"url":"https://truyenx.link/truyensextv/channels/share/hoan-du-thanh-nu"},"remote_data":{"url":"https://truyenx.link/truyensextv/channels/hoan-du-thanh-nu"}},{"id":"13264-channel","name":"Chuyện cô Thanh","description":"Cô Thanh chồng vừa chết. Bước vào tuổi sồn sồn, thân thể còn tưng tưng hừng hực gợi tình mà chồng chết thì hơi phiền. Dù gì vợ chồng cũng đã sống bao nhiêu năm tình nghĩa...","image":null,"label":null,"display":"text-only","type":"text","enable_detail":true,"related":{"url":"https://truyenx.link/truyensextv/channels/related/13264","request_headers":[]},"share":{"url":"https://truyenx.link/truyensextv/channels/share/chuyen-co-thanh"},"remote_data":{"url":"https://truyenx.link/truyensextv/channels/chuyen-co-thanh"}},{"id":"4066-channel","name":"Những cuộc tình không ràng buộc","description":"Hải và Trân là đồng nghiệp, một sự thân thiết tự nhiên hình thành giữa hai con người trưởng thành, cùng chí hướng nhưng không có ràng buộc về tình cảm nam nữ. Trân, từ lâu...","image":null,"label":null,"display":"text-only","type":"text","enable_detail":true,"related":{"url":"https://truyenx.link/truyensextv/channels/related/4066","request_headers":[]},"share":{"url":"https://truyenx.link/truyensextv/channels/share/nhung-cuoc-tinh-khong-rang-buoc"},"remote_data":{"url":"https://truyenx.link/truyensextv/channels/nhung-cuoc-tinh-khong-rang-buoc"}},{"id":"12801-channel","name":"Chị dâm","description":"Này! Muộn rồi Đạt! Dậy đi thôi hôm nay có vẻ quên dậy thì tập thể dục thì phải... dậy đi nào! Cái chăn mỏng được tung ra rồi cái rèm cửa được mở toang khiến ánh nắng...","image":null,"label":null,"display":"text-only","type":"text","enable_detail":true,"related":{"url":"https://truyenx.link/truyensextv/channels/related/12801","request_headers":[]},"share":{"url":"https://truyenx.link/truyensextv/channels/share/chi-dam"},"remote_data":{"url":"https://truyenx.link/truyensextv/channels/chi-dam"}}],"load_more":{"pageInfo":{"current_page":1,"last_page":140,"per_page":30,"total":4188},"paging":{"page_key":"page","size_key":"size"},"remote_data":{"url":"https://truyenx.link/truyensextv/channels"}}}