{"grid_number":1,"channels":[{"id":"3941-channel","name":"Phá trinh bạn gái","description":"Tôi tên Phát năm nay tôi 28 tuổi, năm cấp 3 tôi có quen một em tên Băng. Chúng tôi học chung lớp nên khá dễ dàng để gặp nhau. Hôm đó là ngày kỷ niệm 2 năm chúng tôi yêu nhau, không...","image":null,"label":null,"display":"text-only","type":"text","enable_detail":true,"related":{"url":"https://truyenx.link/truyensextv/channels/related/3941","request_headers":[]},"share":{"url":"https://truyenx.link/truyensextv/channels/share/pha-trinh-ban-gai"},"remote_data":{"url":"https://truyenx.link/truyensextv/channels/pha-trinh-ban-gai"}},{"id":"3940-channel","name":"Ngày 20-11 đáng nhớ","description":"2023 là ngày đáng nhớ nhất của tuổi học trò, hôm đấy rất vui và có nhiều tiếng cười, nói vang lên khắp một khoảng sân. Sau khi kết thúc, các thầy sẽ ở lại ăn uống, và có...","image":null,"label":null,"display":"text-only","type":"text","enable_detail":true,"related":{"url":"https://truyenx.link/truyensextv/channels/related/3940","request_headers":[]},"share":{"url":"https://truyenx.link/truyensextv/channels/share/ngay-20-11-dang-nho"},"remote_data":{"url":"https://truyenx.link/truyensextv/channels/ngay-20-11-dang-nho"}},{"id":"3939-channel","name":"Cuộc chiến giữa các vị thần","description":"TINH HOA CỦA TRỜI ĐẤT Truyền thuyết kể rằng năm xưa Lạc Long Quân và Âu Cơ sinh ra một trăm quả trứng nở thành một trăm người con, năm mươi người con theo mẹ lên rừng năm...","image":null,"label":null,"display":"text-only","type":"text","enable_detail":true,"related":{"url":"https://truyenx.link/truyensextv/channels/related/3939","request_headers":[]},"share":{"url":"https://truyenx.link/truyensextv/channels/share/cuoc-chien-giua-cac-vi-than"},"remote_data":{"url":"https://truyenx.link/truyensextv/channels/cuoc-chien-giua-cac-vi-than"}},{"id":"3938-channel","name":"Vòng xoáy dục vọng","description":"Trần Bình Nam một cậu học sinh lớp 9 cuối cấp. Mặc dù đã 15 tuổi nhưng vẫn là trai tơ! Cậu chưa từng có tình cảm với bất kỳ một cô gái hay kiến thức gì về tình dục. So...","image":null,"label":null,"display":"text-only","type":"text","enable_detail":true,"related":{"url":"https://truyenx.link/truyensextv/channels/related/3938","request_headers":[]},"share":{"url":"https://truyenx.link/truyensextv/channels/share/vong-xoay-duc-vong"},"remote_data":{"url":"https://truyenx.link/truyensextv/channels/vong-xoay-duc-vong"}},{"id":"3936-channel","name":"Bố đường biến thái","description":"“Thưa chủ nhân, đã tìm được tung tích bé gái bị bỏ rơi năm ấy rồi ạ!” Một người đàn ông lên tiếng. Sắp xếp cho tôi đến đó, tôi sẽ trực tiếp nhận nuôi cô bé...","image":null,"label":null,"display":"text-only","type":"text","enable_detail":true,"related":{"url":"https://truyenx.link/truyensextv/channels/related/3936","request_headers":[]},"share":{"url":"https://truyenx.link/truyensextv/channels/share/bo-duong-bien-thai"},"remote_data":{"url":"https://truyenx.link/truyensextv/channels/bo-duong-bien-thai"}},{"id":"3935-channel","name":"Quan Tri huyện","description":"Viên cảnh sát gặp nạn Mùa thu đã qua, mùa đông vừa tới, thời tiết cứ như thay đổi hẳn chỉ sau một đêm. Mấy ngày trước trời mưa to, ào ào như muốn nhấn chìm cả đất...","image":null,"label":null,"display":"text-only","type":"text","enable_detail":true,"related":{"url":"https://truyenx.link/truyensextv/channels/related/3935","request_headers":[]},"share":{"url":"https://truyenx.link/truyensextv/channels/share/quan-tri-huyen"},"remote_data":{"url":"https://truyenx.link/truyensextv/channels/quan-tri-huyen"}},{"id":"3934-channel","name":"Con dâu xinh đẹp","description":"Người đàn bà gắp thức ăn cho con trai, hơi liếc sang con dâu rồi nhàn nhạt nói: Ở cữ thế là đủ rồi, ai cũng bận rộn cả không có nhiều thời gian đâu. Mai lại cơm nước dọn...","image":null,"label":null,"display":"text-only","type":"text","enable_detail":true,"related":{"url":"https://truyenx.link/truyensextv/channels/related/3934","request_headers":[]},"share":{"url":"https://truyenx.link/truyensextv/channels/share/con-dau-xinh-dep"},"remote_data":{"url":"https://truyenx.link/truyensextv/channels/con-dau-xinh-dep"}},{"id":"3933-channel","name":"Người mẹ dam dang","description":"Tùng vừa vào nhà đã gọi với vào trong: Có gì ăn chưa mẹ, con đói quá. Người phụ nữ đang nấu ăn trong bếp ngoái ra bảo: Đợi mẹ chút sắp xong rồi, rửa chân tay mặt mũi trước...","image":null,"label":null,"display":"text-only","type":"text","enable_detail":true,"related":{"url":"https://truyenx.link/truyensextv/channels/related/3933","request_headers":[]},"share":{"url":"https://truyenx.link/truyensextv/channels/share/nguoi-me-dam-dang"},"remote_data":{"url":"https://truyenx.link/truyensextv/channels/nguoi-me-dam-dang"}},{"id":"3931-channel","name":"Câu chuyện tình yêu - Quyển 2","description":"Bạch Lan hương diễm Bạch Lan ngâm mình trong bồn tắm, để cho dòng nước ấm áp rửa trôi đi những vết tích sau mấy tiếng vật lộn với Đặng Gia Tam Thiếu. Hừ, thằng nhóc này...","image":null,"label":null,"display":"text-only","type":"text","enable_detail":true,"related":{"url":"https://truyenx.link/truyensextv/channels/related/3931","request_headers":[]},"share":{"url":"https://truyenx.link/truyensextv/channels/share/cau-chuyen-tinh-yeu-quyen-2"},"remote_data":{"url":"https://truyenx.link/truyensextv/channels/cau-chuyen-tinh-yeu-quyen-2"}},{"id":"3932-channel","name":"Nghệ Phong - Quyển 3","description":"Loại Lưu Tinh Là ngươi! Lưu Tinh miễn cưỡng nhìn Nghệ Phong, ánh mắt lộ ra vẻ dữ tợn: Thiên đường có lối ngươi không đi, địa ngục không cửa ngươi lại xông vào. Trong lòng...","image":null,"label":null,"display":"text-only","type":"text","enable_detail":true,"related":{"url":"https://truyenx.link/truyensextv/channels/related/3932","request_headers":[]},"share":{"url":"https://truyenx.link/truyensextv/channels/share/nghe-phong-quyen-3"},"remote_data":{"url":"https://truyenx.link/truyensextv/channels/nghe-phong-quyen-3"}},{"id":"3930-channel","name":"Má bạn","description":"Từ hồi thử lửa với bà má vợ, tui trở nên ghiền bả vì nhiều lý do. Bả già mà còn ham chơi tức là dâm lắm, nghe bả rên xiết chịu không nổi. Bả có tuổi rồi nên thoải mái...","image":null,"label":null,"display":"text-only","type":"text","enable_detail":true,"related":{"url":"https://truyenx.link/truyensextv/channels/related/3930","request_headers":[]},"share":{"url":"https://truyenx.link/truyensextv/channels/share/ma-ban"},"remote_data":{"url":"https://truyenx.link/truyensextv/channels/ma-ban"}},{"id":"3929-channel","name":"Má vợ tui","description":"Tui vượt biên qua Đức lúc gần 20 tuổi. Sau mấy cuộc tình không đi tới đâu, tui lấy vợ năm 30 tuổi. Hạnh, bà xã tui, là con gái nhà giàu miền Nam lâu đời. Nàng có học thức, dễ...","image":null,"label":null,"display":"text-only","type":"text","enable_detail":true,"related":{"url":"https://truyenx.link/truyensextv/channels/related/3929","request_headers":[]},"share":{"url":"https://truyenx.link/truyensextv/channels/share/ma-vo-tui"},"remote_data":{"url":"https://truyenx.link/truyensextv/channels/ma-vo-tui"}},{"id":"3928-channel","name":"Loan vú bự","description":"Ê! Loan vú bự! Hì hì... Gọi xong một câu oai phong như thế rồi tôi chợt phải chạy ù một cái ngay khi bắt gặp con Loan lớp trưởng trợn trừng mắt... thòi lòi dòm tôi. Không biết...","image":null,"label":null,"display":"text-only","type":"text","enable_detail":true,"related":{"url":"https://truyenx.link/truyensextv/channels/related/3928","request_headers":[]},"share":{"url":"https://truyenx.link/truyensextv/channels/share/loan-vu-bu"},"remote_data":{"url":"https://truyenx.link/truyensextv/channels/loan-vu-bu"}},{"id":"3927-channel","name":"Lăng loàn","description":"Tôi không phủ nhận mình là người dâm đãng, nhưng tôi sẽ hơi buồn nếu ai đó gọi tôi là kẻ lăng loàn. Chẳng qua là vì họ không có dịp tìm hiểu bên trong lớp áo dài cổ kính...","image":null,"label":null,"display":"text-only","type":"text","enable_detail":true,"related":{"url":"https://truyenx.link/truyensextv/channels/related/3927","request_headers":[]},"share":{"url":"https://truyenx.link/truyensextv/channels/share/lang-loan"},"remote_data":{"url":"https://truyenx.link/truyensextv/channels/lang-loan"}},{"id":"3926-channel","name":"Tôi đụ bạn gái trong nhà vệ sinh trường","description":"Tuổi học sinh bao giờ cũng luôn tò mò nhiều cái, tôi là Hùng sinh ra và lớn lên tại một vùng quê nhỏ nghèo khó, gia đình thì không được khá giả, hiện tại tôi đang học lớp 11A2...","image":null,"label":null,"display":"text-only","type":"text","enable_detail":true,"related":{"url":"https://truyenx.link/truyensextv/channels/related/3926","request_headers":[]},"share":{"url":"https://truyenx.link/truyensextv/channels/share/toi-du-ban-gai-trong-nha-ve-sinh-truong"},"remote_data":{"url":"https://truyenx.link/truyensextv/channels/toi-du-ban-gai-trong-nha-ve-sinh-truong"}},{"id":"3925-channel","name":"Liêu trai kỳ ngộ","description":"Lời nói đầu: Đây là câu chuyên có thật do vợ chồng chú Bẩy thường kể lại, mỗi khi gia đình có dịp ngồi lại với nhau. Câu chuyện mà hai vợ chồng chú là người trong cuộc...","image":null,"label":null,"display":"text-only","type":"text","enable_detail":true,"related":{"url":"https://truyenx.link/truyensextv/channels/related/3925","request_headers":[]},"share":{"url":"https://truyenx.link/truyensextv/channels/share/lieu-trai-ky-ngo"},"remote_data":{"url":"https://truyenx.link/truyensextv/channels/lieu-trai-ky-ngo"}},{"id":"3924-channel","name":"Tột đỉnh giàu sang","description":"THẰNG BÌNH “TRỘM” Phạm Tất Bình đã vật vờ ở ven đường năm ngày mà không ai gọi nó đi làm. Sáng nay nó còn chưa ăn gì. Nó không nhớ lần cuối cùng được ăn sáng là...","image":null,"label":null,"display":"text-only","type":"text","enable_detail":true,"related":{"url":"https://truyenx.link/truyensextv/channels/related/3924","request_headers":[]},"share":{"url":"https://truyenx.link/truyensextv/channels/share/tot-dinh-giau-sang"},"remote_data":{"url":"https://truyenx.link/truyensextv/channels/tot-dinh-giau-sang"}},{"id":"3923-channel","name":"Tôi thay ba chăm sóc mẹ","description":"Để tôi kể các bạn nghe tôi đã thay thế ba tôi nhằm thỏa mãn mẹ như thế nào. Kể về hoàn cảnh gia đình tôi trước. Tôi tên Thành, một thằng sinh viên đại học năm nhất, được...","image":null,"label":null,"display":"text-only","type":"text","enable_detail":true,"related":{"url":"https://truyenx.link/truyensextv/channels/related/3923","request_headers":[]},"share":{"url":"https://truyenx.link/truyensextv/channels/share/toi-thay-ba-cham-soc-me"},"remote_data":{"url":"https://truyenx.link/truyensextv/channels/toi-thay-ba-cham-soc-me"}},{"id":"3921-channel","name":"Lửa dục vọng","description":"“Dũng. Mi đi lấy thêm nước đá cho bàn của bác Hùng đi ” Tiếng anh Hiếu từ ngoài hiên gọi vọng vào. “Dạ, em mang ra liền” Dũng lật đật mang cái xô đựng nước...","image":null,"label":null,"display":"text-only","type":"text","enable_detail":true,"related":{"url":"https://truyenx.link/truyensextv/channels/related/3921","request_headers":[]},"share":{"url":"https://truyenx.link/truyensextv/channels/share/lua-duc-vong"},"remote_data":{"url":"https://truyenx.link/truyensextv/channels/lua-duc-vong"}},{"id":"3922-channel","name":"Kiếp nạn của “Đôn Lầm”","description":"Đẹp trai, cao ráo, học giỏi, con nhà khá giả... nên vừa trổ mã, hắn đã trở thành tâm điểm dưới mắt nhìn của đám con gái chung trường, chung lớp. Lo sợ cho tương lai của thằng...","image":null,"label":null,"display":"text-only","type":"text","enable_detail":true,"related":{"url":"https://truyenx.link/truyensextv/channels/related/3922","request_headers":[]},"share":{"url":"https://truyenx.link/truyensextv/channels/share/kiep-nan-cua-don-lam"},"remote_data":{"url":"https://truyenx.link/truyensextv/channels/kiep-nan-cua-don-lam"}},{"id":"3920-channel","name":"Chú chó dâm dục và con chủ dâm đãng","description":"ĐTLH đứa cùng lớp mà tôi ghét nhất cũng là đứa mất trinh duy nhất trong lớp. Tôi nghĩ nó là thứ ghê tởm nhất tôi từng thấy. Muốn biết vì sao thì theo tôi vào câu chuyện này...","image":null,"label":null,"display":"text-only","type":"text","enable_detail":true,"related":{"url":"https://truyenx.link/truyensextv/channels/related/3920","request_headers":[]},"share":{"url":"https://truyenx.link/truyensextv/channels/share/chu-cho-dam-duc-va-con-chu-dam-dang"},"remote_data":{"url":"https://truyenx.link/truyensextv/channels/chu-cho-dam-duc-va-con-chu-dam-dang"}},{"id":"3919-channel","name":"Cô con dâu xinh đẹp","description":"Thúy Nga năm nay 24 tuổi, cao 1, 68 mét, là giáo viên mầm non một trường tư thục. Tan làm, Nga xuống xe buýt đông đúc, đi bộ về nhà mình, căn nhà hai phòng ngủ ấm cúng này chính là...","image":null,"label":null,"display":"text-only","type":"text","enable_detail":true,"related":{"url":"https://truyenx.link/truyensextv/channels/related/3919","request_headers":[]},"share":{"url":"https://truyenx.link/truyensextv/channels/share/co-con-dau-xinh-dep"},"remote_data":{"url":"https://truyenx.link/truyensextv/channels/co-con-dau-xinh-dep"}},{"id":"3918-channel","name":"Phản diện Đấu Phá","description":"“A, đây là đâu đây?” Hắn mở mắt ra, nhìn không gian xa hoa xung quanh thì đầu vang lên cảm giác khó hiểu và mù mịt. Hắn nhớ lại, chỉ mấy phút trước thôi. Hắn vốn là...","image":null,"label":null,"display":"text-only","type":"text","enable_detail":true,"related":{"url":"https://truyenx.link/truyensextv/channels/related/3918","request_headers":[]},"share":{"url":"https://truyenx.link/truyensextv/channels/share/phan-dien-dau-pha"},"remote_data":{"url":"https://truyenx.link/truyensextv/channels/phan-dien-dau-pha"}},{"id":"3917-channel","name":"Liêu trai chí dục","description":"Trương Sinh người làng HẠ, thôn ĐẠI THUỶ, tỉnh HÀ TÂY, AN NAM ĐẠI VIỆT. Vốn là người hiền lành lại mồ côi cha thuở nhỏ, sống với bà mẹ mù lòa, bệnh tật. Chính vì thế mà...","image":null,"label":null,"display":"text-only","type":"text","enable_detail":true,"related":{"url":"https://truyenx.link/truyensextv/channels/related/3917","request_headers":[]},"share":{"url":"https://truyenx.link/truyensextv/channels/share/lieu-trai-chi-duc"},"remote_data":{"url":"https://truyenx.link/truyensextv/channels/lieu-trai-chi-duc"}},{"id":"3916-channel","name":"Liễu","description":"Sau khi bị đuổi ra khỏi khách sạn, Liễu ra đường lặng lẽ đi hết con đường này đến con đường khác với mục đích kiếm một căn phòng nào nhỏ cho thuê với giá rẻ thuê để...","image":null,"label":null,"display":"text-only","type":"text","enable_detail":true,"related":{"url":"https://truyenx.link/truyensextv/channels/related/3916","request_headers":[]},"share":{"url":"https://truyenx.link/truyensextv/channels/share/lieu"},"remote_data":{"url":"https://truyenx.link/truyensextv/channels/lieu"}},{"id":"3915-channel","name":"Diễm My bị thôi miên","description":"Tôi sinh trong một dòng họ đặc biệt, người dòng họ tôi ai cũng sở hữu năng lực thao túng và điều khiển suy nghĩ người khác, theo cách nói thông thường thì gọi là thôi miên. Khi...","image":null,"label":null,"display":"text-only","type":"text","enable_detail":true,"related":{"url":"https://truyenx.link/truyensextv/channels/related/3915","request_headers":[]},"share":{"url":"https://truyenx.link/truyensextv/channels/share/diem-my-bi-thoi-mien"},"remote_data":{"url":"https://truyenx.link/truyensextv/channels/diem-my-bi-thoi-mien"}},{"id":"3914-channel","name":"Yến Nhi - Cạm bẫy trụy lạc","description":"Đêm tân hôn của Huy và Nhi Huy có thể được xem là một người đàn ông thành đạt và hạnh phúc với gia đình nhỏ của mình. Năm nay 30 tuổi, Huy đang là chủ một công ty chuyên sản...","image":null,"label":null,"display":"text-only","type":"text","enable_detail":true,"related":{"url":"https://truyenx.link/truyensextv/channels/related/3914","request_headers":[]},"share":{"url":"https://truyenx.link/truyensextv/channels/share/yen-nhi-cam-bay-truy-lac"},"remote_data":{"url":"https://truyenx.link/truyensextv/channels/yen-nhi-cam-bay-truy-lac"}},{"id":"3913-channel","name":"Lồn nó quấy","description":"Mọi chuyện bắt đầu...","image":null,"label":null,"display":"text-only","type":"text","enable_detail":true,"related":{"url":"https://truyenx.link/truyensextv/channels/related/3913","request_headers":[]},"share":{"url":"https://truyenx.link/truyensextv/channels/share/lon-no-quay"},"remote_data":{"url":"https://truyenx.link/truyensextv/channels/lon-no-quay"}},{"id":"3912-channel","name":"Kỷ niệm","description":"Tôi quen nàng thật nhanh chóng qua sự giới thiệu thẳng thừng và trắng trợn của thằng bạn chí cốt. Lúc bấy giờ tôi đang buồn vì hoàn cảnh trớ trêu phải đành chia tay cách xa...","image":null,"label":null,"display":"text-only","type":"text","enable_detail":true,"related":{"url":"https://truyenx.link/truyensextv/channels/related/3912","request_headers":[]},"share":{"url":"https://truyenx.link/truyensextv/channels/share/ky-niem"},"remote_data":{"url":"https://truyenx.link/truyensextv/channels/ky-niem"}},{"id":"3911-channel","name":"Joy of sex","description":"Tôi muốn dùng cái tựa đề của một quyển sách dạy bí quyết phòng the khá nổi tiếng trong thập kỷ 1970 để chia sẻ chút ít kinh nghiệm của tôi với các độc giả bốn phương. Tôi...","image":null,"label":null,"display":"text-only","type":"text","enable_detail":true,"related":{"url":"https://truyenx.link/truyensextv/channels/related/3911","request_headers":[]},"share":{"url":"https://truyenx.link/truyensextv/channels/share/joy-of-sex"},"remote_data":{"url":"https://truyenx.link/truyensextv/channels/joy-of-sex"}}],"load_more":{"pageInfo":{"current_page":29,"last_page":140,"per_page":30,"total":4188},"paging":{"page_key":"page","size_key":"size"},"remote_data":{"url":"https://truyenx.link/truyensextv/channels"}}}