{
  "grid_number": 1,
  "channels": [
    {
      "id": "1698-channel",
      "name": "Tình yêu “trong sáng”",
      "description": "Như tên truyện... tình yêu “trong sáng”, tôi và anh đã có một tình yêu trong sáng suốt gần 3 năm nhưng rồi cũng đến một ngày, ngày mà chúng tôi không còn “trong...",
      "image": null,
      "label": null,
      "display": "text-only",
      "type": "text",
      "enable_detail": true,
      "related": {
        "url": "https://truyenx.link/truyensextv/channels/related/1698",
        "request_headers": []
      },
      "share": {
        "url": "https://truyenx.link/truyensextv/channels/share/tinh-yeu-trong-sang"
      },
      "remote_data": {
        "url": "https://truyenx.link/truyensextv/channels/tinh-yeu-trong-sang"
      }
    },
    {
      "id": "1697-channel",
      "name": "Cuộc làm tình mãnh liệt",
      "description": "Hôm nay là ngày sinh nhật mẹ Trâm, người thân và một số bạn bè của ba mẹ đều tụ họp ở nhà rất vui vẻ gần năm chục người, ăn uống đàn đúm rồi sẽ có nhảy đầm theo như...",
      "image": null,
      "label": null,
      "display": "text-only",
      "type": "text",
      "enable_detail": true,
      "related": {
        "url": "https://truyenx.link/truyensextv/channels/related/1697",
        "request_headers": []
      },
      "share": {
        "url": "https://truyenx.link/truyensextv/channels/share/cuoc-lam-tinh-manh-liet"
      },
      "remote_data": {
        "url": "https://truyenx.link/truyensextv/channels/cuoc-lam-tinh-manh-liet"
      }
    },
    {
      "id": "1696-channel",
      "name": "Phá trinh Mỹ Linh",
      "description": "Mỹ Linh đang mệt vì phải xách nhiều đồ thì bỗng có tiếng đàn ông giọng thật ấm sau lưng Linh: “Ðể tôi phụ cô một tay...” Linh chưa kịp quay lại nhìn thì thấy gói...",
      "image": null,
      "label": null,
      "display": "text-only",
      "type": "text",
      "enable_detail": true,
      "related": {
        "url": "https://truyenx.link/truyensextv/channels/related/1696",
        "request_headers": []
      },
      "share": {
        "url": "https://truyenx.link/truyensextv/channels/share/pha-trinh-my-linh"
      },
      "remote_data": {
        "url": "https://truyenx.link/truyensextv/channels/pha-trinh-my-linh"
      }
    },
    {
      "id": "1695-channel",
      "name": "Yêu bạn cùng lớp - Ngoại truyện",
      "description": "Vì quyển sổ em đưa anh, anh đã trả lại cho em rồi, nên anh sẽ viết vào đây, viết về mọi thứ và viết về em... ... Ngày... Tháng... Năm... Hôm nay thấy em đăng ảnh đi chơi, tựa...",
      "image": null,
      "label": null,
      "display": "text-only",
      "type": "text",
      "enable_detail": true,
      "related": {
        "url": "https://truyenx.link/truyensextv/channels/related/1695",
        "request_headers": []
      },
      "share": {
        "url": "https://truyenx.link/truyensextv/channels/share/yeu-ban-cung-lop-ngoai-truyen"
      },
      "remote_data": {
        "url": "https://truyenx.link/truyensextv/channels/yeu-ban-cung-lop-ngoai-truyen"
      }
    },
    {
      "id": "1694-channel",
      "name": "Hiếp dâm em Trinh",
      "description": "Hai vợ chồng Hùng lấy nhau được gần 2 năm và đang sống ở thành phố nhưng vào ngày thứ Bảy là lại ra căn nhà nhỏ ngoại ô hưởng niềm vui cuối tuần. Đây đã thành lệ và Trinh...",
      "image": null,
      "label": null,
      "display": "text-only",
      "type": "text",
      "enable_detail": true,
      "related": {
        "url": "https://truyenx.link/truyensextv/channels/related/1694",
        "request_headers": []
      },
      "share": {
        "url": "https://truyenx.link/truyensextv/channels/share/hiep-dam-em-trinh"
      },
      "remote_data": {
        "url": "https://truyenx.link/truyensextv/channels/hiep-dam-em-trinh"
      }
    },
    {
      "id": "1693-channel",
      "name": "Chuyện tình cô gia sư",
      "description": "Từ một cô gái quê mùa, học xong sư phạm, Mỹ Dung không muốn trở về nơi chôn nhau cắt rốn. Để được ở lại thành phố và có được mức lương khởi điểm của một giáo sinh...",
      "image": null,
      "label": null,
      "display": "text-only",
      "type": "text",
      "enable_detail": true,
      "related": {
        "url": "https://truyenx.link/truyensextv/channels/related/1693",
        "request_headers": []
      },
      "share": {
        "url": "https://truyenx.link/truyensextv/channels/share/chuyen-tinh-co-gia-su"
      },
      "remote_data": {
        "url": "https://truyenx.link/truyensextv/channels/chuyen-tinh-co-gia-su"
      }
    },
    {
      "id": "1692-channel",
      "name": "Chị em thèm tình dục",
      "description": "Thùy Dung luồn bàn tay mặt qua làn vải mịn màng của chiếc quần lót mỏng manh nàng đang mặc trên người để tự mân mê lớp âm mao mịn màng mọc dài bao phủ rậm rịt chung quanh cái...",
      "image": null,
      "label": null,
      "display": "text-only",
      "type": "text",
      "enable_detail": true,
      "related": {
        "url": "https://truyenx.link/truyensextv/channels/related/1692",
        "request_headers": []
      },
      "share": {
        "url": "https://truyenx.link/truyensextv/channels/share/chi-em-them-tinh-duc"
      },
      "remote_data": {
        "url": "https://truyenx.link/truyensextv/channels/chi-em-them-tinh-duc"
      }
    },
    {
      "id": "1691-channel",
      "name": "Cuộc ngoại tình của Minh Trâm",
      "description": "Tốt nghiệp Đại học được gần một năm trời nhưng Khánh vẫn chưa tìm được việc làm hợp với mảnh bằng kỹ sư Điện tử của chàng. Khánh phải mở lớp dạy kèm Toán và Anh...",
      "image": null,
      "label": null,
      "display": "text-only",
      "type": "text",
      "enable_detail": true,
      "related": {
        "url": "https://truyenx.link/truyensextv/channels/related/1691",
        "request_headers": []
      },
      "share": {
        "url": "https://truyenx.link/truyensextv/channels/share/cuoc-ngoai-tinh-cua-minh-tram"
      },
      "remote_data": {
        "url": "https://truyenx.link/truyensextv/channels/cuoc-ngoai-tinh-cua-minh-tram"
      }
    },
    {
      "id": "1690-channel",
      "name": "Giám đốc và Quỳnh Nga",
      "description": "Quỳnh Nga thong thả bước dọc theo hành lang đến căn phòng, cửa hé mở. Tiếng chuông điện thoại reo, tiếng người nói, tiếng lách cách trên bàn phím máy chữ phát ra từ các phòng...",
      "image": null,
      "label": null,
      "display": "text-only",
      "type": "text",
      "enable_detail": true,
      "related": {
        "url": "https://truyenx.link/truyensextv/channels/related/1690",
        "request_headers": []
      },
      "share": {
        "url": "https://truyenx.link/truyensextv/channels/share/giam-doc-va-quynh-nga"
      },
      "remote_data": {
        "url": "https://truyenx.link/truyensextv/channels/giam-doc-va-quynh-nga"
      }
    },
    {
      "id": "1689-channel",
      "name": "Thùy Dương dáng đẹp và dâm đãng",
      "description": "Thùy Dương sống trong một gia đình hạnh phúc cùng chồng và ba con. Ở tuổi 36, nàng có một vóc dáng tuyệt vời, không một người đàn ông nào trông thấy nàng mà không ao ước được...",
      "image": null,
      "label": null,
      "display": "text-only",
      "type": "text",
      "enable_detail": true,
      "related": {
        "url": "https://truyenx.link/truyensextv/channels/related/1689",
        "request_headers": []
      },
      "share": {
        "url": "https://truyenx.link/truyensextv/channels/share/thuy-duong-dang-dep-va-dam-dang"
      },
      "remote_data": {
        "url": "https://truyenx.link/truyensextv/channels/thuy-duong-dang-dep-va-dam-dang"
      }
    },
    {
      "id": "1688-channel",
      "name": "Em Hạnh cuồng dâm",
      "description": "“Thật là đồ súc sinh khốn nạn mà! Anh đã ăn cái gì mà dám cả gan làm chuyện tồi bại như thế hả! Tôi đối xử với anh như vầy mà sao anh nỡ lòng nào phản tôi như...",
      "image": null,
      "label": null,
      "display": "text-only",
      "type": "text",
      "enable_detail": true,
      "related": {
        "url": "https://truyenx.link/truyensextv/channels/related/1688",
        "request_headers": []
      },
      "share": {
        "url": "https://truyenx.link/truyensextv/channels/share/em-hanh-cuong-dam"
      },
      "remote_data": {
        "url": "https://truyenx.link/truyensextv/channels/em-hanh-cuong-dam"
      }
    },
    {
      "id": "1687-channel",
      "name": "Tiểu Long Nữ",
      "description": "Môn phái Toàn Chân đã bao vây kín cổ mộ, Tôn bà bà hốt hoảng chạy vào và hỏi: Dương Quá đâu rồi... Dương Quá đâu rồi... Chuyện gì vậy?? Tiểu Long Nữ hỏi lại... Không biết...",
      "image": null,
      "label": null,
      "display": "text-only",
      "type": "text",
      "enable_detail": true,
      "related": {
        "url": "https://truyenx.link/truyensextv/channels/related/1687",
        "request_headers": []
      },
      "share": {
        "url": "https://truyenx.link/truyensextv/channels/share/tieu-long-nu"
      },
      "remote_data": {
        "url": "https://truyenx.link/truyensextv/channels/tieu-long-nu"
      }
    },
    {
      "id": "1686-channel",
      "name": "Chàng trai may mắn",
      "description": "Tôi là một người rất ngạo mạn, một kẻ luôn khao khát chinh phục các cô gái trẻ, tôi chỉ muốn thấy phụ nữ quỳ gối dưới chân tôi xin tôi ban cho họ chút tình để họ rên rỉ...",
      "image": null,
      "label": null,
      "display": "text-only",
      "type": "text",
      "enable_detail": true,
      "related": {
        "url": "https://truyenx.link/truyensextv/channels/related/1686",
        "request_headers": []
      },
      "share": {
        "url": "https://truyenx.link/truyensextv/channels/share/chang-trai-may-man"
      },
      "remote_data": {
        "url": "https://truyenx.link/truyensextv/channels/chang-trai-may-man"
      }
    },
    {
      "id": "1685-channel",
      "name": "Cuckold hạng nặng",
      "description": "Ủa?! Nam, nhớ tao hông mậy? Tui giật nảy mình quay lại. Trời, thằng Thanh! Cơn ác mộng của tui thời trung học. Nó nhoẻn miệng cười, nụ cười sáng lạn trên gương mặt điển trai...",
      "image": null,
      "label": null,
      "display": "text-only",
      "type": "text",
      "enable_detail": true,
      "related": {
        "url": "https://truyenx.link/truyensextv/channels/related/1685",
        "request_headers": []
      },
      "share": {
        "url": "https://truyenx.link/truyensextv/channels/share/cuckold-hang-nang"
      },
      "remote_data": {
        "url": "https://truyenx.link/truyensextv/channels/cuckold-hang-nang"
      }
    },
    {
      "id": "1684-channel",
      "name": "Thầy giáo thịt nữ sinh",
      "description": "Chấm xong tập bài thi học kỳ thì đã 12 giờ đêm, thầy giáo Trung đứng dậy vươn vai cho đỡ mỏi rồi sắp xếp gọn gàng lại bàn làm việc. Bài làm kém quá, đây là môn chính...",
      "image": null,
      "label": null,
      "display": "text-only",
      "type": "text",
      "enable_detail": true,
      "related": {
        "url": "https://truyenx.link/truyensextv/channels/related/1684",
        "request_headers": []
      },
      "share": {
        "url": "https://truyenx.link/truyensextv/channels/share/thay-giao-thit-nu-sinh"
      },
      "remote_data": {
        "url": "https://truyenx.link/truyensextv/channels/thay-giao-thit-nu-sinh"
      }
    },
    {
      "id": "1683-channel",
      "name": "Thùy Dương",
      "description": "Tắm xong, bước ra với chiếc khăn tắm quấn ngang ngực, Thùy Dương như trút hết những mệt mỏi công việc trong ngày. Nàng nắm nhìn mình trong gương, nhoẻn miệng cười hài lòng thích...",
      "image": null,
      "label": null,
      "display": "text-only",
      "type": "text",
      "enable_detail": true,
      "related": {
        "url": "https://truyenx.link/truyensextv/channels/related/1683",
        "request_headers": []
      },
      "share": {
        "url": "https://truyenx.link/truyensextv/channels/share/thuy-duong"
      },
      "remote_data": {
        "url": "https://truyenx.link/truyensextv/channels/thuy-duong"
      }
    },
    {
      "id": "1682-channel",
      "name": "Con đàn bà cuồng dâm",
      "description": "Trinh chán nản nhìn ngắm kim đồng hồ tíc tắc từng phút trong căn phòng làm việc, nàng đang ngập đầu trong mớ hỗn độn giấy tờ mà công việc buộc nàng phải làm, những thông tin...",
      "image": null,
      "label": null,
      "display": "text-only",
      "type": "text",
      "enable_detail": true,
      "related": {
        "url": "https://truyenx.link/truyensextv/channels/related/1682",
        "request_headers": []
      },
      "share": {
        "url": "https://truyenx.link/truyensextv/channels/share/con-dan-ba-cuong-dam"
      },
      "remote_data": {
        "url": "https://truyenx.link/truyensextv/channels/con-dan-ba-cuong-dam"
      }
    },
    {
      "id": "1681-channel",
      "name": "Đụ chị cùng công ty",
      "description": "Hồi đó công ty của tôi phải giải trình một số vấn đề về tài chính với công ty tổng ở trên tại Hà nội, chị là người thực hiện công việc chính và tôi là người trợ giúp...",
      "image": null,
      "label": null,
      "display": "text-only",
      "type": "text",
      "enable_detail": true,
      "related": {
        "url": "https://truyenx.link/truyensextv/channels/related/1681",
        "request_headers": []
      },
      "share": {
        "url": "https://truyenx.link/truyensextv/channels/share/du-chi-cung-cong-ty"
      },
      "remote_data": {
        "url": "https://truyenx.link/truyensextv/channels/du-chi-cung-cong-ty"
      }
    },
    {
      "id": "1680-channel",
      "name": "Lần đầu của tôi",
      "description": "Tôi thuộc hàng gà trong lĩnh vực gái gú yêu đương, nên khi có người yêu rồi còn nhiều cái lơ ngơ lắm, chỉ hành động theo bản năng chứ chẳng có tính toán gì, đến nổi bây giờ...",
      "image": null,
      "label": null,
      "display": "text-only",
      "type": "text",
      "enable_detail": true,
      "related": {
        "url": "https://truyenx.link/truyensextv/channels/related/1680",
        "request_headers": []
      },
      "share": {
        "url": "https://truyenx.link/truyensextv/channels/share/lan-dau-cua-toi"
      },
      "remote_data": {
        "url": "https://truyenx.link/truyensextv/channels/lan-dau-cua-toi"
      }
    },
    {
      "id": "1679-channel",
      "name": "Làm tình buổi sáng",
      "description": "Lâm là một chàng trai cao thước tám, da ngâm ngâm vừa phải, không đen, thân thể cường tráng. Là một người trí thức, hoạt bát lại ưa hoạt động nên dáng dấp Lâm rất trẻ trung...",
      "image": null,
      "label": null,
      "display": "text-only",
      "type": "text",
      "enable_detail": true,
      "related": {
        "url": "https://truyenx.link/truyensextv/channels/related/1679",
        "request_headers": []
      },
      "share": {
        "url": "https://truyenx.link/truyensextv/channels/share/lam-tinh-buoi-sang"
      },
      "remote_data": {
        "url": "https://truyenx.link/truyensextv/channels/lam-tinh-buoi-sang"
      }
    },
    {
      "id": "1678-channel",
      "name": "Làm tình với cô em bên vợ",
      "description": "Cách đây không lâu, trong lúc vợ tôi đi công tác vắng. Trong quê, chú vợ điện ra bảo bà nội của vợ tôi ốm nặng. Sắp xếp hành trang, tôi vào quê vợ làm nghĩa vụ của anh con rể...",
      "image": null,
      "label": null,
      "display": "text-only",
      "type": "text",
      "enable_detail": true,
      "related": {
        "url": "https://truyenx.link/truyensextv/channels/related/1678",
        "request_headers": []
      },
      "share": {
        "url": "https://truyenx.link/truyensextv/channels/share/lam-tinh-voi-co-em-ben-vo"
      },
      "remote_data": {
        "url": "https://truyenx.link/truyensextv/channels/lam-tinh-voi-co-em-ben-vo"
      }
    },
    {
      "id": "1677-channel",
      "name": "Đụ Mỹ Dung toét lồn",
      "description": "Huy và Kiệm chính là hai người bạn chí thân. Họ cất tiếng khóc chào đời cùng một ngày, trong cùng một nhà bảo sanh. Gia đình Huy và gia đình Kiệm ở trong cùng một dãy phố. Huy và...",
      "image": null,
      "label": null,
      "display": "text-only",
      "type": "text",
      "enable_detail": true,
      "related": {
        "url": "https://truyenx.link/truyensextv/channels/related/1677",
        "request_headers": []
      },
      "share": {
        "url": "https://truyenx.link/truyensextv/channels/share/du-my-dung-toet-lon"
      },
      "remote_data": {
        "url": "https://truyenx.link/truyensextv/channels/du-my-dung-toet-lon"
      }
    },
    {
      "id": "1676-channel",
      "name": "Tra tấn con điếm già dâm đãng",
      "description": "Không biết từ lúc nào mà anh em tôi đã rắp tâm trả thù bà Vân. Chắc vì sau khi cái chết tức tưởi của mẹ tôi... Mẹ tôi là một người rất hiền hậu. Trong đời của bà chỉ...",
      "image": null,
      "label": null,
      "display": "text-only",
      "type": "text",
      "enable_detail": true,
      "related": {
        "url": "https://truyenx.link/truyensextv/channels/related/1676",
        "request_headers": []
      },
      "share": {
        "url": "https://truyenx.link/truyensextv/channels/share/tra-tan-con-diem-gia-dam-dang"
      },
      "remote_data": {
        "url": "https://truyenx.link/truyensextv/channels/tra-tan-con-diem-gia-dam-dang"
      }
    },
    {
      "id": "1675-channel",
      "name": "Những tên trộm may mắn",
      "description": "Nhận được điện thoại của Vợ tôi vội vàng trở về nhà thì thấy nàng mặt mũi nhăn nhó vừa nôn ọe vừa kêu đau bụng, ngay lập tức tôi chở vợ đến bệnh viện và sau khi thử...",
      "image": null,
      "label": null,
      "display": "text-only",
      "type": "text",
      "enable_detail": true,
      "related": {
        "url": "https://truyenx.link/truyensextv/channels/related/1675",
        "request_headers": []
      },
      "share": {
        "url": "https://truyenx.link/truyensextv/channels/share/nhung-ten-trom-may-man"
      },
      "remote_data": {
        "url": "https://truyenx.link/truyensextv/channels/nhung-ten-trom-may-man"
      }
    },
    {
      "id": "1674-channel",
      "name": "Cuộc tình tay bốn",
      "description": "Thằng Bảnh đè con Miên ra, con nhỏ hai mắt nhắm hít lại, tay thằng Bảnh ve vuốt trên thân thể con bé, da gà con Miên nổi lên từng chập từng chập, nó muốn đẩy thằng Bảnh ra nhưng...",
      "image": null,
      "label": null,
      "display": "text-only",
      "type": "text",
      "enable_detail": true,
      "related": {
        "url": "https://truyenx.link/truyensextv/channels/related/1674",
        "request_headers": []
      },
      "share": {
        "url": "https://truyenx.link/truyensextv/channels/share/cuoc-tinh-tay-bon"
      },
      "remote_data": {
        "url": "https://truyenx.link/truyensextv/channels/cuoc-tinh-tay-bon"
      }
    },
    {
      "id": "1673-channel",
      "name": "Lỡ yêu",
      "description": "Đã 1 năm từ ngày tôi chia tay mối tình 4 năm. Cuộc sống của tôi từ ngày ấy thay đổi đi rất nhiều. Từ cách sống, bạn bè, công việc, tất cả mọi thứ. Tôi trở nên cô độc...",
      "image": null,
      "label": null,
      "display": "text-only",
      "type": "text",
      "enable_detail": true,
      "related": {
        "url": "https://truyenx.link/truyensextv/channels/related/1673",
        "request_headers": []
      },
      "share": {
        "url": "https://truyenx.link/truyensextv/channels/share/lo-yeu"
      },
      "remote_data": {
        "url": "https://truyenx.link/truyensextv/channels/lo-yeu"
      }
    },
    {
      "id": "1672-channel",
      "name": "Đêm sinh nhật con bạn",
      "description": "Tôi luôn là một đứa ưa mạo hiểm và tính cách này cũng đã ăn sâu vào cả đời sống chăn gối của tôi. Tôi khoái được làm tình ở chỗ nào dễ bị phát hiện. Đúng ra thì tôi...",
      "image": null,
      "label": null,
      "display": "text-only",
      "type": "text",
      "enable_detail": true,
      "related": {
        "url": "https://truyenx.link/truyensextv/channels/related/1672",
        "request_headers": []
      },
      "share": {
        "url": "https://truyenx.link/truyensextv/channels/share/dem-sinh-nhat-con-ban"
      },
      "remote_data": {
        "url": "https://truyenx.link/truyensextv/channels/dem-sinh-nhat-con-ban"
      }
    },
    {
      "id": "1671-channel",
      "name": "Làm tình trên xe bus",
      "description": "Lisa lặng nhìn ngắm cảnh người qua lại với đôi mắt mệt mỏi. Nàng đã quá chán nản và chút gì uể oải. Xe buýt vừa rời Stuckey, nàng đã ăn no một ít snack ở miền trung Indiana...",
      "image": null,
      "label": null,
      "display": "text-only",
      "type": "text",
      "enable_detail": true,
      "related": {
        "url": "https://truyenx.link/truyensextv/channels/related/1671",
        "request_headers": []
      },
      "share": {
        "url": "https://truyenx.link/truyensextv/channels/share/lam-tinh-tren-xe-bus"
      },
      "remote_data": {
        "url": "https://truyenx.link/truyensextv/channels/lam-tinh-tren-xe-bus"
      }
    },
    {
      "id": "1670-channel",
      "name": "Phá trinh em gái đồng nghiệp",
      "description": "Tôi là sinh viên tại một trường đại học ở miền tây sông nước. Cũng như đa phần các bạn sinh viên khác, tôi cũng đi làm part time để kiếm thêm thu nhập phụ giúp gia đình một...",
      "image": null,
      "label": null,
      "display": "text-only",
      "type": "text",
      "enable_detail": true,
      "related": {
        "url": "https://truyenx.link/truyensextv/channels/related/1670",
        "request_headers": []
      },
      "share": {
        "url": "https://truyenx.link/truyensextv/channels/share/pha-trinh-em-gai-dong-nghiep"
      },
      "remote_data": {
        "url": "https://truyenx.link/truyensextv/channels/pha-trinh-em-gai-dong-nghiep"
      }
    },
    {
      "id": "1669-channel",
      "name": "Chị ba",
      "description": "Tôi vừa lên lớp 5 thì dì Hai xin nghỉ việc về quê nên ba mẹ tôi phải thuê osin khác là chị ba... Dì Hai làm osin cho gia đình tôi từ khi mẹ tui mới sinh tui ra. Chính dì Hai là người...",
      "image": null,
      "label": null,
      "display": "text-only",
      "type": "text",
      "enable_detail": true,
      "related": {
        "url": "https://truyenx.link/truyensextv/channels/related/1669",
        "request_headers": []
      },
      "share": {
        "url": "https://truyenx.link/truyensextv/channels/share/chi-ba"
      },
      "remote_data": {
        "url": "https://truyenx.link/truyensextv/channels/chi-ba"
      }
    }
  ],
  "load_more": {
    "pageInfo": {
      "current_page": 84,
      "last_page": 140,
      "per_page": 30,
      "total": 4188
    },
    "paging": {
      "page_key": "page",
      "size_key": "size"
    },
    "remote_data": {
      "url": "https://truyenx.link/truyensextv/channels"
    }
  }
}