{
  "grid_number": 1,
  "channels": [
    {
      "id": "12774-channel",
      "name": "Chơi lộ hậu phú bà",
      "description": "Được bú cu Tôi là Nam. Năm nay tôi đã 30 tuổi, thế nhưng vẫn thất nghiệp, sống bám vào mẹ. Thực ra là mẹ tôi là mẹ đơn thân, Tôi suốt ngày chỉ quanh quẩn trong nhà, chẳng làm...",
      "image": null,
      "label": null,
      "display": "text-only",
      "type": "text",
      "enable_detail": true,
      "related": {
        "url": "https://truyenx.link/truyensextv/channels/related/12774",
        "request_headers": []
      },
      "share": {
        "url": "https://truyenx.link/truyensextv/channels/share/choi-lo-hau-phu-ba"
      },
      "remote_data": {
        "url": "https://truyenx.link/truyensextv/channels/choi-lo-hau-phu-ba"
      }
    },
    {
      "id": "12667-channel",
      "name": "Cự bặc đạo dụ ký",
      "description": "17 tuổi, cái tuổi mà tâm trí luôn nghĩ về chuyện đụ đéo nhiều hơn là việc học, trong lớp bọn con trai âm thầm tạo ra 1 nhóm riêng với nhau để chia sẻ những nội dung sex, 18+ có...",
      "image": null,
      "label": null,
      "display": "text-only",
      "type": "text",
      "enable_detail": true,
      "related": {
        "url": "https://truyenx.link/truyensextv/channels/related/12667",
        "request_headers": []
      },
      "share": {
        "url": "https://truyenx.link/truyensextv/channels/share/cu-bac-dao-du-ky"
      },
      "remote_data": {
        "url": "https://truyenx.link/truyensextv/channels/cu-bac-dao-du-ky"
      }
    },
    {
      "id": "12772-channel",
      "name": "Chiếc quần lót ố vàng",
      "description": "Chào các đọc giả thân mến! Đây là 1 câu chuyện có thật, nó xảy ra với chính bản thân tôi! Tôi năm nay 32 tuổi là bố đơn thân đi làm xa nhà tôi có quen biết và chơi với N, một...",
      "image": null,
      "label": null,
      "display": "text-only",
      "type": "text",
      "enable_detail": true,
      "related": {
        "url": "https://truyenx.link/truyensextv/channels/related/12772",
        "request_headers": []
      },
      "share": {
        "url": "https://truyenx.link/truyensextv/channels/share/chiec-quan-lot-o-vang"
      },
      "remote_data": {
        "url": "https://truyenx.link/truyensextv/channels/chiec-quan-lot-o-vang"
      }
    },
    {
      "id": "4078-channel",
      "name": "Thằng bạn thân khốn nạn",
      "description": "Bí Mật mẹ kế Nó tên Vũ năm nay 20 tuổi đang là sinh viên của 1 trường đại học có tiếng trong thành phố, học giỏi có lẽ là ưu điểm duy nhất mà nó có thể tự hào, bởi vì...",
      "image": null,
      "label": null,
      "display": "text-only",
      "type": "text",
      "enable_detail": true,
      "related": {
        "url": "https://truyenx.link/truyensextv/channels/related/4078",
        "request_headers": []
      },
      "share": {
        "url": "https://truyenx.link/truyensextv/channels/share/thang-ban-than-khon-nan"
      },
      "remote_data": {
        "url": "https://truyenx.link/truyensextv/channels/thang-ban-than-khon-nan"
      }
    },
    {
      "id": "12758-channel",
      "name": "Đụ vợ chủ quán",
      "description": "Hôm nay, tôi thức dậy muộn hơn mọi ngày. Bây giờ là 2 giờ đêm, trời trở rét. Tôi đang đi trên phố, tìm một quán ăn đêm để lót dạ. May mắn, tôi đã tìm thấy một quán ăn vẫn...",
      "image": null,
      "label": null,
      "display": "text-only",
      "type": "text",
      "enable_detail": true,
      "related": {
        "url": "https://truyenx.link/truyensextv/channels/related/12758",
        "request_headers": []
      },
      "share": {
        "url": "https://truyenx.link/truyensextv/channels/share/du-vo-chu-quan"
      },
      "remote_data": {
        "url": "https://truyenx.link/truyensextv/channels/du-vo-chu-quan"
      }
    },
    {
      "id": "12705-channel",
      "name": "Vụng trộm với mợ và đứa em họ",
      "description": "Vừa đáp máy bay thì thấy số điện thoại vợ tôi gọi... Alo anh à, em My đây, anh sắp về đến nhà chưa... Anh vừa hạ cánh, bị trễ 30′ em, vợ a đâu sao em cầm máy... Chị vừa...",
      "image": null,
      "label": null,
      "display": "text-only",
      "type": "text",
      "enable_detail": true,
      "related": {
        "url": "https://truyenx.link/truyensextv/channels/related/12705",
        "request_headers": []
      },
      "share": {
        "url": "https://truyenx.link/truyensextv/channels/share/vung-trom-voi-mo-va-dua-em-ho"
      },
      "remote_data": {
        "url": "https://truyenx.link/truyensextv/channels/vung-trom-voi-mo-va-dua-em-ho"
      }
    },
    {
      "id": "13240-channel",
      "name": "Chịch bạn học và cô giáo",
      "description": "Tôi là L học sinh trường thpt ht lần đầu tôi được học trong cái lớp mà nữ còn nhiều hơn nam và chắc chắn rồi bọn con gái trong lớp tôi rất múp và ngon... Tôi để ý được vài...",
      "image": null,
      "label": null,
      "display": "text-only",
      "type": "text",
      "enable_detail": true,
      "related": {
        "url": "https://truyenx.link/truyensextv/channels/related/13240",
        "request_headers": []
      },
      "share": {
        "url": "https://truyenx.link/truyensextv/channels/share/chich-ban-hoc-va-co-giao"
      },
      "remote_data": {
        "url": "https://truyenx.link/truyensextv/channels/chich-ban-hoc-va-co-giao"
      }
    },
    {
      "id": "13239-channel",
      "name": "Loạn luân",
      "description": "Tôi có 1 bà cô năm nay 52 tuổi rồi, cô tôi là gái một con và đã ly dị chồng hơn 20 năm nay cho nên tôi nói thật với các bạn cô tôi còn rất ngon và tướng tá, cơ thể cô tôi đẫy...",
      "image": null,
      "label": null,
      "display": "text-only",
      "type": "text",
      "enable_detail": true,
      "related": {
        "url": "https://truyenx.link/truyensextv/channels/related/13239",
        "request_headers": []
      },
      "share": {
        "url": "https://truyenx.link/truyensextv/channels/share/loan-luan"
      },
      "remote_data": {
        "url": "https://truyenx.link/truyensextv/channels/loan-luan"
      }
    },
    {
      "id": "4047-channel",
      "name": "Ranh giới cấm kỵ",
      "description": "Nhi đứng trước gương, bàn tay khẽ chạm vào cổ mình nơi nàng thầm ao ước đọng lại trên đó hơi ấm của Long. Nàng nhắm mắt, cố gắng xua đi những suy nghĩ lẽ ra không nên bao...",
      "image": null,
      "label": null,
      "display": "text-only",
      "type": "text",
      "enable_detail": true,
      "related": {
        "url": "https://truyenx.link/truyensextv/channels/related/4047",
        "request_headers": []
      },
      "share": {
        "url": "https://truyenx.link/truyensextv/channels/share/ranh-gioi-cam-ky"
      },
      "remote_data": {
        "url": "https://truyenx.link/truyensextv/channels/ranh-gioi-cam-ky"
      }
    },
    {
      "id": "3937-channel",
      "name": "Kỷ niệm với người yêu cũ",
      "description": "Mình có câu chuyện thật 100% của mình xin được chia sẻ với các bạn, văn vẻ mình không hay các bạn đọc không hấp dẫn thông cảm ạ... Xin giới thiệu qua chút mình là một giảng...",
      "image": null,
      "label": null,
      "display": "text-only",
      "type": "text",
      "enable_detail": true,
      "related": {
        "url": "https://truyenx.link/truyensextv/channels/related/3937",
        "request_headers": []
      },
      "share": {
        "url": "https://truyenx.link/truyensextv/channels/share/ky-niem-voi-nguoi-yeu-cu"
      },
      "remote_data": {
        "url": "https://truyenx.link/truyensextv/channels/ky-niem-voi-nguoi-yeu-cu"
      }
    },
    {
      "id": "12753-channel",
      "name": "Ở nhờ nhà anh rể",
      "description": "Chuyện là vầy... tôi tên Vũ nhà ở đường số 8, tân Quy, Q7... nhà tui ở với Mẹ với chị 2... năm 2 chị em tui 20 tuổi thì đã tìm hiểu về loạn luân... Mẹ thì bán hàng ngoài chợ...",
      "image": null,
      "label": null,
      "display": "text-only",
      "type": "text",
      "enable_detail": true,
      "related": {
        "url": "https://truyenx.link/truyensextv/channels/related/12753",
        "request_headers": []
      },
      "share": {
        "url": "https://truyenx.link/truyensextv/channels/share/o-nho-nha-anh-re"
      },
      "remote_data": {
        "url": "https://truyenx.link/truyensextv/channels/o-nho-nha-anh-re"
      }
    },
    {
      "id": "4500-channel",
      "name": "Chuyện tình chị em họ và bạn thân",
      "description": "Chuyện tình của tôi và ái là người yêu tôi cùng lan là em họ của ái và trinh là bạn thân của lan, chuyện có thật 100% và nó diễn ra như sau. Thời sinh viên Lúc tôi và ái quen nhau...",
      "image": null,
      "label": null,
      "display": "text-only",
      "type": "text",
      "enable_detail": true,
      "related": {
        "url": "https://truyenx.link/truyensextv/channels/related/4500",
        "request_headers": []
      },
      "share": {
        "url": "https://truyenx.link/truyensextv/channels/share/chuyen-tinh-chi-em-ho-va-ban-than"
      },
      "remote_data": {
        "url": "https://truyenx.link/truyensextv/channels/chuyen-tinh-chi-em-ho-va-ban-than"
      }
    },
    {
      "id": "12726-channel",
      "name": "Đêm đám giỗ dâm dục",
      "description": "Ký ức dâm dục Vy, giờ đã 18 tuổi, nằm dài trên chiếc giường nhỏ trong căn phòng trọ ở Sài Gòn, ánh đèn neon mờ ảo hắt qua cửa sổ. Đôi tay cô lùa vào chiếc quần lót mỏng...",
      "image": null,
      "label": null,
      "display": "text-only",
      "type": "text",
      "enable_detail": true,
      "related": {
        "url": "https://truyenx.link/truyensextv/channels/related/12726",
        "request_headers": []
      },
      "share": {
        "url": "https://truyenx.link/truyensextv/channels/share/dem-dam-gio-dam-duc"
      },
      "remote_data": {
        "url": "https://truyenx.link/truyensextv/channels/dem-dam-gio-dam-duc"
      }
    },
    {
      "id": "4079-channel",
      "name": "Thiên bồng nguyên soái - Quyển 1",
      "description": "Ta xuyên không rồi Nhà tù Đại Đảo, phòng biệt giam số 4. Người đàn ông mặc áo tù, cơ thể vạm vỡ, mặt lún phún râu, ngồi thẫn thờ trên giường sắt rỉ sét, hai mắt nhắm...",
      "image": null,
      "label": null,
      "display": "text-only",
      "type": "text",
      "enable_detail": true,
      "related": {
        "url": "https://truyenx.link/truyensextv/channels/related/4079",
        "request_headers": []
      },
      "share": {
        "url": "https://truyenx.link/truyensextv/channels/share/thien-bong-nguyen-soai-quyen-1"
      },
      "remote_data": {
        "url": "https://truyenx.link/truyensextv/channels/thien-bong-nguyen-soai-quyen-1"
      }
    },
    {
      "id": "12720-channel",
      "name": "Chinh phục chị dâu",
      "description": "Tui có 1 câu chuyện muốn chia sẻ với mấy bro nào đã từng dính tới loạn luân. Chuyện là tui sống chung với mẹ và anh trai ở Nhà Bè gần phà Bình Khánh á... Mẹ tui năm nay 65 tuổi...",
      "image": null,
      "label": null,
      "display": "text-only",
      "type": "text",
      "enable_detail": true,
      "related": {
        "url": "https://truyenx.link/truyensextv/channels/related/12720",
        "request_headers": []
      },
      "share": {
        "url": "https://truyenx.link/truyensextv/channels/share/chinh-phuc-chi-dau"
      },
      "remote_data": {
        "url": "https://truyenx.link/truyensextv/channels/chinh-phuc-chi-dau"
      }
    },
    {
      "id": "12706-channel",
      "name": "Bố nuôi ơi địt con đi",
      "description": "Mình là Uyên 22t, từ nhỏ mình đã bị bỏ rơi và được bố mẹ nhận nuôi lúc 2t. Bố tên là Quân 51t mình xin phép đc gọi là ông Q, lúc mình 5t không may mẹ bị tai nạn giao thông mà...",
      "image": null,
      "label": null,
      "display": "text-only",
      "type": "text",
      "enable_detail": true,
      "related": {
        "url": "https://truyenx.link/truyensextv/channels/related/12706",
        "request_headers": []
      },
      "share": {
        "url": "https://truyenx.link/truyensextv/channels/share/bo-nuoi-oi-dit-con-di"
      },
      "remote_data": {
        "url": "https://truyenx.link/truyensextv/channels/bo-nuoi-oi-dit-con-di"
      }
    },
    {
      "id": "12699-channel",
      "name": "Loạn luân chị 2 ruột",
      "description": "Chào mọi người nay tui muốn chia sẻ 1 chuyện tui với chị 2 mình có thật cho mọi người xem xét. Tui tên Thanh năm nay 30t, chị 2 tui tên Thảo 33t, 2 chị e tui sống chung với mẹ gia đình...",
      "image": null,
      "label": null,
      "display": "text-only",
      "type": "text",
      "enable_detail": true,
      "related": {
        "url": "https://truyenx.link/truyensextv/channels/related/12699",
        "request_headers": []
      },
      "share": {
        "url": "https://truyenx.link/truyensextv/channels/share/loan-luan-chi-2-ruot"
      },
      "remote_data": {
        "url": "https://truyenx.link/truyensextv/channels/loan-luan-chi-2-ruot"
      }
    },
    {
      "id": "4080-channel",
      "name": "Thôi miên thu thập nô lệ",
      "description": "Mở đầu Nam sinh ra trong một gia đình nghèo khó đông thành viên, ngoài cha mẹ hắn thì còn có một anh trai hơn hắn năm tuổi, và hai đứa em gái kém hắn lần lượt một và hai tuổi...",
      "image": null,
      "label": null,
      "display": "text-only",
      "type": "text",
      "enable_detail": true,
      "related": {
        "url": "https://truyenx.link/truyensextv/channels/related/4080",
        "request_headers": []
      },
      "share": {
        "url": "https://truyenx.link/truyensextv/channels/share/thoi-mien-thu-thap-no-le"
      },
      "remote_data": {
        "url": "https://truyenx.link/truyensextv/channels/thoi-mien-thu-thap-no-le"
      }
    },
    {
      "id": "12585-channel",
      "name": "Chị gái qua đường",
      "description": "Ngày đó ở thôn quê vẫn còn nghèo chẳng có tivi điện thoại như bây giờ đám trẻ thường chơi cùng nhau nam nữ đều chơi chung, Nhà nó thì cũng làm nông dân như những nhà khác thôi...",
      "image": null,
      "label": null,
      "display": "text-only",
      "type": "text",
      "enable_detail": true,
      "related": {
        "url": "https://truyenx.link/truyensextv/channels/related/12585",
        "request_headers": []
      },
      "share": {
        "url": "https://truyenx.link/truyensextv/channels/share/chi-gai-qua-duong"
      },
      "remote_data": {
        "url": "https://truyenx.link/truyensextv/channels/chi-gai-qua-duong"
      }
    },
    {
      "id": "12584-channel",
      "name": "Ba đời ở đợ",
      "description": "Nô lệ tình dục cho bà chủ cả Ba đời làm đầy tớ cho quan Đốc Phủ xứ, đến đời Hai Lẹ là đời thứ Tư. Biết thân, biết phận, nó ngủ ở lẩm lúa sau chái bếp. Coi vậy chứ...",
      "image": null,
      "label": null,
      "display": "text-only",
      "type": "text",
      "enable_detail": true,
      "related": {
        "url": "https://truyenx.link/truyensextv/channels/related/12584",
        "request_headers": []
      },
      "share": {
        "url": "https://truyenx.link/truyensextv/channels/share/ba-doi-o-do"
      },
      "remote_data": {
        "url": "https://truyenx.link/truyensextv/channels/ba-doi-o-do"
      }
    },
    {
      "id": "4551-channel",
      "name": "Hiếp dâm nhỏ giúp việc",
      "description": "Khánh chàng trai lai tây 23 tuổi vừa trở về Việt Nam sau 5 năm học tập tại Mỹ, cha anh là người gốc Mỹ còn mẹ anh là người Việt Nam vì sống với nhau không hợp nên cả 2 đã ly...",
      "image": null,
      "label": null,
      "display": "text-only",
      "type": "text",
      "enable_detail": true,
      "related": {
        "url": "https://truyenx.link/truyensextv/channels/related/4551",
        "request_headers": []
      },
      "share": {
        "url": "https://truyenx.link/truyensextv/channels/share/hiep-dam-nho-giup-viec"
      },
      "remote_data": {
        "url": "https://truyenx.link/truyensextv/channels/hiep-dam-nho-giup-viec"
      }
    },
    {
      "id": "4550-channel",
      "name": "Ba đứa bạn thân",
      "description": "Một buổi tối yên tĩnh tại khu phố nhỏ, bầu trời đêm điểm một vài ánh sao, gió nhẹ thoảng mát mẻ, thổi vào căn phòng nhỏ khiến vài trang giấy lật lên. Một giọng nói tinh...",
      "image": null,
      "label": null,
      "display": "text-only",
      "type": "text",
      "enable_detail": true,
      "related": {
        "url": "https://truyenx.link/truyensextv/channels/related/4550",
        "request_headers": []
      },
      "share": {
        "url": "https://truyenx.link/truyensextv/channels/share/ba-dua-ban-than"
      },
      "remote_data": {
        "url": "https://truyenx.link/truyensextv/channels/ba-dua-ban-than"
      }
    },
    {
      "id": "4077-channel",
      "name": "Vương Trường Sinh - Quyển 3",
      "description": "Xuất phát Một cái đàn cổ dây đàn là màu bạc, một cái đàn cổ khác dây đàn là màu vàng, đều là pháp bảo bậc một thượng phẩm, nhưng thứ sau uy lực lớn hơn một chút, chất...",
      "image": null,
      "label": null,
      "display": "text-only",
      "type": "text",
      "enable_detail": true,
      "related": {
        "url": "https://truyenx.link/truyensextv/channels/related/4077",
        "request_headers": []
      },
      "share": {
        "url": "https://truyenx.link/truyensextv/channels/share/vuong-truong-sinh-quyen-3"
      },
      "remote_data": {
        "url": "https://truyenx.link/truyensextv/channels/vuong-truong-sinh-quyen-3"
      }
    },
    {
      "id": "4502-channel",
      "name": "Vân Thiên",
      "description": "Đối với mỗi người trong chúng ta ai cũng có bí mật riêng của mình và bí mật đó có để chôn sâu trong lòng đến khi lìa đời. Thiên cũng vậy, Thiên là một học sinh giỏi học tập...",
      "image": null,
      "label": null,
      "display": "text-only",
      "type": "text",
      "enable_detail": true,
      "related": {
        "url": "https://truyenx.link/truyensextv/channels/related/4502",
        "request_headers": []
      },
      "share": {
        "url": "https://truyenx.link/truyensextv/channels/share/van-thien"
      },
      "remote_data": {
        "url": "https://truyenx.link/truyensextv/channels/van-thien"
      }
    },
    {
      "id": "4501-channel",
      "name": "Vai diễn sau cánh gà",
      "description": "Phim trường về khuya. Gió lùa qua hành lang dài, mang theo mùi hóa trang và ánh sáng bạc từ những ngọn đèn cao áp. Hương tháo bộ váy đỏ, lau đi lớp son nhòe ở khóe môi. Một ngày quay...",
      "image": null,
      "label": null,
      "display": "text-only",
      "type": "text",
      "enable_detail": true,
      "related": {
        "url": "https://truyenx.link/truyensextv/channels/related/4501",
        "request_headers": []
      },
      "share": {
        "url": "https://truyenx.link/truyensextv/channels/share/vai-dien-sau-canh-ga"
      },
      "remote_data": {
        "url": "https://truyenx.link/truyensextv/channels/vai-dien-sau-canh-ga"
      }
    },
    {
      "id": "4076-channel",
      "name": "Thi - Quyển 3",
      "description": "Hiện tại Vương Bảo Thành, Đằng Ngưu cùng đối phương xảy ra xung đột, Mộ Dung Ngôn vừa rồi tuy rằng không mở miệng, nhưng một lát nếu thật sự đánh nhau, chỉ sợ Mộ Dung...",
      "image": null,
      "label": null,
      "display": "text-only",
      "type": "text",
      "enable_detail": true,
      "related": {
        "url": "https://truyenx.link/truyensextv/channels/related/4076",
        "request_headers": []
      },
      "share": {
        "url": "https://truyenx.link/truyensextv/channels/share/thi-quyen-3"
      },
      "remote_data": {
        "url": "https://truyenx.link/truyensextv/channels/thi-quyen-3"
      }
    },
    {
      "id": "4482-channel",
      "name": "Tí ơi, mợ sướng",
      "description": "Từ hôm đó, trưa nào Tí cũng lẻn sang nhà mợ Năm để giúp mợ Năm giải nứng lồn. Được mợ năm chỉ bảo cặn kẽ, thằng Tí bây giờ đã biết làm thế nào để bú lồn đàn bà...",
      "image": null,
      "label": null,
      "display": "text-only",
      "type": "text",
      "enable_detail": true,
      "related": {
        "url": "https://truyenx.link/truyensextv/channels/related/4482",
        "request_headers": []
      },
      "share": {
        "url": "https://truyenx.link/truyensextv/channels/share/ti-oi-mo-suong"
      },
      "remote_data": {
        "url": "https://truyenx.link/truyensextv/channels/ti-oi-mo-suong"
      }
    },
    {
      "id": "4473-channel",
      "name": "Trung và hai mẹ con",
      "description": "Trung là sinh viên năm 2, mướn trọ ở gần trường. Trung đã đổi nhiều lần, nhưng cơ duyên sau Trung đã gắn bó được với căn trọ cũ giá rẻ hơn 1 năm trời. Nhưng nhờ có sự việc...",
      "image": null,
      "label": null,
      "display": "text-only",
      "type": "text",
      "enable_detail": true,
      "related": {
        "url": "https://truyenx.link/truyensextv/channels/related/4473",
        "request_headers": []
      },
      "share": {
        "url": "https://truyenx.link/truyensextv/channels/share/trung-va-hai-me-con"
      },
      "remote_data": {
        "url": "https://truyenx.link/truyensextv/channels/trung-va-hai-me-con"
      }
    },
    {
      "id": "4085-channel",
      "name": "Hệ thống đụ gái",
      "description": "Lan, cô gái mà tôi đã từng Cuộc đời thật nhàm chán. Tôi không biết nữa. Cặc tôi cửng lên mỗi khi thấy những cô bạn cùng trang lứa nên ít khi tôi tập trung cố định vào một...",
      "image": null,
      "label": null,
      "display": "text-only",
      "type": "text",
      "enable_detail": true,
      "related": {
        "url": "https://truyenx.link/truyensextv/channels/related/4085",
        "request_headers": []
      },
      "share": {
        "url": "https://truyenx.link/truyensextv/channels/share/he-thong-du-gai"
      },
      "remote_data": {
        "url": "https://truyenx.link/truyensextv/channels/he-thong-du-gai"
      }
    },
    {
      "id": "4086-channel",
      "name": "Nhà 3 người hạnh phúc",
      "description": "Tôi tên Nam, năm nay 33 tuổi, lấy vợ đã được 1 năm. Vợ tôi tên Ngọc thua tôi 9 tuổi, năm nay 24 tuổi, cao 1m60, xinh đẹp, nóng bỏng. Tôi đã mất 3 năm trời mới cua được và cưới...",
      "image": null,
      "label": null,
      "display": "text-only",
      "type": "text",
      "enable_detail": true,
      "related": {
        "url": "https://truyenx.link/truyensextv/channels/related/4086",
        "request_headers": []
      },
      "share": {
        "url": "https://truyenx.link/truyensextv/channels/share/nha-3-nguoi-hanh-phuc"
      },
      "remote_data": {
        "url": "https://truyenx.link/truyensextv/channels/nha-3-nguoi-hanh-phuc"
      }
    }
  ],
  "load_more": {
    "pageInfo": {
      "current_page": 4,
      "last_page": 140,
      "per_page": 30,
      "total": 4188
    },
    "paging": {
      "page_key": "page",
      "size_key": "size"
    },
    "remote_data": {
      "url": "https://truyenx.link/truyensextv/channels"
    }
  }
}