{
  "grid_number": 1,
  "channels": [
    {
      "id": "138-channel",
      "name": "Bạo chúa cuồng dâm",
      "description": "Ngày đăng ngôi và cũng là ngày tên bạo chúa Ngu Vương tuyển lựa ra 365 nàng kiều nữ đẹp tuyệt trần trong số mấy vạn cô nương từ khắp các tỉnh thành trong nước. Nếu không...",
      "image": null,
      "label": null,
      "display": "text-only",
      "type": "text",
      "enable_detail": true,
      "related": {
        "url": "https://truyenx.link/truyensextv/channels/related/138",
        "request_headers": []
      },
      "share": {
        "url": "https://truyenx.link/truyensextv/channels/share/bao-chua-cuong-dam"
      },
      "remote_data": {
        "url": "https://truyenx.link/truyensextv/channels/bao-chua-cuong-dam"
      }
    },
    {
      "id": "137-channel",
      "name": "Hai cặp vợ chồng thân thiết",
      "description": "Quân và Nga đã chung sống cùng nhau được hơn 5 năm. Nga rất đẹp, nàng có một thân hình thon nhỏ cân đổi, mái tóc đen nhánh phủ ngang vai, cặp vú nẩy nở săn chắc, đôi mông tròn...",
      "image": null,
      "label": null,
      "display": "text-only",
      "type": "text",
      "enable_detail": true,
      "related": {
        "url": "https://truyenx.link/truyensextv/channels/related/137",
        "request_headers": []
      },
      "share": {
        "url": "https://truyenx.link/truyensextv/channels/share/hai-cap-vo-chong-than-thiet"
      },
      "remote_data": {
        "url": "https://truyenx.link/truyensextv/channels/hai-cap-vo-chong-than-thiet"
      }
    },
    {
      "id": "136-channel",
      "name": "Nữ sinh hư hỏng",
      "description": "Trên đường về nhà Trâm chợt nhớ đến một chuyện khó giải quyết. Nếu đem chuyện này nói với cha thì ông sẽ nổi giận. Nàng sẽ không tránh khỏi một trận đòn. Cha nàng là một...",
      "image": null,
      "label": null,
      "display": "text-only",
      "type": "text",
      "enable_detail": true,
      "related": {
        "url": "https://truyenx.link/truyensextv/channels/related/136",
        "request_headers": []
      },
      "share": {
        "url": "https://truyenx.link/truyensextv/channels/share/nu-sinh-hu-hong"
      },
      "remote_data": {
        "url": "https://truyenx.link/truyensextv/channels/nu-sinh-hu-hong"
      }
    },
    {
      "id": "135-channel",
      "name": "Đụ má vợ hụt",
      "description": "Nếu không vì tôi nghe lời xúi bậy của bả thì hôm nay tôi đã phải gọi bà Hiền là má vợ. Tôi theo đuổi Ngân cả hai ba năm trời mà can đảm lắm tôi đã chỉ mới ôm hôn nàng...",
      "image": null,
      "label": null,
      "display": "text-only",
      "type": "text",
      "enable_detail": true,
      "related": {
        "url": "https://truyenx.link/truyensextv/channels/related/135",
        "request_headers": []
      },
      "share": {
        "url": "https://truyenx.link/truyensextv/channels/share/du-ma-vo-hut"
      },
      "remote_data": {
        "url": "https://truyenx.link/truyensextv/channels/du-ma-vo-hut"
      }
    },
    {
      "id": "134-channel",
      "name": "Cơn mưa rào",
      "description": "Được phân công đi thực tập tại một công ty chế biến thực phẩm, tôi được giáo viên hướng dẫn đưa tới công ty và gặp bà phó phòng để nhận nhiệm vụ. Đề tài của tôi là...",
      "image": null,
      "label": null,
      "display": "text-only",
      "type": "text",
      "enable_detail": true,
      "related": {
        "url": "https://truyenx.link/truyensextv/channels/related/134",
        "request_headers": []
      },
      "share": {
        "url": "https://truyenx.link/truyensextv/channels/share/con-mua-rao"
      },
      "remote_data": {
        "url": "https://truyenx.link/truyensextv/channels/con-mua-rao"
      }
    },
    {
      "id": "133-channel",
      "name": "Hai Néo dâm đãng",
      "description": "Bà Hai Néo năm nay tuổi cũng đã hơn 40, tên “Bà Hai Néo” là tên mà biệt danh mà bọn trẻ trong xóm đặt cho bà, lái lại thành bà “Heo Nái”,cứ theo lời bọn trẻ đồn...",
      "image": null,
      "label": null,
      "display": "text-only",
      "type": "text",
      "enable_detail": true,
      "related": {
        "url": "https://truyenx.link/truyensextv/channels/related/133",
        "request_headers": []
      },
      "share": {
        "url": "https://truyenx.link/truyensextv/channels/share/hai-neo-dam-dang"
      },
      "remote_data": {
        "url": "https://truyenx.link/truyensextv/channels/hai-neo-dam-dang"
      }
    },
    {
      "id": "132-channel",
      "name": "Phá trinh cháu gái",
      "description": "Nhân dịp về Sài Gòn công tác, Lợi ghé thăm bà chị họ. Bà chị tên Hương, hơn Lợi hai tuổi, rời Cần Thơ lên Sài Gòn làm ăn. Nàng đã có chồng và cô con gái tên Ngọc, năm nay 18...",
      "image": null,
      "label": null,
      "display": "text-only",
      "type": "text",
      "enable_detail": true,
      "related": {
        "url": "https://truyenx.link/truyensextv/channels/related/132",
        "request_headers": []
      },
      "share": {
        "url": "https://truyenx.link/truyensextv/channels/share/pha-trinh-chau-gai"
      },
      "remote_data": {
        "url": "https://truyenx.link/truyensextv/channels/pha-trinh-chau-gai"
      }
    },
    {
      "id": "131-channel",
      "name": "Tình nhân của ông chủ",
      "description": "Xin lỗi bà chủ. Ông chủ đang bận tiếp khách hàng, tôi không dám làm phiền ông. Tôi sẽ nói lại ông chủ để gọi lại bà sau thưa bà. Kính chào bà. Trả lời bà chủ xong, Thọ mỉm...",
      "image": null,
      "label": null,
      "display": "text-only",
      "type": "text",
      "enable_detail": true,
      "related": {
        "url": "https://truyenx.link/truyensextv/channels/related/131",
        "request_headers": []
      },
      "share": {
        "url": "https://truyenx.link/truyensextv/channels/share/tinh-nhan-cua-ong-chu"
      },
      "remote_data": {
        "url": "https://truyenx.link/truyensextv/channels/tinh-nhan-cua-ong-chu"
      }
    },
    {
      "id": "130-channel",
      "name": "Tứ quái cô nương",
      "description": "Sáng nay trước khi con gái đến lớp, bà Liên dặn con gái: Con nhớ mang theo áo mưa kẻo trời mưa phùn đấy. Cảm lạnh thì mệt con ạ ! Quỳnh nghĩ thầm trong bụng ” Đúng là bà...",
      "image": null,
      "label": null,
      "display": "text-only",
      "type": "text",
      "enable_detail": true,
      "related": {
        "url": "https://truyenx.link/truyensextv/channels/related/130",
        "request_headers": []
      },
      "share": {
        "url": "https://truyenx.link/truyensextv/channels/share/tu-quai-co-nuong"
      },
      "remote_data": {
        "url": "https://truyenx.link/truyensextv/channels/tu-quai-co-nuong"
      }
    },
    {
      "id": "129-channel",
      "name": "Thầy giáo đụ nữ sinh",
      "description": "Ông Năm vợ mất đã lâu, làm thầy giáo nhưng ông thèm gái ghê lắm, do vậy nên ông thủ dâm theo năm tháng. Ông thấy thật khó khi đi tìm của lạ ở ngoài, nhỡ đâu có ai nhận ra thì...",
      "image": null,
      "label": null,
      "display": "text-only",
      "type": "text",
      "enable_detail": true,
      "related": {
        "url": "https://truyenx.link/truyensextv/channels/related/129",
        "request_headers": []
      },
      "share": {
        "url": "https://truyenx.link/truyensextv/channels/share/thay-giao-du-nu-sinh"
      },
      "remote_data": {
        "url": "https://truyenx.link/truyensextv/channels/thay-giao-du-nu-sinh"
      }
    },
    {
      "id": "128-channel",
      "name": "Đụ tay ba với chị chủ nhà",
      "description": "Nếu anh chị có đọc được câu chuyện này thì cho em gửi lời xin lỗi, em phải thất tín với anh chị rồi. Em phải viết ra đây vì không thể dữ mãi trong lòng. Em phải trang trải câu...",
      "image": null,
      "label": null,
      "display": "text-only",
      "type": "text",
      "enable_detail": true,
      "related": {
        "url": "https://truyenx.link/truyensextv/channels/related/128",
        "request_headers": []
      },
      "share": {
        "url": "https://truyenx.link/truyensextv/channels/share/du-tay-ba-voi-chi-chu-nha"
      },
      "remote_data": {
        "url": "https://truyenx.link/truyensextv/channels/du-tay-ba-voi-chi-chu-nha"
      }
    },
    {
      "id": "127-channel",
      "name": "Trả thù ba chị em",
      "description": "Đăng năm nay 19 tuổi, đang là sinh viên năm nhất. Chàng học hành rất siêng năng chăm chỉ vì chỉ biết rằng cha mình đã hy sinh rất nhiều để chàng được thảnh thơi không bận tâm...",
      "image": null,
      "label": null,
      "display": "text-only",
      "type": "text",
      "enable_detail": true,
      "related": {
        "url": "https://truyenx.link/truyensextv/channels/related/127",
        "request_headers": []
      },
      "share": {
        "url": "https://truyenx.link/truyensextv/channels/share/tra-thu-ba-chi-em"
      },
      "remote_data": {
        "url": "https://truyenx.link/truyensextv/channels/tra-thu-ba-chi-em"
      }
    },
    {
      "id": "126-channel",
      "name": "Căn nhà nhỏ",
      "description": "Từ khi tôi bắt đầu lên Sài Gòn theo học một trường trung cấp nghề về điện tử, ba mẹ đã đầu tư mua cho tôi một căn nhà nhỏ ở quận 6. Căn nhà nằm trong một con hẻm ở...",
      "image": null,
      "label": null,
      "display": "text-only",
      "type": "text",
      "enable_detail": true,
      "related": {
        "url": "https://truyenx.link/truyensextv/channels/related/126",
        "request_headers": []
      },
      "share": {
        "url": "https://truyenx.link/truyensextv/channels/share/can-nha-nho"
      },
      "remote_data": {
        "url": "https://truyenx.link/truyensextv/channels/can-nha-nho"
      }
    },
    {
      "id": "125-channel",
      "name": "Tình yêu lặng thầm",
      "description": "Tôi là một sinh viên hiện đang sống trong Sài Gòn, kể ra thì cuộc đời sinh viên của tôi cũng sẽ trôi qua đều đều như bao người khác, cũng buồn vui nhàm chán lắm nếu không phải...",
      "image": null,
      "label": null,
      "display": "text-only",
      "type": "text",
      "enable_detail": true,
      "related": {
        "url": "https://truyenx.link/truyensextv/channels/related/125",
        "request_headers": []
      },
      "share": {
        "url": "https://truyenx.link/truyensextv/channels/share/tinh-yeu-lang-tham"
      },
      "remote_data": {
        "url": "https://truyenx.link/truyensextv/channels/tinh-yeu-lang-tham"
      }
    },
    {
      "id": "124-channel",
      "name": "Hiếp dâm gái một con",
      "description": "Quỳnh một người phụ nữ xinh đẹp, nàng chỉ mới 39 tuổi, một nét đẹp mặn mà của người đàn bà một con, nét đẹp ấy khiến cho không biết bao nhiêu đàn ông si mê và sẵn sàng...",
      "image": null,
      "label": null,
      "display": "text-only",
      "type": "text",
      "enable_detail": true,
      "related": {
        "url": "https://truyenx.link/truyensextv/channels/related/124",
        "request_headers": []
      },
      "share": {
        "url": "https://truyenx.link/truyensextv/channels/share/hiep-dam-gai-mot-con"
      },
      "remote_data": {
        "url": "https://truyenx.link/truyensextv/channels/hiep-dam-gai-mot-con"
      }
    },
    {
      "id": "123-channel",
      "name": "Lần đầu được chơi gái",
      "description": "Mình kể chuyện thật 100%, anh em nào không tin thì tùy, mình không bịa đặt làm gì cho mệt, nếu thấy không đúng sự thật thì anh em có thể comment nói lên xem bịa đặt như thế nào mà...",
      "image": null,
      "label": null,
      "display": "text-only",
      "type": "text",
      "enable_detail": true,
      "related": {
        "url": "https://truyenx.link/truyensextv/channels/related/123",
        "request_headers": []
      },
      "share": {
        "url": "https://truyenx.link/truyensextv/channels/share/lan-dau-duoc-choi-gai"
      },
      "remote_data": {
        "url": "https://truyenx.link/truyensextv/channels/lan-dau-duoc-choi-gai"
      }
    },
    {
      "id": "122-channel",
      "name": "Trai bao",
      "description": "Dù đang dịp nghỉ hè, nhưng ba má tôi cũng gửi tôi vào Sài Gòn học. Ba má tôi nói Sài Gòn có nhiều thầy giỏi có thể luyện thi đại học cho tôi. Thật ra ba má tôi chỉ muốn tôi xa...",
      "image": null,
      "label": null,
      "display": "text-only",
      "type": "text",
      "enable_detail": true,
      "related": {
        "url": "https://truyenx.link/truyensextv/channels/related/122",
        "request_headers": []
      },
      "share": {
        "url": "https://truyenx.link/truyensextv/channels/share/trai-bao"
      },
      "remote_data": {
        "url": "https://truyenx.link/truyensextv/channels/trai-bao"
      }
    },
    {
      "id": "121-channel",
      "name": "Gái Les dậy thì",
      "description": "Năm Huyền lên mười, nàng thấy cơ thể có nhiều thay đổi kỳ lạ: ngực nhô lên, xung quanh núm vú xuất hiện một quầng nhạt, dần dần đậm thêm, biến thành mầu nâu non. Đầu vú...",
      "image": null,
      "label": null,
      "display": "text-only",
      "type": "text",
      "enable_detail": true,
      "related": {
        "url": "https://truyenx.link/truyensextv/channels/related/121",
        "request_headers": []
      },
      "share": {
        "url": "https://truyenx.link/truyensextv/channels/share/gai-les-day-thi"
      },
      "remote_data": {
        "url": "https://truyenx.link/truyensextv/channels/gai-les-day-thi"
      }
    },
    {
      "id": "120-channel",
      "name": "Vợ chồng son",
      "description": "Những tia nắng dịu nhẹ buổi sang chiếu rọi vào phòng ngủ làm Huyền tỉnh giấc. Nàng ngồi dậy vươn vai. Oáp! Ngủ đã quá. Nàng đưa đôi mắt còn đang lim dim nhìn cái đồng hồ...",
      "image": null,
      "label": null,
      "display": "text-only",
      "type": "text",
      "enable_detail": true,
      "related": {
        "url": "https://truyenx.link/truyensextv/channels/related/120",
        "request_headers": []
      },
      "share": {
        "url": "https://truyenx.link/truyensextv/channels/share/vo-chong-son"
      },
      "remote_data": {
        "url": "https://truyenx.link/truyensextv/channels/vo-chong-son"
      }
    },
    {
      "id": "119-channel",
      "name": "Người tình cũ",
      "description": "Thế là tôi và nàng lại gặp mặt nhau. Cái bữa tiệc Giáng Sinh được tổ chức ở một khách sạn “năm sao”, do một công ty kế toán lớn đảm trách làm chủ tiệc. Các nhân...",
      "image": null,
      "label": null,
      "display": "text-only",
      "type": "text",
      "enable_detail": true,
      "related": {
        "url": "https://truyenx.link/truyensextv/channels/related/119",
        "request_headers": []
      },
      "share": {
        "url": "https://truyenx.link/truyensextv/channels/share/nguoi-tinh-cu"
      },
      "remote_data": {
        "url": "https://truyenx.link/truyensextv/channels/nguoi-tinh-cu"
      }
    },
    {
      "id": "118-channel",
      "name": "Quyến rũ anh bác sĩ",
      "description": "Hôm nay tôi có hẹn đến khám tổng quát kiểm tra sức khỏe hằng năm vào lúc 9 giờ sáng. Thú thật tôi không thích đi đến bác sĩ cho lắm, nhưng mỗi năm một lần, để đảm bảo cơ...",
      "image": null,
      "label": null,
      "display": "text-only",
      "type": "text",
      "enable_detail": true,
      "related": {
        "url": "https://truyenx.link/truyensextv/channels/related/118",
        "request_headers": []
      },
      "share": {
        "url": "https://truyenx.link/truyensextv/channels/share/quyen-ru-anh-bac-si"
      },
      "remote_data": {
        "url": "https://truyenx.link/truyensextv/channels/quyen-ru-anh-bac-si"
      }
    },
    {
      "id": "117-channel",
      "name": "Vợ và thằng con rể",
      "description": "Từ lúc 15, 17, tôi sống trong thế giới toàn tội lỗi, tôi đụ má tôi và bạn má nhiều bận nên trời trả báo. Hơn hai mươi năm sau đến lượt con gái đầu lấy chồng thì tôi phải...",
      "image": null,
      "label": null,
      "display": "text-only",
      "type": "text",
      "enable_detail": true,
      "related": {
        "url": "https://truyenx.link/truyensextv/channels/related/117",
        "request_headers": []
      },
      "share": {
        "url": "https://truyenx.link/truyensextv/channels/share/vo-va-thang-con-re"
      },
      "remote_data": {
        "url": "https://truyenx.link/truyensextv/channels/vo-va-thang-con-re"
      }
    },
    {
      "id": "116-channel",
      "name": "Cho bạn đụ vợ",
      "description": "Tôi đang cầm tấm ảnh đám cưới trong tay, nàng mặc bộ đồ cô dâu trắng xoá, nụ cười duyên sáng rỡ trên khuôn mặt xinh xắn, đầu tóc phấn son được thợ nghề trang điểm kỹ...",
      "image": null,
      "label": null,
      "display": "text-only",
      "type": "text",
      "enable_detail": true,
      "related": {
        "url": "https://truyenx.link/truyensextv/channels/related/116",
        "request_headers": []
      },
      "share": {
        "url": "https://truyenx.link/truyensextv/channels/share/cho-ban-du-vo"
      },
      "remote_data": {
        "url": "https://truyenx.link/truyensextv/channels/cho-ban-du-vo"
      }
    },
    {
      "id": "115-channel",
      "name": "Thầy giáo và nữ sinh",
      "description": "Đây là chuyện có thật của tôi, tôi đã dấu thật kỹ trong lòng nhưng thật sự rất khó, rất khó để giữ mãi. Tôi là một người thầy gần 10 năm đứng trên bục giảng, tuổi...",
      "image": null,
      "label": null,
      "display": "text-only",
      "type": "text",
      "enable_detail": true,
      "related": {
        "url": "https://truyenx.link/truyensextv/channels/related/115",
        "request_headers": []
      },
      "share": {
        "url": "https://truyenx.link/truyensextv/channels/share/thay-giao-va-nu-sinh"
      },
      "remote_data": {
        "url": "https://truyenx.link/truyensextv/channels/thay-giao-va-nu-sinh"
      }
    },
    {
      "id": "114-channel",
      "name": "Mẹ kế tuổi Ất Mùi",
      "description": "Hôm qua tôi rảnh rỗi nên lang thang đi chơi, gặp một anh bạn thân, cùng ngồi uống cà phê vỉa hè, được anh bạn kể cho nghe một chuyện loạn luân có thực. Tao mà kể láo với mày...",
      "image": null,
      "label": null,
      "display": "text-only",
      "type": "text",
      "enable_detail": true,
      "related": {
        "url": "https://truyenx.link/truyensextv/channels/related/114",
        "request_headers": []
      },
      "share": {
        "url": "https://truyenx.link/truyensextv/channels/share/me-ke-tuoi-at-mui"
      },
      "remote_data": {
        "url": "https://truyenx.link/truyensextv/channels/me-ke-tuoi-at-mui"
      }
    },
    {
      "id": "113-channel",
      "name": "Kinh nghiệm chơi gái Ola",
      "description": "Xin thân ái chào các quý đồng dâm! Ngày bé tôi thích xem phim sex vì bị bọn hàng xóm dụ dỗ cho xem và chúng tôi gọi tiếng lóng về những thước phim khiếm nhã ấy là phim “heo”...",
      "image": null,
      "label": null,
      "display": "text-only",
      "type": "text",
      "enable_detail": true,
      "related": {
        "url": "https://truyenx.link/truyensextv/channels/related/113",
        "request_headers": []
      },
      "share": {
        "url": "https://truyenx.link/truyensextv/channels/share/kinh-nghiem-choi-gai-ola"
      },
      "remote_data": {
        "url": "https://truyenx.link/truyensextv/channels/kinh-nghiem-choi-gai-ola"
      }
    },
    {
      "id": "112-channel",
      "name": "Phá trinh hàng loạt",
      "description": "Chị Thảo nói với anh: – Tôi sắp xếp như thế này nhé: Tôi sẽ tăng phần ăn để bồi dưỡng cho anh hàng ngày, rồi cung ứng thêm cho anh một loại thức uống đặc biệt. Thứ này...",
      "image": null,
      "label": null,
      "display": "text-only",
      "type": "text",
      "enable_detail": true,
      "related": {
        "url": "https://truyenx.link/truyensextv/channels/related/112",
        "request_headers": []
      },
      "share": {
        "url": "https://truyenx.link/truyensextv/channels/share/pha-trinh-hang-loat"
      },
      "remote_data": {
        "url": "https://truyenx.link/truyensextv/channels/pha-trinh-hang-loat"
      }
    },
    {
      "id": "111-channel",
      "name": "Mẹ con thằng Cận",
      "description": "Bọn thằng gồm Cận ba đứa, mỗi đứa một cái xe gắn máy tháo bộ phận hãm thanh, đua nhau rú hết ga rần rần phóng về phía Xóm Mới. Thằng Cận nhỏ, nhát nhất trong bọn, nó mới...",
      "image": null,
      "label": null,
      "display": "text-only",
      "type": "text",
      "enable_detail": true,
      "related": {
        "url": "https://truyenx.link/truyensextv/channels/related/111",
        "request_headers": []
      },
      "share": {
        "url": "https://truyenx.link/truyensextv/channels/share/me-con-thang-can"
      },
      "remote_data": {
        "url": "https://truyenx.link/truyensextv/channels/me-con-thang-can"
      }
    },
    {
      "id": "110-channel",
      "name": "Vú em suốt đời",
      "description": "Lâm vọng vào phòng ngủ hỏi vợ: Mấy giờ đám cưới thằng cu Mạnh? Ngồi trên bàn trang điểm Hiền vọng ra: 2 giờ tại tư gia, 6 giờ nhà hàng. Độ tuổi 37-38, trong bộ đồ lót hiệu...",
      "image": null,
      "label": null,
      "display": "text-only",
      "type": "text",
      "enable_detail": true,
      "related": {
        "url": "https://truyenx.link/truyensextv/channels/related/110",
        "request_headers": []
      },
      "share": {
        "url": "https://truyenx.link/truyensextv/channels/share/vu-em-suot-doi"
      },
      "remote_data": {
        "url": "https://truyenx.link/truyensextv/channels/vu-em-suot-doi"
      }
    },
    {
      "id": "109-channel",
      "name": "Ca sĩ Kiều Linh",
      "description": "Tiếng hát Kiều Linh thanh cao cất vang trong làn âm nhạc quê hương đã làm bao thính khách trong rạp mê say. Giữa khung trời xa cách Việt Nam cả hơn mấy nghìn cây số, được nghe một...",
      "image": null,
      "label": null,
      "display": "text-only",
      "type": "text",
      "enable_detail": true,
      "related": {
        "url": "https://truyenx.link/truyensextv/channels/related/109",
        "request_headers": []
      },
      "share": {
        "url": "https://truyenx.link/truyensextv/channels/share/ca-si-kieu-linh"
      },
      "remote_data": {
        "url": "https://truyenx.link/truyensextv/channels/ca-si-kieu-linh"
      }
    }
  ],
  "load_more": {
    "pageInfo": {
      "current_page": 136,
      "last_page": 140,
      "per_page": 30,
      "total": 4188
    },
    "paging": {
      "page_key": "page",
      "size_key": "size"
    },
    "remote_data": {
      "url": "https://truyenx.link/truyensextv/channels"
    }
  }
}