{
  "grid_number": 1,
  "channels": [
    {
      "id": "3670-channel",
      "name": "Võ Tắc Thiên",
      "description": "Chuyện kể về hoàng hậu Võ Tắc Thiên của nhà Đường sau khi cướp ngôi của con ruột và phế nhà Đường để tự lập nhà “Đại Chu” và xưng vương “Tắc Thiên Hoàng...",
      "image": null,
      "label": null,
      "display": "text-only",
      "type": "text",
      "enable_detail": true,
      "related": {
        "url": "https://truyenx.link/truyensextv/channels/related/3670",
        "request_headers": []
      },
      "share": {
        "url": "https://truyenx.link/truyensextv/channels/share/vo-tac-thien"
      },
      "remote_data": {
        "url": "https://truyenx.link/truyensextv/channels/vo-tac-thien"
      }
    },
    {
      "id": "3669-channel",
      "name": "Tuần trăng mật",
      "description": "Ngày đám cưới, Thanh và Xuân tươi đẹp bên nhau, Ai cũng trầm trồ khen ngợi. Tất cả mọi người đến chúc mừng cho đôi tân lang và tân giai nhân trăm năm hạnh phúc. Quen nhau đã lâu...",
      "image": null,
      "label": null,
      "display": "text-only",
      "type": "text",
      "enable_detail": true,
      "related": {
        "url": "https://truyenx.link/truyensextv/channels/related/3669",
        "request_headers": []
      },
      "share": {
        "url": "https://truyenx.link/truyensextv/channels/share/tuan-trang-mat"
      },
      "remote_data": {
        "url": "https://truyenx.link/truyensextv/channels/tuan-trang-mat"
      }
    },
    {
      "id": "3668-channel",
      "name": "Trong trắng",
      "description": "Năm tôi 16 tuổi, tôi là Vy cùng chị tôi là Vân 18 tuổi và ba mẹ đến Mỹ theo diện bảo lãnh. Gia đình tôi được một người Chú ruột bảo lãnh đến thành phố San Jose. Gia đình tôi...",
      "image": null,
      "label": null,
      "display": "text-only",
      "type": "text",
      "enable_detail": true,
      "related": {
        "url": "https://truyenx.link/truyensextv/channels/related/3668",
        "request_headers": []
      },
      "share": {
        "url": "https://truyenx.link/truyensextv/channels/share/trong-trang"
      },
      "remote_data": {
        "url": "https://truyenx.link/truyensextv/channels/trong-trang"
      }
    },
    {
      "id": "3667-channel",
      "name": "Trên biển cả",
      "description": "Lần đầu tiên trong đời tôi biết đến chuyện tình dục xảy ra năm tôi lên 13 tuổi trong một hoàn cảnh oái oăm. Năm đó, mẹ tôi dẫn tôi xuống Rạch Giá để kiếm đường vượt...",
      "image": null,
      "label": null,
      "display": "text-only",
      "type": "text",
      "enable_detail": true,
      "related": {
        "url": "https://truyenx.link/truyensextv/channels/related/3667",
        "request_headers": []
      },
      "share": {
        "url": "https://truyenx.link/truyensextv/channels/share/tren-bien-ca"
      },
      "remote_data": {
        "url": "https://truyenx.link/truyensextv/channels/tren-bien-ca"
      }
    },
    {
      "id": "3665-channel",
      "name": "Trai chơi",
      "description": "Trọ Học Dù đang dịp nghỉ hè, nhưng ba má tôi cũng gửi tôi vào Sài Gòn học. Ba má tôi nói Sài Gòn có nhiều thầy giỏi có thể luyện thi đại học cho tôi. Thật ra ba má tôi chỉ...",
      "image": null,
      "label": null,
      "display": "text-only",
      "type": "text",
      "enable_detail": true,
      "related": {
        "url": "https://truyenx.link/truyensextv/channels/related/3665",
        "request_headers": []
      },
      "share": {
        "url": "https://truyenx.link/truyensextv/channels/share/trai-choi"
      },
      "remote_data": {
        "url": "https://truyenx.link/truyensextv/channels/trai-choi"
      }
    },
    {
      "id": "3666-channel",
      "name": "Trang nhật ký buồn",
      "description": "Ngày... Tháng... Năm... Em tưởng rằng mọi chuyện chỉ là một giấc mơ, nhưng những gì em viết vẫn còn đây, và em hiểu rằng, em cần phải đối diện với sự thật. Em mất anh rồi...",
      "image": null,
      "label": null,
      "display": "text-only",
      "type": "text",
      "enable_detail": true,
      "related": {
        "url": "https://truyenx.link/truyensextv/channels/related/3666",
        "request_headers": []
      },
      "share": {
        "url": "https://truyenx.link/truyensextv/channels/share/trang-nhat-ky-buon"
      },
      "remote_data": {
        "url": "https://truyenx.link/truyensextv/channels/trang-nhat-ky-buon"
      }
    },
    {
      "id": "3664-channel",
      "name": "Lén lút với chị gái",
      "description": "Tôi tên N, hiện tại 19t, đang học đại học tại tpHCM. Tôi thì ưa nhìn, 1m7, không 6 múi nhưng cũng không mập. Chim dài 14 cm. Tôi thì chia tay người yêu c3 và chưa có người yêu mới nên...",
      "image": null,
      "label": null,
      "display": "text-only",
      "type": "text",
      "enable_detail": true,
      "related": {
        "url": "https://truyenx.link/truyensextv/channels/related/3664",
        "request_headers": []
      },
      "share": {
        "url": "https://truyenx.link/truyensextv/channels/share/len-lut-voi-chi-gai"
      },
      "remote_data": {
        "url": "https://truyenx.link/truyensextv/channels/len-lut-voi-chi-gai"
      }
    },
    {
      "id": "3663-channel",
      "name": "Ngoại tình và lừa dối",
      "description": "Ngoại tình Xin chào các bạn tôi xin tự giới thiệu tôi tên Huy, tôi là con cả, sao tôi con một người em gái nửa, gia đình tôi cũng thì không giàu gì, nên sau khi học lớp 9 thì tôi đã...",
      "image": null,
      "label": null,
      "display": "text-only",
      "type": "text",
      "enable_detail": true,
      "related": {
        "url": "https://truyenx.link/truyensextv/channels/related/3663",
        "request_headers": []
      },
      "share": {
        "url": "https://truyenx.link/truyensextv/channels/share/ngoai-tinh-va-lua-doi"
      },
      "remote_data": {
        "url": "https://truyenx.link/truyensextv/channels/ngoai-tinh-va-lua-doi"
      }
    },
    {
      "id": "3661-channel",
      "name": "Cô giáo đáng yêu của tôi",
      "description": "Tôi tên là D, năm nay 18 tuổi. Cái độ tuổi mà những nhu cầu về bản thân và tình dục luôn cuộn trào trong cơ thể và tâm trí tôi. Con chim của tôi, thứ mà trước đây tôi chỉ dùng...",
      "image": null,
      "label": null,
      "display": "text-only",
      "type": "text",
      "enable_detail": true,
      "related": {
        "url": "https://truyenx.link/truyensextv/channels/related/3661",
        "request_headers": []
      },
      "share": {
        "url": "https://truyenx.link/truyensextv/channels/share/co-giao-dang-yeu-cua-toi"
      },
      "remote_data": {
        "url": "https://truyenx.link/truyensextv/channels/co-giao-dang-yeu-cua-toi"
      }
    },
    {
      "id": "3662-channel",
      "name": "Trái cấm",
      "description": "Liễu là một thiếu nữ 22 tuổi. Nàng có được một làn da trắng hồng và khuôn mặt tuyệt đẹp, với cặp mắt bồ câu đen láy, sóng mũi cao thanh tú, đôi má lúm đồng tiền, và cặp...",
      "image": null,
      "label": null,
      "display": "text-only",
      "type": "text",
      "enable_detail": true,
      "related": {
        "url": "https://truyenx.link/truyensextv/channels/related/3662",
        "request_headers": []
      },
      "share": {
        "url": "https://truyenx.link/truyensextv/channels/share/trai-cam"
      },
      "remote_data": {
        "url": "https://truyenx.link/truyensextv/channels/trai-cam"
      }
    },
    {
      "id": "3660-channel",
      "name": "Tom and Jerry",
      "description": "Câu chuyện xảy ra tại khách sạn EVEREST, một nơi nghỉ mát và nằm gần 1 khu du lịch nổi tiếng ở cảng Amsterdam của Hà Lan. Everest là 1 khách sạn nổi tiếng với lịch sử hơn 30 năm...",
      "image": null,
      "label": null,
      "display": "text-only",
      "type": "text",
      "enable_detail": true,
      "related": {
        "url": "https://truyenx.link/truyensextv/channels/related/3660",
        "request_headers": []
      },
      "share": {
        "url": "https://truyenx.link/truyensextv/channels/share/tom-and-jerry"
      },
      "remote_data": {
        "url": "https://truyenx.link/truyensextv/channels/tom-and-jerry"
      }
    },
    {
      "id": "3659-channel",
      "name": "Bị anh rể hiếp dâm",
      "description": "Tôi lập gia đình đã được sáu năm, nhưng từ đó đến nay tôi chưa bao giờ cảm thấy hạnh phúc. Khác hẳn lúc còn yêu nhau, anh ấy luôn yêu thương và chăm sóc tôi. Nhưng ngay sau ngày...",
      "image": null,
      "label": null,
      "display": "text-only",
      "type": "text",
      "enable_detail": true,
      "related": {
        "url": "https://truyenx.link/truyensextv/channels/related/3659",
        "request_headers": []
      },
      "share": {
        "url": "https://truyenx.link/truyensextv/channels/share/bi-anh-re-hiep-dam"
      },
      "remote_data": {
        "url": "https://truyenx.link/truyensextv/channels/bi-anh-re-hiep-dam"
      }
    },
    {
      "id": "3658-channel",
      "name": "Tôi và An",
      "description": "Dân thôn quê chúng tôi vốn nghèo, nhà tôi nói ra còn đỡ hơn mấy nhà hàng xóm, nhà tụi nó nghèo còn hơn nhà tôi nữa. Nhà tụi nó lớp thì mái tranh lủn, vách xiêu, cột bị mọt ăn...",
      "image": null,
      "label": null,
      "display": "text-only",
      "type": "text",
      "enable_detail": true,
      "related": {
        "url": "https://truyenx.link/truyensextv/channels/related/3658",
        "request_headers": []
      },
      "share": {
        "url": "https://truyenx.link/truyensextv/channels/share/toi-va-an"
      },
      "remote_data": {
        "url": "https://truyenx.link/truyensextv/channels/toi-va-an"
      }
    },
    {
      "id": "3657-channel",
      "name": "Con cưng thời hiện đại",
      "description": "Hiện nay Việt Nam là một nước có tốc độ tăng trưởng vào thuộc những nước cao nhất thế giới. Dân số Việt Nam khá là trẻ, tôi cũng là một trong những thế hệ trẻ của Việt...",
      "image": null,
      "label": null,
      "display": "text-only",
      "type": "text",
      "enable_detail": true,
      "related": {
        "url": "https://truyenx.link/truyensextv/channels/related/3657",
        "request_headers": []
      },
      "share": {
        "url": "https://truyenx.link/truyensextv/channels/share/con-cung-thoi-hien-dai"
      },
      "remote_data": {
        "url": "https://truyenx.link/truyensextv/channels/con-cung-thoi-hien-dai"
      }
    },
    {
      "id": "3656-channel",
      "name": "Ám ảnh tình dục",
      "description": "Giờ đây mỗi khi vợ chồng tôi làm tình tôi đều ám ảnh chuyện ngày xưa, và có cảm giác như đang bị nhìn trộm. Ba tôi mất năm tôi 13 tuổi, để lại cho hai mẹ con tôi một ngôi...",
      "image": null,
      "label": null,
      "display": "text-only",
      "type": "text",
      "enable_detail": true,
      "related": {
        "url": "https://truyenx.link/truyensextv/channels/related/3656",
        "request_headers": []
      },
      "share": {
        "url": "https://truyenx.link/truyensextv/channels/share/am-anh-tinh-duc"
      },
      "remote_data": {
        "url": "https://truyenx.link/truyensextv/channels/am-anh-tinh-duc"
      }
    },
    {
      "id": "3655-channel",
      "name": "Một số bạn tình đáng nhớ",
      "description": "Phi công tình cảm Đó là những ngày đầu mình làm quen với cụm từ “bạn tình” và cũng là lần đầu đăng bài tìm bạn trên một dđ. Một buổi tối cỡ 2 ngày sau khi post...",
      "image": null,
      "label": null,
      "display": "text-only",
      "type": "text",
      "enable_detail": true,
      "related": {
        "url": "https://truyenx.link/truyensextv/channels/related/3655",
        "request_headers": []
      },
      "share": {
        "url": "https://truyenx.link/truyensextv/channels/share/mot-so-ban-tinh-dang-nho"
      },
      "remote_data": {
        "url": "https://truyenx.link/truyensextv/channels/mot-so-ban-tinh-dang-nho"
      }
    },
    {
      "id": "3654-channel",
      "name": "Trường học dâm loạn",
      "description": "Hoa thức dậy. Cô ngạc nhiên phát hiện bên dưới gối mình có một lá thư kỳ lạ. Cô mở ra xem thì thấy đó là một lá thư với dòng chữ vô cùng nắn nót: Gửi bạn Hoa! Chúng tôi là...",
      "image": null,
      "label": null,
      "display": "text-only",
      "type": "text",
      "enable_detail": true,
      "related": {
        "url": "https://truyenx.link/truyensextv/channels/related/3654",
        "request_headers": []
      },
      "share": {
        "url": "https://truyenx.link/truyensextv/channels/share/truong-hoc-dam-loan"
      },
      "remote_data": {
        "url": "https://truyenx.link/truyensextv/channels/truong-hoc-dam-loan"
      }
    },
    {
      "id": "3653-channel",
      "name": "Thiên nhiên ưu đãi",
      "description": "Từ nhỏ, Tùng đã hay chú ý những chuyện liên quan đến thân thể đàn bà. Lớn một chút nữa, nó rất thích tìm hiểu vấn đề này, cũng như về tình dục. Mười ba tuổi, chim nó đã...",
      "image": null,
      "label": null,
      "display": "text-only",
      "type": "text",
      "enable_detail": true,
      "related": {
        "url": "https://truyenx.link/truyensextv/channels/related/3653",
        "request_headers": []
      },
      "share": {
        "url": "https://truyenx.link/truyensextv/channels/share/thien-nhien-uu-dai"
      },
      "remote_data": {
        "url": "https://truyenx.link/truyensextv/channels/thien-nhien-uu-dai"
      }
    },
    {
      "id": "3652-channel",
      "name": "Tình chim nghĩa đít",
      "description": "Cũng như bao người con gái khác, sinh ra, đi học, đi làm và lấy chồng. Một định luật mà hầu như ai cũng đi theo. Trước khi đi Mỹ, tôi nghe người ta nói: “Bên Mỹ. Gái còn trinh...",
      "image": null,
      "label": null,
      "display": "text-only",
      "type": "text",
      "enable_detail": true,
      "related": {
        "url": "https://truyenx.link/truyensextv/channels/related/3652",
        "request_headers": []
      },
      "share": {
        "url": "https://truyenx.link/truyensextv/channels/share/tinh-chim-nghia-dit"
      },
      "remote_data": {
        "url": "https://truyenx.link/truyensextv/channels/tinh-chim-nghia-dit"
      }
    },
    {
      "id": "3651-channel",
      "name": "Thư gửi má",
      "description": "Hôm sinh nhật con 15 tuổi, con mặc một chiếc váy có hình những trái tim, ba đã ôm con trong lòng. Má ngồi bên nói chuyện với hai ba con. Hai tay ba xoa xoa đôi vú mới nhú của con qua lớp...",
      "image": null,
      "label": null,
      "display": "text-only",
      "type": "text",
      "enable_detail": true,
      "related": {
        "url": "https://truyenx.link/truyensextv/channels/related/3651",
        "request_headers": []
      },
      "share": {
        "url": "https://truyenx.link/truyensextv/channels/share/thu-gui-ma"
      },
      "remote_data": {
        "url": "https://truyenx.link/truyensextv/channels/thu-gui-ma"
      }
    },
    {
      "id": "3650-channel",
      "name": "Thầy Bảy",
      "description": "Thầy Bảy không biết đã học lỏm đâu nghề bốc thuốc và lại kiêm luôn thầy pháp trừ yêu diệt tà. Bà con ở xã Hưng Bình này ai nấy cũng nể thầy vài phần. Không biết thầy có...",
      "image": null,
      "label": null,
      "display": "text-only",
      "type": "text",
      "enable_detail": true,
      "related": {
        "url": "https://truyenx.link/truyensextv/channels/related/3650",
        "request_headers": []
      },
      "share": {
        "url": "https://truyenx.link/truyensextv/channels/share/thay-bay"
      },
      "remote_data": {
        "url": "https://truyenx.link/truyensextv/channels/thay-bay"
      }
    },
    {
      "id": "3649-channel",
      "name": "Thằng em quý hóa",
      "description": "Bốn tháng trôi qua... Đã bốn tháng rồi tôi mới có cơ hội về thăm gia đình, sau một mùa học dài đăng đẳng. Tôi học tại trường University of California, Riverside, vùng Tây của nước...",
      "image": null,
      "label": null,
      "display": "text-only",
      "type": "text",
      "enable_detail": true,
      "related": {
        "url": "https://truyenx.link/truyensextv/channels/related/3649",
        "request_headers": []
      },
      "share": {
        "url": "https://truyenx.link/truyensextv/channels/share/thang-em-quy-hoa"
      },
      "remote_data": {
        "url": "https://truyenx.link/truyensextv/channels/thang-em-quy-hoa"
      }
    },
    {
      "id": "3648-channel",
      "name": "Số phận",
      "description": "Trần đang học Đại học Xây dựng Hà nội năm cuối thì anh nhận được điện gửi từ quê ra. Bức điện khẩn chỉ có vẻn vẹn mấy chữ: “Bố ốm nặng, con về gấp”. Thế...",
      "image": null,
      "label": null,
      "display": "text-only",
      "type": "text",
      "enable_detail": true,
      "related": {
        "url": "https://truyenx.link/truyensextv/channels/related/3648",
        "request_headers": []
      },
      "share": {
        "url": "https://truyenx.link/truyensextv/channels/share/so-phan"
      },
      "remote_data": {
        "url": "https://truyenx.link/truyensextv/channels/so-phan"
      }
    },
    {
      "id": "3647-channel",
      "name": "Sao băng",
      "description": "Phi cơ đáp xuống phi trường Tân Sơn Nhất khoảng 4 giờ chiều, cái hơi nóng hắt vào mặt làm chàng hơi khó chịu tuy nhiên trong lòng cảm thấy háo hức vì đã xa Sài Gòn hơn mười năm...",
      "image": null,
      "label": null,
      "display": "text-only",
      "type": "text",
      "enable_detail": true,
      "related": {
        "url": "https://truyenx.link/truyensextv/channels/related/3647",
        "request_headers": []
      },
      "share": {
        "url": "https://truyenx.link/truyensextv/channels/share/sao-bang"
      },
      "remote_data": {
        "url": "https://truyenx.link/truyensextv/channels/sao-bang"
      }
    },
    {
      "id": "3646-channel",
      "name": "Nữ y tá",
      "description": "Yến Như sốc lại cặp vú quá cỡ thợ mộc nằm trong bộ đồ y tá trắng toát. Phải nói là Yến Như đẹp thật nhưng có cái tội hơi dâm đãng, chỉ cần nhìn vào cái cặp mắt long...",
      "image": null,
      "label": null,
      "display": "text-only",
      "type": "text",
      "enable_detail": true,
      "related": {
        "url": "https://truyenx.link/truyensextv/channels/related/3646",
        "request_headers": []
      },
      "share": {
        "url": "https://truyenx.link/truyensextv/channels/share/nu-y-ta"
      },
      "remote_data": {
        "url": "https://truyenx.link/truyensextv/channels/nu-y-ta"
      }
    },
    {
      "id": "3645-channel",
      "name": "Nhớ bác sĩ Tự",
      "description": "Cuộc đời tôi tiếp tục trôi một cách buồn nản, Kiêm vẫn bị “yếu sinh lý” nên hai vợ chồng đi làm về ai lo phận nấy ăn ngủ rồi lo đi làm tiếp. Hồi này tôi hay bị...",
      "image": null,
      "label": null,
      "display": "text-only",
      "type": "text",
      "enable_detail": true,
      "related": {
        "url": "https://truyenx.link/truyensextv/channels/related/3645",
        "request_headers": []
      },
      "share": {
        "url": "https://truyenx.link/truyensextv/channels/share/nho-bac-si-tu"
      },
      "remote_data": {
        "url": "https://truyenx.link/truyensextv/channels/nho-bac-si-tu"
      }
    },
    {
      "id": "3644-channel",
      "name": "Cô bạn thân hứng tình",
      "description": "Lên Hà Nội bao nhiêu làm việc mấy năm, thỉnh thoảng vào facebook nhớ về những thời xưa cũ. Thời cấp ba sôi nổi và đầy thân thương. Thấm thoát đã năm năm trên cái đất thủ đô...",
      "image": null,
      "label": null,
      "display": "text-only",
      "type": "text",
      "enable_detail": true,
      "related": {
        "url": "https://truyenx.link/truyensextv/channels/related/3644",
        "request_headers": []
      },
      "share": {
        "url": "https://truyenx.link/truyensextv/channels/share/co-ban-than-hung-tinh"
      },
      "remote_data": {
        "url": "https://truyenx.link/truyensextv/channels/co-ban-than-hung-tinh"
      }
    },
    {
      "id": "3643-channel",
      "name": "Con dâu, con gái",
      "description": "Cả một đời nuôi con khôn lớn. Lo dựng cho con đầy đủ gia đình nghề nghiệp tương lai thì coi như mọi việc ổn thỏa. Tôi là một ông bố như vậy. Sinh ra trong một gia đình thuần...",
      "image": null,
      "label": null,
      "display": "text-only",
      "type": "text",
      "enable_detail": true,
      "related": {
        "url": "https://truyenx.link/truyensextv/channels/related/3643",
        "request_headers": []
      },
      "share": {
        "url": "https://truyenx.link/truyensextv/channels/share/con-dau-con-gai"
      },
      "remote_data": {
        "url": "https://truyenx.link/truyensextv/channels/con-dau-con-gai"
      }
    },
    {
      "id": "3642-channel",
      "name": "Người sơn nữ",
      "description": "Ở cái lứa tuổi mười bốn, A Mường bị thất lạc trong một lần đi săn bắn. Trong lúc đang tìm lối ra, sơ ý A Mường vấp té xuống vách đá của núi Klon bên dòng suối M’Cor và...",
      "image": null,
      "label": null,
      "display": "text-only",
      "type": "text",
      "enable_detail": true,
      "related": {
        "url": "https://truyenx.link/truyensextv/channels/related/3642",
        "request_headers": []
      },
      "share": {
        "url": "https://truyenx.link/truyensextv/channels/share/nguoi-son-nu"
      },
      "remote_data": {
        "url": "https://truyenx.link/truyensextv/channels/nguoi-son-nu"
      }
    },
    {
      "id": "3641-channel",
      "name": "Nhật Ký Chơi Gái",
      "description": "Tôi là Ponlok Sun, một thanh niên hơn 28 tuổi với ngoại hình tương đối. Tuy không quá điển trai nhưng với chiều cao 1m68 và body săn chắc tỷ lệ với cơ thể vì thường xuyên chơi thể...",
      "image": null,
      "label": null,
      "display": "text-only",
      "type": "text",
      "enable_detail": true,
      "related": {
        "url": "https://truyenx.link/truyensextv/channels/related/3641",
        "request_headers": []
      },
      "share": {
        "url": "https://truyenx.link/truyensextv/channels/share/nhat-ky-choi-gai"
      },
      "remote_data": {
        "url": "https://truyenx.link/truyensextv/channels/nhat-ky-choi-gai"
      }
    }
  ],
  "load_more": {
    "pageInfo": {
      "current_page": 38,
      "last_page": 140,
      "per_page": 30,
      "total": 4188
    },
    "paging": {
      "page_key": "page",
      "size_key": "size"
    },
    "remote_data": {
      "url": "https://truyenx.link/truyensextv/channels"
    }
  }
}