{
  "grid_number": 1,
  "channels": [
    {
      "id": "1158-channel",
      "name": "Chuyện đời tự kể",
      "description": "Em là 1 đứa con trai sinh ra là lớn lên ở 1 huyện nghèo. Gia đình cũng chỉ đủ nuôi 2 anh em đi học tử tế. Em tên Vương. Gia đình không khá giả. Học hành cũng chỉ tạm ổn. Thân...",
      "image": null,
      "label": null,
      "display": "text-only",
      "type": "text",
      "enable_detail": true,
      "related": {
        "url": "https://truyenx.link/truyensextv/channels/related/1158",
        "request_headers": []
      },
      "share": {
        "url": "https://truyenx.link/truyensextv/channels/share/chuyen-doi-tu-ke"
      },
      "remote_data": {
        "url": "https://truyenx.link/truyensextv/channels/chuyen-doi-tu-ke"
      }
    },
    {
      "id": "1157-channel",
      "name": "Hàng xóm",
      "description": "Gia đình nhà Linh vừa mới chuyển đến thành phố B ở để thuận tiện cho việc đi học của Linh. Năm nay, nàng cũng đã là cô nữ sinh lớp 11 và cũng chỉ còn 1 năm nữa là nàng tốt...",
      "image": null,
      "label": null,
      "display": "text-only",
      "type": "text",
      "enable_detail": true,
      "related": {
        "url": "https://truyenx.link/truyensextv/channels/related/1157",
        "request_headers": []
      },
      "share": {
        "url": "https://truyenx.link/truyensextv/channels/share/hang-xom"
      },
      "remote_data": {
        "url": "https://truyenx.link/truyensextv/channels/hang-xom"
      }
    },
    {
      "id": "1156-channel",
      "name": "Cuộc đời lớn",
      "description": "Bầu trời mùa thu trong veo mang theo những cơn gió nhẹ, làm cho tâm hồn con người ta cảm thấy thật thoải mái dễ chịu. Nhưng đâu đó có một người không hề cảm thấy như vậy...",
      "image": null,
      "label": null,
      "display": "text-only",
      "type": "text",
      "enable_detail": true,
      "related": {
        "url": "https://truyenx.link/truyensextv/channels/related/1156",
        "request_headers": []
      },
      "share": {
        "url": "https://truyenx.link/truyensextv/channels/share/cuoc-doi-lon"
      },
      "remote_data": {
        "url": "https://truyenx.link/truyensextv/channels/cuoc-doi-lon"
      }
    },
    {
      "id": "1155-channel",
      "name": "Câu chuyện tôi tự kể",
      "description": "ĐÊM ĐẦU TIÊN Đây là câu chuyện của chính bản thân tôi, tôi xin phép thêm bớt 1 phần nhỏ để câu chuyện phù hợp với bạn đọc trên truyensextv2.cc, vì tôi không nhớ chính xác...",
      "image": null,
      "label": null,
      "display": "text-only",
      "type": "text",
      "enable_detail": true,
      "related": {
        "url": "https://truyenx.link/truyensextv/channels/related/1155",
        "request_headers": []
      },
      "share": {
        "url": "https://truyenx.link/truyensextv/channels/share/cau-chuyen-toi-tu-ke"
      },
      "remote_data": {
        "url": "https://truyenx.link/truyensextv/channels/cau-chuyen-toi-tu-ke"
      }
    },
    {
      "id": "1154-channel",
      "name": "Tình một đêm với em sinh viên",
      "description": "Bản thân là một đứa tự nhận là nghiện sex, kỹ năng cũng không đến lúc nào, cũng thử Zalo, Tinder và một vài ứng dụng hẹn hò khác. Cũng may mắn gặp gỡ được một vài cô gái...",
      "image": null,
      "label": null,
      "display": "text-only",
      "type": "text",
      "enable_detail": true,
      "related": {
        "url": "https://truyenx.link/truyensextv/channels/related/1154",
        "request_headers": []
      },
      "share": {
        "url": "https://truyenx.link/truyensextv/channels/share/tinh-mot-dem-voi-em-sinh-vien"
      },
      "remote_data": {
        "url": "https://truyenx.link/truyensextv/channels/tinh-mot-dem-voi-em-sinh-vien"
      }
    },
    {
      "id": "1153-channel",
      "name": "Cuồng dâm thành Thần",
      "description": "EEE Ò... EEE Ò... EEE. Tiếng còi xe cấp cứu vang vọng trước cửa bệnh viện. Tránh ra... nhường đường đi... Đẩy nhanh vào phòng cấp cứu. Y tá Mai gọi nhanh cho bác sĩ Vệ Minh chuẩn...",
      "image": null,
      "label": null,
      "display": "text-only",
      "type": "text",
      "enable_detail": true,
      "related": {
        "url": "https://truyenx.link/truyensextv/channels/related/1153",
        "request_headers": []
      },
      "share": {
        "url": "https://truyenx.link/truyensextv/channels/share/cuong-dam-thanh-than"
      },
      "remote_data": {
        "url": "https://truyenx.link/truyensextv/channels/cuong-dam-thanh-than"
      }
    },
    {
      "id": "1152-channel",
      "name": "Vợ yêu",
      "description": "Buổi sáng Lâm Đồng trên đất Tây nguyên nắng và gió. Thời tiết của những ngày Noel và gần tết dương lịch năm nào cũng lạnh và âm u. Nó giống trời ngoài Bắc khi vào mùa đông...",
      "image": null,
      "label": null,
      "display": "text-only",
      "type": "text",
      "enable_detail": true,
      "related": {
        "url": "https://truyenx.link/truyensextv/channels/related/1152",
        "request_headers": []
      },
      "share": {
        "url": "https://truyenx.link/truyensextv/channels/share/vo-yeu"
      },
      "remote_data": {
        "url": "https://truyenx.link/truyensextv/channels/vo-yeu"
      }
    },
    {
      "id": "1151-channel",
      "name": "Tâm sự của Dung",
      "description": "Gần Tết công việc thật nhiều, sáng nay ông xã Dung lại bay ra Đà Nẵng công tác vài hôm nên tối hôm qua cho anh ấy xõa để bù cho vài ngày xa nhau tới đây. Nghĩ thấy cuộc sống thật...",
      "image": null,
      "label": null,
      "display": "text-only",
      "type": "text",
      "enable_detail": true,
      "related": {
        "url": "https://truyenx.link/truyensextv/channels/related/1151",
        "request_headers": []
      },
      "share": {
        "url": "https://truyenx.link/truyensextv/channels/share/tam-su-cua-dung"
      },
      "remote_data": {
        "url": "https://truyenx.link/truyensextv/channels/tam-su-cua-dung"
      }
    },
    {
      "id": "1150-channel",
      "name": "Phá trinh đêm NOEL",
      "description": "Với một thằng đàn ông. Lên giường với phụ nữ còn nhiều hơn số đốt ngón tay, ngón chân cộng lại như tôi Thì chữ Trinh không có trong từ điển sống của tôi nữa rồi. Nhớ...",
      "image": null,
      "label": null,
      "display": "text-only",
      "type": "text",
      "enable_detail": true,
      "related": {
        "url": "https://truyenx.link/truyensextv/channels/related/1150",
        "request_headers": []
      },
      "share": {
        "url": "https://truyenx.link/truyensextv/channels/share/pha-trinh-dem-noel"
      },
      "remote_data": {
        "url": "https://truyenx.link/truyensextv/channels/pha-trinh-dem-noel"
      }
    },
    {
      "id": "1149-channel",
      "name": "Vào nhầm xóm trọ",
      "description": "Một ngày mùa thu đẹp trời sáng sớm nó bắt xe khách từ quê ra Hà Nội với bộ hồ sơ trên tay. Ở cái tuổi 19 nó chưa một lần ra Hà Nội, học hết cấp ba lông bông ở nhà một...",
      "image": null,
      "label": null,
      "display": "text-only",
      "type": "text",
      "enable_detail": true,
      "related": {
        "url": "https://truyenx.link/truyensextv/channels/related/1149",
        "request_headers": []
      },
      "share": {
        "url": "https://truyenx.link/truyensextv/channels/share/vao-nham-xom-tro"
      },
      "remote_data": {
        "url": "https://truyenx.link/truyensextv/channels/vao-nham-xom-tro"
      }
    },
    {
      "id": "1148-channel",
      "name": "Vừa đụ vừa khẩu dâm",
      "description": "Mình với vợ mình kết hôn cũng được 8 năm rồi và tụi mình cũng có đứa con trai được 4 tuổi rồi! Tình dục thì vợ chồng mình cũng điều dâm như nhau! Ban đầu cưới nhau thì vợ...",
      "image": null,
      "label": null,
      "display": "text-only",
      "type": "text",
      "enable_detail": true,
      "related": {
        "url": "https://truyenx.link/truyensextv/channels/related/1148",
        "request_headers": []
      },
      "share": {
        "url": "https://truyenx.link/truyensextv/channels/share/vua-du-vua-khau-dam"
      },
      "remote_data": {
        "url": "https://truyenx.link/truyensextv/channels/vua-du-vua-khau-dam"
      }
    },
    {
      "id": "1147-channel",
      "name": "Cô vợ dâm đãng thèm được đụ",
      "description": "5 năm, đã 5 năm rồi kể từ cái ngày Việt bắt gặp vợ ngoại tình tại trận trong khách sạn, mỗi khi nhớ lại vẫn còn thấy ghen ghen trong lòng. Yến vợ Việt là một người phụ...",
      "image": null,
      "label": null,
      "display": "text-only",
      "type": "text",
      "enable_detail": true,
      "related": {
        "url": "https://truyenx.link/truyensextv/channels/related/1147",
        "request_headers": []
      },
      "share": {
        "url": "https://truyenx.link/truyensextv/channels/share/co-vo-dam-dang-them-duoc-du"
      },
      "remote_data": {
        "url": "https://truyenx.link/truyensextv/channels/co-vo-dam-dang-them-duoc-du"
      }
    },
    {
      "id": "1146-channel",
      "name": "Tám năm",
      "description": "Bước chân ra cổng trường, vẫn những âm thanh ầm ỹ lộn xộn, mùi thức ăn, mùi mì tôm cân úp, mùi gây gây của mâm bánh chưng rán, mùi khai khai bên bờ tường... Những bước chân...",
      "image": null,
      "label": null,
      "display": "text-only",
      "type": "text",
      "enable_detail": true,
      "related": {
        "url": "https://truyenx.link/truyensextv/channels/related/1146",
        "request_headers": []
      },
      "share": {
        "url": "https://truyenx.link/truyensextv/channels/share/tam-nam"
      },
      "remote_data": {
        "url": "https://truyenx.link/truyensextv/channels/tam-nam"
      }
    },
    {
      "id": "1145-channel",
      "name": "Em L dâm đãng",
      "description": "Đây là câu chuyện có thật và tôi xin giấu tên tôi và bạn gái cũ tôi nhé. Hồi đấy là lúc tôi mới lớp 10, một thằng con trai chả có gì nổi bật cả, được cái học cũng khá...",
      "image": null,
      "label": null,
      "display": "text-only",
      "type": "text",
      "enable_detail": true,
      "related": {
        "url": "https://truyenx.link/truyensextv/channels/related/1145",
        "request_headers": []
      },
      "share": {
        "url": "https://truyenx.link/truyensextv/channels/share/em-l-dam-dang"
      },
      "remote_data": {
        "url": "https://truyenx.link/truyensextv/channels/em-l-dam-dang"
      }
    },
    {
      "id": "1144-channel",
      "name": "Địt cô em sinh viên",
      "description": "Vợ về quê mấy hôm cái là làm thằng cu trong em cứ dấm dứt muốn chui ra, nhà còn mỗi mình và đứa em chả biết làm gì cho hết ngày thế là chiều thứ 7 em rủ nó đi chơi, em nó cũng...",
      "image": null,
      "label": null,
      "display": "text-only",
      "type": "text",
      "enable_detail": true,
      "related": {
        "url": "https://truyenx.link/truyensextv/channels/related/1144",
        "request_headers": []
      },
      "share": {
        "url": "https://truyenx.link/truyensextv/channels/share/dit-co-em-sinh-vien"
      },
      "remote_data": {
        "url": "https://truyenx.link/truyensextv/channels/dit-co-em-sinh-vien"
      }
    },
    {
      "id": "1143-channel",
      "name": "Đời học sinh - Quyển 5",
      "description": "Noel năm nay em có dự định bán socola cầu phúc như lúc trước nữa không? Tôi trao lại chú chó con cho Ngọc Lan vì nhận thấy mình không phù hợp để ôm ấp chúng cho lắm. Nàng nhận...",
      "image": null,
      "label": null,
      "display": "text-only",
      "type": "text",
      "enable_detail": true,
      "related": {
        "url": "https://truyenx.link/truyensextv/channels/related/1143",
        "request_headers": []
      },
      "share": {
        "url": "https://truyenx.link/truyensextv/channels/share/doi-hoc-sinh-quyen-5"
      },
      "remote_data": {
        "url": "https://truyenx.link/truyensextv/channels/doi-hoc-sinh-quyen-5"
      }
    },
    {
      "id": "1142-channel",
      "name": "Dục Uyển",
      "description": "Trong tất cả các loài yêu quái thì có một loại mà ai nghe tên cũng chán ghét miệt thị, đặc biệt là nữ nhân. Đó chính là hồ ly tinh... Trong giới Hồ yêu thì cũng phân làm nhiều...",
      "image": null,
      "label": null,
      "display": "text-only",
      "type": "text",
      "enable_detail": true,
      "related": {
        "url": "https://truyenx.link/truyensextv/channels/related/1142",
        "request_headers": []
      },
      "share": {
        "url": "https://truyenx.link/truyensextv/channels/share/duc-uyen"
      },
      "remote_data": {
        "url": "https://truyenx.link/truyensextv/channels/duc-uyen"
      }
    },
    {
      "id": "1141-channel",
      "name": "Ngang trái",
      "description": "Từ sau khi được tuyển vào công ty bao bì Thanh Phong, cuộc sống của vợ chồng Oanh dễ thở hơn hẳn. Nếu trước kia chỉ dựa dẫm vào những đồng tiền bán tranh ít ỏi không ổn...",
      "image": null,
      "label": null,
      "display": "text-only",
      "type": "text",
      "enable_detail": true,
      "related": {
        "url": "https://truyenx.link/truyensextv/channels/related/1141",
        "request_headers": []
      },
      "share": {
        "url": "https://truyenx.link/truyensextv/channels/share/ngang-trai"
      },
      "remote_data": {
        "url": "https://truyenx.link/truyensextv/channels/ngang-trai"
      }
    },
    {
      "id": "1140-channel",
      "name": "Câu chuyện của Thu",
      "description": "Đêm. Trong một căn hộ giữa Sài Thành. Căn hộ đó Thu thuê đã ba năm nay. Cô ở một mình. Nói một mình cũng không hẳn. Người yêu của cô, Minh, thường xuyên ghé thăm. Họ ăn uống...",
      "image": null,
      "label": null,
      "display": "text-only",
      "type": "text",
      "enable_detail": true,
      "related": {
        "url": "https://truyenx.link/truyensextv/channels/related/1140",
        "request_headers": []
      },
      "share": {
        "url": "https://truyenx.link/truyensextv/channels/share/cau-chuyen-cua-thu"
      },
      "remote_data": {
        "url": "https://truyenx.link/truyensextv/channels/cau-chuyen-cua-thu"
      }
    },
    {
      "id": "1139-channel",
      "name": "Cho thầy cưỡng dâm",
      "description": "King cong... Chắc là giáo viên đến rồi. Cô đứng dậy đi về phía cánh cửa, lòng thầm nghĩ là giáo viên do trung tâm gửi đến dạy kèm cho mình. Cô năm nay cũng 26 rồi, cô hiện đang...",
      "image": null,
      "label": null,
      "display": "text-only",
      "type": "text",
      "enable_detail": true,
      "related": {
        "url": "https://truyenx.link/truyensextv/channels/related/1139",
        "request_headers": []
      },
      "share": {
        "url": "https://truyenx.link/truyensextv/channels/share/cho-thay-cuong-dam"
      },
      "remote_data": {
        "url": "https://truyenx.link/truyensextv/channels/cho-thay-cuong-dam"
      }
    },
    {
      "id": "1138-channel",
      "name": "Những cô nàng dâm đãng",
      "description": "Hắn đã rình rập ngôi biệt thự này mấy tuần rồi và biết chắc chủ nhân là một cô gái trẻ chỉ sống ở đây có một mình. Gia đình cô gái đã xuất ngoại từ lâu và thường...",
      "image": null,
      "label": null,
      "display": "text-only",
      "type": "text",
      "enable_detail": true,
      "related": {
        "url": "https://truyenx.link/truyensextv/channels/related/1138",
        "request_headers": []
      },
      "share": {
        "url": "https://truyenx.link/truyensextv/channels/share/nhung-co-nang-dam-dang"
      },
      "remote_data": {
        "url": "https://truyenx.link/truyensextv/channels/nhung-co-nang-dam-dang"
      }
    },
    {
      "id": "1137-channel",
      "name": "Chị chủ quán",
      "description": "Rời Sài Gòn về tuốt miền trung, chính là chuỗi ngày cô đơn của gã trai mới lớn. Hai tháng về quê có thể dài như hai năm, Sài Gòn đô hội, còn quê im lìm trong cơn mưa. Miền Trung...",
      "image": null,
      "label": null,
      "display": "text-only",
      "type": "text",
      "enable_detail": true,
      "related": {
        "url": "https://truyenx.link/truyensextv/channels/related/1137",
        "request_headers": []
      },
      "share": {
        "url": "https://truyenx.link/truyensextv/channels/share/chi-chu-quan"
      },
      "remote_data": {
        "url": "https://truyenx.link/truyensextv/channels/chi-chu-quan"
      }
    },
    {
      "id": "1136-channel",
      "name": "Những ngày cơn dâm tạo phản",
      "description": "Tôi là Uyên, 1 nhân viên bán hàng tại chuỗi cửa hàng TGDĐ, thân hình tôi được trời phú cho thon gọn, bụng không ngấn mỡ, ngực thì không to nhưng tròn mịn, ti thì hồng hào mà có...",
      "image": null,
      "label": null,
      "display": "text-only",
      "type": "text",
      "enable_detail": true,
      "related": {
        "url": "https://truyenx.link/truyensextv/channels/related/1136",
        "request_headers": []
      },
      "share": {
        "url": "https://truyenx.link/truyensextv/channels/share/nhung-ngay-con-dam-tao-phan"
      },
      "remote_data": {
        "url": "https://truyenx.link/truyensextv/channels/nhung-ngay-con-dam-tao-phan"
      }
    },
    {
      "id": "1135-channel",
      "name": "Những ngày tháng đó",
      "description": "Có là bình thường không em khi chia tay 2 năm rồi mà anh vẫn nhớ em? Anh thường ngồi lặng lẽ mở Facebook để ngắm nhìn em thướt tha xinh đẹp, nụ cười em vẫn thật duyên như ngày...",
      "image": null,
      "label": null,
      "display": "text-only",
      "type": "text",
      "enable_detail": true,
      "related": {
        "url": "https://truyenx.link/truyensextv/channels/related/1135",
        "request_headers": []
      },
      "share": {
        "url": "https://truyenx.link/truyensextv/channels/share/nhung-ngay-thang-do"
      },
      "remote_data": {
        "url": "https://truyenx.link/truyensextv/channels/nhung-ngay-thang-do"
      }
    },
    {
      "id": "1134-channel",
      "name": "Phá trinh bạn thân của người yêu",
      "description": "Xin chào!! Mình có câu chuyện muốn kể cho các bạn nghe. Truyện của mình ngắn gọn thôi. Vì nó xảy ra cách đây 1 tháng. Truyện là về con bạn thân của người yêu tớ. À ừm. Tớ tên...",
      "image": null,
      "label": null,
      "display": "text-only",
      "type": "text",
      "enable_detail": true,
      "related": {
        "url": "https://truyenx.link/truyensextv/channels/related/1134",
        "request_headers": []
      },
      "share": {
        "url": "https://truyenx.link/truyensextv/channels/share/pha-trinh-ban-than-cua-nguoi-yeu"
      },
      "remote_data": {
        "url": "https://truyenx.link/truyensextv/channels/pha-trinh-ban-than-cua-nguoi-yeu"
      }
    },
    {
      "id": "1133-channel",
      "name": "Phẩm hạnh",
      "description": "Ở cái tuổi 16 nhưng thằng Vinh nhìn nhỏ thó so với đám bạn cùng trang lứa, ba mẹ bỏ nhau từ khi nó mới lọt lòng, vì thiếu thốn tình cảm của cha nên Thùy Dung nguyện ở vậy và...",
      "image": null,
      "label": null,
      "display": "text-only",
      "type": "text",
      "enable_detail": true,
      "related": {
        "url": "https://truyenx.link/truyensextv/channels/related/1133",
        "request_headers": []
      },
      "share": {
        "url": "https://truyenx.link/truyensextv/channels/share/pham-hanh"
      },
      "remote_data": {
        "url": "https://truyenx.link/truyensextv/channels/pham-hanh"
      }
    },
    {
      "id": "1132-channel",
      "name": "Địt nát lồn nữ đồng nghiệp",
      "description": "Nơi làm việc mới của tôi là một công ty chuyên sản xuất và thiết kế các loại đồ lót dành cho phụ nữ. Lẽ dĩ nhiên một dạng công ty như thế thì có tới 80% nhân viên trong công...",
      "image": null,
      "label": null,
      "display": "text-only",
      "type": "text",
      "enable_detail": true,
      "related": {
        "url": "https://truyenx.link/truyensextv/channels/related/1132",
        "request_headers": []
      },
      "share": {
        "url": "https://truyenx.link/truyensextv/channels/share/dit-nat-lon-nu-dong-nghiep"
      },
      "remote_data": {
        "url": "https://truyenx.link/truyensextv/channels/dit-nat-lon-nu-dong-nghiep"
      }
    },
    {
      "id": "1131-channel",
      "name": "Chuyến kinh doanh khó quên của Thoa",
      "description": "Anh Minh chồng tôi sắp có một cuộc họp kinh doanh rất quan trọng ở tpHCM, cách Cần Thơ, nơi vợ chồng tôi đang sống 168 km. Bình thường, tôi sẽ không bao giờ cùng đi với anh trong...",
      "image": null,
      "label": null,
      "display": "text-only",
      "type": "text",
      "enable_detail": true,
      "related": {
        "url": "https://truyenx.link/truyensextv/channels/related/1131",
        "request_headers": []
      },
      "share": {
        "url": "https://truyenx.link/truyensextv/channels/share/chuyen-kinh-doanh-kho-quen-cua-thoa"
      },
      "remote_data": {
        "url": "https://truyenx.link/truyensextv/channels/chuyen-kinh-doanh-kho-quen-cua-thoa"
      }
    },
    {
      "id": "1130-channel",
      "name": "Sơn Tinh Thủy Tinh",
      "description": "Đời vua Hùng Vương thứ 18, nhà vua có một người con gái tuyệt sắc tên là Mỵ Nương. Công chúa được vua cưng chiều như trứng mỏng. Khi Mỵ Nương được 16 tuổi thì vua Hùng Vương...",
      "image": null,
      "label": null,
      "display": "text-only",
      "type": "text",
      "enable_detail": true,
      "related": {
        "url": "https://truyenx.link/truyensextv/channels/related/1130",
        "request_headers": []
      },
      "share": {
        "url": "https://truyenx.link/truyensextv/channels/share/son-tinh-thuy-tinh"
      },
      "remote_data": {
        "url": "https://truyenx.link/truyensextv/channels/son-tinh-thuy-tinh"
      }
    },
    {
      "id": "1129-channel",
      "name": "Thiếu nữ cấp 3",
      "description": "Kiều Nhi là học sinh duy nhất trong làng còn theo học đến tận lúc này nhưng vì trong làng không có trường cấp 3 nên em định bỏ học. Em là niềm tự hào của gia đình, làm sao bố...",
      "image": null,
      "label": null,
      "display": "text-only",
      "type": "text",
      "enable_detail": true,
      "related": {
        "url": "https://truyenx.link/truyensextv/channels/related/1129",
        "request_headers": []
      },
      "share": {
        "url": "https://truyenx.link/truyensextv/channels/share/thieu-nu-cap-3"
      },
      "remote_data": {
        "url": "https://truyenx.link/truyensextv/channels/thieu-nu-cap-3"
      }
    }
  ],
  "load_more": {
    "pageInfo": {
      "current_page": 102,
      "last_page": 140,
      "per_page": 30,
      "total": 4188
    },
    "paging": {
      "page_key": "page",
      "size_key": "size"
    },
    "remote_data": {
      "url": "https://truyenx.link/truyensextv/channels"
    }
  }
}