{
  "grid_number": 1,
  "channels": [
    {
      "id": "1668-channel",
      "name": "Chị Liên dâm đãng",
      "description": "Chị Liên: Này Hoàng, ngày mai là lần đầu tiên chú đi phụ tour với chị phải không, chị nói trước chị rất là khó tính, liệu liệu mà đến đúng giờ đấy nhé, hẹn khách 5h thì...",
      "image": null,
      "label": null,
      "display": "text-only",
      "type": "text",
      "enable_detail": true,
      "related": {
        "url": "https://truyenx.link/truyensextv/channels/related/1668",
        "request_headers": []
      },
      "share": {
        "url": "https://truyenx.link/truyensextv/channels/share/chi-lien-dam-dang"
      },
      "remote_data": {
        "url": "https://truyenx.link/truyensextv/channels/chi-lien-dam-dang"
      }
    },
    {
      "id": "1667-channel",
      "name": "Em Bích thích đụ lang",
      "description": "Sau khi cưới chỉ hơn 6 tháng, vợ chồng Phong và Bích đã không còn che dấu nhau những bí mật của riêng tư. Với Phong, trong tình yêu vợ chồng không gì không thể nói ra được dù...",
      "image": null,
      "label": null,
      "display": "text-only",
      "type": "text",
      "enable_detail": true,
      "related": {
        "url": "https://truyenx.link/truyensextv/channels/related/1667",
        "request_headers": []
      },
      "share": {
        "url": "https://truyenx.link/truyensextv/channels/share/em-bich-thich-du-lang"
      },
      "remote_data": {
        "url": "https://truyenx.link/truyensextv/channels/em-bich-thich-du-lang"
      }
    },
    {
      "id": "1666-channel",
      "name": "Người mẹ xinh đẹp",
      "description": "Trong 1 gia đình 3 người, tôi là thành viên nhỏ nhất, 16 tuổi, tôi cao 1m60, cũng không có gì nổi bật so với những đứa cùng tuổi khác. Nhắc luôn về bố, bố năm nay 45 tuổi, là 1...",
      "image": null,
      "label": null,
      "display": "text-only",
      "type": "text",
      "enable_detail": true,
      "related": {
        "url": "https://truyenx.link/truyensextv/channels/related/1666",
        "request_headers": []
      },
      "share": {
        "url": "https://truyenx.link/truyensextv/channels/share/nguoi-me-xinh-dep"
      },
      "remote_data": {
        "url": "https://truyenx.link/truyensextv/channels/nguoi-me-xinh-dep"
      }
    },
    {
      "id": "1665-channel",
      "name": "Ba chị em hứng tình",
      "description": "Hôm nay là ngày rằm tháng Bảy, một ngày trời u ám sắp mưa cuối tuần, ba má của Trang, Quỳnh và Vân lại lên chùa viếng Phật như hàng năm. Mấy chị em Trang Quỳnh Vân thức dậy trong...",
      "image": null,
      "label": null,
      "display": "text-only",
      "type": "text",
      "enable_detail": true,
      "related": {
        "url": "https://truyenx.link/truyensextv/channels/related/1665",
        "request_headers": []
      },
      "share": {
        "url": "https://truyenx.link/truyensextv/channels/share/ba-chi-em-hung-tinh"
      },
      "remote_data": {
        "url": "https://truyenx.link/truyensextv/channels/ba-chi-em-hung-tinh"
      }
    },
    {
      "id": "1664-channel",
      "name": "Em Trâm thích đụ",
      "description": "Trâm lấy chồng năm 21 tuổi sau khi tốt nghiệp đại học. Chồng của Trâm là Trung, anh chàng này học hành ngoan ngoãn, đậu kỹ sư tại một trường đại học lớn, ra trường kiếm ngay...",
      "image": null,
      "label": null,
      "display": "text-only",
      "type": "text",
      "enable_detail": true,
      "related": {
        "url": "https://truyenx.link/truyensextv/channels/related/1664",
        "request_headers": []
      },
      "share": {
        "url": "https://truyenx.link/truyensextv/channels/share/em-tram-thich-du"
      },
      "remote_data": {
        "url": "https://truyenx.link/truyensextv/channels/em-tram-thich-du"
      }
    },
    {
      "id": "1663-channel",
      "name": "Em Nga và anh Hiệp",
      "description": "Bình minh trên đảo ngọc Phú Quốc Lúc này thời tiết thay đổi thất thường, trời lúc nóng lúc lạnh, lúc mưa lúc nắng, em cũng không biết đâu mà mix đồ cho hợp. Tuy nhiên, tự...",
      "image": null,
      "label": null,
      "display": "text-only",
      "type": "text",
      "enable_detail": true,
      "related": {
        "url": "https://truyenx.link/truyensextv/channels/related/1663",
        "request_headers": []
      },
      "share": {
        "url": "https://truyenx.link/truyensextv/channels/share/em-nga-va-anh-hiep"
      },
      "remote_data": {
        "url": "https://truyenx.link/truyensextv/channels/em-nga-va-anh-hiep"
      }
    },
    {
      "id": "1662-channel",
      "name": "Bạn em họ",
      "description": "Chuyện cũng xảy ra lâu rồi kể lại cho anh em nghe lại thui. Khi đó mới ra trường nên cũng thích bay nhảy và lên tận 1 công ty ở Phú thọ làm. Khi còn đang ở Hà nội, thấy cô em họ...",
      "image": null,
      "label": null,
      "display": "text-only",
      "type": "text",
      "enable_detail": true,
      "related": {
        "url": "https://truyenx.link/truyensextv/channels/related/1662",
        "request_headers": []
      },
      "share": {
        "url": "https://truyenx.link/truyensextv/channels/share/ban-em-ho"
      },
      "remote_data": {
        "url": "https://truyenx.link/truyensextv/channels/ban-em-ho"
      }
    },
    {
      "id": "1661-channel",
      "name": "Cô bạn cũ dâm đãng",
      "description": "Vợ chàng mất đã hơn một năm nay rồi. Vợ chồng sống với nhau 20 năm, chuyện ăn ngủ với nhau như là một chuyện tự nhiên cho đến khi người bạn đồng hành không còn bên cạnh...",
      "image": null,
      "label": null,
      "display": "text-only",
      "type": "text",
      "enable_detail": true,
      "related": {
        "url": "https://truyenx.link/truyensextv/channels/related/1661",
        "request_headers": []
      },
      "share": {
        "url": "https://truyenx.link/truyensextv/channels/share/co-ban-cu-dam-dang"
      },
      "remote_data": {
        "url": "https://truyenx.link/truyensextv/channels/co-ban-cu-dam-dang"
      }
    },
    {
      "id": "1660-channel",
      "name": "Tình cũ của vợ",
      "description": "Đã khá lâu từ sau khi kết hôn tôi mới có dịp được về quê vợ ăn tết, nhưng tưởng rằng sẽ được hưởng 1 không khí tết vui vẻ hạnh phúc thì tôi lại nhận những điều mà...",
      "image": null,
      "label": null,
      "display": "text-only",
      "type": "text",
      "enable_detail": true,
      "related": {
        "url": "https://truyenx.link/truyensextv/channels/related/1660",
        "request_headers": []
      },
      "share": {
        "url": "https://truyenx.link/truyensextv/channels/share/tinh-cu-cua-vo"
      },
      "remote_data": {
        "url": "https://truyenx.link/truyensextv/channels/tinh-cu-cua-vo"
      }
    },
    {
      "id": "1659-channel",
      "name": "Phá trinh em cùng xóm",
      "description": "Đây là một câu chuyện có thật giữa tôi và đứa em cùng xóm. Một chút về tôi, tôi được sinh ra trong một gia đình được dạy dỗ ăn học đàng hoàng, gần tôi còn có một ông anh...",
      "image": null,
      "label": null,
      "display": "text-only",
      "type": "text",
      "enable_detail": true,
      "related": {
        "url": "https://truyenx.link/truyensextv/channels/related/1659",
        "request_headers": []
      },
      "share": {
        "url": "https://truyenx.link/truyensextv/channels/share/pha-trinh-em-cung-xom"
      },
      "remote_data": {
        "url": "https://truyenx.link/truyensextv/channels/pha-trinh-em-cung-xom"
      }
    },
    {
      "id": "1658-channel",
      "name": "Hiếp dâm em sinh viên",
      "description": "Đó là một đêm mà tôi mãi mãi không bao giờ quên. Đêm đó, sau giờ tan học, tôi bước đều ra bãi đậu xe nằm sau khuôn viên trường Đại học. Cũng là một đêm rất yên tĩnh, nhẹ...",
      "image": null,
      "label": null,
      "display": "text-only",
      "type": "text",
      "enable_detail": true,
      "related": {
        "url": "https://truyenx.link/truyensextv/channels/related/1658",
        "request_headers": []
      },
      "share": {
        "url": "https://truyenx.link/truyensextv/channels/share/hiep-dam-em-sinh-vien"
      },
      "remote_data": {
        "url": "https://truyenx.link/truyensextv/channels/hiep-dam-em-sinh-vien"
      }
    },
    {
      "id": "1657-channel",
      "name": "Some ngày mồng 8",
      "description": "Câu chuyện xảy ra đã cách đây đúng 3 năm, ngày mùng 8 tết. Tôi xin kể sơ về gia đình tôi, nhà tôi có 3 anh chị em, chị lớn tôi lấy chồng có một đứa con gái, hai vợ chồng ly dị...",
      "image": null,
      "label": null,
      "display": "text-only",
      "type": "text",
      "enable_detail": true,
      "related": {
        "url": "https://truyenx.link/truyensextv/channels/related/1657",
        "request_headers": []
      },
      "share": {
        "url": "https://truyenx.link/truyensextv/channels/share/some-ngay-mong-8"
      },
      "remote_data": {
        "url": "https://truyenx.link/truyensextv/channels/some-ngay-mong-8"
      }
    },
    {
      "id": "1656-channel",
      "name": "Đụ nhau tập thể",
      "description": "Nhà chúng tôi chỉ có hai anh em trai nên chúng tôi rất quen tính nết nhau và nhường nhịn nhau, anh em tôi đi đâu cũng có nhau. Và anh Hai đã rộng tay cho tôi ngủ chung khi đụ chị dâu như...",
      "image": null,
      "label": null,
      "display": "text-only",
      "type": "text",
      "enable_detail": true,
      "related": {
        "url": "https://truyenx.link/truyensextv/channels/related/1656",
        "request_headers": []
      },
      "share": {
        "url": "https://truyenx.link/truyensextv/channels/share/du-nhau-tap-the"
      },
      "remote_data": {
        "url": "https://truyenx.link/truyensextv/channels/du-nhau-tap-the"
      }
    },
    {
      "id": "1655-channel",
      "name": "Người làm vườn to lớn",
      "description": "Người làm vườn to lớn với làn da sạm nắng, vòng ngực nở nang, bụng sáu ngấn không chút mỡ. Tuy không lớn so với Mỹ nhưng rất vừa người. Từ lúc thuê nó làm sau vườn những...",
      "image": null,
      "label": null,
      "display": "text-only",
      "type": "text",
      "enable_detail": true,
      "related": {
        "url": "https://truyenx.link/truyensextv/channels/related/1655",
        "request_headers": []
      },
      "share": {
        "url": "https://truyenx.link/truyensextv/channels/share/nguoi-lam-vuon-to-lon"
      },
      "remote_data": {
        "url": "https://truyenx.link/truyensextv/channels/nguoi-lam-vuon-to-lon"
      }
    },
    {
      "id": "1654-channel",
      "name": "Mùa hè với chị họ",
      "description": "Lời nói đầu thì mình không phải là 1 người chuyên viết truyện sex hay là 1 người giỏi Văn gì hết, mình viết truyện này là chỉ để kể lại câu chuyện của mình cũng như giúp...",
      "image": null,
      "label": null,
      "display": "text-only",
      "type": "text",
      "enable_detail": true,
      "related": {
        "url": "https://truyenx.link/truyensextv/channels/related/1654",
        "request_headers": []
      },
      "share": {
        "url": "https://truyenx.link/truyensextv/channels/share/mua-he-voi-chi-ho"
      },
      "remote_data": {
        "url": "https://truyenx.link/truyensextv/channels/mua-he-voi-chi-ho"
      }
    },
    {
      "id": "1653-channel",
      "name": "Phá trinh gái nhà lành",
      "description": "Hắn để ý em ngay từ lúc mà hắn nhận phụ trách bồi dưỡng Đoàn viên cho em. Qua một thời gian tiếp xúc trao đổi, hắn bắt đầu thương cái tính thật thà và sự ngây thơ trong...",
      "image": null,
      "label": null,
      "display": "text-only",
      "type": "text",
      "enable_detail": true,
      "related": {
        "url": "https://truyenx.link/truyensextv/channels/related/1653",
        "request_headers": []
      },
      "share": {
        "url": "https://truyenx.link/truyensextv/channels/share/pha-trinh-gai-nha-lanh"
      },
      "remote_data": {
        "url": "https://truyenx.link/truyensextv/channels/pha-trinh-gai-nha-lanh"
      }
    },
    {
      "id": "1652-channel",
      "name": "Chị dâu lồn nhỏ",
      "description": "Ra đến cổng chính đã thấy chị Kim đứng chờ. Vậy mà cả mấy giờ ngồi trên máy bay tôi cứ sợ không ai ra đón phải lấy taxi. Tuần trước tôi điện thoại thì anh Nam chồng chị...",
      "image": null,
      "label": null,
      "display": "text-only",
      "type": "text",
      "enable_detail": true,
      "related": {
        "url": "https://truyenx.link/truyensextv/channels/related/1652",
        "request_headers": []
      },
      "share": {
        "url": "https://truyenx.link/truyensextv/channels/share/chi-dau-lon-nho"
      },
      "remote_data": {
        "url": "https://truyenx.link/truyensextv/channels/chi-dau-lon-nho"
      }
    },
    {
      "id": "1651-channel",
      "name": "Cô giáo tương lai",
      "description": "Trinh là một cô gái người Long Khánh trong một gia đình khá giả, nàng có một thân hình rất chuẩn, cặp chân dài và thẳng, mông tròn, bộ ngực nàng hình trái bom rất quyến rũ. Năm...",
      "image": null,
      "label": null,
      "display": "text-only",
      "type": "text",
      "enable_detail": true,
      "related": {
        "url": "https://truyenx.link/truyensextv/channels/related/1651",
        "request_headers": []
      },
      "share": {
        "url": "https://truyenx.link/truyensextv/channels/share/co-giao-tuong-lai"
      },
      "remote_data": {
        "url": "https://truyenx.link/truyensextv/channels/co-giao-tuong-lai"
      }
    },
    {
      "id": "1650-channel",
      "name": "Hai người vợ dâm đãng",
      "description": "Tôi và Thoa đã gặp nhau ở bãi biển ở vùng Đông Bắc Mỹ. Sắc đẹp mặn mà và thân hình khêu gợi của nàng làm tôi chú ý. Hơn nữa nàng là người Á Châu trong đám người Mỹ...",
      "image": null,
      "label": null,
      "display": "text-only",
      "type": "text",
      "enable_detail": true,
      "related": {
        "url": "https://truyenx.link/truyensextv/channels/related/1650",
        "request_headers": []
      },
      "share": {
        "url": "https://truyenx.link/truyensextv/channels/share/hai-nguoi-vo-dam-dang"
      },
      "remote_data": {
        "url": "https://truyenx.link/truyensextv/channels/hai-nguoi-vo-dam-dang"
      }
    },
    {
      "id": "1649-channel",
      "name": "Đụ cùng em gái",
      "description": "Liên ngồi nhìn Hùng, người anh trai của Liên đang ngồi xem TV trong phòng khách. Hùng đang ngồi uống bia cho qua cơn buồn vì Hùng vừa mất bạn gái. Hùng vẫn không để ý đến những...",
      "image": null,
      "label": null,
      "display": "text-only",
      "type": "text",
      "enable_detail": true,
      "related": {
        "url": "https://truyenx.link/truyensextv/channels/related/1649",
        "request_headers": []
      },
      "share": {
        "url": "https://truyenx.link/truyensextv/channels/share/du-cung-em-gai"
      },
      "remote_data": {
        "url": "https://truyenx.link/truyensextv/channels/du-cung-em-gai"
      }
    },
    {
      "id": "1648-channel",
      "name": "Mợ tôi",
      "description": "Hà Nội buổi chiều hôm nay trời không lạnh lắm, ngồi một mình thấy hơi buồn, tự nhiên nhớ lại cái nóng hồi hè năm 2010 mà thấy sợ và đặc biệt là hôm trận chung kết WC giữa...",
      "image": null,
      "label": null,
      "display": "text-only",
      "type": "text",
      "enable_detail": true,
      "related": {
        "url": "https://truyenx.link/truyensextv/channels/related/1648",
        "request_headers": []
      },
      "share": {
        "url": "https://truyenx.link/truyensextv/channels/share/mo-toi"
      },
      "remote_data": {
        "url": "https://truyenx.link/truyensextv/channels/mo-toi"
      }
    },
    {
      "id": "1647-channel",
      "name": "Làm tình cùng bạn thân",
      "description": "Điện thoại reo, đó là cuộc gọi của Trường bạn thân của tôi. Khi tôi đặt máy xuống, tôi cố nhớ lại lý do vì sao chúng tôi đã mất liên lạc. Trường, tôi và Xuân ngày xưa rất...",
      "image": null,
      "label": null,
      "display": "text-only",
      "type": "text",
      "enable_detail": true,
      "related": {
        "url": "https://truyenx.link/truyensextv/channels/related/1647",
        "request_headers": []
      },
      "share": {
        "url": "https://truyenx.link/truyensextv/channels/share/lam-tinh-cung-ban-than"
      },
      "remote_data": {
        "url": "https://truyenx.link/truyensextv/channels/lam-tinh-cung-ban-than"
      }
    },
    {
      "id": "1646-channel",
      "name": "Gạ địt gái lồn trinh",
      "description": "Tôi là Đan, 17 tuổi, tôi có gương mặt khá đẹp trai vì ba tôi là người Trung Đông và mẹ tôi là hoa khôi xứ này. Tôi cao ráo và khỏe khoắn, cơ bắp khắp người tôi cuộn rõ do tôi...",
      "image": null,
      "label": null,
      "display": "text-only",
      "type": "text",
      "enable_detail": true,
      "related": {
        "url": "https://truyenx.link/truyensextv/channels/related/1646",
        "request_headers": []
      },
      "share": {
        "url": "https://truyenx.link/truyensextv/channels/share/ga-dit-gai-lon-trinh"
      },
      "remote_data": {
        "url": "https://truyenx.link/truyensextv/channels/ga-dit-gai-lon-trinh"
      }
    },
    {
      "id": "1645-channel",
      "name": "Bạn thân tôi",
      "description": "Tôi có một người bạn thân, tên là Vy, vú nó to lắm, mới lớp 9 mà đã căng tròn, vài lần cọ qua mà tôi cứng hết cả cu. Trong một lần đi chơi với lớp, tôi với nó được phân...",
      "image": null,
      "label": null,
      "display": "text-only",
      "type": "text",
      "enable_detail": true,
      "related": {
        "url": "https://truyenx.link/truyensextv/channels/related/1645",
        "request_headers": []
      },
      "share": {
        "url": "https://truyenx.link/truyensextv/channels/share/ban-than-toi"
      },
      "remote_data": {
        "url": "https://truyenx.link/truyensextv/channels/ban-than-toi"
      }
    },
    {
      "id": "1644-channel",
      "name": "Sờ mó con em họ dịp Tết",
      "description": "Tết năm 2008, năm đó em vào trong nhà bà chúc tết. Em lên giường nằm đắp chăn nghịch điện thoại thì con em họ mới vào giường đắp chăn cùng. Nó mượn điện thoại của em. Nằm...",
      "image": null,
      "label": null,
      "display": "text-only",
      "type": "text",
      "enable_detail": true,
      "related": {
        "url": "https://truyenx.link/truyensextv/channels/related/1644",
        "request_headers": []
      },
      "share": {
        "url": "https://truyenx.link/truyensextv/channels/share/so-mo-con-em-ho-dip-tet"
      },
      "remote_data": {
        "url": "https://truyenx.link/truyensextv/channels/so-mo-con-em-ho-dip-tet"
      }
    },
    {
      "id": "1643-channel",
      "name": "Cho thằng em đụ vợ mình",
      "description": "Chúng tôi định cư ở Mỹ. Tôi có thằng em làm chung hãng, tôi rất thích hắn. Mặc dù tôi có vợ nhưng cũng thường lén đi chơi với hắn vào những club gái khoản thân. Tôi biết hắn...",
      "image": null,
      "label": null,
      "display": "text-only",
      "type": "text",
      "enable_detail": true,
      "related": {
        "url": "https://truyenx.link/truyensextv/channels/related/1643",
        "request_headers": []
      },
      "share": {
        "url": "https://truyenx.link/truyensextv/channels/share/cho-thang-em-du-vo-minh"
      },
      "remote_data": {
        "url": "https://truyenx.link/truyensextv/channels/cho-thang-em-du-vo-minh"
      }
    },
    {
      "id": "1642-channel",
      "name": "Bị chị họ bóc zin",
      "description": "Vân cao chưa đến 1m6 nhưng được cái khuôn mặt trắng xinh, không hiểu có gen không mà nhìn con chị họ nào của mình cũng khá chứ. Mọi chuyện bình thường cho đến một ngày ba mẹ...",
      "image": null,
      "label": null,
      "display": "text-only",
      "type": "text",
      "enable_detail": true,
      "related": {
        "url": "https://truyenx.link/truyensextv/channels/related/1642",
        "request_headers": []
      },
      "share": {
        "url": "https://truyenx.link/truyensextv/channels/share/bi-chi-ho-boc-zin"
      },
      "remote_data": {
        "url": "https://truyenx.link/truyensextv/channels/bi-chi-ho-boc-zin"
      }
    },
    {
      "id": "1641-channel",
      "name": "Sờ lồn, bóp vú trên xe khách",
      "description": "Năm đó là năm 2004. Năm đó mình thi học kỳ bị tạch 3 môn phải học lại, nên chán chán. Mình làm chuyến về Vinh chơi với mấy đứa bạn ở Vinh 3 ngày. Sau mình bắt xe khách từ vinh...",
      "image": null,
      "label": null,
      "display": "text-only",
      "type": "text",
      "enable_detail": true,
      "related": {
        "url": "https://truyenx.link/truyensextv/channels/related/1641",
        "request_headers": []
      },
      "share": {
        "url": "https://truyenx.link/truyensextv/channels/share/so-lon-bop-vu-tren-xe-khach"
      },
      "remote_data": {
        "url": "https://truyenx.link/truyensextv/channels/so-lon-bop-vu-tren-xe-khach"
      }
    },
    {
      "id": "1640-channel",
      "name": "Cặp vợ chồng thích bạo dâm",
      "description": "Cửa phòng khách sạn mở ra, theo sau vợ hắn là một người con trai trong trang phục văn phòng. Hắn nghĩ không lẽ vợ hắn lại dắt thêm một slv nữa về train chung? Nhìn gì? Dạ, tôi...",
      "image": null,
      "label": null,
      "display": "text-only",
      "type": "text",
      "enable_detail": true,
      "related": {
        "url": "https://truyenx.link/truyensextv/channels/related/1640",
        "request_headers": []
      },
      "share": {
        "url": "https://truyenx.link/truyensextv/channels/share/cap-vo-chong-thich-bao-dam"
      },
      "remote_data": {
        "url": "https://truyenx.link/truyensextv/channels/cap-vo-chong-thich-bao-dam"
      }
    },
    {
      "id": "1639-channel",
      "name": "Quỳnh",
      "description": "Cánh cửa gỗ vừa hé ra, một hương thơm nhẹ theo làn khói dày ập vào mặt Quỳnh. Trước mắt nàng là cái giường cỡ lớn, xung quanh phòng đang có mấy chiếc đèn xông đang thả từng...",
      "image": null,
      "label": null,
      "display": "text-only",
      "type": "text",
      "enable_detail": true,
      "related": {
        "url": "https://truyenx.link/truyensextv/channels/related/1639",
        "request_headers": []
      },
      "share": {
        "url": "https://truyenx.link/truyensextv/channels/share/quynh"
      },
      "remote_data": {
        "url": "https://truyenx.link/truyensextv/channels/quynh"
      }
    }
  ],
  "load_more": {
    "pageInfo": {
      "current_page": 85,
      "last_page": 140,
      "per_page": 30,
      "total": 4188
    },
    "paging": {
      "page_key": "page",
      "size_key": "size"
    },
    "remote_data": {
      "url": "https://truyenx.link/truyensextv/channels"
    }
  }
}