{
  "grid_number": 1,
  "channels": [
    {
      "id": "3790-channel",
      "name": "Kỷ niệm thi vượt cấp khó quên",
      "description": "Hồi thi vượt cấp, tôi học như điên như dại, học hết lớp này đến lớp kia. Một tuần không có ngày nào trống lịch cả, trong khoảng thời gian đấy, tôi chỉ ngồi 1 mình hoặc...",
      "image": null,
      "label": null,
      "display": "text-only",
      "type": "text",
      "enable_detail": true,
      "related": {
        "url": "https://truyenx.link/truyensextv/channels/related/3790",
        "request_headers": []
      },
      "share": {
        "url": "https://truyenx.link/truyensextv/channels/share/ky-niem-thi-vuot-cap-kho-quen"
      },
      "remote_data": {
        "url": "https://truyenx.link/truyensextv/channels/ky-niem-thi-vuot-cap-kho-quen"
      }
    },
    {
      "id": "3789-channel",
      "name": "Cho bạn nghĩa vụ đụ người yêu",
      "description": "Tôi tên Hiếu 2003 trong thời gian đi nghĩa vụ có quen được Ngân cũng 2003. Ấn tượng đầu tiên khi gặp Ngân là ngực to và mũi cao sau vài tháng nhắn tin qua lại thì tôi cũng đc về...",
      "image": null,
      "label": null,
      "display": "text-only",
      "type": "text",
      "enable_detail": true,
      "related": {
        "url": "https://truyenx.link/truyensextv/channels/related/3789",
        "request_headers": []
      },
      "share": {
        "url": "https://truyenx.link/truyensextv/channels/share/cho-ban-nghia-vu-du-nguoi-yeu"
      },
      "remote_data": {
        "url": "https://truyenx.link/truyensextv/channels/cho-ban-nghia-vu-du-nguoi-yeu"
      }
    },
    {
      "id": "3788-channel",
      "name": "Xóm đĩ",
      "description": "Reeng... reng... reng... Tiếng chuông đồng hồ báo thức vang lên. Mở mắt ra, ánh sáng chiếu xiên qua cái cửa chớp hắt hẳn vào mắt. Nheo cái mắt, rồi tôi vứt cái áo may ô ra góc...",
      "image": null,
      "label": null,
      "display": "text-only",
      "type": "text",
      "enable_detail": true,
      "related": {
        "url": "https://truyenx.link/truyensextv/channels/related/3788",
        "request_headers": []
      },
      "share": {
        "url": "https://truyenx.link/truyensextv/channels/share/xom-di"
      },
      "remote_data": {
        "url": "https://truyenx.link/truyensextv/channels/xom-di"
      }
    },
    {
      "id": "3787-channel",
      "name": "Mẹ con nhà thằng Hiếu",
      "description": "Ngồi vào bàn học ngay ngắn, khóa chốt cửa lại, tôi lôi cái điện thoại vừa nhặt được trên trường ra xem, chiếc android cũng lớn lắm, quay đi lật lại thì tôi cũng biết đây là...",
      "image": null,
      "label": null,
      "display": "text-only",
      "type": "text",
      "enable_detail": true,
      "related": {
        "url": "https://truyenx.link/truyensextv/channels/related/3787",
        "request_headers": []
      },
      "share": {
        "url": "https://truyenx.link/truyensextv/channels/share/me-con-nha-thang-hieu"
      },
      "remote_data": {
        "url": "https://truyenx.link/truyensextv/channels/me-con-nha-thang-hieu"
      }
    },
    {
      "id": "3786-channel",
      "name": "Bước chân lên phố lớn",
      "description": "Những thanh niên nông thôn như tôi ai cũng muốn được sống tự do vùng vẫy ở nơi thành phố rộng lớn, nơi có nhiều điều xa hoa, tiền bạc, dục vọng mà xen lẫn trong đó là mọi...",
      "image": null,
      "label": null,
      "display": "text-only",
      "type": "text",
      "enable_detail": true,
      "related": {
        "url": "https://truyenx.link/truyensextv/channels/related/3786",
        "request_headers": []
      },
      "share": {
        "url": "https://truyenx.link/truyensextv/channels/share/buoc-chan-len-pho-lon"
      },
      "remote_data": {
        "url": "https://truyenx.link/truyensextv/channels/buoc-chan-len-pho-lon"
      }
    },
    {
      "id": "3785-channel",
      "name": "Loạn luân gia đình",
      "description": "Cách đây vài hôm, mẹ phát hiện bố tôi đang địt 1 đứa con gái 20 tuổi, bằng tuổi tôi ở trong nhà của chúng tôi. Mẹ đi công tác về bất chợt nên đã phát hiện ra điều đó. Tôi...",
      "image": null,
      "label": null,
      "display": "text-only",
      "type": "text",
      "enable_detail": true,
      "related": {
        "url": "https://truyenx.link/truyensextv/channels/related/3785",
        "request_headers": []
      },
      "share": {
        "url": "https://truyenx.link/truyensextv/channels/share/loan-luan-gia-dinh"
      },
      "remote_data": {
        "url": "https://truyenx.link/truyensextv/channels/loan-luan-gia-dinh"
      }
    },
    {
      "id": "3784-channel",
      "name": "Nuôi ma ngải",
      "description": "Nếu ai đã từng thất tình sẽ thông cảm được nỗi khổ của Lưu khi bị người yêu phụ bạc. Ngày ấy chàng và Tú Quyên yêu nhau tới quên trời đất. Nàng là một thợ uốn tóc...",
      "image": null,
      "label": null,
      "display": "text-only",
      "type": "text",
      "enable_detail": true,
      "related": {
        "url": "https://truyenx.link/truyensextv/channels/related/3784",
        "request_headers": []
      },
      "share": {
        "url": "https://truyenx.link/truyensextv/channels/share/nuoi-ma-ngai"
      },
      "remote_data": {
        "url": "https://truyenx.link/truyensextv/channels/nuoi-ma-ngai"
      }
    },
    {
      "id": "3783-channel",
      "name": "Vợ thèm của lạ",
      "description": "Trời vào hạ, cơn gió đầu mùa mang hơi ẩm từ biển thổi nhè nhẹ làm lao xao đám lá bàng xanh mướt trên đầu. Ngồi ngả lưng ra cái ghế tôi cầm tờ tạp chí xe hơi ngắm nghía...",
      "image": null,
      "label": null,
      "display": "text-only",
      "type": "text",
      "enable_detail": true,
      "related": {
        "url": "https://truyenx.link/truyensextv/channels/related/3783",
        "request_headers": []
      },
      "share": {
        "url": "https://truyenx.link/truyensextv/channels/share/vo-them-cua-la"
      },
      "remote_data": {
        "url": "https://truyenx.link/truyensextv/channels/vo-them-cua-la"
      }
    },
    {
      "id": "3782-channel",
      "name": "Cô giáo dâm",
      "description": "Chào mọi người, hôm nay tôi xin chia sẻ một câu chuyện về trải nghiệm của bản thân về môi trường thpt của tôi. Tôi sinh năm 2001. Năm 2016, tôi đã đậu được vào ngôi trường...",
      "image": null,
      "label": null,
      "display": "text-only",
      "type": "text",
      "enable_detail": true,
      "related": {
        "url": "https://truyenx.link/truyensextv/channels/related/3782",
        "request_headers": []
      },
      "share": {
        "url": "https://truyenx.link/truyensextv/channels/share/co-giao-dam"
      },
      "remote_data": {
        "url": "https://truyenx.link/truyensextv/channels/co-giao-dam"
      }
    },
    {
      "id": "3781-channel",
      "name": "Hành trình chịch cả lớp học",
      "description": "Dũng Năm nay, tôi đã lên lớp 7, độ dâm của tôi cũng nhân lên nhiều lần. Một hôm nọ, đang chơi mèo đuổi chuột, thằng Dũng ôm tôi từ đằng sau, tay nó mơn man trên ngực của tôi...",
      "image": null,
      "label": null,
      "display": "text-only",
      "type": "text",
      "enable_detail": true,
      "related": {
        "url": "https://truyenx.link/truyensextv/channels/related/3781",
        "request_headers": []
      },
      "share": {
        "url": "https://truyenx.link/truyensextv/channels/share/hanh-trinh-chich-ca-lop-hoc"
      },
      "remote_data": {
        "url": "https://truyenx.link/truyensextv/channels/hanh-trinh-chich-ca-lop-hoc"
      }
    },
    {
      "id": "3780-channel",
      "name": "Vợ sếp đa tình",
      "description": "Tôi là Tùng, một sinh viên mới ra trường và được nhận vào một công ty máy tính để làm việc. Có thể nói tôi là một người khá là đẹp trai và to lớn. Tôi thường tập thể thao...",
      "image": null,
      "label": null,
      "display": "text-only",
      "type": "text",
      "enable_detail": true,
      "related": {
        "url": "https://truyenx.link/truyensextv/channels/related/3780",
        "request_headers": []
      },
      "share": {
        "url": "https://truyenx.link/truyensextv/channels/share/vo-sep-da-tinh"
      },
      "remote_data": {
        "url": "https://truyenx.link/truyensextv/channels/vo-sep-da-tinh"
      }
    },
    {
      "id": "3779-channel",
      "name": "Ma Ngải",
      "description": "Bùa yêu Tại một công trường đang trong quá trình thi công đã hoàn thành gần 90%, giờ chỉ còn một bước nữa là tô bê, thêm một vài công đoạn nữa là có thể khánh thành. Có 2...",
      "image": null,
      "label": null,
      "display": "text-only",
      "type": "text",
      "enable_detail": true,
      "related": {
        "url": "https://truyenx.link/truyensextv/channels/related/3779",
        "request_headers": []
      },
      "share": {
        "url": "https://truyenx.link/truyensextv/channels/share/ma-ngai"
      },
      "remote_data": {
        "url": "https://truyenx.link/truyensextv/channels/ma-ngai"
      }
    },
    {
      "id": "3778-channel",
      "name": "Cho bạn thân địt vợ",
      "description": "10. Hai đứa gặp nhau trong một buổi giao lưu văn nghệ của xã mà thằng bạn nối khố của tôi là Huy...",
      "image": null,
      "label": null,
      "display": "text-only",
      "type": "text",
      "enable_detail": true,
      "related": {
        "url": "https://truyenx.link/truyensextv/channels/related/3778",
        "request_headers": []
      },
      "share": {
        "url": "https://truyenx.link/truyensextv/channels/share/cho-ban-than-dit-vo"
      },
      "remote_data": {
        "url": "https://truyenx.link/truyensextv/channels/cho-ban-than-dit-vo"
      }
    },
    {
      "id": "3777-channel",
      "name": "Vợ mình, vợ người",
      "description": "Tôi, Hùng, Dũng cùng chơi thân với nhau từ hồi bé. Lớn lên thì Hùng học giỏi nên đi nước ngoài và ở đó luôn. Dũng thì ở lại trong nước buôn bán và cũng có một cửa hàng xe máy...",
      "image": null,
      "label": null,
      "display": "text-only",
      "type": "text",
      "enable_detail": true,
      "related": {
        "url": "https://truyenx.link/truyensextv/channels/related/3777",
        "request_headers": []
      },
      "share": {
        "url": "https://truyenx.link/truyensextv/channels/share/vo-minh-vo-nguoi"
      },
      "remote_data": {
        "url": "https://truyenx.link/truyensextv/channels/vo-minh-vo-nguoi"
      }
    },
    {
      "id": "3776-channel",
      "name": "Vợ làm thuê",
      "description": "Tại một khu phố đông đúc, xe cộ cùng dòng người qua lại tấp nập, người nước ngoài, trong nước, đủ các loại da xanh, vàng, trắng, đen điều có hết... Đặc biệt bọn da xanh...",
      "image": null,
      "label": null,
      "display": "text-only",
      "type": "text",
      "enable_detail": true,
      "related": {
        "url": "https://truyenx.link/truyensextv/channels/related/3776",
        "request_headers": []
      },
      "share": {
        "url": "https://truyenx.link/truyensextv/channels/share/vo-lam-thue"
      },
      "remote_data": {
        "url": "https://truyenx.link/truyensextv/channels/vo-lam-thue"
      }
    },
    {
      "id": "3775-channel",
      "name": "Chơi mẹ vợ dâm đãng",
      "description": "Chuyện là tôi có một người vợ vô cùng xinh đẹp, cô ấy di truyền nhan sắc từ người mẹ của mình. Tôi năm nay 26 tuổi, còn cô ấy 27. Chúng tôi yêu nhau từ những ngày ngồi trên...",
      "image": null,
      "label": null,
      "display": "text-only",
      "type": "text",
      "enable_detail": true,
      "related": {
        "url": "https://truyenx.link/truyensextv/channels/related/3775",
        "request_headers": []
      },
      "share": {
        "url": "https://truyenx.link/truyensextv/channels/share/choi-me-vo-dam-dang"
      },
      "remote_data": {
        "url": "https://truyenx.link/truyensextv/channels/choi-me-vo-dam-dang"
      }
    },
    {
      "id": "3774-channel",
      "name": "Sở thích biến thái",
      "description": "Khoả thân nơi công cộng Chào mọi người, tôi là Nam và tôi có 1 cô bạn gái là Na. Chúng tôi yêu nhau từ thời đại học, đến giờ đã ngót nghét 6 năm. Cũng nhờ có xuất thân trong...",
      "image": null,
      "label": null,
      "display": "text-only",
      "type": "text",
      "enable_detail": true,
      "related": {
        "url": "https://truyenx.link/truyensextv/channels/related/3774",
        "request_headers": []
      },
      "share": {
        "url": "https://truyenx.link/truyensextv/channels/share/so-thich-bien-thai"
      },
      "remote_data": {
        "url": "https://truyenx.link/truyensextv/channels/so-thich-bien-thai"
      }
    },
    {
      "id": "3772-channel",
      "name": "Ám ảnh tuổi thơ",
      "description": "Tôi là một thanh niên ít nói, trầm lặng. Tôi có ít bạn bè lắm. Bạn gái thì hầu như không có. Thời đi học của tôi trôi qua thật là lặng lẽ. Hết giờ học tôi chỉ có đi về...",
      "image": null,
      "label": null,
      "display": "text-only",
      "type": "text",
      "enable_detail": true,
      "related": {
        "url": "https://truyenx.link/truyensextv/channels/related/3772",
        "request_headers": []
      },
      "share": {
        "url": "https://truyenx.link/truyensextv/channels/share/am-anh-tuoi-tho"
      },
      "remote_data": {
        "url": "https://truyenx.link/truyensextv/channels/am-anh-tuoi-tho"
      }
    },
    {
      "id": "3773-channel",
      "name": "Nghệ Phong - Quyển 1",
      "description": "Xuyên qua lễ tang chúc mừng Khụ, đáng tiếc, tuy rằng tiểu thiếu gia người đê tiện một chút, vô sỉ một chút, thế nhưng đối với chúng ta rất tốt a, vì sao kinh mạch lại đứt...",
      "image": null,
      "label": null,
      "display": "text-only",
      "type": "text",
      "enable_detail": true,
      "related": {
        "url": "https://truyenx.link/truyensextv/channels/related/3773",
        "request_headers": []
      },
      "share": {
        "url": "https://truyenx.link/truyensextv/channels/share/nghe-phong-quyen-1"
      },
      "remote_data": {
        "url": "https://truyenx.link/truyensextv/channels/nghe-phong-quyen-1"
      }
    },
    {
      "id": "3771-channel",
      "name": "Nhỏ Lan",
      "description": "Một ngày dài ở sở qua, tôi quyết định đến apartment bạn gái chơi, nghỉ ngơi và xem có được bữa ăn nào không. Thời tiết bên ngoài thiệt lạnh khốn cùng, tụi tôi sẽ ôm ấp nhau...",
      "image": null,
      "label": null,
      "display": "text-only",
      "type": "text",
      "enable_detail": true,
      "related": {
        "url": "https://truyenx.link/truyensextv/channels/related/3771",
        "request_headers": []
      },
      "share": {
        "url": "https://truyenx.link/truyensextv/channels/share/nho-lan"
      },
      "remote_data": {
        "url": "https://truyenx.link/truyensextv/channels/nho-lan"
      }
    },
    {
      "id": "3770-channel",
      "name": "Vợ chồng hoang dâm",
      "description": "Ư... anh địt mạnh lên... a... aaa... đã quá... sướng quá... Tiếng vợ tôi rên khi con cặc của tôi cắm thật sâu vào bên trong cái lồn lồn của vợ. Vừa bóp cái cặp mông trắng hồng...",
      "image": null,
      "label": null,
      "display": "text-only",
      "type": "text",
      "enable_detail": true,
      "related": {
        "url": "https://truyenx.link/truyensextv/channels/related/3770",
        "request_headers": []
      },
      "share": {
        "url": "https://truyenx.link/truyensextv/channels/share/vo-chong-hoang-dam"
      },
      "remote_data": {
        "url": "https://truyenx.link/truyensextv/channels/vo-chong-hoang-dam"
      }
    },
    {
      "id": "3769-channel",
      "name": "Người mẹ chu đáo",
      "description": "Mẹ tôi, Claura, là một người rất chu đáo và thương yêu tôi, bà rất yếu khi mang thai tôi, sau khi sinh thì bác sĩ nói bà sẽ không bao giờ có thêm đứa con nào nửa, thật là một cú...",
      "image": null,
      "label": null,
      "display": "text-only",
      "type": "text",
      "enable_detail": true,
      "related": {
        "url": "https://truyenx.link/truyensextv/channels/related/3769",
        "request_headers": []
      },
      "share": {
        "url": "https://truyenx.link/truyensextv/channels/share/nguoi-me-chu-dao"
      },
      "remote_data": {
        "url": "https://truyenx.link/truyensextv/channels/nguoi-me-chu-dao"
      }
    },
    {
      "id": "3768-channel",
      "name": "Bí mật đại gia đình",
      "description": "Yêu xa Huyền và Duy biết nhau qua mạng xã hội, và từ những cuộc trò chuyện đầu tiên, cô đã cảm thấy một sự kết nối đặc biệt. Duy luôn lắng nghe và chia sẻ những câu chuyện...",
      "image": null,
      "label": null,
      "display": "text-only",
      "type": "text",
      "enable_detail": true,
      "related": {
        "url": "https://truyenx.link/truyensextv/channels/related/3768",
        "request_headers": []
      },
      "share": {
        "url": "https://truyenx.link/truyensextv/channels/share/bi-mat-dai-gia-dinh"
      },
      "remote_data": {
        "url": "https://truyenx.link/truyensextv/channels/bi-mat-dai-gia-dinh"
      }
    },
    {
      "id": "3767-channel",
      "name": "Ngựa quen đường cũ",
      "description": "Một buổi sáng tháng ba... Tại một trại cải tạo thuộc tỉnh X gần bìa rừng, nó nối với đường quốc lộ bằng một con đường đất đỏ ngoằn ngoèo băng qua một khoảng rừng...",
      "image": null,
      "label": null,
      "display": "text-only",
      "type": "text",
      "enable_detail": true,
      "related": {
        "url": "https://truyenx.link/truyensextv/channels/related/3767",
        "request_headers": []
      },
      "share": {
        "url": "https://truyenx.link/truyensextv/channels/share/ngua-quen-duong-cu"
      },
      "remote_data": {
        "url": "https://truyenx.link/truyensextv/channels/ngua-quen-duong-cu"
      }
    },
    {
      "id": "3766-channel",
      "name": "Nghề không vốn",
      "description": "Nói đến nghề không vốn, người ta thường liên tưởng đến các cô gái phấn son. Tội nghiệp cho thân phận đàn bà. Nếu không có lầu xanh thì có lẽ “nhà tù sẽ nhiều hơn...",
      "image": null,
      "label": null,
      "display": "text-only",
      "type": "text",
      "enable_detail": true,
      "related": {
        "url": "https://truyenx.link/truyensextv/channels/related/3766",
        "request_headers": []
      },
      "share": {
        "url": "https://truyenx.link/truyensextv/channels/share/nghe-khong-von"
      },
      "remote_data": {
        "url": "https://truyenx.link/truyensextv/channels/nghe-khong-von"
      }
    },
    {
      "id": "3765-channel",
      "name": "Ngày lễ tình nhân",
      "description": "Lễ tình nhân... Tôi tặng em đóa hoa... Đóa hoa hồng đỏ thắm... Em mỉm môi cười... Ôm vội... Bờ môi mọng... Ta trao nhau... Nụ hôn... Nụ hôn... Bừng tỉnh... Bức xúc... Vạn vật...",
      "image": null,
      "label": null,
      "display": "text-only",
      "type": "text",
      "enable_detail": true,
      "related": {
        "url": "https://truyenx.link/truyensextv/channels/related/3765",
        "request_headers": []
      },
      "share": {
        "url": "https://truyenx.link/truyensextv/channels/share/ngay-le-tinh-nhan"
      },
      "remote_data": {
        "url": "https://truyenx.link/truyensextv/channels/ngay-le-tinh-nhan"
      }
    },
    {
      "id": "3764-channel",
      "name": "Ngày mai rồi sẽ ra sao",
      "description": "Hắn bắt đầu có ý nghĩ làm tình với mẹ mình kể từ khi tình cờ thấy mẹ mình trong phòng tắm. Hôm đó hắn trở về nhà hơi sớm hơn thường lệ rồi tình cờ đi ngang phòng tắm...",
      "image": null,
      "label": null,
      "display": "text-only",
      "type": "text",
      "enable_detail": true,
      "related": {
        "url": "https://truyenx.link/truyensextv/channels/related/3764",
        "request_headers": []
      },
      "share": {
        "url": "https://truyenx.link/truyensextv/channels/share/ngay-mai-roi-se-ra-sao"
      },
      "remote_data": {
        "url": "https://truyenx.link/truyensextv/channels/ngay-mai-roi-se-ra-sao"
      }
    },
    {
      "id": "3763-channel",
      "name": "Mùa hè qua mau",
      "description": "Khi Nhân lái xe từ New York qua New Jersey qua Pennsylvania đến tiểu bang Delaware thăm Diệu. Mười lăm năm sau mới biết tin tức nhau. Nhân đã có vợ còn Diệu đã có chồng. Thời còn ở...",
      "image": null,
      "label": null,
      "display": "text-only",
      "type": "text",
      "enable_detail": true,
      "related": {
        "url": "https://truyenx.link/truyensextv/channels/related/3763",
        "request_headers": []
      },
      "share": {
        "url": "https://truyenx.link/truyensextv/channels/share/mua-he-qua-mau"
      },
      "remote_data": {
        "url": "https://truyenx.link/truyensextv/channels/mua-he-qua-mau"
      }
    },
    {
      "id": "3762-channel",
      "name": "Mỹ Hương",
      "description": "Mỹ Hương giơ cao cánh tay trái của mình. Vùng nách trắng trẻo và trơn láng của nàng hiện ra rõ mồm một. Mỹ Hương đưa tay phải của mình lấy chai lăn nách và lăn đều lên da thịt...",
      "image": null,
      "label": null,
      "display": "text-only",
      "type": "text",
      "enable_detail": true,
      "related": {
        "url": "https://truyenx.link/truyensextv/channels/related/3762",
        "request_headers": []
      },
      "share": {
        "url": "https://truyenx.link/truyensextv/channels/share/my-huong"
      },
      "remote_data": {
        "url": "https://truyenx.link/truyensextv/channels/my-huong"
      }
    },
    {
      "id": "3761-channel",
      "name": "Những người bạn tình của cô giáo Mai",
      "description": "Mai, 26 tuổi là một giáo viên trẻ tại trường ĐH S nổi tiếng tại thành phố, tuy còn trẻ nhưng cô có thành tích học tập đáng ngưỡng mộ nên dễ dàng trở thành một giáo viên tại...",
      "image": null,
      "label": null,
      "display": "text-only",
      "type": "text",
      "enable_detail": true,
      "related": {
        "url": "https://truyenx.link/truyensextv/channels/related/3761",
        "request_headers": []
      },
      "share": {
        "url": "https://truyenx.link/truyensextv/channels/share/nhung-nguoi-ban-tinh-cua-co-giao-mai"
      },
      "remote_data": {
        "url": "https://truyenx.link/truyensextv/channels/nhung-nguoi-ban-tinh-cua-co-giao-mai"
      }
    }
  ],
  "load_more": {
    "pageInfo": {
      "current_page": 34,
      "last_page": 140,
      "per_page": 30,
      "total": 4188
    },
    "paging": {
      "page_key": "page",
      "size_key": "size"
    },
    "remote_data": {
      "url": "https://truyenx.link/truyensextv/channels"
    }
  }
}