{"grid_number":1,"channels":[{"id":"2978-channel","name":"Người vợ không thích dùng BCS","description":"Năm học đầu tiên của tôi: Mùa hè năm Lệ Hoa vừa học hết xong lớp 9 và tôi cũng học hết năm thứ nhất Trường ĐH Cần Thơ khoa Nông Nghiệp, tôi trở về quê hương thăm người...","image":null,"label":null,"display":"text-only","type":"text","enable_detail":true,"related":{"url":"https://truyenx.link/truyensextv/channels/related/2978","request_headers":[]},"share":{"url":"https://truyenx.link/truyensextv/channels/share/nguoi-vo-khong-thich-dung-bcs"},"remote_data":{"url":"https://truyenx.link/truyensextv/channels/nguoi-vo-khong-thich-dung-bcs"}},{"id":"2977-channel","name":"Lương Sơn Bá - Chúc Anh Đài","description":"Cha, chuyện hôn sự của con sao cha lại vội quyết định mà không hỏi ý kiến con... Con gái à, cha làm như vậy cũng là vì không còn cách nào khác, chỉ có con mới giúp được gia đình...","image":null,"label":null,"display":"text-only","type":"text","enable_detail":true,"related":{"url":"https://truyenx.link/truyensextv/channels/related/2977","request_headers":[]},"share":{"url":"https://truyenx.link/truyensextv/channels/share/luong-son-ba-chuc-anh-dai"},"remote_data":{"url":"https://truyenx.link/truyensextv/channels/luong-son-ba-chuc-anh-dai"}},{"id":"2975-channel","name":"Duyên chị, duyên em","description":"Phượng nói với chồng: Em thấy thương chị Thủy quá anh à. Từ lúc chỉ bị mất việc vì công ty đóng cửa thì chỉ gặp rất nhiều khó khăn. Nhìn chị lủi thủi một mình em thấy...","image":null,"label":null,"display":"text-only","type":"text","enable_detail":true,"related":{"url":"https://truyenx.link/truyensextv/channels/related/2975","request_headers":[]},"share":{"url":"https://truyenx.link/truyensextv/channels/share/duyen-chi-duyen-em"},"remote_data":{"url":"https://truyenx.link/truyensextv/channels/duyen-chi-duyen-em"}},{"id":"2976-channel","name":"Bạn của ông anh","description":"Mình năm nay 28t, và câu chuyện mình muốn kể là cách đây khá lâu rồi, hồi còn trẻ trâu chưa va chạm gì mấy. Sơ qua là hồi đó mình học hết có cấp 3 rồi nghỉ, 18 tuổi ra ngoài...","image":null,"label":null,"display":"text-only","type":"text","enable_detail":true,"related":{"url":"https://truyenx.link/truyensextv/channels/related/2976","request_headers":[]},"share":{"url":"https://truyenx.link/truyensextv/channels/share/ban-cua-ong-anh"},"remote_data":{"url":"https://truyenx.link/truyensextv/channels/ban-cua-ong-anh"}},{"id":"2974-channel","name":"Nguyệt Kiều sư nương","description":"Vu Gia Thôn Thêm ba ngày trôi qua, La Phong rốt cuộc thức tỉnh, hắn lúc này cũng chỉ cử động được mấy ngón tay, ánh mắt chậm chạp nhìn gian nhà gỗ cũ kỹ, kiến trúc cổ lạ mắt...","image":null,"label":null,"display":"text-only","type":"text","enable_detail":true,"related":{"url":"https://truyenx.link/truyensextv/channels/related/2974","request_headers":[]},"share":{"url":"https://truyenx.link/truyensextv/channels/share/nguyet-kieu-su-nuong"},"remote_data":{"url":"https://truyenx.link/truyensextv/channels/nguyet-kieu-su-nuong"}},{"id":"2973-channel","name":"Cô bác sĩ dâm đãng","description":"Phải nói rằng Hữu Tuấn cực kỳ may mắn khi vừa lấy được Diễm Trang làm vợ, một người vừa đẹp vừa ngoan, dáng dong dỏng cao, da trắng, tóc đen, cô không hề bon chen theo nhịp...","image":null,"label":null,"display":"text-only","type":"text","enable_detail":true,"related":{"url":"https://truyenx.link/truyensextv/channels/related/2973","request_headers":[]},"share":{"url":"https://truyenx.link/truyensextv/channels/share/co-bac-si-dam-dang"},"remote_data":{"url":"https://truyenx.link/truyensextv/channels/co-bac-si-dam-dang"}},{"id":"2972-channel","name":"Không khép nổi chân","description":"Năm 2019... Từ Nhuyễn bị Phương Kiều Kiều đẩy xuống từ tầng 38 của tòa nhà. Khi cô chưa kịp phản ứng lại thì đã bị Phương Kiều Kiều với khuôn mặt vặn vẹo đẩy xuống...","image":null,"label":null,"display":"text-only","type":"text","enable_detail":true,"related":{"url":"https://truyenx.link/truyensextv/channels/related/2972","request_headers":[]},"share":{"url":"https://truyenx.link/truyensextv/channels/share/khong-khep-noi-chan"},"remote_data":{"url":"https://truyenx.link/truyensextv/channels/khong-khep-noi-chan"}},{"id":"2971-channel","name":"Chuyện nhà","description":"Tôi nghĩ đi, nghĩ lại xem có nên viết ra chuyện nhà mình không. Nên chăng “Vạch áo cho người xem lưng” như các cụ thường bảo thế cho nên tôi đắn đo nhiều đêm. Nhưng...","image":null,"label":null,"display":"text-only","type":"text","enable_detail":true,"related":{"url":"https://truyenx.link/truyensextv/channels/related/2971","request_headers":[]},"share":{"url":"https://truyenx.link/truyensextv/channels/share/chuyen-nha"},"remote_data":{"url":"https://truyenx.link/truyensextv/channels/chuyen-nha"}},{"id":"2970-channel","name":"Mối quan hệ giữa người mẹ và đứa con út","description":"Câu chuyện này xảy ra ở một vùng quê, tại ngôi nhà của 1 gia đình. Nhà họ ở trong 1 con đường mòn, phía sau là đồng ruộng. Ông Hùng 43 tuổi đang làm công nhân, bà Nhi 39 tuổi...","image":null,"label":null,"display":"text-only","type":"text","enable_detail":true,"related":{"url":"https://truyenx.link/truyensextv/channels/related/2970","request_headers":[]},"share":{"url":"https://truyenx.link/truyensextv/channels/share/moi-quan-he-giua-nguoi-me-va-dua-con-ut"},"remote_data":{"url":"https://truyenx.link/truyensextv/channels/moi-quan-he-giua-nguoi-me-va-dua-con-ut"}},{"id":"2969-channel","name":"Thằng may mắn","description":"Mở đầu tôi xin tự giới thiệu tôi tên là Phúc sinh ra trong một gia đình đủ ăn đủ mặc ở vùng ngoại thành Hà Nội. Tôi tiếp xúc với sex khá sớm từ lúc bắt đầu lớp 4. Hôm...","image":null,"label":null,"display":"text-only","type":"text","enable_detail":true,"related":{"url":"https://truyenx.link/truyensextv/channels/related/2969","request_headers":[]},"share":{"url":"https://truyenx.link/truyensextv/channels/share/thang-may-man"},"remote_data":{"url":"https://truyenx.link/truyensextv/channels/thang-may-man"}},{"id":"2968-channel","name":"Người mẹ chảnh","description":"Liên là một người phụ nữ xinh đẹp, cực kỳ xinh đẹp, xinh đẹp đến mức không có người đàn ông nào có thể cưỡng lại được nàng, nhấn mạnh là không có ai nhé! Nhưng nàng...","image":null,"label":null,"display":"text-only","type":"text","enable_detail":true,"related":{"url":"https://truyenx.link/truyensextv/channels/related/2968","request_headers":[]},"share":{"url":"https://truyenx.link/truyensextv/channels/share/nguoi-me-chanh"},"remote_data":{"url":"https://truyenx.link/truyensextv/channels/nguoi-me-chanh"}},{"id":"2967-channel","name":"Mông vợ dính tinh trùng thằng khác","description":"Phần Tôi là một nhân viên IT, năm nay 34 tuổi và vợ tôi là Quỳnh Như, 28 tuổi, đang làm thiết cho một công ty quần áo. Đã tám năm trôi qua kể từ khi tôi và vợ tôi Quỳnh Như yêu...","image":null,"label":null,"display":"text-only","type":"text","enable_detail":true,"related":{"url":"https://truyenx.link/truyensextv/channels/related/2967","request_headers":[]},"share":{"url":"https://truyenx.link/truyensextv/channels/share/mong-vo-dinh-tinh-trung-thang-khac"},"remote_data":{"url":"https://truyenx.link/truyensextv/channels/mong-vo-dinh-tinh-trung-thang-khac"}},{"id":"2966-channel","name":"Cuối đời học sinh","description":"Reeengg reeng! Dậy đi học M ơi! Mẹ tôi gào thét ngoài cửa kèm tiếng chuông báo thức làm tôi bất giác bật dậy, làm các thủ tục cá nhân cho ngày mới. Tiền xăng xe ăn sáng mẹ để...","image":null,"label":null,"display":"text-only","type":"text","enable_detail":true,"related":{"url":"https://truyenx.link/truyensextv/channels/related/2966","request_headers":[]},"share":{"url":"https://truyenx.link/truyensextv/channels/share/cuoi-doi-hoc-sinh"},"remote_data":{"url":"https://truyenx.link/truyensextv/channels/cuoi-doi-hoc-sinh"}},{"id":"2965-channel","name":"Hắn","description":"Ngồi trên bàn rửa mặt, trong nhà tắm, hắn thủ dâm miết như một kẻ mất hồn, tay vuốt xuôi theo sống lưng dương vật, mắt lim dim hưởng thụ, tưởng tượng tới âm hộ con Thúy...","image":null,"label":null,"display":"text-only","type":"text","enable_detail":true,"related":{"url":"https://truyenx.link/truyensextv/channels/related/2965","request_headers":[]},"share":{"url":"https://truyenx.link/truyensextv/channels/share/han"},"remote_data":{"url":"https://truyenx.link/truyensextv/channels/han"}},{"id":"2964-channel","name":"Những người đàn bà xung quanh tôi","description":"Cho đến bây giờ, khi gõ từng chữ trên này, những cảm xúc đó vẫn như mới ngày đầu. Khát khao, đam mê, tội lỗi và cả ngọt ngào. Một ngày vào đầu tháng 8, thế là năm nay tôi...","image":null,"label":null,"display":"text-only","type":"text","enable_detail":true,"related":{"url":"https://truyenx.link/truyensextv/channels/related/2964","request_headers":[]},"share":{"url":"https://truyenx.link/truyensextv/channels/share/nhung-nguoi-dan-ba-xung-quanh-toi"},"remote_data":{"url":"https://truyenx.link/truyensextv/channels/nhung-nguoi-dan-ba-xung-quanh-toi"}},{"id":"2963-channel","name":"Yêu gia sư","description":"Vương Mỹ Ngọc hiện tại đang là sinh viên năm nhất Trường đại học Tài chính Ngân hàng, hoàn cảnh gia đình ở quê của cô cũng bình thường đủ ăn đủ mặc không quá khá giả, ở...","image":null,"label":null,"display":"text-only","type":"text","enable_detail":true,"related":{"url":"https://truyenx.link/truyensextv/channels/related/2963","request_headers":[]},"share":{"url":"https://truyenx.link/truyensextv/channels/share/yeu-gia-su"},"remote_data":{"url":"https://truyenx.link/truyensextv/channels/yeu-gia-su"}},{"id":"2962-channel","name":"Chuyện thằng Hợp","description":"Tôi cùng Tiến bước vào một nhà hàng trên đường LVL, tầm giờ đó quán đông nghẹt khách. Tiến đã đặt trước một bàn ở góc khuất cuối nhà hàng, hai thằng đá ghế định ngồi...","image":null,"label":null,"display":"text-only","type":"text","enable_detail":true,"related":{"url":"https://truyenx.link/truyensextv/channels/related/2962","request_headers":[]},"share":{"url":"https://truyenx.link/truyensextv/channels/share/chuyen-thang-hop"},"remote_data":{"url":"https://truyenx.link/truyensextv/channels/chuyen-thang-hop"}},{"id":"2961-channel","name":"Đụ cô hàng xóm mùa Covid khi chồng vắng nhà","description":"Thời điểm bùng phát dịch bệnh năm 2021 thực sự đã quá kinh khủng, nhất là tphcm, khi đó phong tỏa hết thành phố, và tôi cũng không ngoại lệ... Tôi ở chung cư nên cũng đỡ, chỉ...","image":null,"label":null,"display":"text-only","type":"text","enable_detail":true,"related":{"url":"https://truyenx.link/truyensextv/channels/related/2961","request_headers":[]},"share":{"url":"https://truyenx.link/truyensextv/channels/share/du-co-hang-xom-mua-covid-khi-chong-vang-nha"},"remote_data":{"url":"https://truyenx.link/truyensextv/channels/du-co-hang-xom-mua-covid-khi-chong-vang-nha"}},{"id":"2960-channel","name":"Kim Vân Kiều dục truyện","description":"Lời tựa của tác giả: Từ xưa đến nay Truyện Kiều vẫn luôn được coi là tác phẩm tiêu biểu của văn học Việt Nam. Tuy được lấy cốt truyện từ “Kim Vân Kiều Truyện”...","image":null,"label":null,"display":"text-only","type":"text","enable_detail":true,"related":{"url":"https://truyenx.link/truyensextv/channels/related/2960","request_headers":[]},"share":{"url":"https://truyenx.link/truyensextv/channels/share/kim-van-kieu-duc-truyen"},"remote_data":{"url":"https://truyenx.link/truyensextv/channels/kim-van-kieu-duc-truyen"}},{"id":"2959-channel","name":"Yêu mẹ như nước triều dâng","description":"Tại một thành phố cấp tỉnh bên cạnh thủ phủ của tỉnh, câu chuyện mà tôi muốn kể hôm nay là những gì đã xảy ra kể từ khi tôi đến với thế giới này. Câu chuyện tôi sắp...","image":null,"label":null,"display":"text-only","type":"text","enable_detail":true,"related":{"url":"https://truyenx.link/truyensextv/channels/related/2959","request_headers":[]},"share":{"url":"https://truyenx.link/truyensextv/channels/share/yeu-me-nhu-nuoc-trieu-dang"},"remote_data":{"url":"https://truyenx.link/truyensextv/channels/yeu-me-nhu-nuoc-trieu-dang"}},{"id":"2958-channel","name":"Gia đình đầm ấm","description":"Tôi đưa con đi học thêm ngoại ngữ vào sáng thứ 7 hàng tuần. Thằng bé mới 8 tuổi. Trường cách nhà non một cây số. Trên đường về ghé quán Cafe như mọi ngày. Ngồi nhâm nhi ly Cafe...","image":null,"label":null,"display":"text-only","type":"text","enable_detail":true,"related":{"url":"https://truyenx.link/truyensextv/channels/related/2958","request_headers":[]},"share":{"url":"https://truyenx.link/truyensextv/channels/share/gia-dinh-dam-am"},"remote_data":{"url":"https://truyenx.link/truyensextv/channels/gia-dinh-dam-am"}},{"id":"2957-channel","name":"Dục vọng sâu thẳm","description":"Sáng sớm Kiều Hạ Linh đã đến tập đoàn Vũ Hoàng từ rất sớm, hôm nay là ngày đầu tiên cô bắt đầu công việc của mình nên muốn ghi điểm trong mắt sếp để cuộc sống sau này...","image":null,"label":null,"display":"text-only","type":"text","enable_detail":true,"related":{"url":"https://truyenx.link/truyensextv/channels/related/2957","request_headers":[]},"share":{"url":"https://truyenx.link/truyensextv/channels/share/duc-vong-sau-tham"},"remote_data":{"url":"https://truyenx.link/truyensextv/channels/duc-vong-sau-tham"}},{"id":"2956-channel","name":"Chinh phục gái đẹp - Chương 9","description":"Chu Khánh Huy, anh cứ như vậy mà đi sao, anh gây nhiều chuyện như vậy, trước mặt mọi người dung túng cho người của mình đùa giỡn nữ sinh, dung túng hắn hành hung giết người, cứ...","image":null,"label":null,"display":"text-only","type":"text","enable_detail":true,"related":{"url":"https://truyenx.link/truyensextv/channels/related/2956","request_headers":[]},"share":{"url":"https://truyenx.link/truyensextv/channels/share/chinh-phuc-gai-dep-chuong-9"},"remote_data":{"url":"https://truyenx.link/truyensextv/channels/chinh-phuc-gai-dep-chuong-9"}},{"id":"2955-channel","name":"Bắt cóc hiếp dâm em Hằng","description":"Hằng xuất thân là một cô gái vùng đất đỏ Bình Phước, năm nay vừa tròn 19 tuổi. Gia cảnh khá giả nên từ nhỏ, Hằng đã được cưng chiều, yêu thương vô bờ bến bởi cha mẹ...","image":null,"label":null,"display":"text-only","type":"text","enable_detail":true,"related":{"url":"https://truyenx.link/truyensextv/channels/related/2955","request_headers":[]},"share":{"url":"https://truyenx.link/truyensextv/channels/share/bat-coc-hiep-dam-em-hang"},"remote_data":{"url":"https://truyenx.link/truyensextv/channels/bat-coc-hiep-dam-em-hang"}},{"id":"2954-channel","name":"Thuốc tàng hình","description":"Vào buổi chiều nọ thằng Dũng ngồi bên bàn học tay cầm lọ thuốc ngủ, nó quyết định uống tự tử. Kinh tế gia đình sa sút, ba nó suốt ngày say rồi về đánh nó, trên lớp thì...","image":null,"label":null,"display":"text-only","type":"text","enable_detail":true,"related":{"url":"https://truyenx.link/truyensextv/channels/related/2954","request_headers":[]},"share":{"url":"https://truyenx.link/truyensextv/channels/share/thuoc-tang-hinh"},"remote_data":{"url":"https://truyenx.link/truyensextv/channels/thuoc-tang-hinh"}},{"id":"2953-channel","name":"Thác loạn gia đình chị chủ","description":"Bắt quả tang bé xem sex Cách 4 năm trước mình có làm cho 1 chị chủ tiệm phụ tùng xe, khi làm cho chị được gần nửa năm quen thuộc công việc bán hàng cùng với đưa đón 2 cô con gái...","image":null,"label":null,"display":"text-only","type":"text","enable_detail":true,"related":{"url":"https://truyenx.link/truyensextv/channels/related/2953","request_headers":[]},"share":{"url":"https://truyenx.link/truyensextv/channels/share/thac-loan-gia-dinh-chi-chu"},"remote_data":{"url":"https://truyenx.link/truyensextv/channels/thac-loan-gia-dinh-chi-chu"}},{"id":"2952-channel","name":"Cơn nứng","description":"Chập Chững Hi mọi người! Mọi người bắt đầu biết đến chuyện con gái từ khi nào ớ? Còn tui, 1 con đàn bà mang tên đàn ông thì bắt đầu từ khi tui học lớp 6. Tui là Phú Minh, 21...","image":null,"label":null,"display":"text-only","type":"text","enable_detail":true,"related":{"url":"https://truyenx.link/truyensextv/channels/related/2952","request_headers":[]},"share":{"url":"https://truyenx.link/truyensextv/channels/share/con-nung"},"remote_data":{"url":"https://truyenx.link/truyensextv/channels/con-nung"}},{"id":"2951-channel","name":"Anh rể loạn luân với em vợ","description":"“Nay em có ra ruộng không, anh thấy người ta đang cho máy gặt về đầu cánh đồng mình rồi đấy”. Nam nói với vợ của mình khi thấy cô vừa đi từ ngoài công vào... “Em...","image":null,"label":null,"display":"text-only","type":"text","enable_detail":true,"related":{"url":"https://truyenx.link/truyensextv/channels/related/2951","request_headers":[]},"share":{"url":"https://truyenx.link/truyensextv/channels/share/anh-re-loan-luan-voi-em-vo"},"remote_data":{"url":"https://truyenx.link/truyensextv/channels/anh-re-loan-luan-voi-em-vo"}},{"id":"2950-channel","name":"Hoàng đế hoang dâm","description":"Chịch ngoài tuyết, dùng bướm mài mực cho hoàng đế viết công văn Giữa nền tuyết trắng xóa trong hoàng cung nguy nga lộng lẫy, hai dáng hình một trắng một đen đang giao hòa nhau, trao...","image":null,"label":null,"display":"text-only","type":"text","enable_detail":true,"related":{"url":"https://truyenx.link/truyensextv/channels/related/2950","request_headers":[]},"share":{"url":"https://truyenx.link/truyensextv/channels/share/hoang-de-hoang-dam"},"remote_data":{"url":"https://truyenx.link/truyensextv/channels/hoang-de-hoang-dam"}},{"id":"2949-channel","name":"Phá trinh con gái","description":"Linh xuất thân là con gái một gia đình khá giả, cô vừa tròn 15t, khuôn mặt xinh xắn với chiếc cằm siêu phẩm của bố mẹ tặng. Dưới Linh còn 2 em gái nữa hơn kém nhau 2 tuổi. Hôm...","image":null,"label":null,"display":"text-only","type":"text","enable_detail":true,"related":{"url":"https://truyenx.link/truyensextv/channels/related/2949","request_headers":[]},"share":{"url":"https://truyenx.link/truyensextv/channels/share/pha-trinh-con-gai"},"remote_data":{"url":"https://truyenx.link/truyensextv/channels/pha-trinh-con-gai"}}],"load_more":{"pageInfo":{"current_page":61,"last_page":140,"per_page":30,"total":4188},"paging":{"page_key":"page","size_key":"size"},"remote_data":{"url":"https://truyenx.link/truyensextv/channels"}}}