{
  "grid_number": 1,
  "channels": [
    {
      "id": "1368-channel",
      "name": "Vợ lẹo với chó",
      "description": "Tính đến hôm nay, vợ chồng tôi đã sống với nhau đã trên 10 năm, như bao đôi vợ chồng khác, chúng tôi rất thương yêu nhau và rất hợp ý nhau, nhất là về mặt tình dục, tôi không...",
      "image": null,
      "label": null,
      "display": "text-only",
      "type": "text",
      "enable_detail": true,
      "related": {
        "url": "https://truyenx.link/truyensextv/channels/related/1368",
        "request_headers": []
      },
      "share": {
        "url": "https://truyenx.link/truyensextv/channels/share/vo-leo-voi-cho"
      },
      "remote_data": {
        "url": "https://truyenx.link/truyensextv/channels/vo-leo-voi-cho"
      }
    },
    {
      "id": "1367-channel",
      "name": "Lạc dục",
      "description": "Đã 12 giờ khuya, giờ này đáng ra tôi phải ở trên giường ngon giấc. Thì lúc này đây tôi vẫn còn phải ở văn phòng làm hết các báo cáo kế hoạch, để ngày mai trình bày trước...",
      "image": null,
      "label": null,
      "display": "text-only",
      "type": "text",
      "enable_detail": true,
      "related": {
        "url": "https://truyenx.link/truyensextv/channels/related/1367",
        "request_headers": []
      },
      "share": {
        "url": "https://truyenx.link/truyensextv/channels/share/lac-duc"
      },
      "remote_data": {
        "url": "https://truyenx.link/truyensextv/channels/lac-duc"
      }
    },
    {
      "id": "1366-channel",
      "name": "Những người đàn bà nứng lồn",
      "description": "Một buổi sáng đầu hè, thằng nhóc bật dậy tràn trề sinh lực. Nó đã 16 tuổi đang học cấp 3, một thằng nhóc ngoan và được mọi người kỳ vọng rất nhiều. Còn một năm nữa là...",
      "image": null,
      "label": null,
      "display": "text-only",
      "type": "text",
      "enable_detail": true,
      "related": {
        "url": "https://truyenx.link/truyensextv/channels/related/1366",
        "request_headers": []
      },
      "share": {
        "url": "https://truyenx.link/truyensextv/channels/share/nhung-nguoi-dan-ba-nung-lon"
      },
      "remote_data": {
        "url": "https://truyenx.link/truyensextv/channels/nhung-nguoi-dan-ba-nung-lon"
      }
    },
    {
      "id": "1365-channel",
      "name": "Sau một tháng xa cách",
      "description": "Tôi và anh xa nhau đã cả tháng. Anh nhớ tôi và tôi cũng nhớ anh. Chung quan điểm sex nên chẳng khiến khoảng cách làm tôi không nghĩ về anh. Đón xe đi khi trời xế chiều tới nơi ngồi...",
      "image": null,
      "label": null,
      "display": "text-only",
      "type": "text",
      "enable_detail": true,
      "related": {
        "url": "https://truyenx.link/truyensextv/channels/related/1365",
        "request_headers": []
      },
      "share": {
        "url": "https://truyenx.link/truyensextv/channels/share/sau-mot-thang-xa-cach"
      },
      "remote_data": {
        "url": "https://truyenx.link/truyensextv/channels/sau-mot-thang-xa-cach"
      }
    },
    {
      "id": "1364-channel",
      "name": "Một cơn mưa ngang qua",
      "description": "Hôm nay ngày Hà Nội nắng nóng, đi hội thảo về cách quản lý nguồn nhân lực. Công ty đối tác lần này không phải anh giám đốc bộ phận nhân lực đi nữa, mà thay vào đó là chị, 1...",
      "image": null,
      "label": null,
      "display": "text-only",
      "type": "text",
      "enable_detail": true,
      "related": {
        "url": "https://truyenx.link/truyensextv/channels/related/1364",
        "request_headers": []
      },
      "share": {
        "url": "https://truyenx.link/truyensextv/channels/share/mot-con-mua-ngang-qua"
      },
      "remote_data": {
        "url": "https://truyenx.link/truyensextv/channels/mot-con-mua-ngang-qua"
      }
    },
    {
      "id": "1363-channel",
      "name": "Thằng Tý tập đụ",
      "description": "Thằng Tý năm nay mới mười ba tuổi, nhưng nó bị bỏ rơi từ nhỏ... rồi được ông bà chủ nhà vốn là một trang trại chủ, nhận về nuôi... nó ngoan và hiền, ông bà chủ trang trại...",
      "image": null,
      "label": null,
      "display": "text-only",
      "type": "text",
      "enable_detail": true,
      "related": {
        "url": "https://truyenx.link/truyensextv/channels/related/1363",
        "request_headers": []
      },
      "share": {
        "url": "https://truyenx.link/truyensextv/channels/share/thang-ty-tap-du"
      },
      "remote_data": {
        "url": "https://truyenx.link/truyensextv/channels/thang-ty-tap-du"
      }
    },
    {
      "id": "1362-channel",
      "name": "Bố chồng hiếp con dâu",
      "description": "Tuấn và Huyền cưới nhau ít lâu sau khi Tuấn tốt nghiệp đại học Sài Gòn. Hai vợ chồng dành dụm tiền mua được một căn nhà nhỏ nằm không xa Tuấn tâm thành phố, tiện cho việc...",
      "image": null,
      "label": null,
      "display": "text-only",
      "type": "text",
      "enable_detail": true,
      "related": {
        "url": "https://truyenx.link/truyensextv/channels/related/1362",
        "request_headers": []
      },
      "share": {
        "url": "https://truyenx.link/truyensextv/channels/share/bo-chong-hiep-con-dau"
      },
      "remote_data": {
        "url": "https://truyenx.link/truyensextv/channels/bo-chong-hiep-con-dau"
      }
    },
    {
      "id": "1361-channel",
      "name": "Cho thằng khác đụ vợ mình",
      "description": "Tôi lập gia đình với người vợ nhỏ hơn tôi 8 tuổi, năm nay vợ tôi 26 tuổi, tính tình hiền hậu dịu dàng, gương mặt dễ thương chứ không đẹp, nhưng bù lại thân hình nàng rất ư...",
      "image": null,
      "label": null,
      "display": "text-only",
      "type": "text",
      "enable_detail": true,
      "related": {
        "url": "https://truyenx.link/truyensextv/channels/related/1361",
        "request_headers": []
      },
      "share": {
        "url": "https://truyenx.link/truyensextv/channels/share/cho-thang-khac-du-vo-minh"
      },
      "remote_data": {
        "url": "https://truyenx.link/truyensextv/channels/cho-thang-khac-du-vo-minh"
      }
    },
    {
      "id": "1360-channel",
      "name": "Thiên địa",
      "description": "Ánh trăng tròn vành vạnh đã đổ dài ra sau núi, trong sân một ngôi đạo quán tên là Hộ Hoa, vị đạo trưởng trụ trì Tô ngồi xếp bằng tọa thiền. Một nữ đệ tử xinh tươi khoác...",
      "image": null,
      "label": null,
      "display": "text-only",
      "type": "text",
      "enable_detail": true,
      "related": {
        "url": "https://truyenx.link/truyensextv/channels/related/1360",
        "request_headers": []
      },
      "share": {
        "url": "https://truyenx.link/truyensextv/channels/share/thien-dia"
      },
      "remote_data": {
        "url": "https://truyenx.link/truyensextv/channels/thien-dia"
      }
    },
    {
      "id": "1359-channel",
      "name": "Chị Vy hàng xóm",
      "description": "Từ ngày Thủy ra đi lòng tôi nhớ nhung, không bao giờ quên. Đi đâu cũng nghĩ đến nàng, mỗi con đường mà tôi đi qua lại hiện về những kí ức của tôi và Thủy. Cảm giác buồn...",
      "image": null,
      "label": null,
      "display": "text-only",
      "type": "text",
      "enable_detail": true,
      "related": {
        "url": "https://truyenx.link/truyensextv/channels/related/1359",
        "request_headers": []
      },
      "share": {
        "url": "https://truyenx.link/truyensextv/channels/share/chi-vy-hang-xom"
      },
      "remote_data": {
        "url": "https://truyenx.link/truyensextv/channels/chi-vy-hang-xom"
      }
    },
    {
      "id": "1358-channel",
      "name": "Mẹ đụ với con riêng",
      "description": "Sau khi bố Hiếu qua đời lúc hắn mới 10 tuổi, mẹ hắn Yến Lan đã lấy chồng chỉ trong vòng chưa đầy một năm sau đó. Một phần vì nàng cần một người đàn ông ở bên cạnh lúc...",
      "image": null,
      "label": null,
      "display": "text-only",
      "type": "text",
      "enable_detail": true,
      "related": {
        "url": "https://truyenx.link/truyensextv/channels/related/1358",
        "request_headers": []
      },
      "share": {
        "url": "https://truyenx.link/truyensextv/channels/share/me-du-voi-con-rieng"
      },
      "remote_data": {
        "url": "https://truyenx.link/truyensextv/channels/me-du-voi-con-rieng"
      }
    },
    {
      "id": "1357-channel",
      "name": "Dì Mai",
      "description": "Dì Mai nói muốn qua phòng hỏi thăm tôi về gia đình, vì từ khi đến phi trường thuê xe đến nơi đám cưới tôi chưa có dịp nói chuyện với đì. Sau khi hỏi thăm bố mẹ dì hỏi tôi...",
      "image": null,
      "label": null,
      "display": "text-only",
      "type": "text",
      "enable_detail": true,
      "related": {
        "url": "https://truyenx.link/truyensextv/channels/related/1357",
        "request_headers": []
      },
      "share": {
        "url": "https://truyenx.link/truyensextv/channels/share/di-mai"
      },
      "remote_data": {
        "url": "https://truyenx.link/truyensextv/channels/di-mai"
      }
    },
    {
      "id": "1356-channel",
      "name": "Bị chồng của cháu đụ",
      "description": "Đã là con người thì chắc ai cũng phải có một vài lần nhầm lẫn. Nhưng nhầm điều gì chứ trong quan hệ vợ chồng mà cũng nhầm thì khó tin lắm phải không các bạn? Thế mà tôi...",
      "image": null,
      "label": null,
      "display": "text-only",
      "type": "text",
      "enable_detail": true,
      "related": {
        "url": "https://truyenx.link/truyensextv/channels/related/1356",
        "request_headers": []
      },
      "share": {
        "url": "https://truyenx.link/truyensextv/channels/share/bi-chong-cua-chau-du"
      },
      "remote_data": {
        "url": "https://truyenx.link/truyensextv/channels/bi-chong-cua-chau-du"
      }
    },
    {
      "id": "1355-channel",
      "name": "Bi kịch gia đình",
      "description": "vẫn như mọi ngày, Lan vẫn là một người vợ, một người mẹ đảm đang như mọi ngày, thức dậy sớm để làm điểm tâm cho gia đình. Hôm nay là thứ bảy nên ông Giang đi làm...",
      "image": null,
      "label": null,
      "display": "text-only",
      "type": "text",
      "enable_detail": true,
      "related": {
        "url": "https://truyenx.link/truyensextv/channels/related/1355",
        "request_headers": []
      },
      "share": {
        "url": "https://truyenx.link/truyensextv/channels/share/bi-kich-gia-dinh"
      },
      "remote_data": {
        "url": "https://truyenx.link/truyensextv/channels/bi-kich-gia-dinh"
      }
    },
    {
      "id": "1354-channel",
      "name": "Đụ mẹ trên bãi biển",
      "description": "Câu chuyện bắt đầu xảy ra khi tôi mười năm tuổi, ngày ấy cha tôi là giám đốc một doanh nghiệp xuất khẩu lớn, ông thường xuyên vắng nhà với các cuộc họp, công tác hay nhậu...",
      "image": null,
      "label": null,
      "display": "text-only",
      "type": "text",
      "enable_detail": true,
      "related": {
        "url": "https://truyenx.link/truyensextv/channels/related/1354",
        "request_headers": []
      },
      "share": {
        "url": "https://truyenx.link/truyensextv/channels/share/du-me-tren-bai-bien"
      },
      "remote_data": {
        "url": "https://truyenx.link/truyensextv/channels/du-me-tren-bai-bien"
      }
    },
    {
      "id": "1353-channel",
      "name": "Doãn Chí Bình chi dâm",
      "description": "Trung Nguyên võ lâm đệ nhất mỹ nữ Hoàng Dung sau khi gả cho Quách Tĩnh, chuyển đến sinh sống trên Đào Hoa đảo thấm thoát đã mười sáu năm. Quách Tĩnh vì việc kháng Nguyên hộ...",
      "image": null,
      "label": null,
      "display": "text-only",
      "type": "text",
      "enable_detail": true,
      "related": {
        "url": "https://truyenx.link/truyensextv/channels/related/1353",
        "request_headers": []
      },
      "share": {
        "url": "https://truyenx.link/truyensextv/channels/share/doan-chi-binh-chi-dam"
      },
      "remote_data": {
        "url": "https://truyenx.link/truyensextv/channels/doan-chi-binh-chi-dam"
      }
    },
    {
      "id": "1352-channel",
      "name": "Con nhỏ nhà quê & ông già bệnh tật",
      "description": "Con nhỏ chờ cô chủ dắt xe đi làm xong, nó đóng cổng và bóp ổ khóa lại cho cẩn thận, đoạn trở vào nhà, lại đóng cửa cài chốt thật chắc chắn. Xong nó mới đi vào phòng người...",
      "image": null,
      "label": null,
      "display": "text-only",
      "type": "text",
      "enable_detail": true,
      "related": {
        "url": "https://truyenx.link/truyensextv/channels/related/1352",
        "request_headers": []
      },
      "share": {
        "url": "https://truyenx.link/truyensextv/channels/share/con-nho-nha-que-and-ong-gia-benh-tat"
      },
      "remote_data": {
        "url": "https://truyenx.link/truyensextv/channels/con-nho-nha-que-and-ong-gia-benh-tat"
      }
    },
    {
      "id": "1351-channel",
      "name": "Tiểu Quỳnh",
      "description": "8h tối, cái dạ dày thông báo rằng tôi đang đói, mắt nặng trĩu, đầu nhức nhưng tỉnh táo, thực ra tôi không hề muốn nó tỉnh táo, tôi bị mất ngủ ba hôm rồi, từ khi quay lại...",
      "image": null,
      "label": null,
      "display": "text-only",
      "type": "text",
      "enable_detail": true,
      "related": {
        "url": "https://truyenx.link/truyensextv/channels/related/1351",
        "request_headers": []
      },
      "share": {
        "url": "https://truyenx.link/truyensextv/channels/share/tieu-quynh"
      },
      "remote_data": {
        "url": "https://truyenx.link/truyensextv/channels/tieu-quynh"
      }
    },
    {
      "id": "1350-channel",
      "name": "Cuộc sống với những bàn chân",
      "description": "Buổi sáng thức dậy, chị gọi tôi xuống nhà để ăn sáng. Chị tên Linh năm nay 23 tuổi, được cái mặt mũi khá xinh nhưng điều làm tôi ấn tượng nhất là bàn chân của chị. Trông...",
      "image": null,
      "label": null,
      "display": "text-only",
      "type": "text",
      "enable_detail": true,
      "related": {
        "url": "https://truyenx.link/truyensextv/channels/related/1350",
        "request_headers": []
      },
      "share": {
        "url": "https://truyenx.link/truyensextv/channels/share/cuoc-song-voi-nhung-ban-chan"
      },
      "remote_data": {
        "url": "https://truyenx.link/truyensextv/channels/cuoc-song-voi-nhung-ban-chan"
      }
    },
    {
      "id": "1349-channel",
      "name": "Đụ mẹ và người giúp việc",
      "description": "Nam năm nay 15 tuổi, nó sinh ra trong 1 gia đình giàu có và gia giáo, ba nó tên Mỹ năm nay 45 tuổi và đang làm kỹ sư tại 1 công ty lớn ngoài Vũng Tàu, còn má nó tên Nhung, năm nay bà mới 35...",
      "image": null,
      "label": null,
      "display": "text-only",
      "type": "text",
      "enable_detail": true,
      "related": {
        "url": "https://truyenx.link/truyensextv/channels/related/1349",
        "request_headers": []
      },
      "share": {
        "url": "https://truyenx.link/truyensextv/channels/share/du-me-va-nguoi-giup-viec"
      },
      "remote_data": {
        "url": "https://truyenx.link/truyensextv/channels/du-me-va-nguoi-giup-viec"
      }
    },
    {
      "id": "1348-channel",
      "name": "Đụ nhau đến toét lồn",
      "description": "Sáng nay thức dậy tôi cảm thấy trong mình rạo rực như lửa đốt, chả là tối hôm qua tôi đã chơi quá khuya và quá nhiều trò chơi, thú vị nhất đối với tôi là những trái chuối...",
      "image": null,
      "label": null,
      "display": "text-only",
      "type": "text",
      "enable_detail": true,
      "related": {
        "url": "https://truyenx.link/truyensextv/channels/related/1348",
        "request_headers": []
      },
      "share": {
        "url": "https://truyenx.link/truyensextv/channels/share/du-nhau-den-toet-lon"
      },
      "remote_data": {
        "url": "https://truyenx.link/truyensextv/channels/du-nhau-den-toet-lon"
      }
    },
    {
      "id": "1347-channel",
      "name": "Hoa thơm đánh cả cụm",
      "description": "Nàng là một nữ sinh trong trắng hiền lành. Dĩ nhiên, Loan chưa hề biết gì về cái mà người ta thường gọi là tình dục. Nhưng bên trong cơ thể của nàng thì lúc nào cũng dường như...",
      "image": null,
      "label": null,
      "display": "text-only",
      "type": "text",
      "enable_detail": true,
      "related": {
        "url": "https://truyenx.link/truyensextv/channels/related/1347",
        "request_headers": []
      },
      "share": {
        "url": "https://truyenx.link/truyensextv/channels/share/hoa-thom-danh-ca-cum"
      },
      "remote_data": {
        "url": "https://truyenx.link/truyensextv/channels/hoa-thom-danh-ca-cum"
      }
    },
    {
      "id": "1346-channel",
      "name": "Đụ em gái trên xe",
      "description": "Chiếc xe có ba hàng ghế, ở hàng ghế cuối là Mỹ Linh và Hoàng Long ngồi. Còn hai tiếng nữa mới đến nơi. Ba mẹ Mỹ Linh nói, trời cũng đang tối, hai tiếng nữa sẽ khuya. Xe đi...",
      "image": null,
      "label": null,
      "display": "text-only",
      "type": "text",
      "enable_detail": true,
      "related": {
        "url": "https://truyenx.link/truyensextv/channels/related/1346",
        "request_headers": []
      },
      "share": {
        "url": "https://truyenx.link/truyensextv/channels/share/du-em-gai-tren-xe"
      },
      "remote_data": {
        "url": "https://truyenx.link/truyensextv/channels/du-em-gai-tren-xe"
      }
    },
    {
      "id": "1345-channel",
      "name": "Đụng chạm",
      "description": "Trân, nữ sinh đại học năm cuối. Trân năm nay 20 tuổi, sống ở Thiên Tân. Gia đình cô thuộc dòng dõi khá giả, “bố làm to, nhà mặt phố”. Bố cô là giám đốc công ty lớn...",
      "image": null,
      "label": null,
      "display": "text-only",
      "type": "text",
      "enable_detail": true,
      "related": {
        "url": "https://truyenx.link/truyensextv/channels/related/1345",
        "request_headers": []
      },
      "share": {
        "url": "https://truyenx.link/truyensextv/channels/share/dung-cham"
      },
      "remote_data": {
        "url": "https://truyenx.link/truyensextv/channels/dung-cham"
      }
    },
    {
      "id": "1344-channel",
      "name": "Yêu nữ quầy bar",
      "description": "“Mười nghìn thì mày ra ngoài kia đút cột điện!” Đó là câu nói sốc nhất trong cuộc đời tôi từng được nghe khi đám bạn tôi chọc ghẹo 1 cô gái bên kia đường. Cô gái...",
      "image": null,
      "label": null,
      "display": "text-only",
      "type": "text",
      "enable_detail": true,
      "related": {
        "url": "https://truyenx.link/truyensextv/channels/related/1344",
        "request_headers": []
      },
      "share": {
        "url": "https://truyenx.link/truyensextv/channels/share/yeu-nu-quay-bar"
      },
      "remote_data": {
        "url": "https://truyenx.link/truyensextv/channels/yeu-nu-quay-bar"
      }
    },
    {
      "id": "1343-channel",
      "name": "Được mẹ bú cặc",
      "description": "Năm vừa rồi là một năm trôi qua tuyệt vời đối với Toàn. Toàn năm nay tuy chỉ mới 15 tuổi nhưng cậu biết mình đã trở thành một thằng đàn ông cách đây một năm. Cái ngày đó...",
      "image": null,
      "label": null,
      "display": "text-only",
      "type": "text",
      "enable_detail": true,
      "related": {
        "url": "https://truyenx.link/truyensextv/channels/related/1343",
        "request_headers": []
      },
      "share": {
        "url": "https://truyenx.link/truyensextv/channels/share/duoc-me-bu-cac"
      },
      "remote_data": {
        "url": "https://truyenx.link/truyensextv/channels/duoc-me-bu-cac"
      }
    },
    {
      "id": "1342-channel",
      "name": "Vợ bị sếp đụ",
      "description": "Bà xã mình là một hot girl sở hữu gương mặt gợi dục và body rất sexy. Tiềm ẩn trong người em là một sự dâm dục vô cùng lớn vì vậy mình cũng muốn em được thỏa mãn hết sức...",
      "image": null,
      "label": null,
      "display": "text-only",
      "type": "text",
      "enable_detail": true,
      "related": {
        "url": "https://truyenx.link/truyensextv/channels/related/1342",
        "request_headers": []
      },
      "share": {
        "url": "https://truyenx.link/truyensextv/channels/share/vo-bi-sep-du"
      },
      "remote_data": {
        "url": "https://truyenx.link/truyensextv/channels/vo-bi-sep-du"
      }
    },
    {
      "id": "1341-channel",
      "name": "Địt vợ dâm mặc đồ sexy",
      "description": "Chiều vừa xong việc về đến nhà thấy vợ đang lúi húi trong buồng tắm không biết làm gì. Mình thì đau bụng vãi cả nồi. Đập cửa rầm rầm... Mở cửa cho anh vào đi ỉa với. Em...",
      "image": null,
      "label": null,
      "display": "text-only",
      "type": "text",
      "enable_detail": true,
      "related": {
        "url": "https://truyenx.link/truyensextv/channels/related/1341",
        "request_headers": []
      },
      "share": {
        "url": "https://truyenx.link/truyensextv/channels/share/dit-vo-dam-mac-do-sexy"
      },
      "remote_data": {
        "url": "https://truyenx.link/truyensextv/channels/dit-vo-dam-mac-do-sexy"
      }
    },
    {
      "id": "1340-channel",
      "name": "Chị họ Việt kiều",
      "description": "Hưng sống ở Sài Gòn từ bé đến giờ, nhưng đa số họ hàng đều định cư ở Mỹ và chỉ có gia đình Hưng là còn ở VN. Nó 16 tuổi và cũng khá là bảnh bao. Cẩm người chị họ...",
      "image": null,
      "label": null,
      "display": "text-only",
      "type": "text",
      "enable_detail": true,
      "related": {
        "url": "https://truyenx.link/truyensextv/channels/related/1340",
        "request_headers": []
      },
      "share": {
        "url": "https://truyenx.link/truyensextv/channels/share/chi-ho-viet-kieu"
      },
      "remote_data": {
        "url": "https://truyenx.link/truyensextv/channels/chi-ho-viet-kieu"
      }
    },
    {
      "id": "1339-channel",
      "name": "Ba chị em nhà hàng xóm",
      "description": "Tôi bắt đầu rình phòng tắm của nhà kế bên năm tôi 16 tuổi, khi lần đầu tiên tôi cảm nhận được cái cảm giác tê tê khi một bầu vú căng tròn, nóng ấm dựa vào người, dù chỉ...",
      "image": null,
      "label": null,
      "display": "text-only",
      "type": "text",
      "enable_detail": true,
      "related": {
        "url": "https://truyenx.link/truyensextv/channels/related/1339",
        "request_headers": []
      },
      "share": {
        "url": "https://truyenx.link/truyensextv/channels/share/ba-chi-em-nha-hang-xom"
      },
      "remote_data": {
        "url": "https://truyenx.link/truyensextv/channels/ba-chi-em-nha-hang-xom"
      }
    }
  ],
  "load_more": {
    "pageInfo": {
      "current_page": 95,
      "last_page": 140,
      "per_page": 30,
      "total": 4188
    },
    "paging": {
      "page_key": "page",
      "size_key": "size"
    },
    "remote_data": {
      "url": "https://truyenx.link/truyensextv/channels"
    }
  }
}