{"grid_number":1,"channels":[{"id":"708-channel","name":"Sinh ra là của nhau","description":"Mình quen nhau bao lâu rồi hả em? Gần 1 tháng. Thế mà đã không biết bao lần lên giường, bao lần lao vào nhau, bất kể ngày đêm. Nhớ cái lần đầu ta gặp nhau, em chỉ đơn giản là...","image":null,"label":null,"display":"text-only","type":"text","enable_detail":true,"related":{"url":"https://truyenx.link/truyensextv/channels/related/708","request_headers":[]},"share":{"url":"https://truyenx.link/truyensextv/channels/share/sinh-ra-la-cua-nhau"},"remote_data":{"url":"https://truyenx.link/truyensextv/channels/sinh-ra-la-cua-nhau"}},{"id":"707-channel","name":"Địt em sinh viên trường Luật","description":"Đã hơn 3 năm rồi, từ khi tôi gặp em, nhưng thực sự hơn 40 người tình 1 đêm trong đời, tôi vẫn nhớ em và thèm được có em làm bạn tình tri kỉ... có lẽ là vì em đem lại cho tôi 1...","image":null,"label":null,"display":"text-only","type":"text","enable_detail":true,"related":{"url":"https://truyenx.link/truyensextv/channels/related/707","request_headers":[]},"share":{"url":"https://truyenx.link/truyensextv/channels/share/dit-em-sinh-vien-truong-luat"},"remote_data":{"url":"https://truyenx.link/truyensextv/channels/dit-em-sinh-vien-truong-luat"}},{"id":"706-channel","name":"Nữ sinh đi bụi","description":"Nhà tôi là một biệt thự khá rộng rãi nằm trong một con đường nhỏ thuộc phía ngoại ô của Hải Phòng. Nhà của tôi cũng gần một trường cấp ba nên những buổi chiều thường...","image":null,"label":null,"display":"text-only","type":"text","enable_detail":true,"related":{"url":"https://truyenx.link/truyensextv/channels/related/706","request_headers":[]},"share":{"url":"https://truyenx.link/truyensextv/channels/share/nu-sinh-di-bui"},"remote_data":{"url":"https://truyenx.link/truyensextv/channels/nu-sinh-di-bui"}},{"id":"705-channel","name":"Chơi gái Hà Nội","description":"Tôi mới chuyển ra ngoài Hà Nội làm việc chừng hai tháng nay, điều đầu tiên tôi phát hiện ra là nhịp sống ngoài này khác hẳn với Sài Gòn, yên tĩnh hơn, không xô bồ và vội vã như...","image":null,"label":null,"display":"text-only","type":"text","enable_detail":true,"related":{"url":"https://truyenx.link/truyensextv/channels/related/705","request_headers":[]},"share":{"url":"https://truyenx.link/truyensextv/channels/share/choi-gai-ha-noi"},"remote_data":{"url":"https://truyenx.link/truyensextv/channels/choi-gai-ha-noi"}},{"id":"704-channel","name":"Tình dục và sự lừa dối","description":"Câu chuyện đầu tiên đã xảy ra 8 năm. Dù 8 năm là một thời gian không dài nhưng nó đủ để làm thay đổi cả một con người. Bước xuống xe buýt, tôi gọi ngay chiếc...","image":null,"label":null,"display":"text-only","type":"text","enable_detail":true,"related":{"url":"https://truyenx.link/truyensextv/channels/related/704","request_headers":[]},"share":{"url":"https://truyenx.link/truyensextv/channels/share/tinh-duc-va-su-lua-doi"},"remote_data":{"url":"https://truyenx.link/truyensextv/channels/tinh-duc-va-su-lua-doi"}},{"id":"703-channel","name":"Ba tháng chỉ đụ lỗ đít","description":"Mình thích đụ lỗ đít, nên bạn gái nào cũng phải có khoản này, như tiêu đề chắc các bạn nghe rất khó tin phải không? Nhưng thật sự là như vậy. Cô bạn gái này mình quen đã...","image":null,"label":null,"display":"text-only","type":"text","enable_detail":true,"related":{"url":"https://truyenx.link/truyensextv/channels/related/703","request_headers":[]},"share":{"url":"https://truyenx.link/truyensextv/channels/share/ba-thang-chi-du-lo-dit"},"remote_data":{"url":"https://truyenx.link/truyensextv/channels/ba-thang-chi-du-lo-dit"}},{"id":"702-channel","name":"Đôi mắt","description":"Sau trận thắng tưng bừng của đội U23 VN trước Australia. Anh em chúng tôi như vỡ òa trong niềm vui chiến thằng... Rời quán cà phê với tất cả niềm hưng phấn anh em thẳng tiến đến...","image":null,"label":null,"display":"text-only","type":"text","enable_detail":true,"related":{"url":"https://truyenx.link/truyensextv/channels/related/702","request_headers":[]},"share":{"url":"https://truyenx.link/truyensextv/channels/share/doi-mat"},"remote_data":{"url":"https://truyenx.link/truyensextv/channels/doi-mat"}},{"id":"701-channel","name":"Phá trinh bạn Huyền","description":"Tôi yêu Huyền đã hai năm nay. Nàng là một cô gái đẹp mà có lẽ không còn đứa con gái nào trong lớp tôi đẹp bằng. Chúng tôi là bạn thân của nhau từ hồi học lớp 6 tới giờ. Bây...","image":null,"label":null,"display":"text-only","type":"text","enable_detail":true,"related":{"url":"https://truyenx.link/truyensextv/channels/related/701","request_headers":[]},"share":{"url":"https://truyenx.link/truyensextv/channels/share/pha-trinh-ban-huyen"},"remote_data":{"url":"https://truyenx.link/truyensextv/channels/pha-trinh-ban-huyen"}},{"id":"700-channel","name":"Người con gái giỏi làm tình","description":"Ngày ấy, tôi và em quen nhau trên mạng. Và qua những dòng tâm sự, tôi đã biết nhiều hơn về em. Em đã quen 1 người suốt 4 năm, đã trao đời con gái cho anh ta, và ngoan ngoãn với những...","image":null,"label":null,"display":"text-only","type":"text","enable_detail":true,"related":{"url":"https://truyenx.link/truyensextv/channels/related/700","request_headers":[]},"share":{"url":"https://truyenx.link/truyensextv/channels/share/nguoi-con-gai-gioi-lam-tinh"},"remote_data":{"url":"https://truyenx.link/truyensextv/channels/nguoi-con-gai-gioi-lam-tinh"}},{"id":"699-channel","name":"Xếp hình tại nhà trọ","description":"Từ lúc biết mùi gái tới giờ tôi toàn dẫn các em đi khách sạn hoặc về nhà mình, và đây cũng là lần đầu tiên mình chơi xếp hình tại nhà trọ của em, một cảm xúc thật khó...","image":null,"label":null,"display":"text-only","type":"text","enable_detail":true,"related":{"url":"https://truyenx.link/truyensextv/channels/related/699","request_headers":[]},"share":{"url":"https://truyenx.link/truyensextv/channels/share/xep-hinh-tai-nha-tro"},"remote_data":{"url":"https://truyenx.link/truyensextv/channels/xep-hinh-tai-nha-tro"}},{"id":"698-channel","name":"Cho đồng nghiệp mới đụ vợ mình","description":"Chuyện là thế này. Vì vợ em mới vào làm việc ở cơ quan mới, nên tối qua em và vợ cùng đi ăn liên hoan với 3 anh bạn đồng nghiệp mới cùng phòng ở cơ quan vợ. Nhậu nhẹt vào...","image":null,"label":null,"display":"text-only","type":"text","enable_detail":true,"related":{"url":"https://truyenx.link/truyensextv/channels/related/698","request_headers":[]},"share":{"url":"https://truyenx.link/truyensextv/channels/share/cho-dong-nghiep-moi-du-vo-minh"},"remote_data":{"url":"https://truyenx.link/truyensextv/channels/cho-dong-nghiep-moi-du-vo-minh"}},{"id":"697-channel","name":"Loạn luân trong cơn say","description":"Đầu tiên xin nói về mình, mình nay 29 tuổi, cao 1m70, nặng 62kg, thật tình mà nói người ngoài thường đánh giá mình là dễ thương, phong độ, tuy vậy mình hiện giờ vẫn đang độc...","image":null,"label":null,"display":"text-only","type":"text","enable_detail":true,"related":{"url":"https://truyenx.link/truyensextv/channels/related/697","request_headers":[]},"share":{"url":"https://truyenx.link/truyensextv/channels/share/loan-luan-trong-con-say"},"remote_data":{"url":"https://truyenx.link/truyensextv/channels/loan-luan-trong-con-say"}},{"id":"696-channel","name":"Cảm xúc lần đầu bóp vú","description":"Xin chia sẻ, nhà mình ở quê, hồi đó mình mới học lớp 8 hay 9 không nhớ, lúc đó mới vỡ giọng, hàng xóm là vợ chồng cô chú còn trẻ hồi đó cô tầm 30 chú 36 hay 37 gì đó. Xin nói...","image":null,"label":null,"display":"text-only","type":"text","enable_detail":true,"related":{"url":"https://truyenx.link/truyensextv/channels/related/696","request_headers":[]},"share":{"url":"https://truyenx.link/truyensextv/channels/share/cam-xuc-lan-dau-bop-vu"},"remote_data":{"url":"https://truyenx.link/truyensextv/channels/cam-xuc-lan-dau-bop-vu"}},{"id":"695-channel","name":"Dùng coca rửa chim","description":"Mình và em đã chia tay, có thể do duyên số, mình đã có vợ lúc quen em, em cũng biết mình có vợ nhưng vẫn theo, đúng là tình yêu, mê hoặc tinh thần. Ngày đầu hẹn em đi cafe, em hẹn...","image":null,"label":null,"display":"text-only","type":"text","enable_detail":true,"related":{"url":"https://truyenx.link/truyensextv/channels/related/695","request_headers":[]},"share":{"url":"https://truyenx.link/truyensextv/channels/share/dung-coca-rua-chim"},"remote_data":{"url":"https://truyenx.link/truyensextv/channels/dung-coca-rua-chim"}},{"id":"694-channel","name":"Cô bạn mới quen","description":"Các bác ạ, khi em viết những dòng chữ này em cũng chả định thần là mình đang muốn gì, đang nghĩ gì nữa... Haizzz, mọi chuyện vội đến rồi vội đi như cơn mưa rào vậy, em đang...","image":null,"label":null,"display":"text-only","type":"text","enable_detail":true,"related":{"url":"https://truyenx.link/truyensextv/channels/related/694","request_headers":[]},"share":{"url":"https://truyenx.link/truyensextv/channels/share/co-ban-moi-quen"},"remote_data":{"url":"https://truyenx.link/truyensextv/channels/co-ban-moi-quen"}},{"id":"693-channel","name":"Ngọc","description":"Vừa rồi, mình và sếp của mình tháp tùng ông sếp Tổng ra Hà Nội báo cáo kết quả cuối năm 2017, thành công mỹ mãn. Bọn tập đoàn quản lý khen quá trời, đi cùng ông Tổng là con...","image":null,"label":null,"display":"text-only","type":"text","enable_detail":true,"related":{"url":"https://truyenx.link/truyensextv/channels/related/693","request_headers":[]},"share":{"url":"https://truyenx.link/truyensextv/channels/share/ngoc"},"remote_data":{"url":"https://truyenx.link/truyensextv/channels/ngoc"}},{"id":"692-channel","name":"Hồng Anh","description":"Cơn mưa chiều làm cho không khí trở lạnh, cái lạnh làm nó cảm thấy cô đơn hơn bao giờ hết... trên con đường gió se lạnh, nhìn dòng người qua lại mà sao nó thấy một chút buồn...","image":null,"label":null,"display":"text-only","type":"text","enable_detail":true,"related":{"url":"https://truyenx.link/truyensextv/channels/related/692","request_headers":[]},"share":{"url":"https://truyenx.link/truyensextv/channels/share/hong-anh"},"remote_data":{"url":"https://truyenx.link/truyensextv/channels/hong-anh"}},{"id":"691-channel","name":"Người yêu tôi thích đụ lỗ đít","description":"Dạo gần đây bạn gái mới quen được 6 tháng của tôi rất thích được tôi thông đít vì nàng nói tôi thông nàng sướng hơn cả chơi vào lồn, lên đỉnh thì ngất ngây con gà Tây...","image":null,"label":null,"display":"text-only","type":"text","enable_detail":true,"related":{"url":"https://truyenx.link/truyensextv/channels/related/691","request_headers":[]},"share":{"url":"https://truyenx.link/truyensextv/channels/share/nguoi-yeu-toi-thich-du-lo-dit"},"remote_data":{"url":"https://truyenx.link/truyensextv/channels/nguoi-yeu-toi-thich-du-lo-dit"}},{"id":"690-channel","name":"Địt nhau ở văn phòng","description":"Chuyện này kể về mình với bạn gái, hồi đó chưa chính thức yêu nhau, mới chỉ là đồng nghiệp nhưng đồng cảm và thích nhau nên có quan hệ , trước bạn gái làm cùng phòng, thỉnh...","image":null,"label":null,"display":"text-only","type":"text","enable_detail":true,"related":{"url":"https://truyenx.link/truyensextv/channels/related/690","request_headers":[]},"share":{"url":"https://truyenx.link/truyensextv/channels/share/dit-nhau-o-van-phong"},"remote_data":{"url":"https://truyenx.link/truyensextv/channels/dit-nhau-o-van-phong"}},{"id":"689-channel","name":"Sợi xích","description":"Tôi sẽ là cô dâu đẹp nhất trên đời... Nghĩ đến đó tim cứ bồi hồi, nôn nao, không biết những gì chờ đợi mình khi về làm dâu nhà ấy? Tôi yêu tất cả những gì có trong Toàn...","image":null,"label":null,"display":"text-only","type":"text","enable_detail":true,"related":{"url":"https://truyenx.link/truyensextv/channels/related/689","request_headers":[]},"share":{"url":"https://truyenx.link/truyensextv/channels/share/soi-xich"},"remote_data":{"url":"https://truyenx.link/truyensextv/channels/soi-xich"}},{"id":"688-channel","name":"Đêm thứ ba","description":"Tiết trời gần tết cứ se lạnh. Tôi lại nhớ đến em. Em là cô tiên đầu trong gia đình có 2 nàng tiên. Em đang sở hữu 1 cửa hàng. Em bảo ngày trước em có theo học 1 trường ĐH...","image":null,"label":null,"display":"text-only","type":"text","enable_detail":true,"related":{"url":"https://truyenx.link/truyensextv/channels/related/688","request_headers":[]},"share":{"url":"https://truyenx.link/truyensextv/channels/share/dem-thu-ba"},"remote_data":{"url":"https://truyenx.link/truyensextv/channels/dem-thu-ba"}},{"id":"687-channel","name":"Loạn luân cô và cháu","description":"Chào tất cả các bạn. Đầu năm mới xin kính chúc tất cả các đồng dâm một năm mới an khang thịnh vượng, có một sức khoẻ dồi dào để tiếp tục quay tay nhé. Hôm nay 6 1 2018 là...","image":null,"label":null,"display":"text-only","type":"text","enable_detail":true,"related":{"url":"https://truyenx.link/truyensextv/channels/related/687","request_headers":[]},"share":{"url":"https://truyenx.link/truyensextv/channels/share/loan-luan-co-va-chau"},"remote_data":{"url":"https://truyenx.link/truyensextv/channels/loan-luan-co-va-chau"}},{"id":"686-channel","name":"Em là vợ anh","description":"Nàng bước ra từ phòng tắm. Nàng quấn một chiếc khăn bông màu trắng quanh mình. Mái tóc nàng vẫn còn đẫm nước, nàng đang cố thấm cho khô bằng một chiếc khăn bông khác, cũng màu...","image":null,"label":null,"display":"text-only","type":"text","enable_detail":true,"related":{"url":"https://truyenx.link/truyensextv/channels/related/686","request_headers":[]},"share":{"url":"https://truyenx.link/truyensextv/channels/share/em-la-vo-anh"},"remote_data":{"url":"https://truyenx.link/truyensextv/channels/em-la-vo-anh"}},{"id":"685-channel","name":"Quà tặng vợ","description":"Sắp tới ngày sinh nhật của Dung, vợ tôi, tôi muốn dành cho nàng sự ngạc nhiên. Lần này tôi đã tìm được một món quà mà nàng thật đã mơ tưởng bấy lâu. Lấy nhau đã mười mấy...","image":null,"label":null,"display":"text-only","type":"text","enable_detail":true,"related":{"url":"https://truyenx.link/truyensextv/channels/related/685","request_headers":[]},"share":{"url":"https://truyenx.link/truyensextv/channels/share/qua-tang-vo"},"remote_data":{"url":"https://truyenx.link/truyensextv/channels/qua-tang-vo"}},{"id":"684-channel","name":"Hiếp dâm con gái","description":"Nằm bên cạnh vợ mà ông Toàn cứ xoay đi xoay lại, bà ăn chay niệm phật mấy năm nay gần như không còn để ý gì với chuyện gần gũi vợ chồng. Mà ông Toàn lại đang tuổi sung mãn...","image":null,"label":null,"display":"text-only","type":"text","enable_detail":true,"related":{"url":"https://truyenx.link/truyensextv/channels/related/684","request_headers":[]},"share":{"url":"https://truyenx.link/truyensextv/channels/share/hiep-dam-con-gai"},"remote_data":{"url":"https://truyenx.link/truyensextv/channels/hiep-dam-con-gai"}},{"id":"683-channel","name":"Vợ chồng trẻ ở quê","description":"Nhà tôi có 2 căn nhà: nhà trên và nhà ngang. Quê đất rộng, nhà nào cũng tính bằng sào chứ chả ai tính m2 bao giờ. Vợ chồng mình ngủ nhà trên, ông bà ngủ nhà ngang, nghe cũng hơi lạ...","image":null,"label":null,"display":"text-only","type":"text","enable_detail":true,"related":{"url":"https://truyenx.link/truyensextv/channels/related/683","request_headers":[]},"share":{"url":"https://truyenx.link/truyensextv/channels/share/vo-chong-tre-o-que"},"remote_data":{"url":"https://truyenx.link/truyensextv/channels/vo-chong-tre-o-que"}},{"id":"682-channel","name":"Gửi em, người con gái dâm đãng","description":"Quen nhau thấm thoắt cũng hơn 2 tháng rồi em nhỉ, kể cũng lạ, có duyên với nhau hay sao mà mất chưa đầy nửa giờ nhắn tin, anh em đã chém gió trên giời dưới bể đủ thứ chuyện...","image":null,"label":null,"display":"text-only","type":"text","enable_detail":true,"related":{"url":"https://truyenx.link/truyensextv/channels/related/682","request_headers":[]},"share":{"url":"https://truyenx.link/truyensextv/channels/share/gui-em-nguoi-con-gai-dam-dang"},"remote_data":{"url":"https://truyenx.link/truyensextv/channels/gui-em-nguoi-con-gai-dam-dang"}},{"id":"681-channel","name":"Tình hàng xóm","description":"Em năm nay 23 tuổi, cao 1m7 lấp ló dưới quần hay váy của các chị em là em dán mắt vào ngay, nước bọt thì nuốt ừng ực, tờ rim thì ngẩng hết cỡ. Cũng chính vì cái...","image":null,"label":null,"display":"text-only","type":"text","enable_detail":true,"related":{"url":"https://truyenx.link/truyensextv/channels/related/681","request_headers":[]},"share":{"url":"https://truyenx.link/truyensextv/channels/share/tinh-hang-xom"},"remote_data":{"url":"https://truyenx.link/truyensextv/channels/tinh-hang-xom"}},{"id":"680-channel","name":"Địt chị gái quen qua lớp học lái xe","description":"Hôm nay là lần thứ 2 vào nhà nghỉ với chị, cảm xúc đỡ hụt hẫng hơn lần đầu, những vẫn có sự nuối tiếc, vì chị phải vội về đi làm. Tuy chỉ có khoảng 2 tiếng ở với...","image":null,"label":null,"display":"text-only","type":"text","enable_detail":true,"related":{"url":"https://truyenx.link/truyensextv/channels/related/680","request_headers":[]},"share":{"url":"https://truyenx.link/truyensextv/channels/share/dit-chi-gai-quen-qua-lop-hoc-lai-xe"},"remote_data":{"url":"https://truyenx.link/truyensextv/channels/dit-chi-gai-quen-qua-lop-hoc-lai-xe"}},{"id":"679-channel","name":"Đụ nát lồn gái say","description":"4 chai vodka absolute mà 2 đứa cưa đôi trong vòng 2 tiếng tại nhà...","image":null,"label":null,"display":"text-only","type":"text","enable_detail":true,"related":{"url":"https://truyenx.link/truyensextv/channels/related/679","request_headers":[]},"share":{"url":"https://truyenx.link/truyensextv/channels/share/du-nat-lon-gai-say"},"remote_data":{"url":"https://truyenx.link/truyensextv/channels/du-nat-lon-gai-say"}}],"load_more":{"pageInfo":{"current_page":117,"last_page":140,"per_page":30,"total":4188},"paging":{"page_key":"page","size_key":"size"},"remote_data":{"url":"https://truyenx.link/truyensextv/channels"}}}