{
  "grid_number": 1,
  "channels": [
    {
      "id": "1038-channel",
      "name": "Hồi ức tuổi trẻ",
      "description": "Chạy giữa đồng xanh bao la, nó thấy nó thật nhỏ bé. Nó cứ chạy, chạy rồi bỗng mặt đất nức toác tạo thành 1 cái vực sâu. Nó rơi xuống rồi chết. Hết truyện. Đùa thôi. Nó...",
      "image": null,
      "label": null,
      "display": "text-only",
      "type": "text",
      "enable_detail": true,
      "related": {
        "url": "https://truyenx.link/truyensextv/channels/related/1038",
        "request_headers": []
      },
      "share": {
        "url": "https://truyenx.link/truyensextv/channels/share/hoi-uc-tuoi-tre"
      },
      "remote_data": {
        "url": "https://truyenx.link/truyensextv/channels/hoi-uc-tuoi-tre"
      }
    },
    {
      "id": "1037-channel",
      "name": "Làm người yêu của mẹ",
      "description": "Tôi tựa người vào lan can và uống một ngụm bia, nhìn ra bãi biển. Đây là một bãi biển đẹp, khung cảnh hữu tình. Tôi nghe tiếng “dô” vang lên khi có mấy người đang ngồi...",
      "image": null,
      "label": null,
      "display": "text-only",
      "type": "text",
      "enable_detail": true,
      "related": {
        "url": "https://truyenx.link/truyensextv/channels/related/1037",
        "request_headers": []
      },
      "share": {
        "url": "https://truyenx.link/truyensextv/channels/share/lam-nguoi-yeu-cua-me"
      },
      "remote_data": {
        "url": "https://truyenx.link/truyensextv/channels/lam-nguoi-yeu-cua-me"
      }
    },
    {
      "id": "1036-channel",
      "name": "Cô bé bán dâm",
      "description": "Chuyện tình dục mà người đời gọi là sai trái, luật pháp nghiêm cấm. Thế mà nó hằng ngày diễn ra ngay cạnh chúng ta. Có ai đó đổ lỗi cho những thước phim đen, nhưng khi rong...",
      "image": null,
      "label": null,
      "display": "text-only",
      "type": "text",
      "enable_detail": true,
      "related": {
        "url": "https://truyenx.link/truyensextv/channels/related/1036",
        "request_headers": []
      },
      "share": {
        "url": "https://truyenx.link/truyensextv/channels/share/co-be-ban-dam"
      },
      "remote_data": {
        "url": "https://truyenx.link/truyensextv/channels/co-be-ban-dam"
      }
    },
    {
      "id": "1035-channel",
      "name": "Hiếp dâm gái có bầu",
      "description": "Bốp... cô gái loạng choạng, chiếc xe đạp chao đảo cô ngã xuống nhưng lại có một cánh tay bắt lấy cô giữ chặt. Đặt cô gái ngồi xuống, hắn kéo xe đạp vào bụi. Trong trạng...",
      "image": null,
      "label": null,
      "display": "text-only",
      "type": "text",
      "enable_detail": true,
      "related": {
        "url": "https://truyenx.link/truyensextv/channels/related/1035",
        "request_headers": []
      },
      "share": {
        "url": "https://truyenx.link/truyensextv/channels/share/hiep-dam-gai-co-bau"
      },
      "remote_data": {
        "url": "https://truyenx.link/truyensextv/channels/hiep-dam-gai-co-bau"
      }
    },
    {
      "id": "1034-channel",
      "name": "Hiếp dâm cô cháu gái",
      "description": "Năm 1992, Nguyễn Văn Long lấy nhau trong sự chúc phúc của hai bên gia đình. Anh Long sinh ra trong một gia đình có 11 người con, Long là con trai thứ 8 năm ấy vừa tròn 24 tuổi, còn chị...",
      "image": null,
      "label": null,
      "display": "text-only",
      "type": "text",
      "enable_detail": true,
      "related": {
        "url": "https://truyenx.link/truyensextv/channels/related/1034",
        "request_headers": []
      },
      "share": {
        "url": "https://truyenx.link/truyensextv/channels/share/hiep-dam-co-chau-gai"
      },
      "remote_data": {
        "url": "https://truyenx.link/truyensextv/channels/hiep-dam-co-chau-gai"
      }
    },
    {
      "id": "1033-channel",
      "name": "Lão già dâm dê",
      "description": "Lê văn Siêng ở thánh thất Hưng Phong đã lâu, ông ta không vợ, không con chỉ làm việc ở đây một mình. Khuôn viên thánh thất khá rộng, ông trồng nhiều xoài, ổi... sơri. Ngày ngày lũ...",
      "image": null,
      "label": null,
      "display": "text-only",
      "type": "text",
      "enable_detail": true,
      "related": {
        "url": "https://truyenx.link/truyensextv/channels/related/1033",
        "request_headers": []
      },
      "share": {
        "url": "https://truyenx.link/truyensextv/channels/share/lao-gia-dam-de"
      },
      "remote_data": {
        "url": "https://truyenx.link/truyensextv/channels/lao-gia-dam-de"
      }
    },
    {
      "id": "1032-channel",
      "name": "Người vợ hai chồng",
      "description": "Bùi Văn Tiến sinh ra là một chàng trai phương Bắc, thân hình vạm vỡ nhưng xấu xí vì thế mãi vẫn chưa có cô nào lấy làm chồng. Vốn sinh ra trong thời loạn lạc, ngày ngày Tiến làm...",
      "image": null,
      "label": null,
      "display": "text-only",
      "type": "text",
      "enable_detail": true,
      "related": {
        "url": "https://truyenx.link/truyensextv/channels/related/1032",
        "request_headers": []
      },
      "share": {
        "url": "https://truyenx.link/truyensextv/channels/share/nguoi-vo-hai-chong"
      },
      "remote_data": {
        "url": "https://truyenx.link/truyensextv/channels/nguoi-vo-hai-chong"
      }
    },
    {
      "id": "1031-channel",
      "name": "Loạn luân ở vùng quê",
      "description": "Chào các bạn, tôi tên là Bảo. Sau đây tôi sẽ kể cho các bạn nghe một câu chuyện về gia đình tôi. Trước tiên tôi sẽ cho các bạn biết về hoàn cảnh gia đình tôi. Tôi sống trong...",
      "image": null,
      "label": null,
      "display": "text-only",
      "type": "text",
      "enable_detail": true,
      "related": {
        "url": "https://truyenx.link/truyensextv/channels/related/1031",
        "request_headers": []
      },
      "share": {
        "url": "https://truyenx.link/truyensextv/channels/share/loan-luan-o-vung-que"
      },
      "remote_data": {
        "url": "https://truyenx.link/truyensextv/channels/loan-luan-o-vung-que"
      }
    },
    {
      "id": "1030-channel",
      "name": "Đời học sinh - Quyển 1",
      "description": "Đời học sinh là những chuỗi ngày dài lê thê ăn, ngủ, nghỉ, học hành dưới sự đùm bọc của cha mẹ và thầy cô, nhưng đối với tôi nó còn có máu, nước mắt và cả tình yêu...",
      "image": null,
      "label": null,
      "display": "text-only",
      "type": "text",
      "enable_detail": true,
      "related": {
        "url": "https://truyenx.link/truyensextv/channels/related/1030",
        "request_headers": []
      },
      "share": {
        "url": "https://truyenx.link/truyensextv/channels/share/doi-hoc-sinh-quyen-1"
      },
      "remote_data": {
        "url": "https://truyenx.link/truyensextv/channels/doi-hoc-sinh-quyen-1"
      }
    },
    {
      "id": "1029-channel",
      "name": "Hàng xóm dâm đãng",
      "description": "Hồng Thủy đặt điện thoại xuống bàn trang điểm, thở phào nhẹ nhõm. Vậy là tốt rồi, nhờ người hàng xóm nhiệt tình, nàng đã không phải lo chuyện đón hai đứa con gái từ...",
      "image": null,
      "label": null,
      "display": "text-only",
      "type": "text",
      "enable_detail": true,
      "related": {
        "url": "https://truyenx.link/truyensextv/channels/related/1029",
        "request_headers": []
      },
      "share": {
        "url": "https://truyenx.link/truyensextv/channels/share/hang-xom-dam-dang"
      },
      "remote_data": {
        "url": "https://truyenx.link/truyensextv/channels/hang-xom-dam-dang"
      }
    },
    {
      "id": "1028-channel",
      "name": "Thằng con nứng cặc",
      "description": "Chuyện gì sẽ xảy ra nếu bạn có một ông chồng khốn nạn và một đứa con nứng cặc ở trong nhà? Người mẹ bị cưỡng hiếp bởi con trai của mình! Chuyện này đã xảy ra trong nhà...",
      "image": null,
      "label": null,
      "display": "text-only",
      "type": "text",
      "enable_detail": true,
      "related": {
        "url": "https://truyenx.link/truyensextv/channels/related/1028",
        "request_headers": []
      },
      "share": {
        "url": "https://truyenx.link/truyensextv/channels/share/thang-con-nung-cac"
      },
      "remote_data": {
        "url": "https://truyenx.link/truyensextv/channels/thang-con-nung-cac"
      }
    },
    {
      "id": "1027-channel",
      "name": "Chị dâu họ",
      "description": "Chiếc xe khách đến bến, Tùng thở dài xách ba lô xuống xe. Tùng ơi. Tuấn phấn trấn khi trông thấy Tùng, hắn đã chờ thắng em họ gần tiếng đồng hồ ở bến xe. Vì đón Tùng...",
      "image": null,
      "label": null,
      "display": "text-only",
      "type": "text",
      "enable_detail": true,
      "related": {
        "url": "https://truyenx.link/truyensextv/channels/related/1027",
        "request_headers": []
      },
      "share": {
        "url": "https://truyenx.link/truyensextv/channels/share/chi-dau-ho"
      },
      "remote_data": {
        "url": "https://truyenx.link/truyensextv/channels/chi-dau-ho"
      }
    },
    {
      "id": "1026-channel",
      "name": "Linh Nga",
      "description": "Linh Nga là một nữ sinh lớp 11 của trường X. Ở cái tuổi mà sinh lý đang dần đòi hỏi cô bé nhiều hơn. Hôm nay Nga tới trường trong bộ áo dài trắng đồng phục tuyệt đẹp, nó...",
      "image": null,
      "label": null,
      "display": "text-only",
      "type": "text",
      "enable_detail": true,
      "related": {
        "url": "https://truyenx.link/truyensextv/channels/related/1026",
        "request_headers": []
      },
      "share": {
        "url": "https://truyenx.link/truyensextv/channels/share/linh-nga"
      },
      "remote_data": {
        "url": "https://truyenx.link/truyensextv/channels/linh-nga"
      }
    },
    {
      "id": "1025-channel",
      "name": "Vợ tôi ngoại tình",
      "description": "Tôi là Bảo, một nhân viên công chức nhà nước, lương cũng có thể gọi là đủ trang trải vì 2 vợ chồng tôi đều đi làm cả. Nói về vợ tôi, vợ tôi tên là Ngọc, một cô gái...",
      "image": null,
      "label": null,
      "display": "text-only",
      "type": "text",
      "enable_detail": true,
      "related": {
        "url": "https://truyenx.link/truyensextv/channels/related/1025",
        "request_headers": []
      },
      "share": {
        "url": "https://truyenx.link/truyensextv/channels/share/vo-toi-ngoai-tinh"
      },
      "remote_data": {
        "url": "https://truyenx.link/truyensextv/channels/vo-toi-ngoai-tinh"
      }
    },
    {
      "id": "1024-channel",
      "name": "Mẹ tôi làm đĩ",
      "description": "Tôi nhảy ra khỏi cửa sổ và một tay cầm lấy cái ống nước, tay kia nắm tay mẹ tôi để kéo mẹ ra ngoài. Mẹ tôi hơi bối rối với những hành động của tôi nhưng cũng lăn ra ngoài...",
      "image": null,
      "label": null,
      "display": "text-only",
      "type": "text",
      "enable_detail": true,
      "related": {
        "url": "https://truyenx.link/truyensextv/channels/related/1024",
        "request_headers": []
      },
      "share": {
        "url": "https://truyenx.link/truyensextv/channels/share/me-toi-lam-di"
      },
      "remote_data": {
        "url": "https://truyenx.link/truyensextv/channels/me-toi-lam-di"
      }
    },
    {
      "id": "1023-channel",
      "name": "Chải tóc cho mẹ",
      "description": "“Anh Cliff à, anh nói là anh sẽ làm mà” Mẹ tôi phàn nàn. “Tóc em cần phải được chải tối nay, kẻo mai nó bị rối bù lên hết” Mẹ tôi lắc bờm tóc nặng nề của...",
      "image": null,
      "label": null,
      "display": "text-only",
      "type": "text",
      "enable_detail": true,
      "related": {
        "url": "https://truyenx.link/truyensextv/channels/related/1023",
        "request_headers": []
      },
      "share": {
        "url": "https://truyenx.link/truyensextv/channels/share/chai-toc-cho-me"
      },
      "remote_data": {
        "url": "https://truyenx.link/truyensextv/channels/chai-toc-cho-me"
      }
    },
    {
      "id": "1022-channel",
      "name": "Cháu Lão Hạc",
      "description": "Nhi bực mình nhìn lão Hạc, quán ăn sáng của nàng đang đông khách, không có chỗ ngồi, mà lão vẫn cà kê chai rượu với 1 đĩa lạc, Nhi đã đuổi khéo lão mấy lần mà lão vẫn coi...",
      "image": null,
      "label": null,
      "display": "text-only",
      "type": "text",
      "enable_detail": true,
      "related": {
        "url": "https://truyenx.link/truyensextv/channels/related/1022",
        "request_headers": []
      },
      "share": {
        "url": "https://truyenx.link/truyensextv/channels/share/chau-lao-hac"
      },
      "remote_data": {
        "url": "https://truyenx.link/truyensextv/channels/chau-lao-hac"
      }
    },
    {
      "id": "1021-channel",
      "name": "Nhờ chị gái thủ dâm",
      "description": "Tôi tên Vinh 18 tuổi, sinh ra trong một gia đình gia giáo, ở Tiền Giang nhà tôi có 4 người, cha mẹ, tôi và chị Hai, chị Tôi tên Diễm My, năm nay 24 tuổi. Chị tôi lên Cần Thơ học đại...",
      "image": null,
      "label": null,
      "display": "text-only",
      "type": "text",
      "enable_detail": true,
      "related": {
        "url": "https://truyenx.link/truyensextv/channels/related/1021",
        "request_headers": []
      },
      "share": {
        "url": "https://truyenx.link/truyensextv/channels/share/nho-chi-gai-thu-dam"
      },
      "remote_data": {
        "url": "https://truyenx.link/truyensextv/channels/nho-chi-gai-thu-dam"
      }
    },
    {
      "id": "1020-channel",
      "name": "Tình một đêm với bạn học",
      "description": "Tiếng nhạc dồn dập, rít sâu hơi thuốc rồi tôi móc ra tờ bạc 5 trăm ngàn đưa vào tay thằng bạn rồi nói: Tao về trước, có chút việc bận, khi nào về gửi dùm tao luôn! Ok bữa...",
      "image": null,
      "label": null,
      "display": "text-only",
      "type": "text",
      "enable_detail": true,
      "related": {
        "url": "https://truyenx.link/truyensextv/channels/related/1020",
        "request_headers": []
      },
      "share": {
        "url": "https://truyenx.link/truyensextv/channels/share/tinh-mot-dem-voi-ban-hoc"
      },
      "remote_data": {
        "url": "https://truyenx.link/truyensextv/channels/tinh-mot-dem-voi-ban-hoc"
      }
    },
    {
      "id": "1019-channel",
      "name": "Khoái Lạc Hệ Thống",
      "description": "Việt Nam, 11 giờ khuya… Trong một phòng trọ nhỏ, có một đôi nam nữ đang quấn quýt nhau trên giường. Cô gái đang bú liếm “chùn chụt” dương vật của tên thanh niên một cách...",
      "image": null,
      "label": null,
      "display": "text-only",
      "type": "text",
      "enable_detail": true,
      "related": {
        "url": "https://truyenx.link/truyensextv/channels/related/1019",
        "request_headers": []
      },
      "share": {
        "url": "https://truyenx.link/truyensextv/channels/share/khoai-lac-he-thong"
      },
      "remote_data": {
        "url": "https://truyenx.link/truyensextv/channels/khoai-lac-he-thong"
      }
    },
    {
      "id": "1018-channel",
      "name": "Cấp 2 và những người bạn",
      "description": "Phù... Rảnh rỗi quá không có việc gì làm, viết mấy dòng linh tinh chơi vậy. Nó, 1 thằng thanh niên năm nay 21 tuổi, đã qua cái thời bẻ gãy sừng trâu từ lâu lẩu lầu lâu lắm luôn...",
      "image": null,
      "label": null,
      "display": "text-only",
      "type": "text",
      "enable_detail": true,
      "related": {
        "url": "https://truyenx.link/truyensextv/channels/related/1018",
        "request_headers": []
      },
      "share": {
        "url": "https://truyenx.link/truyensextv/channels/share/cap-2-va-nhung-nguoi-ban"
      },
      "remote_data": {
        "url": "https://truyenx.link/truyensextv/channels/cap-2-va-nhung-nguoi-ban"
      }
    },
    {
      "id": "1017-channel",
      "name": "Hai mẹ con dâm đãng",
      "description": "Thức dậy, Mỹ Dung nhìn thằng đàn ông còn thẳng cẳng nằm ngủ trên giường, tấm chăn đắp hờ qua thân thể trần truồng đầy vết xâm hình của hắn, duơng vật tuy xìu nhưng vẫn to...",
      "image": null,
      "label": null,
      "display": "text-only",
      "type": "text",
      "enable_detail": true,
      "related": {
        "url": "https://truyenx.link/truyensextv/channels/related/1017",
        "request_headers": []
      },
      "share": {
        "url": "https://truyenx.link/truyensextv/channels/share/hai-me-con-dam-dang"
      },
      "remote_data": {
        "url": "https://truyenx.link/truyensextv/channels/hai-me-con-dam-dang"
      }
    },
    {
      "id": "1016-channel",
      "name": "Còn lại những mùa nhớ",
      "description": "Tôi gặp em vào một buổi chiều trên mạng, tôi không nhớ nick em là gì nhưng qua vài câu chào hỏi tôi yêu cầu được gặp và đi chơi với em, em đồng ý và báo giá 500k/h. Tôi hỏi 1h...",
      "image": null,
      "label": null,
      "display": "text-only",
      "type": "text",
      "enable_detail": true,
      "related": {
        "url": "https://truyenx.link/truyensextv/channels/related/1016",
        "request_headers": []
      },
      "share": {
        "url": "https://truyenx.link/truyensextv/channels/share/con-lai-nhung-mua-nho"
      },
      "remote_data": {
        "url": "https://truyenx.link/truyensextv/channels/con-lai-nhung-mua-nho"
      }
    },
    {
      "id": "1015-channel",
      "name": "Trại huấn luyện tình dục",
      "description": "Todd rên rỉ, lưng dựa vào tường khi nó cảm thấy những vách tường nóng bỏng trong hang lồn đang nắn bóp lên xuống suốt chiều dài con cặc nó. Nó nhìn cặp mông đầy thịt của...",
      "image": null,
      "label": null,
      "display": "text-only",
      "type": "text",
      "enable_detail": true,
      "related": {
        "url": "https://truyenx.link/truyensextv/channels/related/1015",
        "request_headers": []
      },
      "share": {
        "url": "https://truyenx.link/truyensextv/channels/share/trai-huan-luyen-tinh-duc"
      },
      "remote_data": {
        "url": "https://truyenx.link/truyensextv/channels/trai-huan-luyen-tinh-duc"
      }
    },
    {
      "id": "1014-channel",
      "name": "Thế giới ngầm",
      "description": "Câu chuyện mà tôi sắp kể cho các bạn nghe đây xảy ra vào đầu hạ, địa điểm xảy ra là tại nước Việt Nam thân yêu nhưng chi tiết nơi xảy ra sự kiện đó thì không thể xác...",
      "image": null,
      "label": null,
      "display": "text-only",
      "type": "text",
      "enable_detail": true,
      "related": {
        "url": "https://truyenx.link/truyensextv/channels/related/1014",
        "request_headers": []
      },
      "share": {
        "url": "https://truyenx.link/truyensextv/channels/share/the-gioi-ngam"
      },
      "remote_data": {
        "url": "https://truyenx.link/truyensextv/channels/the-gioi-ngam"
      }
    },
    {
      "id": "1013-channel",
      "name": "Người mẹ đơn thân",
      "description": "Ngày sinh nhật tròn 20 tuổi của Thảo Ly bỗng trở thành 1 ngày đau khổ và chìm trong nước mắt khi nàng phát hiện mình đã có thai nhưng bị bạn trai chối bỏ rồi biến mất... Cứ...",
      "image": null,
      "label": null,
      "display": "text-only",
      "type": "text",
      "enable_detail": true,
      "related": {
        "url": "https://truyenx.link/truyensextv/channels/related/1013",
        "request_headers": []
      },
      "share": {
        "url": "https://truyenx.link/truyensextv/channels/share/nguoi-me-don-than"
      },
      "remote_data": {
        "url": "https://truyenx.link/truyensextv/channels/nguoi-me-don-than"
      }
    },
    {
      "id": "1012-channel",
      "name": "Bí mật của mẹ",
      "description": "Ba tôi đã qua đời khi tôi 22 tuổi. Mấy năm đầu tiên sau đó thật là khó khăn đối với mẹ tôi. Mẹ phải ở nhà một mình và chăm lo cho gia đình. Lúc đầu, hai anh em tôi phải...",
      "image": null,
      "label": null,
      "display": "text-only",
      "type": "text",
      "enable_detail": true,
      "related": {
        "url": "https://truyenx.link/truyensextv/channels/related/1012",
        "request_headers": []
      },
      "share": {
        "url": "https://truyenx.link/truyensextv/channels/share/bi-mat-cua-me"
      },
      "remote_data": {
        "url": "https://truyenx.link/truyensextv/channels/bi-mat-cua-me"
      }
    },
    {
      "id": "1011-channel",
      "name": "Người cha bị vô sinh",
      "description": "Đã ba tháng sau tai nạn xe cộ đã đưa mẹ đến bệnh viện với những cơn đau bụng. Những cơn đau ấy hóa ra là bị sẩy thai sau một thai kỳ chỉ mới được hai tháng. “Ba mẹ...",
      "image": null,
      "label": null,
      "display": "text-only",
      "type": "text",
      "enable_detail": true,
      "related": {
        "url": "https://truyenx.link/truyensextv/channels/related/1011",
        "request_headers": []
      },
      "share": {
        "url": "https://truyenx.link/truyensextv/channels/share/nguoi-cha-bi-vo-sinh"
      },
      "remote_data": {
        "url": "https://truyenx.link/truyensextv/channels/nguoi-cha-bi-vo-sinh"
      }
    },
    {
      "id": "1010-channel",
      "name": "Một câu chuyện vui về “gái”",
      "description": "Cái ngày ấy, cách đây hai năm rồi. Khi đó tôi là một thằng sinh viên nghèo, chạy grab ở quanh khu bến xe Mĩ Đình để kiếm thêm ít tiền ăn. Vào một buổi trưa khá mát mẻ, đang...",
      "image": null,
      "label": null,
      "display": "text-only",
      "type": "text",
      "enable_detail": true,
      "related": {
        "url": "https://truyenx.link/truyensextv/channels/related/1010",
        "request_headers": []
      },
      "share": {
        "url": "https://truyenx.link/truyensextv/channels/share/mot-cau-chuyen-vui-ve-gai"
      },
      "remote_data": {
        "url": "https://truyenx.link/truyensextv/channels/mot-cau-chuyen-vui-ve-gai"
      }
    },
    {
      "id": "1009-channel",
      "name": "Chiếc xe kỷ niệm",
      "description": "“Í ẹ, ba ơi, chiếc xe gì mà xấu quá đi” Con tôi cười khi nó cầm tấm hình, rồi đưa tay lên mặt như thể hình ảnh trong đó có thể làm hỏng đôi mắt nó. “Con chưa lái thử nó...",
      "image": null,
      "label": null,
      "display": "text-only",
      "type": "text",
      "enable_detail": true,
      "related": {
        "url": "https://truyenx.link/truyensextv/channels/related/1009",
        "request_headers": []
      },
      "share": {
        "url": "https://truyenx.link/truyensextv/channels/share/chiec-xe-ky-niem"
      },
      "remote_data": {
        "url": "https://truyenx.link/truyensextv/channels/chiec-xe-ky-niem"
      }
    }
  ],
  "load_more": {
    "pageInfo": {
      "current_page": 106,
      "last_page": 140,
      "per_page": 30,
      "total": 4188
    },
    "paging": {
      "page_key": "page",
      "size_key": "size"
    },
    "remote_data": {
      "url": "https://truyenx.link/truyensextv/channels"
    }
  }
}