{"grid_number":1,"channels":[{"id":"2006-channel","name":"Tội lỗi khó quên","description":"Câu chuyện này xảy ra đã lâu rồi, nhưng tới bây giờ nghĩ lại nhiều khi tôi vẫn có cảm giác tội lỗi. Cũng chỉ biết chép miệng tự an ủi là: “Thôi, thời trẻ dại của mình...","image":null,"label":null,"display":"text-only","type":"text","enable_detail":true,"related":{"url":"https://truyenx.link/truyensextv/channels/related/2006","request_headers":[]},"share":{"url":"https://truyenx.link/truyensextv/channels/share/toi-loi-kho-quen"},"remote_data":{"url":"https://truyenx.link/truyensextv/channels/toi-loi-kho-quen"}},{"id":"2005-channel","name":"Khát tình","description":"Ting... ting... Chuông điện thoại reo lên đúng vào 6: 30 sáng, mặt trời lúc này đã ló dạng... Tôi mở mắt ra nhìn quanh phòng để cho bớt cơn ngáy ngủ, từ từ ngồi dậy chuẩn bị ra...","image":null,"label":null,"display":"text-only","type":"text","enable_detail":true,"related":{"url":"https://truyenx.link/truyensextv/channels/related/2005","request_headers":[]},"share":{"url":"https://truyenx.link/truyensextv/channels/share/khat-tinh"},"remote_data":{"url":"https://truyenx.link/truyensextv/channels/khat-tinh"}},{"id":"2004-channel","name":"Dân công trình","description":"Tôi năm nay 40 tuổi, quê ở một tỉnh Bắc Miền Trung. Tôi học Sư phạm nhưng hiện tại thì không làm liên quan đến ngành học. Chính vì làm trái ngành nghề thế nên tôi mới có cơ...","image":null,"label":null,"display":"text-only","type":"text","enable_detail":true,"related":{"url":"https://truyenx.link/truyensextv/channels/related/2004","request_headers":[]},"share":{"url":"https://truyenx.link/truyensextv/channels/share/dan-cong-trinh"},"remote_data":{"url":"https://truyenx.link/truyensextv/channels/dan-cong-trinh"}},{"id":"2003-channel","name":"Vẽ em bằng màu nỗi nhớ","description":"Cho con một tô đặc biệt cô ơi! Sau bao nhiêu năm trở lại đây, mọi thứ vẫn không thay đổi gì nhiều. Vẫn con đường nhỏ vào khu chợ Việt Kiều, vẫn dòng người qua lại mua bán...","image":null,"label":null,"display":"text-only","type":"text","enable_detail":true,"related":{"url":"https://truyenx.link/truyensextv/channels/related/2003","request_headers":[]},"share":{"url":"https://truyenx.link/truyensextv/channels/share/ve-em-bang-mau-noi-nho"},"remote_data":{"url":"https://truyenx.link/truyensextv/channels/ve-em-bang-mau-noi-nho"}},{"id":"2002-channel","name":"Đụ cả mẹ lẫn dì","description":"Sáng sớm, tôi vào phòng mẹ thì thấy mẹ vẫn còn ngủ, tôi nhẹ nhàng vén chăn ở trên người mẹ thì cả thân hình trắng nõn nà của mẹ hiện ra trước mắt tôi, bầu vú trắng mịn...","image":null,"label":null,"display":"text-only","type":"text","enable_detail":true,"related":{"url":"https://truyenx.link/truyensextv/channels/related/2002","request_headers":[]},"share":{"url":"https://truyenx.link/truyensextv/channels/share/du-ca-me-lan-di"},"remote_data":{"url":"https://truyenx.link/truyensextv/channels/du-ca-me-lan-di"}},{"id":"4059-channel","name":"Cô giảng viên tên Ngân","description":"Một ngày nọ Trung được lớp trưởng nhờ, khi nào về nhà thì ghé nhà cô Ngân lấy đồ dùm. Do nhà cô Ngân nằm trên đoạn đường về nhà của Trung. Cô Ngân là giảng viên của khoa...","image":null,"label":null,"display":"text-only","type":"text","enable_detail":true,"related":{"url":"https://truyenx.link/truyensextv/channels/related/4059","request_headers":[]},"share":{"url":"https://truyenx.link/truyensextv/channels/share/co-giang-vien-ten-ngan"},"remote_data":{"url":"https://truyenx.link/truyensextv/channels/co-giang-vien-ten-ngan"}},{"id":"4058-channel","name":"Cô giáo Huyền","description":"Trên trường trung học cơ sở Phù Dung, nhờ cải cách của phía nhà nước mà được tân trang lại, cả đội ngũ giáo viên cũng được thay đi bớt vì kém hoạt động kém hiệu quả...","image":null,"label":null,"display":"text-only","type":"text","enable_detail":true,"related":{"url":"https://truyenx.link/truyensextv/channels/related/4058","request_headers":[]},"share":{"url":"https://truyenx.link/truyensextv/channels/share/co-giao-huyen"},"remote_data":{"url":"https://truyenx.link/truyensextv/channels/co-giao-huyen"}},{"id":"4057-channel","name":"Chung chồng","description":"Cô em khóa dưới “Phạch... ưm... phạch... hơ... bạch... hơ... pạch... ư... pạch pạch pạch...” Những tiếng rên rỉ nhỏ dần rồi tắt hẳn. Trong căn phòng nhỏ trên lầu 2...","image":null,"label":null,"display":"text-only","type":"text","enable_detail":true,"related":{"url":"https://truyenx.link/truyensextv/channels/related/4057","request_headers":[]},"share":{"url":"https://truyenx.link/truyensextv/channels/share/chung-chong"},"remote_data":{"url":"https://truyenx.link/truyensextv/channels/chung-chong"}},{"id":"4056-channel","name":"Chị dâu cũ, tình mới của tôi","description":"Chị Thái là chị dâu tôi, nhưng trong một biến cố chị lại ly hôn anh con nhà bác do chị bị anh ghen. Những lúc trước tôi cũng để ý chị Thái này, được biết chị năm nay sát 29...","image":null,"label":null,"display":"text-only","type":"text","enable_detail":true,"related":{"url":"https://truyenx.link/truyensextv/channels/related/4056","request_headers":[]},"share":{"url":"https://truyenx.link/truyensextv/channels/share/chi-dau-cu-tinh-moi-cua-toi"},"remote_data":{"url":"https://truyenx.link/truyensextv/channels/chi-dau-cu-tinh-moi-cua-toi"}},{"id":"4055-channel","name":"Gia đình thích loạn luân","description":"Mình là H, 18 tuổi. Gia đình mình có 4 người là mình, chị gái, mẹ và ba mình. Chị mình có một body vô cùng đẹp với số vòng lớn và đẹp vô cùng thậm chí mình còn lấy ảnh chị...","image":null,"label":null,"display":"text-only","type":"text","enable_detail":true,"related":{"url":"https://truyenx.link/truyensextv/channels/related/4055","request_headers":[]},"share":{"url":"https://truyenx.link/truyensextv/channels/share/gia-dinh-thich-loan-luan"},"remote_data":{"url":"https://truyenx.link/truyensextv/channels/gia-dinh-thich-loan-luan"}},{"id":"4054-channel","name":"Chuyện nhà cô giáo, địt cả ba mẹ con","description":"Câu chuyện xảy ra tại thị trấn Hương hóa, tỉnh Long An. Thảo năm nay 23 tuổi là con gái đầu của ông Trình, một lãnh đạo Sở Giáo dục và bà Hà là y tá trưởng tại bệnh viện...","image":null,"label":null,"display":"text-only","type":"text","enable_detail":true,"related":{"url":"https://truyenx.link/truyensextv/channels/related/4054","request_headers":[]},"share":{"url":"https://truyenx.link/truyensextv/channels/share/chuyen-nha-co-giao-dit-ca-ba-me-con"},"remote_data":{"url":"https://truyenx.link/truyensextv/channels/chuyen-nha-co-giao-dit-ca-ba-me-con"}},{"id":"4053-channel","name":"Truyện do AI viết","description":"Hà Gái còn trinh siêu dâm, bú cặc và kẹp vú cho trai bắn tung tóe Hà là kiểu con gái khiến đàn ông chỉ cần nhìn một lần là muốn quỳ xuống liếm từ đầu gối lên tới háng. Tóc...","image":null,"label":null,"display":"text-only","type":"text","enable_detail":true,"related":{"url":"https://truyenx.link/truyensextv/channels/related/4053","request_headers":[]},"share":{"url":"https://truyenx.link/truyensextv/channels/share/truyen-do-ai-viet"},"remote_data":{"url":"https://truyenx.link/truyensextv/channels/truyen-do-ai-viet"}},{"id":"4052-channel","name":"Lần đầu chịch gái","description":"17 tuổi, cái tuổi sáng nứng chiều nứng tối càng nứng hơn, Ngọc Hân người con gái đã lấy đi lần đầu và cũng là người yêu của tui, lúc đó tui đang đi làm công ty may còn Hân...","image":null,"label":null,"display":"text-only","type":"text","enable_detail":true,"related":{"url":"https://truyenx.link/truyensextv/channels/related/4052","request_headers":[]},"share":{"url":"https://truyenx.link/truyensextv/channels/share/lan-dau-chich-gai"},"remote_data":{"url":"https://truyenx.link/truyensextv/channels/lan-dau-chich-gai"}},{"id":"4051-channel","name":"Hành trình trụy lạc của cô vợ miền tây với anh trai bắc","description":"Tại một vùng quê ở miền Tây, tỉnh Bạc Liêu, có một đôi vợ chồng trẻ tên là Hoàng Nhân và Mỹ Duyên sống trong một căn nhà nhỏ xinh xắn, nơi tình yêu của họ từng nở rộ từ...","image":null,"label":null,"display":"text-only","type":"text","enable_detail":true,"related":{"url":"https://truyenx.link/truyensextv/channels/related/4051","request_headers":[]},"share":{"url":"https://truyenx.link/truyensextv/channels/share/hanh-trinh-truy-lac-cua-co-vo-mien-tay-voi-anh-trai-bac"},"remote_data":{"url":"https://truyenx.link/truyensextv/channels/hanh-trinh-truy-lac-cua-co-vo-mien-tay-voi-anh-trai-bac"}},{"id":"4050-channel","name":"Mẹ tôi nứng lồn ngày gần tết","description":"Mẹ tôi năm nay đã ngoài 50 tuổi rồi, bả có vẻ khuôn mặt giống như diễn viên trong kênh porn Miss Fantasy khoảng 50% nhưng cái hình bú cặc này thì giống tới 90% Và body của bả cũng...","image":null,"label":null,"display":"text-only","type":"text","enable_detail":true,"related":{"url":"https://truyenx.link/truyensextv/channels/related/4050","request_headers":[]},"share":{"url":"https://truyenx.link/truyensextv/channels/share/me-toi-nung-lon-ngay-gan-tet"},"remote_data":{"url":"https://truyenx.link/truyensextv/channels/me-toi-nung-lon-ngay-gan-tet"}},{"id":"4049-channel","name":"Nhật ký cưỡng hiếp chị họ","description":"Chuyện xảy ra cũng khoảng 6 năm rồi, cái ngày mà tui không thể nào quên được, D người con gái mà tui đã say mê khi nhìn thấy lần đầu tiên cũng chính là chị họ của tui bằng tuổi...","image":null,"label":null,"display":"text-only","type":"text","enable_detail":true,"related":{"url":"https://truyenx.link/truyensextv/channels/related/4049","request_headers":[]},"share":{"url":"https://truyenx.link/truyensextv/channels/share/nhat-ky-cuong-hiep-chi-ho"},"remote_data":{"url":"https://truyenx.link/truyensextv/channels/nhat-ky-cuong-hiep-chi-ho"}},{"id":"4046-channel","name":"Kiếp trước là mẹ, kiếp này là vợ","description":"Luân hồi chuyển kiếp là một vòng quay sinh tử, là khi một người vốn đã rời xa thế giới này nhưng sau đó trở lại với thân xác mới cùng cuộc đời mới. Những người đã đầu...","image":null,"label":null,"display":"text-only","type":"text","enable_detail":true,"related":{"url":"https://truyenx.link/truyensextv/channels/related/4046","request_headers":[]},"share":{"url":"https://truyenx.link/truyensextv/channels/share/kiep-truoc-la-me-kiep-nay-la-vo"},"remote_data":{"url":"https://truyenx.link/truyensextv/channels/kiep-truoc-la-me-kiep-nay-la-vo"}},{"id":"4045-channel","name":"Khai ku cu Tí","description":"Mợ Năm Tiền biết cu Tí từ khi nó vẫn còn ở truồng tắm mưa lận. Cái thằng còn nhỏ mà đã có bộ đùm dái rõ to và rõ dài. Sở dĩ mợ để ý vì vô tình thằng Tí chạy chơi...","image":null,"label":null,"display":"text-only","type":"text","enable_detail":true,"related":{"url":"https://truyenx.link/truyensextv/channels/related/4045","request_headers":[]},"share":{"url":"https://truyenx.link/truyensextv/channels/share/khai-ku-cu-ti"},"remote_data":{"url":"https://truyenx.link/truyensextv/channels/khai-ku-cu-ti"}},{"id":"4044-channel","name":"Lỡ loạn luân với mẹ","description":"Xin chào các bạn, tôi cũng đã do dự lắm mới có thể viết lên câu chuyện này, do là chuyện có nhiều phần nên thông cảm nhé. Tôi là H, sống trong một gia đình không khá giả lắm...","image":null,"label":null,"display":"text-only","type":"text","enable_detail":true,"related":{"url":"https://truyenx.link/truyensextv/channels/related/4044","request_headers":[]},"share":{"url":"https://truyenx.link/truyensextv/channels/share/lo-loan-luan-voi-me"},"remote_data":{"url":"https://truyenx.link/truyensextv/channels/lo-loan-luan-voi-me"}},{"id":"4043-channel","name":"Công ty gia đình","description":"Gia đình tôi người Huế, Tôi tên là Tôn Thất Bảo Nam năm nay 32 tuổi cao 1m78 18cm, vợ tôi Võ Thị Phương Hiền 32 tuổi cao 1m66 thanh mai trúc mã với tôi từ năm lớp 1 12 chúng tôi mới...","image":null,"label":null,"display":"text-only","type":"text","enable_detail":true,"related":{"url":"https://truyenx.link/truyensextv/channels/related/4043","request_headers":[]},"share":{"url":"https://truyenx.link/truyensextv/channels/share/cong-ty-gia-dinh"},"remote_data":{"url":"https://truyenx.link/truyensextv/channels/cong-ty-gia-dinh"}},{"id":"4042-channel","name":"Tự sự về mẹ","description":"Trong cuộc đời mọi người ai cũng có nút thăng, nút trầm trong cuộc sống. Tôi cũng vậy cũng không thể tránh khỏi quy luật của tự nhiên ấy, có thể nói đời tôi lên voi xuống chó...","image":null,"label":null,"display":"text-only","type":"text","enable_detail":true,"related":{"url":"https://truyenx.link/truyensextv/channels/related/4042","request_headers":[]},"share":{"url":"https://truyenx.link/truyensextv/channels/share/tu-su-ve-me"},"remote_data":{"url":"https://truyenx.link/truyensextv/channels/tu-su-ve-me"}},{"id":"4041-channel","name":"Sếp “TÂY” ép bạn gái tôi thành búp bê tình dục","description":"Tôi là Phong đang làm trợ lý được 3 năm cho 1 công ty quản lý PG Đây là một hình thức đặc biệt của nghề PG, thường được hiểu là các em xinh đẹp tham dự tiệc cùng khách hàng...","image":null,"label":null,"display":"text-only","type":"text","enable_detail":true,"related":{"url":"https://truyenx.link/truyensextv/channels/related/4041","request_headers":[]},"share":{"url":"https://truyenx.link/truyensextv/channels/share/sep-tay-ep-ban-gai-toi-thanh-bup-be-tinh-duc"},"remote_data":{"url":"https://truyenx.link/truyensextv/channels/sep-tay-ep-ban-gai-toi-thanh-bup-be-tinh-duc"}},{"id":"4040-channel","name":"Cô Hà Anh","description":"Tuấn là một học sinh chăm chỉ, không chỉ được thầy cô yêu mến mà còn được bạn bè ngưỡng mộ. Cậu là học sinh giỏi nhất lớp, luôn đứng đầu trong các kỳ thi và chưa...","image":null,"label":null,"display":"text-only","type":"text","enable_detail":true,"related":{"url":"https://truyenx.link/truyensextv/channels/related/4040","request_headers":[]},"share":{"url":"https://truyenx.link/truyensextv/channels/share/co-ha-anh"},"remote_data":{"url":"https://truyenx.link/truyensextv/channels/co-ha-anh"}},{"id":"4039-channel","name":"Tòm tem tù ti tú tí","description":"Hễ gặp mợ Tâm là y như rằng thằng Tí sán lại gần và tranh thủ sờ lồn bóp vú mợ Tâm một lúc. Mỗi lần bị vậy, mợ Tâm cứ để yên cho thằng Tí tha hồ mò bóp mợ tơi bời...","image":null,"label":null,"display":"text-only","type":"text","enable_detail":true,"related":{"url":"https://truyenx.link/truyensextv/channels/related/4039","request_headers":[]},"share":{"url":"https://truyenx.link/truyensextv/channels/share/tom-tem-tu-ti-tu-ti"},"remote_data":{"url":"https://truyenx.link/truyensextv/channels/tom-tem-tu-ti-tu-ti"}},{"id":"4038-channel","name":"Diễm","description":"Cách đây mấy năm... Lúc đó mình bắt đầu học trung cấp năm đầu ở tỉnh. Nghe thì nghĩ là còn trẻ chứ thật ra mình cũng già rồi. Mất hết thời gian 2 năm ăn chơi đàn đúm khi...","image":null,"label":null,"display":"text-only","type":"text","enable_detail":true,"related":{"url":"https://truyenx.link/truyensextv/channels/related/4038","request_headers":[]},"share":{"url":"https://truyenx.link/truyensextv/channels/share/diem"},"remote_data":{"url":"https://truyenx.link/truyensextv/channels/diem"}},{"id":"4037-channel","name":"Hạnh phúc của mẹ","description":"Trong cuộc sống của mỗi người đâu ai biết trước được ngày mai, mà đâu ai cũng có thể đoán trước tương lai con đường mình đi là như thế nào, nếu đi đúng thì gọi đó là...","image":null,"label":null,"display":"text-only","type":"text","enable_detail":true,"related":{"url":"https://truyenx.link/truyensextv/channels/related/4037","request_headers":[]},"share":{"url":"https://truyenx.link/truyensextv/channels/share/hanh-phuc-cua-me"},"remote_data":{"url":"https://truyenx.link/truyensextv/channels/hanh-phuc-cua-me"}},{"id":"4036-channel","name":"Mẹ tôi là bồn chứa tinh","description":"Đến bây giờ thì nó vẫn là ký ức ám ảnh nhất trong cuộc đời của tôi, mặc dù năm nay đã ngoài 40 nhưng những chuyện mà trong quá khứ để lại thật sự khiến tôi không thể...","image":null,"label":null,"display":"text-only","type":"text","enable_detail":true,"related":{"url":"https://truyenx.link/truyensextv/channels/related/4036","request_headers":[]},"share":{"url":"https://truyenx.link/truyensextv/channels/share/me-toi-la-bon-chua-tinh"},"remote_data":{"url":"https://truyenx.link/truyensextv/channels/me-toi-la-bon-chua-tinh"}},{"id":"4035-channel","name":"Một đêm tuyệt vời cùng em người yêu","description":"Vào cuối năm cấp 3 khi đó tôi chuẩn bị ôn thi tốt nghiệp vô tình vào giờ ra chơi khi xuống căn tin tôi nhìn thấy được một em lớp 10 với nụ cười cô cùng dễ thương em đấy có...","image":null,"label":null,"display":"text-only","type":"text","enable_detail":true,"related":{"url":"https://truyenx.link/truyensextv/channels/related/4035","request_headers":[]},"share":{"url":"https://truyenx.link/truyensextv/channels/share/mot-dem-tuyet-voi-cung-em-nguoi-yeu"},"remote_data":{"url":"https://truyenx.link/truyensextv/channels/mot-dem-tuyet-voi-cung-em-nguoi-yeu"}},{"id":"4034-channel","name":"Cảm ơn em đã đến","description":"Tuấn sinh ra ở một làng quê nhỏ ven sông Tiền, nơi mà cái nghèo bám riết lấy từng mái nhà tranh, từng con đường đất đỏ bụi mù mỗi mùa khô. Nhà Tuấn nghèo nhất xóm, bố mất...","image":null,"label":null,"display":"text-only","type":"text","enable_detail":true,"related":{"url":"https://truyenx.link/truyensextv/channels/related/4034","request_headers":[]},"share":{"url":"https://truyenx.link/truyensextv/channels/share/cam-on-em-da-den"},"remote_data":{"url":"https://truyenx.link/truyensextv/channels/cam-on-em-da-den"}},{"id":"4033-channel","name":"Đêm giao thừa","description":"Chiếc xe ô tô to đùng, đen bóng đậu ở chỗ này đã được vài phút. Trên xe được bật đèn sáng và thấy được rõ ràng 2 người ngồi bên trên. Họ gồm 1 nam 1 nữ ai cũng xinh...","image":null,"label":null,"display":"text-only","type":"text","enable_detail":true,"related":{"url":"https://truyenx.link/truyensextv/channels/related/4033","request_headers":[]},"share":{"url":"https://truyenx.link/truyensextv/channels/share/dem-giao-thua"},"remote_data":{"url":"https://truyenx.link/truyensextv/channels/dem-giao-thua"}}],"load_more":{"pageInfo":{"current_page":25,"last_page":140,"per_page":30,"total":4188},"paging":{"page_key":"page","size_key":"size"},"remote_data":{"url":"https://truyenx.link/truyensextv/channels"}}}