{"grid_number":1,"channels":[{"id":"1848-channel","name":"Phá trinh ở quán Karaoke","description":"Xin chào anh em đồng dâm. Hôm nay mình xin chia sẻ một câu chuyện của mình. Năm trước mình và người yêu yêu nhau. Sơ lược thì N cao 1m6, da hơi ngăm nhưng rất quyến rũ, nổi bật là...","image":null,"label":null,"display":"text-only","type":"text","enable_detail":true,"related":{"url":"https://truyenx.link/truyensextv/channels/related/1848","request_headers":[]},"share":{"url":"https://truyenx.link/truyensextv/channels/share/pha-trinh-o-quan-karaoke"},"remote_data":{"url":"https://truyenx.link/truyensextv/channels/pha-trinh-o-quan-karaoke"}},{"id":"1847-channel","name":"Bộ ba thác loạn","description":"32 tính cả họ, vả lại gái lớp này vừa dễ thương và dễ dại lại còn rất nhiều đứa xinh đẹp và múp máp. Ngay ngày đầu tiên, Dũng đã rất thân thiết với cô bạn tên Ngân...","image":null,"label":null,"display":"text-only","type":"text","enable_detail":true,"related":{"url":"https://truyenx.link/truyensextv/channels/related/1847","request_headers":[]},"share":{"url":"https://truyenx.link/truyensextv/channels/share/bo-ba-thac-loan"},"remote_data":{"url":"https://truyenx.link/truyensextv/channels/bo-ba-thac-loan"}},{"id":"1846-channel","name":"Đụ đứa cháu họ","description":"Cách đây đã lâu, hồi ấy mình còn trẻ lắm, mà chưa mang cái biệt danh trai quậy như bây giờ. Năm ấy học đại học năm thứ 3, mới 21 tuổi. Mà cách đây dăm năm, con trai tuổi đó...","image":null,"label":null,"display":"text-only","type":"text","enable_detail":true,"related":{"url":"https://truyenx.link/truyensextv/channels/related/1846","request_headers":[]},"share":{"url":"https://truyenx.link/truyensextv/channels/share/du-dua-chau-ho"},"remote_data":{"url":"https://truyenx.link/truyensextv/channels/du-dua-chau-ho"}},{"id":"1845-channel","name":"Cô vợ siêu dâm đãng","description":"Chúng ta đã từng nghe những truyện ngoại tình, và những chuyện mà người vợ hoặc chồng vô cùng đau đớn và bàng hoàng khi nhìn thấy người bạn đời của mình đang ân ái với...","image":null,"label":null,"display":"text-only","type":"text","enable_detail":true,"related":{"url":"https://truyenx.link/truyensextv/channels/related/1845","request_headers":[]},"share":{"url":"https://truyenx.link/truyensextv/channels/share/co-vo-sieu-dam-dang"},"remote_data":{"url":"https://truyenx.link/truyensextv/channels/co-vo-sieu-dam-dang"}},{"id":"1844-channel","name":"Cuộc ngoại tình chớp nhoáng","description":"Trời đã bắt vào xuân, cuối tuần rồi tôi đã thấy người ta chưng những cành đào trước cửa những tiệm bán hàng tạp hóa. Không biết đây là mùa xuân thứ mấy xa quê hương...","image":null,"label":null,"display":"text-only","type":"text","enable_detail":true,"related":{"url":"https://truyenx.link/truyensextv/channels/related/1844","request_headers":[]},"share":{"url":"https://truyenx.link/truyensextv/channels/share/cuoc-ngoai-tinh-chop-nhoang"},"remote_data":{"url":"https://truyenx.link/truyensextv/channels/cuoc-ngoai-tinh-chop-nhoang"}},{"id":"1843-channel","name":"Dòng đời","description":"Xe dừng lại tại bến xe Nước Ngầm lúc 5h sáng. Trời đã bắt đầu sáng dần và Hùng nhận ra “đây là Hà Nội!” Theo như lời của anh Hải và chị Mận nói. Đường thì gập...","image":null,"label":null,"display":"text-only","type":"text","enable_detail":true,"related":{"url":"https://truyenx.link/truyensextv/channels/related/1843","request_headers":[]},"share":{"url":"https://truyenx.link/truyensextv/channels/share/dong-doi"},"remote_data":{"url":"https://truyenx.link/truyensextv/channels/dong-doi"}},{"id":"1842-channel","name":"Cậu con trai may mắn","description":"Nam, cậu con trai trong gia đình có 4 anh chị em, Nam là thứ hai, phía trên là chị cả, dưới là hai cô em gái. Tuổi của 4 chị em lần lượt là 16, 14, 13 và 12. Nam có một lần xem phải...","image":null,"label":null,"display":"text-only","type":"text","enable_detail":true,"related":{"url":"https://truyenx.link/truyensextv/channels/related/1842","request_headers":[]},"share":{"url":"https://truyenx.link/truyensextv/channels/share/cau-con-trai-may-man"},"remote_data":{"url":"https://truyenx.link/truyensextv/channels/cau-con-trai-may-man"}},{"id":"1841-channel","name":"Loạn luân cùng chị họ","description":"Năm 17 tuổi là thời gian mà tôi không thể quên được với chị họ của tôi. Mùa hè đến tôi thường được lên nhà bác chơi, nhà bác tôi có 2 người con 1 chị gái và 1 em trai. Năm...","image":null,"label":null,"display":"text-only","type":"text","enable_detail":true,"related":{"url":"https://truyenx.link/truyensextv/channels/related/1841","request_headers":[]},"share":{"url":"https://truyenx.link/truyensextv/channels/share/loan-luan-cung-chi-ho"},"remote_data":{"url":"https://truyenx.link/truyensextv/channels/loan-luan-cung-chi-ho"}},{"id":"1840-channel","name":"Cô nàng hàng xóm","description":"Điện chập chờn triền miên trong những tháng hè oi ả, vốn quen ngủ đắp chăn, Long quyết định mua máy phát phục vụ căn hộ chung cư xinh đẹp của anh. Khệ nệ bê cục sắt có hồn...","image":null,"label":null,"display":"text-only","type":"text","enable_detail":true,"related":{"url":"https://truyenx.link/truyensextv/channels/related/1840","request_headers":[]},"share":{"url":"https://truyenx.link/truyensextv/channels/share/co-nang-hang-xom"},"remote_data":{"url":"https://truyenx.link/truyensextv/channels/co-nang-hang-xom"}},{"id":"1839-channel","name":"Hiếp dâm em Quỳnh","description":"Sau khi tốt nghiệp đại học Quỳnh được vào làm việc trong một ngân hàng Hà Nội. Cô vừa mới tổ chức sinh nhật lần thứ 25 của mình. Quỳnh không những học giỏi, cô còn có một...","image":null,"label":null,"display":"text-only","type":"text","enable_detail":true,"related":{"url":"https://truyenx.link/truyensextv/channels/related/1839","request_headers":[]},"share":{"url":"https://truyenx.link/truyensextv/channels/share/hiep-dam-em-quynh"},"remote_data":{"url":"https://truyenx.link/truyensextv/channels/hiep-dam-em-quynh"}},{"id":"1838-channel","name":"Học nhóm","description":"Tôi yêu Thúy đã hai năm nay. Nàng là một cô gái đẹp mà có lẽ là đẹp nhất lớp. Chúng tôi là bạn thân của nhau từ hồi học lớp 6 tới giờ. Bây giờ chúng tôi đang học lớp 12...","image":null,"label":null,"display":"text-only","type":"text","enable_detail":true,"related":{"url":"https://truyenx.link/truyensextv/channels/related/1838","request_headers":[]},"share":{"url":"https://truyenx.link/truyensextv/channels/share/hoc-nhom"},"remote_data":{"url":"https://truyenx.link/truyensextv/channels/hoc-nhom"}},{"id":"1837-channel","name":"Mẹ thằng bạn thân","description":"Hôm nay mình muốn chia sẻ cùng anh em câu chuyện của mình. Chuyện là sáng nay mình đi sinh nhật đứa bạn thân từ hồi c2. Mình viết văn không tốt mong mn thông cảm nhưng câu chuyện...","image":null,"label":null,"display":"text-only","type":"text","enable_detail":true,"related":{"url":"https://truyenx.link/truyensextv/channels/related/1837","request_headers":[]},"share":{"url":"https://truyenx.link/truyensextv/channels/share/me-thang-ban-than"},"remote_data":{"url":"https://truyenx.link/truyensextv/channels/me-thang-ban-than"}},{"id":"1836-channel","name":"Phá trinh con dở người","description":"Cả làng cả xóm đều gọi nó là con dở người. Dù ngã nó cũng cười, bị trêu ghẹo nó càng cười dữ tợn hơn nữa. Học hết lớp 5 nó ở nhà. Người nhà nó có học lên cũng chẳng...","image":null,"label":null,"display":"text-only","type":"text","enable_detail":true,"related":{"url":"https://truyenx.link/truyensextv/channels/related/1836","request_headers":[]},"share":{"url":"https://truyenx.link/truyensextv/channels/share/pha-trinh-con-do-nguoi"},"remote_data":{"url":"https://truyenx.link/truyensextv/channels/pha-trinh-con-do-nguoi"}},{"id":"1835-channel","name":"Cô em gái đáng yêu","description":"Tôi tên Huy, 16 tuổi, cư ngụ tại TpHCM. Nhà tôi có 4 người: Ba, mẹ, tôi và em gái tên Ngân 14 tuổi. Cô bé rất ngoan ngoãn và nghe lời tôi do tôi thường xuyên chăm sóc em ấy lúc 2 đứa...","image":null,"label":null,"display":"text-only","type":"text","enable_detail":true,"related":{"url":"https://truyenx.link/truyensextv/channels/related/1835","request_headers":[]},"share":{"url":"https://truyenx.link/truyensextv/channels/share/co-em-gai-dang-yeu"},"remote_data":{"url":"https://truyenx.link/truyensextv/channels/co-em-gai-dang-yeu"}},{"id":"1834-channel","name":"Vợ dâm khát tình","description":"Năm ngày nghỉ lễ, trời nắng đẹp. Gấp ba cái quần bò và mấy cái áo phông cho vào balô, chuẩn bị thêm cái máy ảnh và mấy cái lens cho vào rồi tôi gọi điện cho Chi vợ sắp...","image":null,"label":null,"display":"text-only","type":"text","enable_detail":true,"related":{"url":"https://truyenx.link/truyensextv/channels/related/1834","request_headers":[]},"share":{"url":"https://truyenx.link/truyensextv/channels/share/vo-dam-khat-tinh"},"remote_data":{"url":"https://truyenx.link/truyensextv/channels/vo-dam-khat-tinh"}},{"id":"1833-channel","name":"Chuyện tình trường bán công","description":"Thấm thoắt thời gian trôi qua, mới đây thôi mà cũng đã 13 năm, chiều này trời mưa, mọi người xung quanh tôi lại hân hoan vì cái cảm giác dễ chịu mà mưa mang đến, nhưng đối với...","image":null,"label":null,"display":"text-only","type":"text","enable_detail":true,"related":{"url":"https://truyenx.link/truyensextv/channels/related/1833","request_headers":[]},"share":{"url":"https://truyenx.link/truyensextv/channels/share/chuyen-tinh-truong-ban-cong"},"remote_data":{"url":"https://truyenx.link/truyensextv/channels/chuyen-tinh-truong-ban-cong"}},{"id":"1832-channel","name":"Siêu cấp dâm dục","description":"Lại như bao ngày, Vũ rời công ty với gương mặt chán nản. Gã chẳng tha thiết gì, hay có bất kỳ dục vọng gì với những thứ diễn ra quanh mình. Không biết từ khi nào mà Vũ đã...","image":null,"label":null,"display":"text-only","type":"text","enable_detail":true,"related":{"url":"https://truyenx.link/truyensextv/channels/related/1832","request_headers":[]},"share":{"url":"https://truyenx.link/truyensextv/channels/share/sieu-cap-dam-duc"},"remote_data":{"url":"https://truyenx.link/truyensextv/channels/sieu-cap-dam-duc"}},{"id":"1831-channel","name":"Chơi người yêu bạn","description":"Thời Đại học em có chung phòng với một thằng bạn cùng quê, em với nó học chung với nhau từ nhỏ, lên ĐH tuy không chung trường nhưng vẫn trọ cùng nhau. Chuyện là nó có một em...","image":null,"label":null,"display":"text-only","type":"text","enable_detail":true,"related":{"url":"https://truyenx.link/truyensextv/channels/related/1831","request_headers":[]},"share":{"url":"https://truyenx.link/truyensextv/channels/share/choi-nguoi-yeu-ban"},"remote_data":{"url":"https://truyenx.link/truyensextv/channels/choi-nguoi-yeu-ban"}},{"id":"1830-channel","name":"Bác sĩ Thành","description":"Cô Y Tá Vân gõ cửa trước khi bước vào phòng Bác Sĩ Thành. Cô đóng cửa lại và đứng dựa lưng vào cánh cửa. Bác Sĩ Thành ngồi sau bàn giấy, đang đọc hồ sơ bệnh lý của một...","image":null,"label":null,"display":"text-only","type":"text","enable_detail":true,"related":{"url":"https://truyenx.link/truyensextv/channels/related/1830","request_headers":[]},"share":{"url":"https://truyenx.link/truyensextv/channels/share/bac-si-thanh"},"remote_data":{"url":"https://truyenx.link/truyensextv/channels/bac-si-thanh"}},{"id":"1829-channel","name":"Ngoại tình với đứa cháu","description":"Từ trước đến nay chàng vẫn quan niệm việc làm tình với vợ là một bổn phận của người chồng, một việc truyền giống thông thường của loài người. Chàng cố gắng làm vui lòng...","image":null,"label":null,"display":"text-only","type":"text","enable_detail":true,"related":{"url":"https://truyenx.link/truyensextv/channels/related/1829","request_headers":[]},"share":{"url":"https://truyenx.link/truyensextv/channels/share/ngoai-tinh-voi-dua-chau"},"remote_data":{"url":"https://truyenx.link/truyensextv/channels/ngoai-tinh-voi-dua-chau"}},{"id":"1828-channel","name":"Huấn luyện em hàng xóm tuổi teen","description":"Gia đình Ngân gồm có 3 người đó là cô, ba cô và mẹ cô. Gia đình cô có ít thành viên như thế là bởi vì ba cô khi xưa vốn coi trọng việc học nên đã tốn 1 khoảng thời gian khá...","image":null,"label":null,"display":"text-only","type":"text","enable_detail":true,"related":{"url":"https://truyenx.link/truyensextv/channels/related/1828","request_headers":[]},"share":{"url":"https://truyenx.link/truyensextv/channels/share/huan-luyen-em-hang-xom-tuoi-teen"},"remote_data":{"url":"https://truyenx.link/truyensextv/channels/huan-luyen-em-hang-xom-tuoi-teen"}},{"id":"1827-channel","name":"Hãm hiếp tập thể nữ sinh tuổi teen","description":"Chuyện kể về cô bạn Vũ Phạm Minh Thi, năm nay cô nàng đang học lớp 12 trường XXX. Chuyện xảy ra lúc cô bạn này mới 14 tuổi, học lớp 9. Minh Thi từ khi dậy thì đã có vẻ ngoài...","image":null,"label":null,"display":"text-only","type":"text","enable_detail":true,"related":{"url":"https://truyenx.link/truyensextv/channels/related/1827","request_headers":[]},"share":{"url":"https://truyenx.link/truyensextv/channels/share/ham-hiep-tap-the-nu-sinh-tuoi-teen"},"remote_data":{"url":"https://truyenx.link/truyensextv/channels/ham-hiep-tap-the-nu-sinh-tuoi-teen"}},{"id":"1826-channel","name":"Chơi gái 2 con hết 5 triệu","description":"Chị lớn hơn mình 3 tuổi, đang ly thân chồng, có 2 con rồi nhưng mặt thì cực kỳ baby, dáng người lại chubby hợp gu mình. Quen chị cũng hơn 1 năm trong 1 lần quét Zalo gần đây. Cũng...","image":null,"label":null,"display":"text-only","type":"text","enable_detail":true,"related":{"url":"https://truyenx.link/truyensextv/channels/related/1826","request_headers":[]},"share":{"url":"https://truyenx.link/truyensextv/channels/share/choi-gai-2-con-het-5-trieu"},"remote_data":{"url":"https://truyenx.link/truyensextv/channels/choi-gai-2-con-het-5-trieu"}},{"id":"1825-channel","name":"Một lần giận chồng","description":"Hoan và Hằng cưới nhau đã lâu, cả 2 cũng vừa bước qua tuổi 30. Gia đình có 1 con trai đầu lòng đang học lớp 3, dự kiến trong năm nay sẽ sinh thêm đứa nữa để cho có anh có em cho...","image":null,"label":null,"display":"text-only","type":"text","enable_detail":true,"related":{"url":"https://truyenx.link/truyensextv/channels/related/1825","request_headers":[]},"share":{"url":"https://truyenx.link/truyensextv/channels/share/mot-lan-gian-chong"},"remote_data":{"url":"https://truyenx.link/truyensextv/channels/mot-lan-gian-chong"}},{"id":"1824-channel","name":"Anh sẽ ngủ với em chứ?","description":"“Hehe, bắt được anh rồi nhé!” Cô bé chạy đến và kéo anh ra ngoài. “Anh này, em có chuyện cần nói với anh” Ngoài quán rượu sáng và ít ồn ào hơn. Giọng của cô...","image":null,"label":null,"display":"text-only","type":"text","enable_detail":true,"related":{"url":"https://truyenx.link/truyensextv/channels/related/1824","request_headers":[]},"share":{"url":"https://truyenx.link/truyensextv/channels/share/anh-se-ngu-voi-em-chu"},"remote_data":{"url":"https://truyenx.link/truyensextv/channels/anh-se-ngu-voi-em-chu"}},{"id":"1823-channel","name":"Thằng Tuấn - Bà Hiền","description":"Tác giả: HxT Bà Hiền giám đốc của một công ty XXX cũng có danh tiếng trên thành phố. Bà Hiền năm nay đang ở cái tuổi 35 cái tuổi xinh đẹp nhất của đời con gái. Tuổi 35 là cái...","image":null,"label":null,"display":"text-only","type":"text","enable_detail":true,"related":{"url":"https://truyenx.link/truyensextv/channels/related/1823","request_headers":[]},"share":{"url":"https://truyenx.link/truyensextv/channels/share/thang-tuan-ba-hien"},"remote_data":{"url":"https://truyenx.link/truyensextv/channels/thang-tuan-ba-hien"}},{"id":"1822-channel","name":"Ham muốn tuổi dậy thì","description":"Ôi, một đứa con gái 19t, cái tuổi mơn mởn lớn. Ai đâu ngờ rằng tôi đã sớm dành vài năm thanh xuân của mình để thỏa mãn đam mê dục vọng. Những ham muốn có lẽ bắt đầu từ...","image":null,"label":null,"display":"text-only","type":"text","enable_detail":true,"related":{"url":"https://truyenx.link/truyensextv/channels/related/1822","request_headers":[]},"share":{"url":"https://truyenx.link/truyensextv/channels/share/ham-muon-tuoi-day-thi"},"remote_data":{"url":"https://truyenx.link/truyensextv/channels/ham-muon-tuoi-day-thi"}},{"id":"1821-channel","name":"Người mẹ dâm dục","description":"Ở xóm tôi ở. Có một cặp mẹ con. Thằng con tên Duy còn mẹ nó là bà Thư, thằng Duy năm nay 17 tuổi là cái tuổi bẻ gãy sừng trâu. Còn mẹ nó thì 35, 36 là độ tuổi hồi xuân của...","image":null,"label":null,"display":"text-only","type":"text","enable_detail":true,"related":{"url":"https://truyenx.link/truyensextv/channels/related/1821","request_headers":[]},"share":{"url":"https://truyenx.link/truyensextv/channels/share/nguoi-me-dam-duc"},"remote_data":{"url":"https://truyenx.link/truyensextv/channels/nguoi-me-dam-duc"}},{"id":"1820-channel","name":"Sale bất động sản","description":"“Reng... Reng.” 6h00 sáng, tiếng báo thức reo khiến Dung bật dậy, hôm nay là ngày chủ nhật nhưng do quen giấc rồi cũng như là quên tắt chuông đt để cho cái điện thoại đánh...","image":null,"label":null,"display":"text-only","type":"text","enable_detail":true,"related":{"url":"https://truyenx.link/truyensextv/channels/related/1820","request_headers":[]},"share":{"url":"https://truyenx.link/truyensextv/channels/share/sale-bat-dong-san"},"remote_data":{"url":"https://truyenx.link/truyensextv/channels/sale-bat-dong-san"}},{"id":"1819-channel","name":"Cô em họ","description":"Trang là cô em họ của tôi, Trang được sinh ra và lớn lên ở Cần Thơ. Theo như lời ba má tôi kể lại thì hồi mới sinh ra Trang hay đau ốm bệnh tật rất là khó nuôi. Rồi có người...","image":null,"label":null,"display":"text-only","type":"text","enable_detail":true,"related":{"url":"https://truyenx.link/truyensextv/channels/related/1819","request_headers":[]},"share":{"url":"https://truyenx.link/truyensextv/channels/share/co-em-ho"},"remote_data":{"url":"https://truyenx.link/truyensextv/channels/co-em-ho"}}],"load_more":{"pageInfo":{"current_page":79,"last_page":140,"per_page":30,"total":4188},"paging":{"page_key":"page","size_key":"size"},"remote_data":{"url":"https://truyenx.link/truyensextv/channels"}}}