{
  "grid_number": 1,
  "channels": [
    {
      "id": "1128-channel",
      "name": "Thú vui thể xác",
      "description": "Chuyện đó đã qua được hơn 2 năm, khi mà bọn khốn kia đang phải trả giá trong nhà tù và Quế Hương vợ tôi cũng đã dần nguôi ngoai đi nỗi đau về cả thể xác lẫn tinh thần thì...",
      "image": null,
      "label": null,
      "display": "text-only",
      "type": "text",
      "enable_detail": true,
      "related": {
        "url": "https://truyenx.link/truyensextv/channels/related/1128",
        "request_headers": []
      },
      "share": {
        "url": "https://truyenx.link/truyensextv/channels/share/thu-vui-the-xac"
      },
      "remote_data": {
        "url": "https://truyenx.link/truyensextv/channels/thu-vui-the-xac"
      }
    },
    {
      "id": "1127-channel",
      "name": "Nô lệ",
      "description": "Kẻ bội bạc, đó là ba từ mà Hoa sẽ dùng để gọi hắn từ nay đến hết cuộc đời. Hắn bỏ rơi nàng trong lúc số phận đã quay lưng, trong những tháng ngày cùng cực mà nàng ngỡ...",
      "image": null,
      "label": null,
      "display": "text-only",
      "type": "text",
      "enable_detail": true,
      "related": {
        "url": "https://truyenx.link/truyensextv/channels/related/1127",
        "request_headers": []
      },
      "share": {
        "url": "https://truyenx.link/truyensextv/channels/share/no-le"
      },
      "remote_data": {
        "url": "https://truyenx.link/truyensextv/channels/no-le"
      }
    },
    {
      "id": "1126-channel",
      "name": "Công chúa Quỳnh Nga",
      "description": "Xưa, có một nàng công chúa tên là Quỳnh Nga. Nàng có sắc đẹp tuyệt trần, lại đến tuổi cập kê nên nhà vua đăng tin kén phò mã đến khắp dân gian và các nước láng giềng. Rất...",
      "image": null,
      "label": null,
      "display": "text-only",
      "type": "text",
      "enable_detail": true,
      "related": {
        "url": "https://truyenx.link/truyensextv/channels/related/1126",
        "request_headers": []
      },
      "share": {
        "url": "https://truyenx.link/truyensextv/channels/share/cong-chua-quynh-nga"
      },
      "remote_data": {
        "url": "https://truyenx.link/truyensextv/channels/cong-chua-quynh-nga"
      }
    },
    {
      "id": "1125-channel",
      "name": "Sự tích trầu cau",
      "description": "Thời xưa, một nhà quan lang nọ họ Cao mất sớm để lại hai cậu con trai hơn nhau một tuổi trông giống nhau như đúc, nhưng người anh Cao Tín lớn hơn một tuổi so với người em tên Cao...",
      "image": null,
      "label": null,
      "display": "text-only",
      "type": "text",
      "enable_detail": true,
      "related": {
        "url": "https://truyenx.link/truyensextv/channels/related/1125",
        "request_headers": []
      },
      "share": {
        "url": "https://truyenx.link/truyensextv/channels/share/su-tich-trau-cau"
      },
      "remote_data": {
        "url": "https://truyenx.link/truyensextv/channels/su-tich-trau-cau"
      }
    },
    {
      "id": "1124-channel",
      "name": "Em Trinh dâm đãng",
      "description": "“Ư... Ân... A... Mạnh lên bố ơi... Mạnh nữa lên... Địt chết con đi bố ơi...” Tuấn thúc thật mạnh vào lồn Trinh, vừa thúc Tuấn vừa quát lên: “Này thì mạnh này, con...",
      "image": null,
      "label": null,
      "display": "text-only",
      "type": "text",
      "enable_detail": true,
      "related": {
        "url": "https://truyenx.link/truyensextv/channels/related/1124",
        "request_headers": []
      },
      "share": {
        "url": "https://truyenx.link/truyensextv/channels/share/em-trinh-dam-dang"
      },
      "remote_data": {
        "url": "https://truyenx.link/truyensextv/channels/em-trinh-dam-dang"
      }
    },
    {
      "id": "1123-channel",
      "name": "Võ Tòng dâm hiệp truyện",
      "description": "Dáng đi uốn éo, ưỡn ẹo, cái mông tròn cứ lắc trái lắc phải, cặp vú thì nẩy tưng tưng như muốn làm nổ con mắt lão già bán hồ lô ngào đường bên góc phố... Bởi cái lẽ...",
      "image": null,
      "label": null,
      "display": "text-only",
      "type": "text",
      "enable_detail": true,
      "related": {
        "url": "https://truyenx.link/truyensextv/channels/related/1123",
        "request_headers": []
      },
      "share": {
        "url": "https://truyenx.link/truyensextv/channels/share/vo-tong-dam-hiep-truyen"
      },
      "remote_data": {
        "url": "https://truyenx.link/truyensextv/channels/vo-tong-dam-hiep-truyen"
      }
    },
    {
      "id": "1122-channel",
      "name": "Đời học sinh - Quyển 4",
      "description": "Một kịch bản khác là tôi sẽ nói cho ba nàng về sự thật những lần tôi và nàng đi chơi riêng với nhau. Nhưng chỉ là đi uống nước dạo mát mà thôi, vì trên thực tế cũng chẳng...",
      "image": null,
      "label": null,
      "display": "text-only",
      "type": "text",
      "enable_detail": true,
      "related": {
        "url": "https://truyenx.link/truyensextv/channels/related/1122",
        "request_headers": []
      },
      "share": {
        "url": "https://truyenx.link/truyensextv/channels/share/doi-hoc-sinh-quyen-4"
      },
      "remote_data": {
        "url": "https://truyenx.link/truyensextv/channels/doi-hoc-sinh-quyen-4"
      }
    },
    {
      "id": "1121-channel",
      "name": "Thư ký Mỹ Dung dâm đãng",
      "description": "Còn gần 1 tiếng nữa mới đến giờ làm, nhưng hôm nay bị hư xe nên buộc Mỹ Dung phải đi bus, vì phải đổi qua 1 trạm nữa nên Mỹ Dung buộc phải đi sớm hơn 20′ để tránh kẹt...",
      "image": null,
      "label": null,
      "display": "text-only",
      "type": "text",
      "enable_detail": true,
      "related": {
        "url": "https://truyenx.link/truyensextv/channels/related/1121",
        "request_headers": []
      },
      "share": {
        "url": "https://truyenx.link/truyensextv/channels/share/thu-ky-my-dung-dam-dang"
      },
      "remote_data": {
        "url": "https://truyenx.link/truyensextv/channels/thu-ky-my-dung-dam-dang"
      }
    },
    {
      "id": "1120-channel",
      "name": "Phá trinh em gái",
      "description": "Tiểu bảo bối, đi chơi vui không? Hai, em nhớ hai chết mất, đi chơi vui lắm nhưng không có hai bên cạnh, hic. Vừa nói Khả Ngân vừa chạy sà vào lòng Tuấn Kiệt, hôn chụt lên má anh...",
      "image": null,
      "label": null,
      "display": "text-only",
      "type": "text",
      "enable_detail": true,
      "related": {
        "url": "https://truyenx.link/truyensextv/channels/related/1120",
        "request_headers": []
      },
      "share": {
        "url": "https://truyenx.link/truyensextv/channels/share/pha-trinh-em-gai"
      },
      "remote_data": {
        "url": "https://truyenx.link/truyensextv/channels/pha-trinh-em-gai"
      }
    },
    {
      "id": "1119-channel",
      "name": "Hiếp dâm tập thể em Liên",
      "description": "Liên là nhân viên phục vụ quán ăn vặt, gia đình cô không khá giả gì nên từ khi lên cấp 3 cô đã tự làm thêm để phụ giúp ba mẹ. Mặc dù là đứa con gái út nhưng liên khá ngoan...",
      "image": null,
      "label": null,
      "display": "text-only",
      "type": "text",
      "enable_detail": true,
      "related": {
        "url": "https://truyenx.link/truyensextv/channels/related/1119",
        "request_headers": []
      },
      "share": {
        "url": "https://truyenx.link/truyensextv/channels/share/hiep-dam-tap-the-em-lien"
      },
      "remote_data": {
        "url": "https://truyenx.link/truyensextv/channels/hiep-dam-tap-the-em-lien"
      }
    },
    {
      "id": "1118-channel",
      "name": "Ngã rẽ cuộc đời",
      "description": "Trí dán mắt vào những dòng chữ trên hợp đồng. Tờ giấy A4 chằng chịt chữ với chữ khiến hai mắt muốn hoa đi. Ngày nào cũng vậy, ló mặt đến công ty là hàng tá việc trút lên...",
      "image": null,
      "label": null,
      "display": "text-only",
      "type": "text",
      "enable_detail": true,
      "related": {
        "url": "https://truyenx.link/truyensextv/channels/related/1118",
        "request_headers": []
      },
      "share": {
        "url": "https://truyenx.link/truyensextv/channels/share/nga-re-cuoc-doi"
      },
      "remote_data": {
        "url": "https://truyenx.link/truyensextv/channels/nga-re-cuoc-doi"
      }
    },
    {
      "id": "1117-channel",
      "name": "Hiếp dâm tập thể người yêu cũ",
      "description": "Tôi và nàng quen nhau được một năm thì chia tay. Ngày ấy chúng tôi quấn quýt bên nhau trong nhà nghỉ thường xuyên. Tôi dạy nàng làm tình, cách chủ động, cách thủ dâm cho tôi xem hay...",
      "image": null,
      "label": null,
      "display": "text-only",
      "type": "text",
      "enable_detail": true,
      "related": {
        "url": "https://truyenx.link/truyensextv/channels/related/1117",
        "request_headers": []
      },
      "share": {
        "url": "https://truyenx.link/truyensextv/channels/share/hiep-dam-tap-the-nguoi-yeu-cu"
      },
      "remote_data": {
        "url": "https://truyenx.link/truyensextv/channels/hiep-dam-tap-the-nguoi-yeu-cu"
      }
    },
    {
      "id": "1116-channel",
      "name": "Chị em sinh đôi",
      "description": "Màu xanh trên trời lốm đốm vài tảng mây bay lững lờ. Ánh nắng phảng phất cái bóng in dưới đường chậm chạp. Nó đột ngột dừng lại khi có tiếng chân lịch bịch từ xa...",
      "image": null,
      "label": null,
      "display": "text-only",
      "type": "text",
      "enable_detail": true,
      "related": {
        "url": "https://truyenx.link/truyensextv/channels/related/1116",
        "request_headers": []
      },
      "share": {
        "url": "https://truyenx.link/truyensextv/channels/share/chi-em-sinh-doi"
      },
      "remote_data": {
        "url": "https://truyenx.link/truyensextv/channels/chi-em-sinh-doi"
      }
    },
    {
      "id": "1115-channel",
      "name": "Vượt qua ranh giới chị em",
      "description": "Nam, em rửa chén giùm chị nha ~ Lại em nữa sao? Giúp chị đi nha, “Quỳnh búp phê” hôm nay chiếu tập cuối rồi, cho nên giúp chị đi mà, nha? ~ Cô giở giọng năn nỉ, ngọt ngào...",
      "image": null,
      "label": null,
      "display": "text-only",
      "type": "text",
      "enable_detail": true,
      "related": {
        "url": "https://truyenx.link/truyensextv/channels/related/1115",
        "request_headers": []
      },
      "share": {
        "url": "https://truyenx.link/truyensextv/channels/share/vuot-qua-ranh-gioi-chi-em"
      },
      "remote_data": {
        "url": "https://truyenx.link/truyensextv/channels/vuot-qua-ranh-gioi-chi-em"
      }
    },
    {
      "id": "1114-channel",
      "name": "Địt em thư ký",
      "description": "Hy vọng chúng ta sẽ hợp tác thành công. Cảm ơn, bây giờ chúng tôi phải đi rồi, chào anh. Chào. Hai người đàn ông bắt tay nhau rồi một người với thân hình mập mạp đi ra ngoài...",
      "image": null,
      "label": null,
      "display": "text-only",
      "type": "text",
      "enable_detail": true,
      "related": {
        "url": "https://truyenx.link/truyensextv/channels/related/1114",
        "request_headers": []
      },
      "share": {
        "url": "https://truyenx.link/truyensextv/channels/share/dit-em-thu-ky"
      },
      "remote_data": {
        "url": "https://truyenx.link/truyensextv/channels/dit-em-thu-ky"
      }
    },
    {
      "id": "1113-channel",
      "name": "Anh hai",
      "description": "Anh hai, anh thấy em mặc bộ này có đẹp không? Anh hai, anh thấy em mặc bộ này có đẹp không? Tất nhiên là đẹp. Em gái anh nay đã là sinh viên rồi nhé cho nên anh không được trêu em...",
      "image": null,
      "label": null,
      "display": "text-only",
      "type": "text",
      "enable_detail": true,
      "related": {
        "url": "https://truyenx.link/truyensextv/channels/related/1113",
        "request_headers": []
      },
      "share": {
        "url": "https://truyenx.link/truyensextv/channels/share/anh-hai"
      },
      "remote_data": {
        "url": "https://truyenx.link/truyensextv/channels/anh-hai"
      }
    },
    {
      "id": "1112-channel",
      "name": "Địt nữ sinh trên xe bus",
      "description": "“Reng... rengggg...” Một tràng dài tiếng chuông báo kết thúc tiết cuối giờ học. Từng nhóm một nữ sinh chậm rãi từ cửa sân trường dũng mãnh tiến ra, có chạy bộ, có đi...",
      "image": null,
      "label": null,
      "display": "text-only",
      "type": "text",
      "enable_detail": true,
      "related": {
        "url": "https://truyenx.link/truyensextv/channels/related/1112",
        "request_headers": []
      },
      "share": {
        "url": "https://truyenx.link/truyensextv/channels/share/dit-nu-sinh-tren-xe-bus"
      },
      "remote_data": {
        "url": "https://truyenx.link/truyensextv/channels/dit-nu-sinh-tren-xe-bus"
      }
    },
    {
      "id": "1111-channel",
      "name": "Gái dâm khát tình",
      "description": "Nga về làm dâu trong gia đình ông Dần mới đây mà đã 3 tháng, tuy làm dâu mà nàng chẳng phải động ngón tay vào làm việc gì. Gia đình chồng thiệt là ngộ nghĩnh trong nhà toàn là...",
      "image": null,
      "label": null,
      "display": "text-only",
      "type": "text",
      "enable_detail": true,
      "related": {
        "url": "https://truyenx.link/truyensextv/channels/related/1111",
        "request_headers": []
      },
      "share": {
        "url": "https://truyenx.link/truyensextv/channels/share/gai-dam-khat-tinh"
      },
      "remote_data": {
        "url": "https://truyenx.link/truyensextv/channels/gai-dam-khat-tinh"
      }
    },
    {
      "id": "1110-channel",
      "name": "Cô giáo Anh",
      "description": "Dựa trên câu chuyện có thật. Tôi năm nay 30 tuổi, hiện đang làm công việc buôn bán tự do, sống ở đất Sài Gòn cũng cả chục năm nay, tôi cũng đã có gia đình và 2 con, 1 trai 1 gái...",
      "image": null,
      "label": null,
      "display": "text-only",
      "type": "text",
      "enable_detail": true,
      "related": {
        "url": "https://truyenx.link/truyensextv/channels/related/1110",
        "request_headers": []
      },
      "share": {
        "url": "https://truyenx.link/truyensextv/channels/share/co-giao-anh"
      },
      "remote_data": {
        "url": "https://truyenx.link/truyensextv/channels/co-giao-anh"
      }
    },
    {
      "id": "1109-channel",
      "name": "Đứa bạn của con gái",
      "description": "Ngọc Trân xuất thân là một cô bé tỉnh lẻ lên sài gòn học đại học. Vốn là một cô bé xinh xắn hoạt bát nên mới ngày đầu cô đã quen Gia Hân một cô gái Sài Gòn dịu dàng...",
      "image": null,
      "label": null,
      "display": "text-only",
      "type": "text",
      "enable_detail": true,
      "related": {
        "url": "https://truyenx.link/truyensextv/channels/related/1109",
        "request_headers": []
      },
      "share": {
        "url": "https://truyenx.link/truyensextv/channels/share/dua-ban-cua-con-gai"
      },
      "remote_data": {
        "url": "https://truyenx.link/truyensextv/channels/dua-ban-cua-con-gai"
      }
    },
    {
      "id": "1108-channel",
      "name": "Cô con gái dâm dãng",
      "description": "Diệp Lâm Anh là con thứ 2 trong gia đình, mẹ cô đã mất sau khi sinh cô và người em sinh đôi tên Diệp Lâm Tam nên giờ cô chỉ sống với ba và em trai. Ba cô, Hưng, là một luật sư cũng...",
      "image": null,
      "label": null,
      "display": "text-only",
      "type": "text",
      "enable_detail": true,
      "related": {
        "url": "https://truyenx.link/truyensextv/channels/related/1108",
        "request_headers": []
      },
      "share": {
        "url": "https://truyenx.link/truyensextv/channels/share/co-con-gai-dam-dang"
      },
      "remote_data": {
        "url": "https://truyenx.link/truyensextv/channels/co-con-gai-dam-dang"
      }
    },
    {
      "id": "1107-channel",
      "name": "Chuyện tình thời sinh viên - Quyển 2",
      "description": "Ban ngày, khi có hàng ngàn vấn đề cần phải giải quyết nhanh gọn, cả tâm hồn và trí óc chúng ta dường như bị độc chiếm bởi những thứ có thể coi là vụn vặt, tẻ nhạt...",
      "image": null,
      "label": null,
      "display": "text-only",
      "type": "text",
      "enable_detail": true,
      "related": {
        "url": "https://truyenx.link/truyensextv/channels/related/1107",
        "request_headers": []
      },
      "share": {
        "url": "https://truyenx.link/truyensextv/channels/share/chuyen-tinh-thoi-sinh-vien-quyen-2"
      },
      "remote_data": {
        "url": "https://truyenx.link/truyensextv/channels/chuyen-tinh-thoi-sinh-vien-quyen-2"
      }
    },
    {
      "id": "1106-channel",
      "name": "Ánh sáng phương Bắc",
      "description": "Brad tỉnh dậy giữa khu rừng tối tăm. Nó cảm thấy lạnh lẽo và đói khát. Xuyên qua những khoảng trống trên cây, trên bầu trời đen, dải Ngân Hà trong vắt và rực rỡ như chia đôi...",
      "image": null,
      "label": null,
      "display": "text-only",
      "type": "text",
      "enable_detail": true,
      "related": {
        "url": "https://truyenx.link/truyensextv/channels/related/1106",
        "request_headers": []
      },
      "share": {
        "url": "https://truyenx.link/truyensextv/channels/share/anh-sang-phuong-bac"
      },
      "remote_data": {
        "url": "https://truyenx.link/truyensextv/channels/anh-sang-phuong-bac"
      }
    },
    {
      "id": "1105-channel",
      "name": "Trao đổi bạn tình",
      "description": "Kì cạch mang chậu quần áo từ tầng ba lên tầng bốn kéo lấy mấy cái móc nhôm để phơi quần áo thì tôi nghe thấy âm thanh rên rỉ từ ngay căn hộ bên cạnh. Mới đầu tôi mặc kệ...",
      "image": null,
      "label": null,
      "display": "text-only",
      "type": "text",
      "enable_detail": true,
      "related": {
        "url": "https://truyenx.link/truyensextv/channels/related/1105",
        "request_headers": []
      },
      "share": {
        "url": "https://truyenx.link/truyensextv/channels/share/trao-doi-ban-tinh"
      },
      "remote_data": {
        "url": "https://truyenx.link/truyensextv/channels/trao-doi-ban-tinh"
      }
    },
    {
      "id": "1104-channel",
      "name": "Đêm định mệnh",
      "description": "Vào một đêm mưa bão, một cô gái ngồi bệt bên vệ đường với chai rượu trên tay, cả người cô ướt đẫm, nhưng cô hoàn toàn không quan tâm đến, chỉ biết dựa lưng vào tường...",
      "image": null,
      "label": null,
      "display": "text-only",
      "type": "text",
      "enable_detail": true,
      "related": {
        "url": "https://truyenx.link/truyensextv/channels/related/1104",
        "request_headers": []
      },
      "share": {
        "url": "https://truyenx.link/truyensextv/channels/share/dem-dinh-menh"
      },
      "remote_data": {
        "url": "https://truyenx.link/truyensextv/channels/dem-dinh-menh"
      }
    },
    {
      "id": "1103-channel",
      "name": "Trinh nữ bị sờ lồn trên xe bus",
      "description": "Tôi tên là Khiết, năm nay 21 tuổi, là sinh viên năm 3 đại học Nam Kinh. Chuyện xảy ra vào tuần thứ 6 của một mùa hè, người yêu cùng bạn học đi chơi, tôi tất nhiên không thể lãng...",
      "image": null,
      "label": null,
      "display": "text-only",
      "type": "text",
      "enable_detail": true,
      "related": {
        "url": "https://truyenx.link/truyensextv/channels/related/1103",
        "request_headers": []
      },
      "share": {
        "url": "https://truyenx.link/truyensextv/channels/share/trinh-nu-bi-so-lon-tren-xe-bus"
      },
      "remote_data": {
        "url": "https://truyenx.link/truyensextv/channels/trinh-nu-bi-so-lon-tren-xe-bus"
      }
    },
    {
      "id": "1102-channel",
      "name": "Học sinh cá biệt",
      "description": "Giờ ra chơi tại trường THCS XYZ. Ê. Đánh lộn kìa... Đâu... đâu? Cái lớp nhao nhao lên chạy ầm ra chỗ cửa lớp chen nhau để nhìn cho bằng được mấy thằng đang đập nhau. Ê thằng...",
      "image": null,
      "label": null,
      "display": "text-only",
      "type": "text",
      "enable_detail": true,
      "related": {
        "url": "https://truyenx.link/truyensextv/channels/related/1102",
        "request_headers": []
      },
      "share": {
        "url": "https://truyenx.link/truyensextv/channels/share/hoc-sinh-ca-biet"
      },
      "remote_data": {
        "url": "https://truyenx.link/truyensextv/channels/hoc-sinh-ca-biet"
      }
    },
    {
      "id": "1101-channel",
      "name": "Bị ba của bạn trai cưỡng dâm",
      "description": "Nghỉ hè tôi cùng bạn trai về nhà hắn chơi, nhà của bạn trai tôi ở một trấn nhỏ, ba mẹ hắn là nông dân. Thời gian tôi đến chơi nhà cũng là lúc ngày mùa, mỗi ngày ba mẹ hắn...",
      "image": null,
      "label": null,
      "display": "text-only",
      "type": "text",
      "enable_detail": true,
      "related": {
        "url": "https://truyenx.link/truyensextv/channels/related/1101",
        "request_headers": []
      },
      "share": {
        "url": "https://truyenx.link/truyensextv/channels/share/bi-ba-cua-ban-trai-cuong-dam"
      },
      "remote_data": {
        "url": "https://truyenx.link/truyensextv/channels/bi-ba-cua-ban-trai-cuong-dam"
      }
    },
    {
      "id": "1100-channel",
      "name": "Mỹ Linh bị địt trên xe bus",
      "description": "“Reng reng reng...” Tiếng chuông báo hiệu kết thúc giờ học. Từng nhóm thiếu nữ trẻ trung, hoạt bát từ trong trường tràn ra, vừa đi bộ vừa nói chuyện, tiếng cười râm ran...",
      "image": null,
      "label": null,
      "display": "text-only",
      "type": "text",
      "enable_detail": true,
      "related": {
        "url": "https://truyenx.link/truyensextv/channels/related/1100",
        "request_headers": []
      },
      "share": {
        "url": "https://truyenx.link/truyensextv/channels/share/my-linh-bi-dit-tren-xe-bus"
      },
      "remote_data": {
        "url": "https://truyenx.link/truyensextv/channels/my-linh-bi-dit-tren-xe-bus"
      }
    },
    {
      "id": "1099-channel",
      "name": "Yêu nữ dụ tăng",
      "description": "Tháng ba ở Yến Bắc. Trong rừng cây xanh mướt có một dòng suối nhỏ trong vắt, bên dòng suối có một nhà gỗ nhỏ. Trước cửa nhà gỗ nhỏ có một hòa thượng đầu trọc, hắn đang...",
      "image": null,
      "label": null,
      "display": "text-only",
      "type": "text",
      "enable_detail": true,
      "related": {
        "url": "https://truyenx.link/truyensextv/channels/related/1099",
        "request_headers": []
      },
      "share": {
        "url": "https://truyenx.link/truyensextv/channels/share/yeu-nu-du-tang"
      },
      "remote_data": {
        "url": "https://truyenx.link/truyensextv/channels/yeu-nu-du-tang"
      }
    }
  ],
  "load_more": {
    "pageInfo": {
      "current_page": 103,
      "last_page": 140,
      "per_page": 30,
      "total": 4188
    },
    "paging": {
      "page_key": "page",
      "size_key": "size"
    },
    "remote_data": {
      "url": "https://truyenx.link/truyensextv/channels"
    }
  }
}