{
  "grid_number": 1,
  "channels": [
    {
      "id": "3971-channel",
      "name": "Tình đầu",
      "description": "Tôi và Trà My lúc đó 14 tuổi, Trà My là một cô lớp trưởng với ngoại hình ưa nhìn cao tầm 1m60 da trắng hơi mũm mĩm, nhà rất giàu. Còn tôi là một học sinh giỏi tiêu biểu của...",
      "image": null,
      "label": null,
      "display": "text-only",
      "type": "text",
      "enable_detail": true,
      "related": {
        "url": "https://truyenx.link/truyensextv/channels/related/3971",
        "request_headers": []
      },
      "share": {
        "url": "https://truyenx.link/truyensextv/channels/share/tinh-dau"
      },
      "remote_data": {
        "url": "https://truyenx.link/truyensextv/channels/tinh-dau"
      }
    },
    {
      "id": "3970-channel",
      "name": "Trong cơn say tôi đã hiếp dâm em gái vợ mình",
      "description": "Huyền là cô em gái của vợ tôi vừa tốt nghiệp cấp ba lên thành phố tìm việc làm và ở lại nhà vck tôi. Em có một thân hình đầy đặn và một làn da có phần hơi ngăm đen vì ở...",
      "image": null,
      "label": null,
      "display": "text-only",
      "type": "text",
      "enable_detail": true,
      "related": {
        "url": "https://truyenx.link/truyensextv/channels/related/3970",
        "request_headers": []
      },
      "share": {
        "url": "https://truyenx.link/truyensextv/channels/share/trong-con-say-toi-da-hiep-dam-em-gai-vo-minh"
      },
      "remote_data": {
        "url": "https://truyenx.link/truyensextv/channels/trong-con-say-toi-da-hiep-dam-em-gai-vo-minh"
      }
    },
    {
      "id": "3969-channel",
      "name": "Tuấn Địa",
      "description": "Cái bụng bầu gần tới ngày sanh của Thiên Kim tròn vo, nàng đã bắt đầu có dáng vẻ mệt nhọc mỗi lần leo lên leo xuống giường. Tuấn Địa thấy thế liền đưa tay đỡ vợ nằm...",
      "image": null,
      "label": null,
      "display": "text-only",
      "type": "text",
      "enable_detail": true,
      "related": {
        "url": "https://truyenx.link/truyensextv/channels/related/3969",
        "request_headers": []
      },
      "share": {
        "url": "https://truyenx.link/truyensextv/channels/share/tuan-dia"
      },
      "remote_data": {
        "url": "https://truyenx.link/truyensextv/channels/tuan-dia"
      }
    },
    {
      "id": "3967-channel",
      "name": "Anh công an của tôi",
      "description": "Tôi tên Vy, tôi sinh năm 1991. Vào năm 2012 tôi có quen 1 anh công an mới vào nghề tên Minh Hoàng, anh khá tốt với tôi nên khi quen được 2 tuần. Anh lấy lý do là đi du lịch ở Phú Quốc...",
      "image": null,
      "label": null,
      "display": "text-only",
      "type": "text",
      "enable_detail": true,
      "related": {
        "url": "https://truyenx.link/truyensextv/channels/related/3967",
        "request_headers": []
      },
      "share": {
        "url": "https://truyenx.link/truyensextv/channels/share/anh-cong-an-cua-toi"
      },
      "remote_data": {
        "url": "https://truyenx.link/truyensextv/channels/anh-cong-an-cua-toi"
      }
    },
    {
      "id": "3968-channel",
      "name": "Truyện sex tản mạn",
      "description": "Cô gái đầu tiên tên là Ngân, có thân hình khá đẹp và nuột. Lúc đầu, chúng tôi chỉ là bạn bè, nhưng sau một lần đụ nàng thành công, cô ấy đã là của tôi. Lúc đó, Ngân vừa...",
      "image": null,
      "label": null,
      "display": "text-only",
      "type": "text",
      "enable_detail": true,
      "related": {
        "url": "https://truyenx.link/truyensextv/channels/related/3968",
        "request_headers": []
      },
      "share": {
        "url": "https://truyenx.link/truyensextv/channels/share/truyen-sex-tan-man"
      },
      "remote_data": {
        "url": "https://truyenx.link/truyensextv/channels/truyen-sex-tan-man"
      }
    },
    {
      "id": "3966-channel",
      "name": "Thôi miên",
      "description": "Hắn lần nữa mở mắt, nhận ra bản thân trần như nhộng giữa đường. Hắn có chút ngơ ngác nhìn quanh, đám đông vây xem chật kín, những flash nhấp nháy liên tục. “Ta là...",
      "image": null,
      "label": null,
      "display": "text-only",
      "type": "text",
      "enable_detail": true,
      "related": {
        "url": "https://truyenx.link/truyensextv/channels/related/3966",
        "request_headers": []
      },
      "share": {
        "url": "https://truyenx.link/truyensextv/channels/share/thoi-mien"
      },
      "remote_data": {
        "url": "https://truyenx.link/truyensextv/channels/thoi-mien"
      }
    },
    {
      "id": "3965-channel",
      "name": "Một Đời Bão Tố",
      "description": "Ông Quân đi nằm từ lúc 10 giờ. Ông tính ngủ sớm, nhưng nằm trằn trọc mãi không ngủ được và thấy thèm lồn. Đã hơn một tuần không đụng đến vợ. Ông muốn để đến đêm...",
      "image": null,
      "label": null,
      "display": "text-only",
      "type": "text",
      "enable_detail": true,
      "related": {
        "url": "https://truyenx.link/truyensextv/channels/related/3965",
        "request_headers": []
      },
      "share": {
        "url": "https://truyenx.link/truyensextv/channels/share/mot-doi-bao-to"
      },
      "remote_data": {
        "url": "https://truyenx.link/truyensextv/channels/mot-doi-bao-to"
      }
    },
    {
      "id": "3964-channel",
      "name": "Ba dâng hiến mẹ cho con",
      "description": "Trong câu chuyện này mình xin vào vai người con nhé... Gia đình mình cũng như bao gia đình phổ thông khác, mẹ và mình làm công nhân ba thì chạy grab. Được một chỗ là lúc trước ổng...",
      "image": null,
      "label": null,
      "display": "text-only",
      "type": "text",
      "enable_detail": true,
      "related": {
        "url": "https://truyenx.link/truyensextv/channels/related/3964",
        "request_headers": []
      },
      "share": {
        "url": "https://truyenx.link/truyensextv/channels/share/ba-dang-hien-me-cho-con"
      },
      "remote_data": {
        "url": "https://truyenx.link/truyensextv/channels/ba-dang-hien-me-cho-con"
      }
    },
    {
      "id": "3963-channel",
      "name": "Cô nàng thích bạo dâm",
      "description": "Từ nhỏ cô ta đã có niềm yêu thích đặc biệt với bạo dâm, quan hệ bình thường không khiến cô ta thấy khoái cảm, nhưng thật khó để cô ta tìm được bạn tình có cùng sở thích...",
      "image": null,
      "label": null,
      "display": "text-only",
      "type": "text",
      "enable_detail": true,
      "related": {
        "url": "https://truyenx.link/truyensextv/channels/related/3963",
        "request_headers": []
      },
      "share": {
        "url": "https://truyenx.link/truyensextv/channels/share/co-nang-thich-bao-dam"
      },
      "remote_data": {
        "url": "https://truyenx.link/truyensextv/channels/co-nang-thich-bao-dam"
      }
    },
    {
      "id": "3962-channel",
      "name": "Mẹ con mình",
      "description": "Bọn thằng Cận ba đứa, mỗi đứa một cái xe gắn máy tháo bộ phận hãm thanh, đua nhau rú hết ga rần rần phóng về phía Xóm Mới. Thằng Cận nhỏ nhất trong bọn, nó mới 15, mà...",
      "image": null,
      "label": null,
      "display": "text-only",
      "type": "text",
      "enable_detail": true,
      "related": {
        "url": "https://truyenx.link/truyensextv/channels/related/3962",
        "request_headers": []
      },
      "share": {
        "url": "https://truyenx.link/truyensextv/channels/share/me-con-minh"
      },
      "remote_data": {
        "url": "https://truyenx.link/truyensextv/channels/me-con-minh"
      }
    },
    {
      "id": "3961-channel",
      "name": "Cực hạn thôi miên",
      "description": "Thẻ Nghịch Thiên Hải Tinh! Đây là một hành tinh nằm tại nơi nào đó trong vũ trụ. Hành tinh này có kích thước vô cùng rộng lớn với đường kính 15 ngàn km. Trên Hải Tinh có rất...",
      "image": null,
      "label": null,
      "display": "text-only",
      "type": "text",
      "enable_detail": true,
      "related": {
        "url": "https://truyenx.link/truyensextv/channels/related/3961",
        "request_headers": []
      },
      "share": {
        "url": "https://truyenx.link/truyensextv/channels/share/cuc-han-thoi-mien"
      },
      "remote_data": {
        "url": "https://truyenx.link/truyensextv/channels/cuc-han-thoi-mien"
      }
    },
    {
      "id": "3960-channel",
      "name": "Dậy thì quá sớm",
      "description": "Mùa hè, nắng buổi sáng tuy có chói chang, nhưng nhờ những tàu lá xum xuê rậm rạp của những cây nhãn, cây mít, cây điều, nên cái sân lát gạch bát tràng và toàn thể khu vườn của...",
      "image": null,
      "label": null,
      "display": "text-only",
      "type": "text",
      "enable_detail": true,
      "related": {
        "url": "https://truyenx.link/truyensextv/channels/related/3960",
        "request_headers": []
      },
      "share": {
        "url": "https://truyenx.link/truyensextv/channels/share/day-thi-qua-som"
      },
      "remote_data": {
        "url": "https://truyenx.link/truyensextv/channels/day-thi-qua-som"
      }
    },
    {
      "id": "3959-channel",
      "name": "SM loạn luân anh trai và em gái",
      "description": "Em uống thuốc rồi anh hai bắn vào trong đi... Ba mẹ đang ở bên ngoại nhưng tôi cùng anh hai vẫn đang làm tình ngay trong phòng của anh, chỉ mới 8 giờ tối thôi nhưng tôi và anh đã...",
      "image": null,
      "label": null,
      "display": "text-only",
      "type": "text",
      "enable_detail": true,
      "related": {
        "url": "https://truyenx.link/truyensextv/channels/related/3959",
        "request_headers": []
      },
      "share": {
        "url": "https://truyenx.link/truyensextv/channels/share/sm-loan-luan-anh-trai-va-em-gai"
      },
      "remote_data": {
        "url": "https://truyenx.link/truyensextv/channels/sm-loan-luan-anh-trai-va-em-gai"
      }
    },
    {
      "id": "3958-channel",
      "name": "Vlog làm tình",
      "description": "Thời đại công nghệ 4. 0, Nhà nhà làm vlog, người người làm toptopker, 1m² có 4 reviewer nên muốn cạnh tranh ở thị trường này là rất khó nhất là đối với nhóm mới khởi nghiệp...",
      "image": null,
      "label": null,
      "display": "text-only",
      "type": "text",
      "enable_detail": true,
      "related": {
        "url": "https://truyenx.link/truyensextv/channels/related/3958",
        "request_headers": []
      },
      "share": {
        "url": "https://truyenx.link/truyensextv/channels/share/vlog-lam-tinh"
      },
      "remote_data": {
        "url": "https://truyenx.link/truyensextv/channels/vlog-lam-tinh"
      }
    },
    {
      "id": "3957-channel",
      "name": "Vợ tôi là Banker",
      "description": "Chào quý bạn đọc, nhân dịp năm hết, tết đến, giờ là lúc nhìn lại năm cũ đã qua nhiều biến động. Tình hình kinh tế khó khăn, năm nay theo xu thế chung mình cũng chơi an toàn...",
      "image": null,
      "label": null,
      "display": "text-only",
      "type": "text",
      "enable_detail": true,
      "related": {
        "url": "https://truyenx.link/truyensextv/channels/related/3957",
        "request_headers": []
      },
      "share": {
        "url": "https://truyenx.link/truyensextv/channels/share/vo-toi-la-banker"
      },
      "remote_data": {
        "url": "https://truyenx.link/truyensextv/channels/vo-toi-la-banker"
      }
    },
    {
      "id": "3956-channel",
      "name": "Cho em gái chơi đồ - Bức thư gửi vợ yêu",
      "description": "Trong cuộc sống có những cái mà người ta muốn nói ra không phải chỉ để giãi bày tâm sự mà đôi khi muốn thú nhận về những thứ gì đó đã qua, khá là ngớ ngẩn. Chuyện là tao...",
      "image": null,
      "label": null,
      "display": "text-only",
      "type": "text",
      "enable_detail": true,
      "related": {
        "url": "https://truyenx.link/truyensextv/channels/related/3956",
        "request_headers": []
      },
      "share": {
        "url": "https://truyenx.link/truyensextv/channels/share/cho-em-gai-choi-do-buc-thu-gui-vo-yeu"
      },
      "remote_data": {
        "url": "https://truyenx.link/truyensextv/channels/cho-em-gai-choi-do-buc-thu-gui-vo-yeu"
      }
    },
    {
      "id": "3955-channel",
      "name": "Hùm sa Lạc Động",
      "description": "Sau khi tốt nghiệp ĐH, được thằng bạn thân giới thiệu vào làm cho công ty của Bố nó với mức lương chỉ có ở trong mơ, Tuấn bắt đầu nghĩ tới chuyện lấy vợ, vì Bố Mẹ và...",
      "image": null,
      "label": null,
      "display": "text-only",
      "type": "text",
      "enable_detail": true,
      "related": {
        "url": "https://truyenx.link/truyensextv/channels/related/3955",
        "request_headers": []
      },
      "share": {
        "url": "https://truyenx.link/truyensextv/channels/share/hum-sa-lac-dong"
      },
      "remote_data": {
        "url": "https://truyenx.link/truyensextv/channels/hum-sa-lac-dong"
      }
    },
    {
      "id": "3954-channel",
      "name": "Đứa cháu 2k14",
      "description": "Tôi là một chàng trai mới lớn năm nay mới độ gần 17 tuổi thôi, dòng họ tôi thì cũng nhiều anh em, có đứa cháu con gái nhà bác cũng không ưa nhìn lắm nhưng nó lại rất thích chơi...",
      "image": null,
      "label": null,
      "display": "text-only",
      "type": "text",
      "enable_detail": true,
      "related": {
        "url": "https://truyenx.link/truyensextv/channels/related/3954",
        "request_headers": []
      },
      "share": {
        "url": "https://truyenx.link/truyensextv/channels/share/dua-chau-2k14"
      },
      "remote_data": {
        "url": "https://truyenx.link/truyensextv/channels/dua-chau-2k14"
      }
    },
    {
      "id": "3953-channel",
      "name": "Nữ Hoàng Giáo “Dục”",
      "description": "Anh chị yên tâm, em sẽ nói chuyện với cháu nhiều hơn, vì đây là giai đoạn cuối cấp nên rất...",
      "image": null,
      "label": null,
      "display": "text-only",
      "type": "text",
      "enable_detail": true,
      "related": {
        "url": "https://truyenx.link/truyensextv/channels/related/3953",
        "request_headers": []
      },
      "share": {
        "url": "https://truyenx.link/truyensextv/channels/share/nu-hoang-giao-duc"
      },
      "remote_data": {
        "url": "https://truyenx.link/truyensextv/channels/nu-hoang-giao-duc"
      }
    },
    {
      "id": "3952-channel",
      "name": "Cô gia sư mới quen",
      "description": "Tôi là Sinh, tôi chỉ mới là học sinh lớp 9, bạn biết rồi đấy, tuổi này là cái tuổi mà lũ con trai như tôi phát triển về mọi phần và điển hình là chúng tôi đã cực kỳ...",
      "image": null,
      "label": null,
      "display": "text-only",
      "type": "text",
      "enable_detail": true,
      "related": {
        "url": "https://truyenx.link/truyensextv/channels/related/3952",
        "request_headers": []
      },
      "share": {
        "url": "https://truyenx.link/truyensextv/channels/share/co-gia-su-moi-quen"
      },
      "remote_data": {
        "url": "https://truyenx.link/truyensextv/channels/co-gia-su-moi-quen"
      }
    },
    {
      "id": "3951-channel",
      "name": "Người vợ dâm dục",
      "description": "Gia đình tôi làm dịch vụ trên đất Hòa Bình này khoảng 20 năm nay. Công việc chủ yếu là lo chỗ ăn, chỗ ở cho khách du lịch. Họ thuê nhà sàn làm chỗ ở và gia đình tôi phục vụ...",
      "image": null,
      "label": null,
      "display": "text-only",
      "type": "text",
      "enable_detail": true,
      "related": {
        "url": "https://truyenx.link/truyensextv/channels/related/3951",
        "request_headers": []
      },
      "share": {
        "url": "https://truyenx.link/truyensextv/channels/share/nguoi-vo-dam-duc"
      },
      "remote_data": {
        "url": "https://truyenx.link/truyensextv/channels/nguoi-vo-dam-duc"
      }
    },
    {
      "id": "3950-channel",
      "name": "Một đêm say loạn luân",
      "description": "Tôi là Nguyễn Hoàng Thái, năm nay đang học tại trường đại học khoa Công Nghệ Thông Tin và nhà tôi thuộc dạng khá giả trong vùng, cùng với đó là nhà tôi khá xa nơi thành thị, ở...",
      "image": null,
      "label": null,
      "display": "text-only",
      "type": "text",
      "enable_detail": true,
      "related": {
        "url": "https://truyenx.link/truyensextv/channels/related/3950",
        "request_headers": []
      },
      "share": {
        "url": "https://truyenx.link/truyensextv/channels/share/mot-dem-say-loan-luan"
      },
      "remote_data": {
        "url": "https://truyenx.link/truyensextv/channels/mot-dem-say-loan-luan"
      }
    },
    {
      "id": "3949-channel",
      "name": "Mối tình trái cấm",
      "description": "Chiều xuống, trong chiếc Toyota Camry, bà Ti đạp thắng quẹo nhẹ vào sân nhà. Xuống xe, vừa đóng cửa định bước vào nhà thì bỗng có thằng con trai lạ hoắt từ đâu chạy đến...",
      "image": null,
      "label": null,
      "display": "text-only",
      "type": "text",
      "enable_detail": true,
      "related": {
        "url": "https://truyenx.link/truyensextv/channels/related/3949",
        "request_headers": []
      },
      "share": {
        "url": "https://truyenx.link/truyensextv/channels/share/moi-tinh-trai-cam"
      },
      "remote_data": {
        "url": "https://truyenx.link/truyensextv/channels/moi-tinh-trai-cam"
      }
    },
    {
      "id": "3948-channel",
      "name": "Mẹ và con gái",
      "description": "Chào mẹ con mới về! Samantha ôm chầm lấy Carol mẹ cô ngay từ cửa. Cả hai mẹ con ôm nhau thật chặt. Họ nhớ nhau rất nhiều sau cả tháng trời xa cách. Con khỏe chứ? Có bị sốc khi...",
      "image": null,
      "label": null,
      "display": "text-only",
      "type": "text",
      "enable_detail": true,
      "related": {
        "url": "https://truyenx.link/truyensextv/channels/related/3948",
        "request_headers": []
      },
      "share": {
        "url": "https://truyenx.link/truyensextv/channels/share/me-va-con-gai"
      },
      "remote_data": {
        "url": "https://truyenx.link/truyensextv/channels/me-va-con-gai"
      }
    },
    {
      "id": "3947-channel",
      "name": "Mất trinh",
      "description": "Lúc mới lớn, tôi lâu lâu bị mộng tinh. Tôi nằm mơ thấy cưỡi cưỡi trên người chị ở trong nhà rồi xuất tinh tỉnh dậy. Một hôm tôi mua được một tấm lịch in hình đầm khỏa...",
      "image": null,
      "label": null,
      "display": "text-only",
      "type": "text",
      "enable_detail": true,
      "related": {
        "url": "https://truyenx.link/truyensextv/channels/related/3947",
        "request_headers": []
      },
      "share": {
        "url": "https://truyenx.link/truyensextv/channels/share/mat-trinh"
      },
      "remote_data": {
        "url": "https://truyenx.link/truyensextv/channels/mat-trinh"
      }
    },
    {
      "id": "3946-channel",
      "name": "Lưới tình du học sinh",
      "description": "Ngồi trên Taxi rời phi trường, Tôi gọi điện cho chủ nhà xin check in sớm. Chủ nhà vui vẻ đồng ý nhưng cũng báo là hiện trong nhà đang có người làm vệ sinh phòng, vì khách thuê cũ...",
      "image": null,
      "label": null,
      "display": "text-only",
      "type": "text",
      "enable_detail": true,
      "related": {
        "url": "https://truyenx.link/truyensextv/channels/related/3946",
        "request_headers": []
      },
      "share": {
        "url": "https://truyenx.link/truyensextv/channels/share/luoi-tinh-du-hoc-sinh"
      },
      "remote_data": {
        "url": "https://truyenx.link/truyensextv/channels/luoi-tinh-du-hoc-sinh"
      }
    },
    {
      "id": "3945-channel",
      "name": "Bố ruột",
      "description": "Tôi tên là A sinh năm 2008 học tại C Kim Bảng. Gia đình tôi có 7 người: Bme, chị, tôi và 2 em trai học lớp 5. Điều kiện gia đình cũng bình thường không quá dư giả, tôi cũng trong...",
      "image": null,
      "label": null,
      "display": "text-only",
      "type": "text",
      "enable_detail": true,
      "related": {
        "url": "https://truyenx.link/truyensextv/channels/related/3945",
        "request_headers": []
      },
      "share": {
        "url": "https://truyenx.link/truyensextv/channels/share/bo-ruot"
      },
      "remote_data": {
        "url": "https://truyenx.link/truyensextv/channels/bo-ruot"
      }
    },
    {
      "id": "3944-channel",
      "name": "Tôi đụ bác dâu trong khách sạn",
      "description": "Tôi là 1 cậu sinh viên vừa tốt nghiệp ra trường vào hồi tháng 10, tôi chưa vội đi tìm việc làm mà tôi lựa chọn về quê chơi 1 tháng, xem như tự thưởng cho bản thân 1 kỳ nghỉ sau...",
      "image": null,
      "label": null,
      "display": "text-only",
      "type": "text",
      "enable_detail": true,
      "related": {
        "url": "https://truyenx.link/truyensextv/channels/related/3944",
        "request_headers": []
      },
      "share": {
        "url": "https://truyenx.link/truyensextv/channels/share/toi-du-bac-dau-trong-khach-san"
      },
      "remote_data": {
        "url": "https://truyenx.link/truyensextv/channels/toi-du-bac-dau-trong-khach-san"
      }
    },
    {
      "id": "3943-channel",
      "name": "Máu ma",
      "description": "Hiền đi từ từ, chàng nghe rõ tiếng chân chậm chạp bước theo sau. Con đường từ đây về nhà chỉ còn hơn vài chục thước. Chuyến xe bus cuối cùng của thành phố trong đêm thả...",
      "image": null,
      "label": null,
      "display": "text-only",
      "type": "text",
      "enable_detail": true,
      "related": {
        "url": "https://truyenx.link/truyensextv/channels/related/3943",
        "request_headers": []
      },
      "share": {
        "url": "https://truyenx.link/truyensextv/channels/share/mau-ma"
      },
      "remote_data": {
        "url": "https://truyenx.link/truyensextv/channels/mau-ma"
      }
    },
    {
      "id": "3942-channel",
      "name": "Cắm sừng thằng bạn",
      "description": "Ba thằng bạn tôi không may bạo bệnh mới qua đời. Mẹ nó buồn lắm. Người đàn bà khóc nức nở, đôi mắt đỏ hoe. Tôi thương bác gái, ôm bác an ủi. “Bác ơi đừng khóc... Con...",
      "image": null,
      "label": null,
      "display": "text-only",
      "type": "text",
      "enable_detail": true,
      "related": {
        "url": "https://truyenx.link/truyensextv/channels/related/3942",
        "request_headers": []
      },
      "share": {
        "url": "https://truyenx.link/truyensextv/channels/share/cam-sung-thang-ban"
      },
      "remote_data": {
        "url": "https://truyenx.link/truyensextv/channels/cam-sung-thang-ban"
      }
    }
  ],
  "load_more": {
    "pageInfo": {
      "current_page": 28,
      "last_page": 140,
      "per_page": 30,
      "total": 4188
    },
    "paging": {
      "page_key": "page",
      "size_key": "size"
    },
    "remote_data": {
      "url": "https://truyenx.link/truyensextv/channels"
    }
  }
}