{
  "grid_number": 1,
  "channels": [
    {
      "id": "1278-channel",
      "name": "Lấy lồn trả nợ",
      "description": "Dung năm nay 25t... Nàng sở hữu thân hình nóng bỏng cùng với khuôn mặt xinh xắn. 2 năm trước nàng lên xe hoa với một giám đốc công ty. Cuộc sống tưởng như hạnh phúc thì đùng cái...",
      "image": null,
      "label": null,
      "display": "text-only",
      "type": "text",
      "enable_detail": true,
      "related": {
        "url": "https://truyenx.link/truyensextv/channels/related/1278",
        "request_headers": []
      },
      "share": {
        "url": "https://truyenx.link/truyensextv/channels/share/lay-lon-tra-no"
      },
      "remote_data": {
        "url": "https://truyenx.link/truyensextv/channels/lay-lon-tra-no"
      }
    },
    {
      "id": "1277-channel",
      "name": "Diễn viên Trâm Anh",
      "description": "Cắt... Hôm nay xong rồi mọi người làm tốt lắm... Mai chúng ta tiếp tục. Tiếng hô của đạo diễn vang lên lập tức mọi người ồn ào huyên náo dọn dẹp phim trường. Trâm Anh thở...",
      "image": null,
      "label": null,
      "display": "text-only",
      "type": "text",
      "enable_detail": true,
      "related": {
        "url": "https://truyenx.link/truyensextv/channels/related/1277",
        "request_headers": []
      },
      "share": {
        "url": "https://truyenx.link/truyensextv/channels/share/dien-vien-tram-anh"
      },
      "remote_data": {
        "url": "https://truyenx.link/truyensextv/channels/dien-vien-tram-anh"
      }
    },
    {
      "id": "1276-channel",
      "name": "Địt nhau trong nhà vệ sinh KTX nữ",
      "description": "Chả là trước đây em có yêu một cô bé kém một tuổi, lúc ấy mới chỉ cấp 3 thôi trường năng khiếu nên có cả ký túc xá luôn. Ký túc chỉ có 2 dãy: Dãy nam, dãy nữ. Trường em...",
      "image": null,
      "label": null,
      "display": "text-only",
      "type": "text",
      "enable_detail": true,
      "related": {
        "url": "https://truyenx.link/truyensextv/channels/related/1276",
        "request_headers": []
      },
      "share": {
        "url": "https://truyenx.link/truyensextv/channels/share/dit-nhau-trong-nha-ve-sinh-ktx-nu"
      },
      "remote_data": {
        "url": "https://truyenx.link/truyensextv/channels/dit-nhau-trong-nha-ve-sinh-ktx-nu"
      }
    },
    {
      "id": "1275-channel",
      "name": "Cho người yêu của bạn đụ",
      "description": "Không thể tin được chuyện đó lại xảy ra. Chuyện là tôi đã lỡ bị người yêu của bạn thân chịch trong khi tôi hoàn toàn tỉnh táo với sự sung sướng vượt sức tưởng tượng...",
      "image": null,
      "label": null,
      "display": "text-only",
      "type": "text",
      "enable_detail": true,
      "related": {
        "url": "https://truyenx.link/truyensextv/channels/related/1275",
        "request_headers": []
      },
      "share": {
        "url": "https://truyenx.link/truyensextv/channels/share/cho-nguoi-yeu-cua-ban-du"
      },
      "remote_data": {
        "url": "https://truyenx.link/truyensextv/channels/cho-nguoi-yeu-cua-ban-du"
      }
    },
    {
      "id": "1274-channel",
      "name": "Mộ Dung Thiên",
      "description": "“Thông báo với tất cả các hành khách, máy bay của chúng ta hiện tại đang đi vào trong khu vực có bão, máy bay sẽ bị rung lắc mọi người hãy chú ý thắt dây ăn toàn chúng tôi...",
      "image": null,
      "label": null,
      "display": "text-only",
      "type": "text",
      "enable_detail": true,
      "related": {
        "url": "https://truyenx.link/truyensextv/channels/related/1274",
        "request_headers": []
      },
      "share": {
        "url": "https://truyenx.link/truyensextv/channels/share/mo-dung-thien"
      },
      "remote_data": {
        "url": "https://truyenx.link/truyensextv/channels/mo-dung-thien"
      }
    },
    {
      "id": "1273-channel",
      "name": "Cưỡng dâm gái trinh",
      "description": "Con Út là em bà con của chị Sáu, chị làm bếp của nhà ông Tư. Con Út được chị Sáu giới thiệu vào làm công việc của đứa giữ em trong gia đình, nó có nhiệm vụ lo cho thằng Tý...",
      "image": null,
      "label": null,
      "display": "text-only",
      "type": "text",
      "enable_detail": true,
      "related": {
        "url": "https://truyenx.link/truyensextv/channels/related/1273",
        "request_headers": []
      },
      "share": {
        "url": "https://truyenx.link/truyensextv/channels/share/cuong-dam-gai-trinh"
      },
      "remote_data": {
        "url": "https://truyenx.link/truyensextv/channels/cuong-dam-gai-trinh"
      }
    },
    {
      "id": "1272-channel",
      "name": "Thèm muốn chị thuê trọ",
      "description": "Chuyện chả là nhà em cho vợ chồng của một chị thuê trọ. Chồng chị là bộ đội đang học hai năm nghiệp vụ ở xa, phải một tháng mới về nhà một lần. Chị hay qua chơi, nói...",
      "image": null,
      "label": null,
      "display": "text-only",
      "type": "text",
      "enable_detail": true,
      "related": {
        "url": "https://truyenx.link/truyensextv/channels/related/1272",
        "request_headers": []
      },
      "share": {
        "url": "https://truyenx.link/truyensextv/channels/share/them-muon-chi-thue-tro"
      },
      "remote_data": {
        "url": "https://truyenx.link/truyensextv/channels/them-muon-chi-thue-tro"
      }
    },
    {
      "id": "1271-channel",
      "name": "Con gái của bác Hai",
      "description": "Cô gái ấy Tôi là một cậu học sinh với tính cách không được bình thường cho lắm. Từ nhỏ tôi đã ít có tình cảm với cha mẹ. Bố tôi ngoại tình, mẹ tôi cờ bạc, từ nhỏ bố...",
      "image": null,
      "label": null,
      "display": "text-only",
      "type": "text",
      "enable_detail": true,
      "related": {
        "url": "https://truyenx.link/truyensextv/channels/related/1271",
        "request_headers": []
      },
      "share": {
        "url": "https://truyenx.link/truyensextv/channels/share/con-gai-cua-bac-hai"
      },
      "remote_data": {
        "url": "https://truyenx.link/truyensextv/channels/con-gai-cua-bac-hai"
      }
    },
    {
      "id": "1270-channel",
      "name": "Chuyện về cô hàng xóm",
      "description": "Tôi tên Hưng, sống ở một làng quê, năm nay tôi 25t rồi. Câu chuyện tôi muốn kể là năm học lớp 8 của tôi. Giới thiệu sơ qua về gia đình tôi, nhà tôi thì có duy nhất một đứa con...",
      "image": null,
      "label": null,
      "display": "text-only",
      "type": "text",
      "enable_detail": true,
      "related": {
        "url": "https://truyenx.link/truyensextv/channels/related/1270",
        "request_headers": []
      },
      "share": {
        "url": "https://truyenx.link/truyensextv/channels/share/chuyen-ve-co-hang-xom"
      },
      "remote_data": {
        "url": "https://truyenx.link/truyensextv/channels/chuyen-ve-co-hang-xom"
      }
    },
    {
      "id": "1269-channel",
      "name": "Cô giáo dạy Tiếng Anh",
      "description": "Trong một buổi tập huấn cho giáo viên trẻ, tôi may mắn được phân công về trường cũ tập huấn, ở đó tôi may mắn gặp lại người cô dạy Tiếng Anh của tôi, người tôi rất tôn...",
      "image": null,
      "label": null,
      "display": "text-only",
      "type": "text",
      "enable_detail": true,
      "related": {
        "url": "https://truyenx.link/truyensextv/channels/related/1269",
        "request_headers": []
      },
      "share": {
        "url": "https://truyenx.link/truyensextv/channels/share/co-giao-day-tieng-anh"
      },
      "remote_data": {
        "url": "https://truyenx.link/truyensextv/channels/co-giao-day-tieng-anh"
      }
    },
    {
      "id": "1268-channel",
      "name": "Mỹ Linh và bố chồng",
      "description": "Mỹ Linh một phụ nữ 31 tuổi có chồng và 2 con, tuy đã 2 con nhưng do Linh biết chăm sóc cơ thể và làm đẹp, nên nhìn Linh chẳng ai biết là Linh đã có chồng, sở hữu một vóc dáng...",
      "image": null,
      "label": null,
      "display": "text-only",
      "type": "text",
      "enable_detail": true,
      "related": {
        "url": "https://truyenx.link/truyensextv/channels/related/1268",
        "request_headers": []
      },
      "share": {
        "url": "https://truyenx.link/truyensextv/channels/share/my-linh-va-bo-chong"
      },
      "remote_data": {
        "url": "https://truyenx.link/truyensextv/channels/my-linh-va-bo-chong"
      }
    },
    {
      "id": "1267-channel",
      "name": "Cho chồng con bạn đụ toét lồn",
      "description": "Mình và bạn trai vì nó không uống bia được. Thế là nhậu xong thì lâng lâng và dắt nhau vào nhà nghỉ, đụ một trận tơi bời, cảm giác sướng lắm, hồi hộp lo lắng và thỏa mãn...",
      "image": null,
      "label": null,
      "display": "text-only",
      "type": "text",
      "enable_detail": true,
      "related": {
        "url": "https://truyenx.link/truyensextv/channels/related/1267",
        "request_headers": []
      },
      "share": {
        "url": "https://truyenx.link/truyensextv/channels/share/cho-chong-con-ban-du-toet-lon"
      },
      "remote_data": {
        "url": "https://truyenx.link/truyensextv/channels/cho-chong-con-ban-du-toet-lon"
      }
    },
    {
      "id": "1266-channel",
      "name": "Chuyện sex khi đi ở trọ",
      "description": "Mình 9x đời đầu, lứa cuối cùng học sách trước cải cách. Nay cũng mạn phép nói về câu chuyện của mình. Hồi đó mới vô SG, ngáo ngơ vl lắm, ông anh họ dẫn vô ở trọ chung...",
      "image": null,
      "label": null,
      "display": "text-only",
      "type": "text",
      "enable_detail": true,
      "related": {
        "url": "https://truyenx.link/truyensextv/channels/related/1266",
        "request_headers": []
      },
      "share": {
        "url": "https://truyenx.link/truyensextv/channels/share/chuyen-sex-khi-di-o-tro"
      },
      "remote_data": {
        "url": "https://truyenx.link/truyensextv/channels/chuyen-sex-khi-di-o-tro"
      }
    },
    {
      "id": "1265-channel",
      "name": "Chuyện đứa con gái 12 tuổi",
      "description": "Chú Hoàng ngồi xuống cái ghế thấp chủn và kêu một tô hủ tiếu bò kho. Cô bán hàng bưng ra cái tô nhìn qua đã thấy thèm. Cô đon đã hỏi: Ông anh không phải ở vùng này phải không...",
      "image": null,
      "label": null,
      "display": "text-only",
      "type": "text",
      "enable_detail": true,
      "related": {
        "url": "https://truyenx.link/truyensextv/channels/related/1265",
        "request_headers": []
      },
      "share": {
        "url": "https://truyenx.link/truyensextv/channels/share/chuyen-dua-con-gai-12-tuoi"
      },
      "remote_data": {
        "url": "https://truyenx.link/truyensextv/channels/chuyen-dua-con-gai-12-tuoi"
      }
    },
    {
      "id": "1264-channel",
      "name": "Duyên phận",
      "description": "“Trời ơi tin được hông, sale 91 91 phần trăm. Trời ơi tin được h...” “Píp” “Alo em nghe đây chị ơi!” “Chú Thuyết mời em lên phòng có chuyện cần bàn...",
      "image": null,
      "label": null,
      "display": "text-only",
      "type": "text",
      "enable_detail": true,
      "related": {
        "url": "https://truyenx.link/truyensextv/channels/related/1264",
        "request_headers": []
      },
      "share": {
        "url": "https://truyenx.link/truyensextv/channels/share/duyen-phan"
      },
      "remote_data": {
        "url": "https://truyenx.link/truyensextv/channels/duyen-phan"
      }
    },
    {
      "id": "1263-channel",
      "name": "Máy bay một con dâm đãng",
      "description": "Tôi năm đó 23 tuổi và đã đi định cư được gần 2 năm trên đất Mỹ và vẫn còn “Hai Lúa”... “Máy bay” của tôi năm đó 32 tuổi, tuy hơn tôi tới 9 tuổi nhưng bả...",
      "image": null,
      "label": null,
      "display": "text-only",
      "type": "text",
      "enable_detail": true,
      "related": {
        "url": "https://truyenx.link/truyensextv/channels/related/1263",
        "request_headers": []
      },
      "share": {
        "url": "https://truyenx.link/truyensextv/channels/share/may-bay-mot-con-dam-dang"
      },
      "remote_data": {
        "url": "https://truyenx.link/truyensextv/channels/may-bay-mot-con-dam-dang"
      }
    },
    {
      "id": "1262-channel",
      "name": "Vợ tôi và anh thợ hồ",
      "description": "Nhóc đó chơi hay ghê anh. Ừ, nó chừng 6 7 tuổi mà trượt giỏi quá. Sau này con của tụi mình cũng dễ thương vậy anh ha. Uhm, nó chỉ cần giống mẹ chút xíu thôi là dư dễ thương...",
      "image": null,
      "label": null,
      "display": "text-only",
      "type": "text",
      "enable_detail": true,
      "related": {
        "url": "https://truyenx.link/truyensextv/channels/related/1262",
        "request_headers": []
      },
      "share": {
        "url": "https://truyenx.link/truyensextv/channels/share/vo-toi-va-anh-tho-ho"
      },
      "remote_data": {
        "url": "https://truyenx.link/truyensextv/channels/vo-toi-va-anh-tho-ho"
      }
    },
    {
      "id": "1261-channel",
      "name": "Gia đình bên vợ",
      "description": "Đây là lần đầu tiên tôi được về Việt Nam. Tôi sinh ra ở bên Mỹ, ba mẹ tôi qua đây sau 1975. Sau khi học thành tài thì tôi lập gia đình với Ngọc. Khác với tôi, Ngọc là du học...",
      "image": null,
      "label": null,
      "display": "text-only",
      "type": "text",
      "enable_detail": true,
      "related": {
        "url": "https://truyenx.link/truyensextv/channels/related/1261",
        "request_headers": []
      },
      "share": {
        "url": "https://truyenx.link/truyensextv/channels/share/gia-dinh-ben-vo"
      },
      "remote_data": {
        "url": "https://truyenx.link/truyensextv/channels/gia-dinh-ben-vo"
      }
    },
    {
      "id": "1260-channel",
      "name": "Cao thủ kiếm hiệp - Quyển 1",
      "description": "Đau! Khó có thể chịu đựng đau! Tống Khanh Sơ chậm rãi từ hôn mê tỉnh lại, cảm thấy toàn thân xương cốt tựa hồ nát bét, ngay cả động một ngón tay cũng không nhúc nhích nổi...",
      "image": null,
      "label": null,
      "display": "text-only",
      "type": "text",
      "enable_detail": true,
      "related": {
        "url": "https://truyenx.link/truyensextv/channels/related/1260",
        "request_headers": []
      },
      "share": {
        "url": "https://truyenx.link/truyensextv/channels/share/cao-thu-kiem-hiep-quyen-1"
      },
      "remote_data": {
        "url": "https://truyenx.link/truyensextv/channels/cao-thu-kiem-hiep-quyen-1"
      }
    },
    {
      "id": "1259-channel",
      "name": "Trả nợ cho chồng",
      "description": "Đạt nhìn lặng lẽ ngồi chịu đựng những lời trách móc của Trân và thấy xót xa vì những giọt nước mắt của cô nhưng đành bất lực không biết làm gì hơn. Xin nói qua về hai vợ...",
      "image": null,
      "label": null,
      "display": "text-only",
      "type": "text",
      "enable_detail": true,
      "related": {
        "url": "https://truyenx.link/truyensextv/channels/related/1259",
        "request_headers": []
      },
      "share": {
        "url": "https://truyenx.link/truyensextv/channels/share/tra-no-cho-chong"
      },
      "remote_data": {
        "url": "https://truyenx.link/truyensextv/channels/tra-no-cho-chong"
      }
    },
    {
      "id": "1258-channel",
      "name": "Hành trình tuổi thơ",
      "description": "Vào một buổi sáng đẹp trời, mây trắng đang nô đùa trên nền trời xanh thẳm, gió hiu hiu thổi nhè nhẹ qua những hàng cây cao chót vót. Em đang tung tăng cùng con ngựa sắt tia gái thì...",
      "image": null,
      "label": null,
      "display": "text-only",
      "type": "text",
      "enable_detail": true,
      "related": {
        "url": "https://truyenx.link/truyensextv/channels/related/1258",
        "request_headers": []
      },
      "share": {
        "url": "https://truyenx.link/truyensextv/channels/share/hanh-trinh-tuoi-tho"
      },
      "remote_data": {
        "url": "https://truyenx.link/truyensextv/channels/hanh-trinh-tuoi-tho"
      }
    },
    {
      "id": "1257-channel",
      "name": "Phá con bạn tên Trinh",
      "description": "5 được nghỉ cả tuần. Đêm đó chúng mình cắm trại tại trường cùng đám bạn trong lớp rồi sáng sớm xuất phát. Trong tối đó, khi mình mới chia tay H . Mày ngồi đây làm gì mà...",
      "image": null,
      "label": null,
      "display": "text-only",
      "type": "text",
      "enable_detail": true,
      "related": {
        "url": "https://truyenx.link/truyensextv/channels/related/1257",
        "request_headers": []
      },
      "share": {
        "url": "https://truyenx.link/truyensextv/channels/share/pha-con-ban-ten-trinh"
      },
      "remote_data": {
        "url": "https://truyenx.link/truyensextv/channels/pha-con-ban-ten-trinh"
      }
    },
    {
      "id": "1256-channel",
      "name": "Người con gái ấy - Quyển 1",
      "description": "Người ra thường bảo thời học sinh là thời kì đẹp nhất của mỗi người. Tuổi mới lớn ngây ngô, yêu hết mình, chơi hết mình, chưa phải lo toan về cơm áo gạo tiền. Ai cũng...",
      "image": null,
      "label": null,
      "display": "text-only",
      "type": "text",
      "enable_detail": true,
      "related": {
        "url": "https://truyenx.link/truyensextv/channels/related/1256",
        "request_headers": []
      },
      "share": {
        "url": "https://truyenx.link/truyensextv/channels/share/nguoi-con-gai-ay-quyen-1"
      },
      "remote_data": {
        "url": "https://truyenx.link/truyensextv/channels/nguoi-con-gai-ay-quyen-1"
      }
    },
    {
      "id": "1255-channel",
      "name": "Chị dâu tôi",
      "description": "Chào tất cả anh em, hôm nay tôi xin kể một câu chuyện có thật về cuộc đời mình. Chuyện xảy ra lúc tôi 16 tuổi, đang học cấp 3. Lúc đó mình được chuyển về ở cùng với anh họ...",
      "image": null,
      "label": null,
      "display": "text-only",
      "type": "text",
      "enable_detail": true,
      "related": {
        "url": "https://truyenx.link/truyensextv/channels/related/1255",
        "request_headers": []
      },
      "share": {
        "url": "https://truyenx.link/truyensextv/channels/share/chi-dau-toi"
      },
      "remote_data": {
        "url": "https://truyenx.link/truyensextv/channels/chi-dau-toi"
      }
    },
    {
      "id": "1254-channel",
      "name": "Chinh phục gái đẹp - Chương 5",
      "description": "Lũ lụt tràn về trong một đêm tại TP Hồ Châu thì giảm dần, do đó dân chúng Hồ Châu cũng có thời gian lấy lại hơi sức rồi, đại bộ phận địa phương đều bị ngập chìm, con...",
      "image": null,
      "label": null,
      "display": "text-only",
      "type": "text",
      "enable_detail": true,
      "related": {
        "url": "https://truyenx.link/truyensextv/channels/related/1254",
        "request_headers": []
      },
      "share": {
        "url": "https://truyenx.link/truyensextv/channels/share/chinh-phuc-gai-dep-chuong-5"
      },
      "remote_data": {
        "url": "https://truyenx.link/truyensextv/channels/chinh-phuc-gai-dep-chuong-5"
      }
    },
    {
      "id": "1253-channel",
      "name": "Sai trái",
      "description": "Nằm phía cuối khu nhà lầu sang trọng là một con hẻm nhỏ, quanh co ra đến tận bờ sông dưới chân cầu. Nơi đây chẳng biết từ bao giờ đã được đặt cho một cái tên gọi đã...",
      "image": null,
      "label": null,
      "display": "text-only",
      "type": "text",
      "enable_detail": true,
      "related": {
        "url": "https://truyenx.link/truyensextv/channels/related/1253",
        "request_headers": []
      },
      "share": {
        "url": "https://truyenx.link/truyensextv/channels/share/sai-trai"
      },
      "remote_data": {
        "url": "https://truyenx.link/truyensextv/channels/sai-trai"
      }
    },
    {
      "id": "1252-channel",
      "name": "Phụ Thể Đại Lục",
      "description": "Trên đường phố nhộn nhịp đông đúc của Tác Thác Thành, một trong tam thành thị lớn nhất hình thành thế chân vạc bảo vệ biên khu phía Nam của Phụ Thể Đại Lục. Lúc này ở...",
      "image": null,
      "label": null,
      "display": "text-only",
      "type": "text",
      "enable_detail": true,
      "related": {
        "url": "https://truyenx.link/truyensextv/channels/related/1252",
        "request_headers": []
      },
      "share": {
        "url": "https://truyenx.link/truyensextv/channels/share/phu-the-dai-luc"
      },
      "remote_data": {
        "url": "https://truyenx.link/truyensextv/channels/phu-the-dai-luc"
      }
    },
    {
      "id": "1251-channel",
      "name": "Chiều vợ",
      "description": "Mình lấy vợ muộn, do cả quãng thanh xuân bận bịu với ăn chơi, đàn đúm. Vì có ưu thế về ngoại hình theo kiểu đẹp trai Hàn quốc nên từ khi biết yêu mình toàn ở thế thụ...",
      "image": null,
      "label": null,
      "display": "text-only",
      "type": "text",
      "enable_detail": true,
      "related": {
        "url": "https://truyenx.link/truyensextv/channels/related/1251",
        "request_headers": []
      },
      "share": {
        "url": "https://truyenx.link/truyensextv/channels/share/chieu-vo"
      },
      "remote_data": {
        "url": "https://truyenx.link/truyensextv/channels/chieu-vo"
      }
    },
    {
      "id": "1250-channel",
      "name": "Ngã ba sông",
      "description": "Con bé trố mắt nhìn chằm chằm vào khối rubik xoay liên tục trên đôi tay điêu luyện. Nó không thể hiểu vì sao các màu đang bị xáo trộn ngẫu nhiên nhưng chỉ sau một thoáng nhào...",
      "image": null,
      "label": null,
      "display": "text-only",
      "type": "text",
      "enable_detail": true,
      "related": {
        "url": "https://truyenx.link/truyensextv/channels/related/1250",
        "request_headers": []
      },
      "share": {
        "url": "https://truyenx.link/truyensextv/channels/share/nga-ba-song"
      },
      "remote_data": {
        "url": "https://truyenx.link/truyensextv/channels/nga-ba-song"
      }
    },
    {
      "id": "1249-channel",
      "name": "Ngân, Phương và Quỳnh",
      "description": "Chào tất cả anh em, hôm nay tôi xin kể 1 câu chuyện có thật về những cô gái trong cuộc đời mình. Em đầu tiên tên Ngân, body khá ngon, nuột. Ban đầu chỉ là bạn bè nhưng trong 1 lần...",
      "image": null,
      "label": null,
      "display": "text-only",
      "type": "text",
      "enable_detail": true,
      "related": {
        "url": "https://truyenx.link/truyensextv/channels/related/1249",
        "request_headers": []
      },
      "share": {
        "url": "https://truyenx.link/truyensextv/channels/share/ngan-phuong-va-quynh"
      },
      "remote_data": {
        "url": "https://truyenx.link/truyensextv/channels/ngan-phuong-va-quynh"
      }
    }
  ],
  "load_more": {
    "pageInfo": {
      "current_page": 98,
      "last_page": 140,
      "per_page": 30,
      "total": 4188
    },
    "paging": {
      "page_key": "page",
      "size_key": "size"
    },
    "remote_data": {
      "url": "https://truyenx.link/truyensextv/channels"
    }
  }
}