{"grid_number":1,"channels":[{"id":"4087-channel","name":"Đụ bà dì","description":"Tôi tên K, sinh sống và làm việc tại Bình Dương. Hôm nay tôi sẽ kể cho các bạn câu chuyện mà tôi đã giấu kín từ năm tôi 15 tuổi đến bây giờ là 22 tuổi. Tôi sống ở Bình...","image":null,"label":null,"display":"text-only","type":"text","enable_detail":true,"related":{"url":"https://truyenx.link/truyensextv/channels/related/4087","request_headers":[]},"share":{"url":"https://truyenx.link/truyensextv/channels/share/du-ba-di"},"remote_data":{"url":"https://truyenx.link/truyensextv/channels/du-ba-di"}},{"id":"4084-channel","name":"Chồng nhìn vợ bị cướp mất bởi một thằng nhóc","description":"Tôi là Thành Nhân, 35 tuổi, một người đàn ông thành đạt với sự nghiệp vững vàng, địa vị xã hội cao, và học thức sâu rộng. Vợ tôi, Xuân Hương, cũng 35 tuổi, cao 1m85, thân...","image":null,"label":null,"display":"text-only","type":"text","enable_detail":true,"related":{"url":"https://truyenx.link/truyensextv/channels/related/4084","request_headers":[]},"share":{"url":"https://truyenx.link/truyensextv/channels/share/chong-nhin-vo-bi-cuop-mat-boi-mot-thang-nhoc"},"remote_data":{"url":"https://truyenx.link/truyensextv/channels/chong-nhin-vo-bi-cuop-mat-boi-mot-thang-nhoc"}},{"id":"4083-channel","name":"Truyện tình anh yêu em","description":"Khu Vườn Cấm Ngôi biệt thự cổ kính nằm sâu trong một khu vườn rậm rạp, tách biệt khỏi sự ồn ào của phố thị Sài Gòn. Những bức tường đá phủ đầy rêu phong ẩm ướt...","image":null,"label":null,"display":"text-only","type":"text","enable_detail":true,"related":{"url":"https://truyenx.link/truyensextv/channels/related/4083","request_headers":[]},"share":{"url":"https://truyenx.link/truyensextv/channels/share/truyen-tinh-anh-yeu-em"},"remote_data":{"url":"https://truyenx.link/truyensextv/channels/truyen-tinh-anh-yeu-em"}},{"id":"4082-channel","name":"Đào tạo nô lệ","description":"Tôi tên là Gia Thịnh, năm nay 33 tuổi cùng với vợ tôi, Thanh Thảo vừa đón sinh nhật lần thứ 30 cách đây vài ngày trước. Chúng tôi cưới nhau tới nay đã được gần tròn 05 năm...","image":null,"label":null,"display":"text-only","type":"text","enable_detail":true,"related":{"url":"https://truyenx.link/truyensextv/channels/related/4082","request_headers":[]},"share":{"url":"https://truyenx.link/truyensextv/channels/share/dao-tao-no-le"},"remote_data":{"url":"https://truyenx.link/truyensextv/channels/dao-tao-no-le"}},{"id":"4074-channel","name":"Chịch ké bồ thằng bạn ở chung phòng","description":"Nhắc đến việc threesome nhiều chày giã chung 1 cối tui nghĩ nhiều anh em ở đây khá hứng thú nhưng có mấy người đã được thử qua cảm giác đó, tui may mắn hơn 1 chút từng được...","image":null,"label":null,"display":"text-only","type":"text","enable_detail":true,"related":{"url":"https://truyenx.link/truyensextv/channels/related/4074","request_headers":[]},"share":{"url":"https://truyenx.link/truyensextv/channels/share/chich-ke-bo-thang-ban-o-chung-phong"},"remote_data":{"url":"https://truyenx.link/truyensextv/channels/chich-ke-bo-thang-ban-o-chung-phong"}},{"id":"4073-channel","name":"Chồng đi công tác vợ ở nhà địt em rể","description":"Chuyện là tôi có 1 thằng em trai tên Hiếu, thằng em trai tôi muốn lên chung ở với tôi, nhà tôi có 1 cô vợ tên là nhi đang ở chung sống tôi hơn 7 tháng, em trai tôi hơi dâm nhưng tôi...","image":null,"label":null,"display":"text-only","type":"text","enable_detail":true,"related":{"url":"https://truyenx.link/truyensextv/channels/related/4073","request_headers":[]},"share":{"url":"https://truyenx.link/truyensextv/channels/share/chong-di-cong-tac-vo-o-nha-dit-em-re"},"remote_data":{"url":"https://truyenx.link/truyensextv/channels/chong-di-cong-tac-vo-o-nha-dit-em-re"}},{"id":"4071-channel","name":"Anh trai nhìn em gái bị thằng bắt nạt phá trinh biến thành đĩ","description":"Tôi tên là Đạt, một thằng lớp 12 bình thường, sống trong một gia đình mà ai nhìn vào cũng phải ghen tị. Ba tôi là giám đốc công ty lớn, mẹ tôi là giáo viên cấp ba, cả hai đều...","image":null,"label":null,"display":"text-only","type":"text","enable_detail":true,"related":{"url":"https://truyenx.link/truyensextv/channels/related/4071","request_headers":[]},"share":{"url":"https://truyenx.link/truyensextv/channels/share/anh-trai-nhin-em-gai-bi-thang-bat-nat-pha-trinh-bien-thanh-di"},"remote_data":{"url":"https://truyenx.link/truyensextv/channels/anh-trai-nhin-em-gai-bi-thang-bat-nat-pha-trinh-bien-thanh-di"}},{"id":"4070-channel","name":"Hà Phương","description":"“Rầm... Rầm...” Đột nhiên trời nổi giông! Tiếng sét rền vang xé tan không gian yên tĩnh của vùng quê miệt thứ. Mưa trút ào ào xuyên qua từng tán lá, rơi xuống đất lộp...","image":null,"label":null,"display":"text-only","type":"text","enable_detail":true,"related":{"url":"https://truyenx.link/truyensextv/channels/related/4070","request_headers":[]},"share":{"url":"https://truyenx.link/truyensextv/channels/share/ha-phuong"},"remote_data":{"url":"https://truyenx.link/truyensextv/channels/ha-phuong"}},{"id":"4068-channel","name":"Vợ tôi nghiện sex","description":"Khởi đầu Tôi tên Minh, 35 tuổi, ở miền tây, nghề nghiệp của tôi là thợ sửa chữa ô tô, nói chung cũng chỉ là 1 gara nhỏ theo anh chủ chí cốt. Vợ tôi tên Trang, 27 tuổi, làm công...","image":null,"label":null,"display":"text-only","type":"text","enable_detail":true,"related":{"url":"https://truyenx.link/truyensextv/channels/related/4068","request_headers":[]},"share":{"url":"https://truyenx.link/truyensextv/channels/share/vo-toi-nghien-sex"},"remote_data":{"url":"https://truyenx.link/truyensextv/channels/vo-toi-nghien-sex"}},{"id":"4067-channel","name":"Đụ cô giáo trên xe khách về quê","description":"Tết năm 2023 hôm đó là 27 tết xe cộ đặc biệt là xe khách hầu như đều kính khách hôm đó mình về quê ở sóc Trăng để ăn tết lên xe thì mình thấy không còn chỗ nào để ngồi...","image":null,"label":null,"display":"text-only","type":"text","enable_detail":true,"related":{"url":"https://truyenx.link/truyensextv/channels/related/4067","request_headers":[]},"share":{"url":"https://truyenx.link/truyensextv/channels/share/du-co-giao-tren-xe-khach-ve-que"},"remote_data":{"url":"https://truyenx.link/truyensextv/channels/du-co-giao-tren-xe-khach-ve-que"}},{"id":"4065-channel","name":"Bạn thân của người yêu là con đĩ của tôi","description":"Cô bạn thân dâm đãng của người yêu tôi Mình hiện tại 20 tuổi và xin phép giấu tên. Hồi trước lúc còn học lớp 12 mình có quen một cô người yêu tên Y, mình tự nhận bản thân...","image":null,"label":null,"display":"text-only","type":"text","enable_detail":true,"related":{"url":"https://truyenx.link/truyensextv/channels/related/4065","request_headers":[]},"share":{"url":"https://truyenx.link/truyensextv/channels/share/ban-than-cua-nguoi-yeu-la-con-di-cua-toi"},"remote_data":{"url":"https://truyenx.link/truyensextv/channels/ban-than-cua-nguoi-yeu-la-con-di-cua-toi"}},{"id":"4064-channel","name":"Mưa và em","description":"Cơn mưa lúc này đây cứ mỗi lúc lại thêm nặng hạt, tiếng mưa đã không còn nhẹ nhàng lãng mạn như lúc đầu mà dần chuyển sang trạng thái dồn dập hơn. Bên kia đường, từng...","image":null,"label":null,"display":"text-only","type":"text","enable_detail":true,"related":{"url":"https://truyenx.link/truyensextv/channels/related/4064","request_headers":[]},"share":{"url":"https://truyenx.link/truyensextv/channels/share/mua-va-em"},"remote_data":{"url":"https://truyenx.link/truyensextv/channels/mua-va-em"}},{"id":"4063-channel","name":"Phẩm giá con dâu","description":"Ra mắt bố chồng An sinh ra và lớn lên ở vùng quê nông thôn, vì không chịu được cảnh cực khổ nên anh lên thành phố lập nghiệp. An cố gắng làm việc chăm chỉ cuối cùng anh cũng...","image":null,"label":null,"display":"text-only","type":"text","enable_detail":true,"related":{"url":"https://truyenx.link/truyensextv/channels/related/4063","request_headers":[]},"share":{"url":"https://truyenx.link/truyensextv/channels/share/pham-gia-con-dau"},"remote_data":{"url":"https://truyenx.link/truyensextv/channels/pham-gia-con-dau"}},{"id":"4062-channel","name":"Cậu nam sinh đào hoa","description":"Cô thực tập sinh dâm đãng Ở cái trường cấp 3 tư thục X không ai lại không biết đến Duy, một cậu học sinh được xem là thiếu gia sát gái. Duy năm nay 18 tuổi, tuy nhiên cậu hiện...","image":null,"label":null,"display":"text-only","type":"text","enable_detail":true,"related":{"url":"https://truyenx.link/truyensextv/channels/related/4062","request_headers":[]},"share":{"url":"https://truyenx.link/truyensextv/channels/share/cau-nam-sinh-dao-hoa"},"remote_data":{"url":"https://truyenx.link/truyensextv/channels/cau-nam-sinh-dao-hoa"}},{"id":"4061-channel","name":"Ngải Tình","description":"Lâm Phong 23 tuổi. Một chàng trai rất hợp mắt chị em bởi hắn có một thân hình quá cân đối không vạm vỡ như mấy gã tập gym mà cơ thịt hắn chỗ nào ra chỗ đó, vì học võ của...","image":null,"label":null,"display":"text-only","type":"text","enable_detail":true,"related":{"url":"https://truyenx.link/truyensextv/channels/related/4061","request_headers":[]},"share":{"url":"https://truyenx.link/truyensextv/channels/share/ngai-tinh"},"remote_data":{"url":"https://truyenx.link/truyensextv/channels/ngai-tinh"}},{"id":"2590-channel","name":"Ô cửa kính","description":"Tiếng giày cao gót vang lên đều đặn ngoài hành lang khiến Hiên không thể không chú ý. Nhịp chân ấy đã khắc sâu trong tâm trí của Hiên hai năm nay đến nỗi dường như cả hơi thở...","image":null,"label":null,"display":"text-only","type":"text","enable_detail":true,"related":{"url":"https://truyenx.link/truyensextv/channels/related/2590","request_headers":[]},"share":{"url":"https://truyenx.link/truyensextv/channels/share/o-cua-kinh"},"remote_data":{"url":"https://truyenx.link/truyensextv/channels/o-cua-kinh"}},{"id":"2589-channel","name":"Cô Chi lồn to","description":"“Hêhê, thằng đụn thịt, cút mẹ mày đi, ở đây không có chỗ cho mày đâu!”, Vừa dứt câu thóa mạ là hai cái dép phi thẳng vào mặt Minh. Một nỗi phẫn uất xen lẫn sự...","image":null,"label":null,"display":"text-only","type":"text","enable_detail":true,"related":{"url":"https://truyenx.link/truyensextv/channels/related/2589","request_headers":[]},"share":{"url":"https://truyenx.link/truyensextv/channels/share/co-chi-lon-to"},"remote_data":{"url":"https://truyenx.link/truyensextv/channels/co-chi-lon-to"}},{"id":"2588-channel","name":"Nó là của mày","description":"Ông bà Tư Kiên tuổi sồn sồn, ông khoảng trên 50 còn bà tên Hải thì dưới một chút. Ông thì nhìn thấy hơi già, còn bà vẫn phơi phới da thịt còn căng. Họ có một đứa con gái đã...","image":null,"label":null,"display":"text-only","type":"text","enable_detail":true,"related":{"url":"https://truyenx.link/truyensextv/channels/related/2588","request_headers":[]},"share":{"url":"https://truyenx.link/truyensextv/channels/share/no-la-cua-may"},"remote_data":{"url":"https://truyenx.link/truyensextv/channels/no-la-cua-may"}},{"id":"2587-channel","name":"Quế Hương dâm đãng","description":"Tuấn anh Tú, hai anh em tuổi cách nhau hơi xa. Họ dược sinh ra ở nước Mỹ, nhưng nói tiếng Việt rất sõi. Tuấn ra trường rồi có vợ, cô tên Quế Hương, một du học sinh Việt Nam. Từ...","image":null,"label":null,"display":"text-only","type":"text","enable_detail":true,"related":{"url":"https://truyenx.link/truyensextv/channels/related/2587","request_headers":[]},"share":{"url":"https://truyenx.link/truyensextv/channels/share/que-huong-dam-dang"},"remote_data":{"url":"https://truyenx.link/truyensextv/channels/que-huong-dam-dang"}},{"id":"2586-channel","name":"Bú lồn Nhung","description":"Từ trong phòng làm việc, Nhung ngồi nhìn ra cửa sổ, khuôn mặt tươi vui. Chị đang làm kế toán cho một hãng lớn. Tuy có chồng có con, nhưng Nhung vẫn được đàn ông tán tỉnh vì sở...","image":null,"label":null,"display":"text-only","type":"text","enable_detail":true,"related":{"url":"https://truyenx.link/truyensextv/channels/related/2586","request_headers":[]},"share":{"url":"https://truyenx.link/truyensextv/channels/share/bu-lon-nhung"},"remote_data":{"url":"https://truyenx.link/truyensextv/channels/bu-lon-nhung"}},{"id":"2585-channel","name":"Bí mật của hai người","description":"Yến là một cô bé năm nay chỉ mới 10 tuổi, nhưng trong cô sự tò mò rất nhiều. Bình thường vừa hay đi học về, đứng ngoài cửa nghe thấy dì và mẹ đang nói chuyện với nhau về...","image":null,"label":null,"display":"text-only","type":"text","enable_detail":true,"related":{"url":"https://truyenx.link/truyensextv/channels/related/2585","request_headers":[]},"share":{"url":"https://truyenx.link/truyensextv/channels/share/bi-mat-cua-hai-nguoi"},"remote_data":{"url":"https://truyenx.link/truyensextv/channels/bi-mat-cua-hai-nguoi"}},{"id":"2584-channel","name":"New friend","description":"b nhau rồi mọi người bắt bầu đẩy thuyền chúng tôi. Bạn í đỏ mặt ngại rồi tới lúc về thì mng có nhờ tôi chở. Vì không biết đường nên tôi chạy sau xe thằng em tôi nó đi...","image":null,"label":null,"display":"text-only","type":"text","enable_detail":true,"related":{"url":"https://truyenx.link/truyensextv/channels/related/2584","request_headers":[]},"share":{"url":"https://truyenx.link/truyensextv/channels/share/new-friend"},"remote_data":{"url":"https://truyenx.link/truyensextv/channels/new-friend"}},{"id":"2583-channel","name":"Maika của tôi","description":"Tôi và Huyền quen nhau qua một người bạn khi vợ chồng tôi đã ly hôn, đứa con gái chung thì vợ tôi được quyền nuôi con tôi có trách nhiệm chu cấp tài chính đến khi con đủ 18...","image":null,"label":null,"display":"text-only","type":"text","enable_detail":true,"related":{"url":"https://truyenx.link/truyensextv/channels/related/2583","request_headers":[]},"share":{"url":"https://truyenx.link/truyensextv/channels/share/maika-cua-toi"},"remote_data":{"url":"https://truyenx.link/truyensextv/channels/maika-cua-toi"}},{"id":"2582-channel","name":"Chuyện của Liên","description":"Lời dẫn chuyện. Xin chào toàn thể các độc giả thân thương và yêu quý của Cu Zũng. Cũng đã khá lâu rồi Cu Zũng mới lại kỳ cụi đánh máy viết hầu độc giả. Đam mê thì vẫn...","image":null,"label":null,"display":"text-only","type":"text","enable_detail":true,"related":{"url":"https://truyenx.link/truyensextv/channels/related/2582","request_headers":[]},"share":{"url":"https://truyenx.link/truyensextv/channels/share/chuyen-cua-lien"},"remote_data":{"url":"https://truyenx.link/truyensextv/channels/chuyen-cua-lien"}},{"id":"2581-channel","name":"Truyện sex có thật","description":"Chuyện này đã xảy ra khá lâu rồi tôi có quen bạn của mẹ, khi thấy bạn của mẹ tui như đứng ngơ ra vì vẻ bề ngoài rất nóng bỏng với độ tuổi 48 mà da dẻ của bạn mẹ vẫn...","image":null,"label":null,"display":"text-only","type":"text","enable_detail":true,"related":{"url":"https://truyenx.link/truyensextv/channels/related/2581","request_headers":[]},"share":{"url":"https://truyenx.link/truyensextv/channels/share/truyen-sex-co-that"},"remote_data":{"url":"https://truyenx.link/truyensextv/channels/truyen-sex-co-that"}},{"id":"2580-channel","name":"Như Trăng Như Mật Lại Như Hương","description":"Tiếng trống trường quen thuộc báo hiệu giờ ra chơi vang lên kéo theo tiếng hò reo mừng rỡ của đám học trò. Cửa lớp lần lượt hé mở, giáo viên bước ra và theo sau là đám học...","image":null,"label":null,"display":"text-only","type":"text","enable_detail":true,"related":{"url":"https://truyenx.link/truyensextv/channels/related/2580","request_headers":[]},"share":{"url":"https://truyenx.link/truyensextv/channels/share/nhu-trang-nhu-mat-lai-nhu-huong"},"remote_data":{"url":"https://truyenx.link/truyensextv/channels/nhu-trang-nhu-mat-lai-nhu-huong"}},{"id":"2579-channel","name":"Mối tình cấm kỵ","description":"Năm Hiếu sắp tốt nghiệp Đại Học thì Hiếu quen với Trâm, một cô gái đang học lớp 11. Qua một thời gian thì tình cảm giữa hai người trở nên sâu đậm hơn với sự chấp thuận...","image":null,"label":null,"display":"text-only","type":"text","enable_detail":true,"related":{"url":"https://truyenx.link/truyensextv/channels/related/2579","request_headers":[]},"share":{"url":"https://truyenx.link/truyensextv/channels/share/moi-tinh-cam-ky"},"remote_data":{"url":"https://truyenx.link/truyensextv/channels/moi-tinh-cam-ky"}},{"id":"2578-channel","name":"Tổ chức Mỹ nhân","description":"Cửa tiệm Tất Trắng Người qua đường ở Hà thành nếu thấy một cửa hàng quần áo lớn, chiếm đến bốn mặt đất nhưng mà vắng tanh thì không khỏi nghi vấn. Cửa hàng ấy không...","image":null,"label":null,"display":"text-only","type":"text","enable_detail":true,"related":{"url":"https://truyenx.link/truyensextv/channels/related/2578","request_headers":[]},"share":{"url":"https://truyenx.link/truyensextv/channels/share/to-chuc-my-nhan"},"remote_data":{"url":"https://truyenx.link/truyensextv/channels/to-chuc-my-nhan"}},{"id":"2577-channel","name":"Bốn tháng lockdown","description":"Về quê Người ta nói sài gòn chỉ có hai mùa, một là mùa nóng, hai là mùa nóng bỏ mẹ. Trời tháng tư, ngồi ở trong nhà mà thằng Minh cứ tưởng nó đang ngồi trong lò lửa. Còn...","image":null,"label":null,"display":"text-only","type":"text","enable_detail":true,"related":{"url":"https://truyenx.link/truyensextv/channels/related/2577","request_headers":[]},"share":{"url":"https://truyenx.link/truyensextv/channels/share/bon-thang-lockdown"},"remote_data":{"url":"https://truyenx.link/truyensextv/channels/bon-thang-lockdown"}},{"id":"2575-channel","name":"Thằng Tí","description":"Chúc mừng... Chúc mừng con gái. Chúc mừng chị... Chị gái của chúng em. Tiếng cười đùa, chúc mừng, tiếng cạn cốc va vào nhau từ nhà Hiền phát ra. Cả nhà đang vui vẻ, hôm nay...","image":null,"label":null,"display":"text-only","type":"text","enable_detail":true,"related":{"url":"https://truyenx.link/truyensextv/channels/related/2575","request_headers":[]},"share":{"url":"https://truyenx.link/truyensextv/channels/share/thang-ti"},"remote_data":{"url":"https://truyenx.link/truyensextv/channels/thang-ti"}}],"load_more":{"pageInfo":{"current_page":5,"last_page":140,"per_page":30,"total":4188},"paging":{"page_key":"page","size_key":"size"},"remote_data":{"url":"https://truyenx.link/truyensextv/channels"}}}