{
  "grid_number": 1,
  "channels": [
    {
      "id": "2798-channel",
      "name": "Lén lút ở công ty",
      "description": "Em năm nay 24 tuổi, đi làm công ty ở KCN Thái Nguyên. Em làm IT ở công ty, công việc cũng nhàn hạ với quen biết nhiều bộ phận . Ở trong công ty có bộ phận chấm công cho công nhân...",
      "image": null,
      "label": null,
      "display": "text-only",
      "type": "text",
      "enable_detail": true,
      "related": {
        "url": "https://truyenx.link/truyensextv/channels/related/2798",
        "request_headers": []
      },
      "share": {
        "url": "https://truyenx.link/truyensextv/channels/share/len-lut-o-cong-ty"
      },
      "remote_data": {
        "url": "https://truyenx.link/truyensextv/channels/len-lut-o-cong-ty"
      }
    },
    {
      "id": "2797-channel",
      "name": "Nhà có con gái mới lớn",
      "description": "“Ba ba... nhớ con không?” Một thân thể mềm mại nhào vô lòng ngực tôi, sau đó nhẹ nhàng bên cạnh tai của tôi líu ríu, lập tức tôi ngửi thấy được một cỗ thơm mát...",
      "image": null,
      "label": null,
      "display": "text-only",
      "type": "text",
      "enable_detail": true,
      "related": {
        "url": "https://truyenx.link/truyensextv/channels/related/2797",
        "request_headers": []
      },
      "share": {
        "url": "https://truyenx.link/truyensextv/channels/share/nha-co-con-gai-moi-lon"
      },
      "remote_data": {
        "url": "https://truyenx.link/truyensextv/channels/nha-co-con-gai-moi-lon"
      }
    },
    {
      "id": "2796-channel",
      "name": "Cho người khác đụ vợ",
      "description": "Phải thừa nhận rằng những suy nghĩ, hình ảnh vợ mình cùng với một người đàn ông khác quấn chặt lấy nhau, dương vật của người đàn ông đó nhấp ra nhấp vô trong âm đạo...",
      "image": null,
      "label": null,
      "display": "text-only",
      "type": "text",
      "enable_detail": true,
      "related": {
        "url": "https://truyenx.link/truyensextv/channels/related/2796",
        "request_headers": []
      },
      "share": {
        "url": "https://truyenx.link/truyensextv/channels/share/cho-nguoi-khac-du-vo"
      },
      "remote_data": {
        "url": "https://truyenx.link/truyensextv/channels/cho-nguoi-khac-du-vo"
      }
    },
    {
      "id": "2795-channel",
      "name": "Em Uyên thích ngoại tình",
      "description": "Ai cũng có cho mình một thời học sinh đẹp đẽ, những kỷ niệm vô giá chẳng bao giờ quay lại đc. Bản thân tôi cũng vậy, tôi đỗ ngôi trường mong ước, có những người bạn chí...",
      "image": null,
      "label": null,
      "display": "text-only",
      "type": "text",
      "enable_detail": true,
      "related": {
        "url": "https://truyenx.link/truyensextv/channels/related/2795",
        "request_headers": []
      },
      "share": {
        "url": "https://truyenx.link/truyensextv/channels/share/em-uyen-thich-ngoai-tinh"
      },
      "remote_data": {
        "url": "https://truyenx.link/truyensextv/channels/em-uyen-thich-ngoai-tinh"
      }
    },
    {
      "id": "2794-channel",
      "name": "Ông già mất nết",
      "description": "Ông Phong ngồi thở dài trên sô pha, căn nhà rộng lớn trống rỗng càng làm ông chua chát, quạnh quẽ. Thằng Tuấn, con út ông cuối cùng cũng ly dị xong, dâu cháu đi hết, con cái phẫn...",
      "image": null,
      "label": null,
      "display": "text-only",
      "type": "text",
      "enable_detail": true,
      "related": {
        "url": "https://truyenx.link/truyensextv/channels/related/2794",
        "request_headers": []
      },
      "share": {
        "url": "https://truyenx.link/truyensextv/channels/share/ong-gia-mat-net"
      },
      "remote_data": {
        "url": "https://truyenx.link/truyensextv/channels/ong-gia-mat-net"
      }
    },
    {
      "id": "2793-channel",
      "name": "Trải nghiệm tình dục của vợ chồng mình",
      "description": "Mình giữa 8x vợ đầu 9x, quen biết nhau từ khoảng 2012 khi làm chung dự án, khi đấy em mới ra trường, trẻ, đẹp, tài năng và chưa từng trải tí nào. Gặp lần đầu mình đã bị say...",
      "image": null,
      "label": null,
      "display": "text-only",
      "type": "text",
      "enable_detail": true,
      "related": {
        "url": "https://truyenx.link/truyensextv/channels/related/2793",
        "request_headers": []
      },
      "share": {
        "url": "https://truyenx.link/truyensextv/channels/share/trai-nghiem-tinh-duc-cua-vo-chong-minh"
      },
      "remote_data": {
        "url": "https://truyenx.link/truyensextv/channels/trai-nghiem-tinh-duc-cua-vo-chong-minh"
      }
    },
    {
      "id": "2792-channel",
      "name": "Chồng và vợ",
      "description": "Trâm rùng mình sung sướng khi cái lưỡi của chồng nàng liếm những đường dài, dọc cái khe lồn ẩm ướt của nàng. Trâm đè mạnh đầu chồng xuống háng mình, ưỡn mông lên cho cái...",
      "image": null,
      "label": null,
      "display": "text-only",
      "type": "text",
      "enable_detail": true,
      "related": {
        "url": "https://truyenx.link/truyensextv/channels/related/2792",
        "request_headers": []
      },
      "share": {
        "url": "https://truyenx.link/truyensextv/channels/share/chong-va-vo"
      },
      "remote_data": {
        "url": "https://truyenx.link/truyensextv/channels/chong-va-vo"
      }
    },
    {
      "id": "2791-channel",
      "name": "Lần đầu đưa vợ đi some",
      "description": "Thấm thoắt cũng phải tới 2 năm kể từ ngày đầu nói từ some với vợ. Những ngày đầu nàng phản đối kịch liệt, kêu mình bệnh hoạn. Nhưng giờ đây, mình đã được ngồi nhìn...",
      "image": null,
      "label": null,
      "display": "text-only",
      "type": "text",
      "enable_detail": true,
      "related": {
        "url": "https://truyenx.link/truyensextv/channels/related/2791",
        "request_headers": []
      },
      "share": {
        "url": "https://truyenx.link/truyensextv/channels/share/lan-dau-dua-vo-di-some"
      },
      "remote_data": {
        "url": "https://truyenx.link/truyensextv/channels/lan-dau-dua-vo-di-some"
      }
    },
    {
      "id": "2790-channel",
      "name": "Cảm giác khi cho vợ đụ với người khác",
      "description": "Nhớ hồi xưa mình và nàng quen nhau chỉ cần chở nhau đến trước nhà nghỉ, là dương vật mình đã cương cứng trong quần, vừa vào tới phòng là mình như một con hổ đói lao vào cắn...",
      "image": null,
      "label": null,
      "display": "text-only",
      "type": "text",
      "enable_detail": true,
      "related": {
        "url": "https://truyenx.link/truyensextv/channels/related/2790",
        "request_headers": []
      },
      "share": {
        "url": "https://truyenx.link/truyensextv/channels/share/cam-giac-khi-cho-vo-du-voi-nguoi-khac"
      },
      "remote_data": {
        "url": "https://truyenx.link/truyensextv/channels/cam-giac-khi-cho-vo-du-voi-nguoi-khac"
      }
    },
    {
      "id": "2789-channel",
      "name": "Hồi ức 2",
      "description": "Ngày 14 tháng 3 năm 20... Đang làm việc trên công trường ở khu công nghiệp Đà Nẵng, tôi bất ngờ nhận được tin nhắn của em sau hơn bốn tháng không hề liên lạc với nhau. Vì em đã...",
      "image": null,
      "label": null,
      "display": "text-only",
      "type": "text",
      "enable_detail": true,
      "related": {
        "url": "https://truyenx.link/truyensextv/channels/related/2789",
        "request_headers": []
      },
      "share": {
        "url": "https://truyenx.link/truyensextv/channels/share/hoi-uc-2"
      },
      "remote_data": {
        "url": "https://truyenx.link/truyensextv/channels/hoi-uc-2"
      }
    },
    {
      "id": "2788-channel",
      "name": "Duyên nợ vợ chồng",
      "description": "Chiều tàn phố xá lên đèn, thành đô tráng lệ trông càng lung linh. Trong dòng xe tấp nập, một chiếc ô tô con tách ra và cẩn thận tấp vào lề. Chàng tài xế ăn mặc chỉnh chu mở...",
      "image": null,
      "label": null,
      "display": "text-only",
      "type": "text",
      "enable_detail": true,
      "related": {
        "url": "https://truyenx.link/truyensextv/channels/related/2788",
        "request_headers": []
      },
      "share": {
        "url": "https://truyenx.link/truyensextv/channels/share/duyen-no-vo-chong"
      },
      "remote_data": {
        "url": "https://truyenx.link/truyensextv/channels/duyen-no-vo-chong"
      }
    },
    {
      "id": "2787-channel",
      "name": "Cuộc đời tôi",
      "description": "Tôi sinh ra và lớn lên ở tỉnh quảng nam gia đình tôi thì rất hạnh phúc. Tôi thì tiếp xúc với mạng INTERNET từ sớm nhưng chủ yếu là để học. Nhưng cho tới khi tôi chứng kiến...",
      "image": null,
      "label": null,
      "display": "text-only",
      "type": "text",
      "enable_detail": true,
      "related": {
        "url": "https://truyenx.link/truyensextv/channels/related/2787",
        "request_headers": []
      },
      "share": {
        "url": "https://truyenx.link/truyensextv/channels/share/cuoc-doi-toi"
      },
      "remote_data": {
        "url": "https://truyenx.link/truyensextv/channels/cuoc-doi-toi"
      }
    },
    {
      "id": "2786-channel",
      "name": "Tự truyện về đời tôi",
      "description": "Tôi sinh ra và lớn lên ở cao nguyên, ba mẹ tôi ở Sài Gòn nhưng ra thị xã Pleiku lập nghiệp có mở một xưởng cưa gỗ ngoài đó... Một thời gian vì cần có thêm người phụ giúp nên...",
      "image": null,
      "label": null,
      "display": "text-only",
      "type": "text",
      "enable_detail": true,
      "related": {
        "url": "https://truyenx.link/truyensextv/channels/related/2786",
        "request_headers": []
      },
      "share": {
        "url": "https://truyenx.link/truyensextv/channels/share/tu-truyen-ve-doi-toi"
      },
      "remote_data": {
        "url": "https://truyenx.link/truyensextv/channels/tu-truyen-ve-doi-toi"
      }
    },
    {
      "id": "2785-channel",
      "name": "Được cả vợ lẫn chồng bú cặc",
      "description": "Hùng huýt sáo đi ra từ phòng tắm với hương thơm nhè nhẹ trên cơ thể của mùi nước hoa quyến rũ. Nhìn chồng có tâm trạng vui vẻ như vậy, Lan đang đứng nấu ăn liền lườm yêu và...",
      "image": null,
      "label": null,
      "display": "text-only",
      "type": "text",
      "enable_detail": true,
      "related": {
        "url": "https://truyenx.link/truyensextv/channels/related/2785",
        "request_headers": []
      },
      "share": {
        "url": "https://truyenx.link/truyensextv/channels/share/duoc-ca-vo-lan-chong-bu-cac"
      },
      "remote_data": {
        "url": "https://truyenx.link/truyensextv/channels/duoc-ca-vo-lan-chong-bu-cac"
      }
    },
    {
      "id": "2784-channel",
      "name": "Chuyện đời Thành",
      "description": "Thành là một cậu bé thông minh. Dù mới 10 tuổi nhưng cậu đã có thể làm được những bài toán mà học sinh lớp 6 còn gặp khó khăn. Không chỉ thông minh, cậu còn hết sức ngoan...",
      "image": null,
      "label": null,
      "display": "text-only",
      "type": "text",
      "enable_detail": true,
      "related": {
        "url": "https://truyenx.link/truyensextv/channels/related/2784",
        "request_headers": []
      },
      "share": {
        "url": "https://truyenx.link/truyensextv/channels/share/chuyen-doi-thanh"
      },
      "remote_data": {
        "url": "https://truyenx.link/truyensextv/channels/chuyen-doi-thanh"
      }
    },
    {
      "id": "2783-channel",
      "name": "Hướng Nhật - Quyển 10",
      "description": "Hoắc tổng, cô vẫn chưa đi ngủ sao? La tỷ trở lại khách sạn Hilton, tiến vào phòng, Hoắc Vãn Tình chưa đi ngủ, nàng vẫn đang ngồi ở phòng khách xem tivi say sưa. Chiều nay đã ngủ...",
      "image": null,
      "label": null,
      "display": "text-only",
      "type": "text",
      "enable_detail": true,
      "related": {
        "url": "https://truyenx.link/truyensextv/channels/related/2783",
        "request_headers": []
      },
      "share": {
        "url": "https://truyenx.link/truyensextv/channels/share/huong-nhat-quyen-10"
      },
      "remote_data": {
        "url": "https://truyenx.link/truyensextv/channels/huong-nhat-quyen-10"
      }
    },
    {
      "id": "2782-channel",
      "name": "Ba tên trộm may mắn",
      "description": "Năm nay tiểu thư Xuân đã tròn 27 tuổi, nàng được sinh ra trong một gia đình giàu có, ba nàng là tổng chủ tịch của một công ty xây dựng và bất động sản khổng lồ rất có tiếng...",
      "image": null,
      "label": null,
      "display": "text-only",
      "type": "text",
      "enable_detail": true,
      "related": {
        "url": "https://truyenx.link/truyensextv/channels/related/2782",
        "request_headers": []
      },
      "share": {
        "url": "https://truyenx.link/truyensextv/channels/share/ba-ten-trom-may-man"
      },
      "remote_data": {
        "url": "https://truyenx.link/truyensextv/channels/ba-ten-trom-may-man"
      }
    },
    {
      "id": "2781-channel",
      "name": "Cháu Quỳnh của tôi",
      "description": "Đầu 2019 tôi thuê 1 cái quán để bán hàng mà thế đéo nào hôm chuyển qua dọn quán gặp ngay đứa đối diện ở gần nhà tôi gọi là Q . Tôi thì tốt tính ai nhờ gì giúp được là...",
      "image": null,
      "label": null,
      "display": "text-only",
      "type": "text",
      "enable_detail": true,
      "related": {
        "url": "https://truyenx.link/truyensextv/channels/related/2781",
        "request_headers": []
      },
      "share": {
        "url": "https://truyenx.link/truyensextv/channels/share/chau-quynh-cua-toi"
      },
      "remote_data": {
        "url": "https://truyenx.link/truyensextv/channels/chau-quynh-cua-toi"
      }
    },
    {
      "id": "2780-channel",
      "name": "Chuyện ba người",
      "description": "Nguyệt kéo tấm rèm che giữa nệm của nàng và 2 cô bạn cùng phòng. Sở dĩ có tấm rèm ngăn cách trong căn phòng trọ của 3 người, là vì Nguyệt thường muốn ngủ sớm lấy sức để...",
      "image": null,
      "label": null,
      "display": "text-only",
      "type": "text",
      "enable_detail": true,
      "related": {
        "url": "https://truyenx.link/truyensextv/channels/related/2780",
        "request_headers": []
      },
      "share": {
        "url": "https://truyenx.link/truyensextv/channels/share/chuyen-ba-nguoi"
      },
      "remote_data": {
        "url": "https://truyenx.link/truyensextv/channels/chuyen-ba-nguoi"
      }
    },
    {
      "id": "2779-channel",
      "name": "Bà Nguyệt ngứa lồn",
      "description": "“Booo... ngggg... booon... gggg...” Tiếng đồng hồ vang lên trong màn đêm làm ông tâm giật mình tỉnh giấc, ngước nhìn đồng hồ với đôi mắt mỏi nhừ, ông thầm nghĩ: Chà mới...",
      "image": null,
      "label": null,
      "display": "text-only",
      "type": "text",
      "enable_detail": true,
      "related": {
        "url": "https://truyenx.link/truyensextv/channels/related/2779",
        "request_headers": []
      },
      "share": {
        "url": "https://truyenx.link/truyensextv/channels/share/ba-nguyet-ngua-lon"
      },
      "remote_data": {
        "url": "https://truyenx.link/truyensextv/channels/ba-nguyet-ngua-lon"
      }
    },
    {
      "id": "2778-channel",
      "name": "Hạnh phúc luôn đi kèm sự ghen tuông",
      "description": "Kể từ ngày được bố đẻ phá trinh khi tôi mới 16 tuổi và bắt đầu được ông âu yếm gọi tôi là vợ thì tôi đã thấy khổ vì ghen tuông với chính mẹ đẻ của mình. Hễ ông kém...",
      "image": null,
      "label": null,
      "display": "text-only",
      "type": "text",
      "enable_detail": true,
      "related": {
        "url": "https://truyenx.link/truyensextv/channels/related/2778",
        "request_headers": []
      },
      "share": {
        "url": "https://truyenx.link/truyensextv/channels/share/hanh-phuc-luon-di-kem-su-ghen-tuong"
      },
      "remote_data": {
        "url": "https://truyenx.link/truyensextv/channels/hanh-phuc-luon-di-kem-su-ghen-tuong"
      }
    },
    {
      "id": "2777-channel",
      "name": "Lan Anh và Hương",
      "description": "Cà vạt anh lại lệch rồi. Nhờ em rồi Hương. Vợ tôi cài lại chiếc khuy một cách dịu dàng. Hướng vẫn xinh đẹp như mọi khi, mỗi sáng thức dậy tôi đều thẩm cảm ơn ông trời...",
      "image": null,
      "label": null,
      "display": "text-only",
      "type": "text",
      "enable_detail": true,
      "related": {
        "url": "https://truyenx.link/truyensextv/channels/related/2777",
        "request_headers": []
      },
      "share": {
        "url": "https://truyenx.link/truyensextv/channels/share/lan-anh-va-huong"
      },
      "remote_data": {
        "url": "https://truyenx.link/truyensextv/channels/lan-anh-va-huong"
      }
    },
    {
      "id": "2776-channel",
      "name": "Dì út Hằng",
      "description": "Dì Tôi * Trời ơi Hằng ơi sao mày dại dột yêu người có gia đình vây để khổ thân, không ba khổ má vậy hả con.* Những lời ồn ào than vãn đập vào tai khi tôi vừa đi học về...",
      "image": null,
      "label": null,
      "display": "text-only",
      "type": "text",
      "enable_detail": true,
      "related": {
        "url": "https://truyenx.link/truyensextv/channels/related/2776",
        "request_headers": []
      },
      "share": {
        "url": "https://truyenx.link/truyensextv/channels/share/di-ut-hang"
      },
      "remote_data": {
        "url": "https://truyenx.link/truyensextv/channels/di-ut-hang"
      }
    },
    {
      "id": "2775-channel",
      "name": "Lần đầu cô bé mút cu tây",
      "description": "Chị em à, lần đầu tiên mình tâm sự trải nghiệm tình dục hết sức táo bạo này để chị em rút kinh nghiệm. Mình vốn là giáo viên dạy toán. Mình đã có gia đình, có hai con gái...",
      "image": null,
      "label": null,
      "display": "text-only",
      "type": "text",
      "enable_detail": true,
      "related": {
        "url": "https://truyenx.link/truyensextv/channels/related/2775",
        "request_headers": []
      },
      "share": {
        "url": "https://truyenx.link/truyensextv/channels/share/lan-dau-co-be-mut-cu-tay"
      },
      "remote_data": {
        "url": "https://truyenx.link/truyensextv/channels/lan-dau-co-be-mut-cu-tay"
      }
    },
    {
      "id": "2774-channel",
      "name": "Thằng con nuôi",
      "description": "Thưa cô chú, con xin phép lên phòng ăn. Ừ, lên đi con... Yuta chạy lên phòng mình sau khi rửa nốt chỗ bát đĩa. Kana nhìn theo vóc dáng của cậu bé, cô nở một nụ cười. Thằng bé có...",
      "image": null,
      "label": null,
      "display": "text-only",
      "type": "text",
      "enable_detail": true,
      "related": {
        "url": "https://truyenx.link/truyensextv/channels/related/2774",
        "request_headers": []
      },
      "share": {
        "url": "https://truyenx.link/truyensextv/channels/share/thang-con-nuoi"
      },
      "remote_data": {
        "url": "https://truyenx.link/truyensextv/channels/thang-con-nuoi"
      }
    },
    {
      "id": "2773-channel",
      "name": "Đụ nát lồn em Linh",
      "description": "Ư ơ... a... ơ... a... nhh... *Phạch* phạch* Ư... ư... ư... Tiếng thở gấp, tiếng phành phạch đều đặn vang lên, được chừng 5 phút thì Khải gồng người bắn từng đợt tinh trùng...",
      "image": null,
      "label": null,
      "display": "text-only",
      "type": "text",
      "enable_detail": true,
      "related": {
        "url": "https://truyenx.link/truyensextv/channels/related/2773",
        "request_headers": []
      },
      "share": {
        "url": "https://truyenx.link/truyensextv/channels/share/du-nat-lon-em-linh"
      },
      "remote_data": {
        "url": "https://truyenx.link/truyensextv/channels/du-nat-lon-em-linh"
      }
    },
    {
      "id": "2772-channel",
      "name": "Xuyên không vào truyện doraemon",
      "description": "Chào mọi người mình là khoa đây nhân vật của truyện cuộc đời tôi bây giờ mình sẽ xuyên không vào nhân vật nobita lúc 15 tuổi trong bộ truyện tuổi chắc hẳn ai cũng từng đọc...",
      "image": null,
      "label": null,
      "display": "text-only",
      "type": "text",
      "enable_detail": true,
      "related": {
        "url": "https://truyenx.link/truyensextv/channels/related/2772",
        "request_headers": []
      },
      "share": {
        "url": "https://truyenx.link/truyensextv/channels/share/xuyen-khong-vao-truyen-doraemon"
      },
      "remote_data": {
        "url": "https://truyenx.link/truyensextv/channels/xuyen-khong-vao-truyen-doraemon"
      }
    },
    {
      "id": "2771-channel",
      "name": "Chiếc điện thoại thần kỳ",
      "description": "Nhìn kìa, thằng Tuấn lại ngủ nữa kìa... Cái thằng này lúc nào cũng chỉ có một mình thôi ấy. Nó lập dị bỏ mẹ ra nên chẳng ai thèm kết bạn. Im đi nào lũ lắm mồm này, tao nghe...",
      "image": null,
      "label": null,
      "display": "text-only",
      "type": "text",
      "enable_detail": true,
      "related": {
        "url": "https://truyenx.link/truyensextv/channels/related/2771",
        "request_headers": []
      },
      "share": {
        "url": "https://truyenx.link/truyensextv/channels/share/chiec-dien-thoai-than-ky"
      },
      "remote_data": {
        "url": "https://truyenx.link/truyensextv/channels/chiec-dien-thoai-than-ky"
      }
    },
    {
      "id": "2770-channel",
      "name": "Làm cộng tác viên của em dâu",
      "description": "Tôi là anh rể trong gia đình, trạc tuổi 42 nhưng được cái nhu cầu sinh lý rất mạnh, từ khi em vợ tôi cưới vợ. Cô em dâu tôi vừa trạc tuổi 31 chênh nhau gần 1 con giáp... nhưng tôi...",
      "image": null,
      "label": null,
      "display": "text-only",
      "type": "text",
      "enable_detail": true,
      "related": {
        "url": "https://truyenx.link/truyensextv/channels/related/2770",
        "request_headers": []
      },
      "share": {
        "url": "https://truyenx.link/truyensextv/channels/share/lam-cong-tac-vien-cua-em-dau"
      },
      "remote_data": {
        "url": "https://truyenx.link/truyensextv/channels/lam-cong-tac-vien-cua-em-dau"
      }
    },
    {
      "id": "2769-channel",
      "name": "Mẹ chồng nàng dâu dâm đãng",
      "description": "Tiếc quá mẹ nhỉ, cả chồng con lẫn bố đều bận việc, cuối cùng chỉ có hai mẹ con mình đi chơi với nhau. Hằng cởi bỏ bộ đồ trên người để mặc lên bộ đồ bơi hai mảnh...",
      "image": null,
      "label": null,
      "display": "text-only",
      "type": "text",
      "enable_detail": true,
      "related": {
        "url": "https://truyenx.link/truyensextv/channels/related/2769",
        "request_headers": []
      },
      "share": {
        "url": "https://truyenx.link/truyensextv/channels/share/me-chong-nang-dau-dam-dang"
      },
      "remote_data": {
        "url": "https://truyenx.link/truyensextv/channels/me-chong-nang-dau-dam-dang"
      }
    }
  ],
  "load_more": {
    "pageInfo": {
      "current_page": 67,
      "last_page": 140,
      "per_page": 30,
      "total": 4188
    },
    "paging": {
      "page_key": "page",
      "size_key": "size"
    },
    "remote_data": {
      "url": "https://truyenx.link/truyensextv/channels"
    }
  }
}