{"grid_number":1,"channels":[{"id":"2455-channel","name":"Cô giáo mầm non dâm đãng","description":"Tú là một chàng trai năm nay 17 tuổi. Ở cái tuổi bẻ gãy sừng trâu. Tò mò tất cả mọi thứ. Tú cũng như bao chàng trai khác. Ở cái tuổi mới lớn. Luôn tò mò và đam mê về tình...","image":null,"label":null,"display":"text-only","type":"text","enable_detail":true,"related":{"url":"https://truyenx.link/truyensextv/channels/related/2455","request_headers":[]},"share":{"url":"https://truyenx.link/truyensextv/channels/share/co-giao-mam-non-dam-dang"},"remote_data":{"url":"https://truyenx.link/truyensextv/channels/co-giao-mam-non-dam-dang"}},{"id":"2454-channel","name":"Thu","description":"Đang ngồi bệt dưới đất vừa học bài giảng văn để sáng mai vô lớp kiểm tra một tiết vừa lấy tay kéo sợi dây cột đầu võng để đong đưa cho thằng Hoạch ngủ thì tôi chợt...","image":null,"label":null,"display":"text-only","type":"text","enable_detail":true,"related":{"url":"https://truyenx.link/truyensextv/channels/related/2454","request_headers":[]},"share":{"url":"https://truyenx.link/truyensextv/channels/share/thu"},"remote_data":{"url":"https://truyenx.link/truyensextv/channels/thu"}},{"id":"2453-channel","name":"Thím của vợ","description":"Mình có vợ 1 năm thì vợ có bầu, bên vợ thì có bà thím vợ nay 36t lớn hơn mình 5t, ông chú vợ chết do tai nạn giao thông để lại thím và đứa con gái 17t. Mình bàn với vợ kêu bã...","image":null,"label":null,"display":"text-only","type":"text","enable_detail":true,"related":{"url":"https://truyenx.link/truyensextv/channels/related/2453","request_headers":[]},"share":{"url":"https://truyenx.link/truyensextv/channels/share/thim-cua-vo"},"remote_data":{"url":"https://truyenx.link/truyensextv/channels/thim-cua-vo"}},{"id":"2452-channel","name":"Cà phê nữ hoàng","description":"Một buổi trưa chủ nhật tốt lành. Cả một tuần dài làm việc mệt mỏi cuối cùng cũng đến ngày chủ nhật. Hoàng có thể khoan khoái thức dậy khi bình minh đã điểm 9h sáng. Thứ...","image":null,"label":null,"display":"text-only","type":"text","enable_detail":true,"related":{"url":"https://truyenx.link/truyensextv/channels/related/2452","request_headers":[]},"share":{"url":"https://truyenx.link/truyensextv/channels/share/ca-phe-nu-hoang"},"remote_data":{"url":"https://truyenx.link/truyensextv/channels/ca-phe-nu-hoang"}},{"id":"2451-channel","name":"Em Trang dâm đãng","description":"Vậy là thằng Tú, đứa con trai của Trang cũng rời xa bố mẹ để ra nước ngoài du học. Vợ chồng Trang có 2 người con, đứa út tên là Thủy 17 tuổi, học rất giỏi nên được học...","image":null,"label":null,"display":"text-only","type":"text","enable_detail":true,"related":{"url":"https://truyenx.link/truyensextv/channels/related/2451","request_headers":[]},"share":{"url":"https://truyenx.link/truyensextv/channels/share/em-trang-dam-dang"},"remote_data":{"url":"https://truyenx.link/truyensextv/channels/em-trang-dam-dang"}},{"id":"2450-channel","name":"Bé Yến dâm đãng","description":"Câu chuyện được kể lại cách đây khoảng chín năm về trước. Vào mùa hè 2012 và bây giờ tôi đã 26 tuổi. Tôi là Minh lúc đó tôi mới được 17 tuổi là học sinh lớp 12, gia đình...","image":null,"label":null,"display":"text-only","type":"text","enable_detail":true,"related":{"url":"https://truyenx.link/truyensextv/channels/related/2450","request_headers":[]},"share":{"url":"https://truyenx.link/truyensextv/channels/share/be-yen-dam-dang"},"remote_data":{"url":"https://truyenx.link/truyensextv/channels/be-yen-dam-dang"}},{"id":"2449-channel","name":"Phá trinh vụng trộm","description":"Năm 2011 2012 mình quen một em còn đi học. Mình thì đã đi làm, do nghỉ hè, em vào công ty mình làm thời vụ, vừa có tiền, vừa vì thích kiểu ham vui. Quen được tầm 1 tháng, cũng nói...","image":null,"label":null,"display":"text-only","type":"text","enable_detail":true,"related":{"url":"https://truyenx.link/truyensextv/channels/related/2449","request_headers":[]},"share":{"url":"https://truyenx.link/truyensextv/channels/share/pha-trinh-vung-trom"},"remote_data":{"url":"https://truyenx.link/truyensextv/channels/pha-trinh-vung-trom"}},{"id":"2448-channel","name":"Không mặc quần lót","description":"Trong cuộc sống của chúng ta, mỗi người đều có một tính cách, sở thích khác nhau. Cái chuyện ăn mặc, diện đồ cũng vậy. Có người không thích mặc váy, có người không thích...","image":null,"label":null,"display":"text-only","type":"text","enable_detail":true,"related":{"url":"https://truyenx.link/truyensextv/channels/related/2448","request_headers":[]},"share":{"url":"https://truyenx.link/truyensextv/channels/share/khong-mac-quan-lot"},"remote_data":{"url":"https://truyenx.link/truyensextv/channels/khong-mac-quan-lot"}},{"id":"2447-channel","name":"Cô gái ấy","description":"Sau một ngày đi học và học thêm vất vả về. Minh 1 cô gái 18 tuổi tràn đầy sức sống cũng rất vất vả và uể oải vì bài vở năm 12 và ôn thi ĐH rất nhiều. Sau khi tắm xong thì...","image":null,"label":null,"display":"text-only","type":"text","enable_detail":true,"related":{"url":"https://truyenx.link/truyensextv/channels/related/2447","request_headers":[]},"share":{"url":"https://truyenx.link/truyensextv/channels/share/co-gai-ay"},"remote_data":{"url":"https://truyenx.link/truyensextv/channels/co-gai-ay"}},{"id":"2446-channel","name":"Hồi ký nữ tù","description":"Chào mọi người! Đắn đo, ấp ủ bao ngày nay mới đủ dũng khí để lập thread để kể về câu chuyện của đời mình. Câu chuyện tù tội vốn cũng chẳng hay ho gì cho lắm nhưng muốn...","image":null,"label":null,"display":"text-only","type":"text","enable_detail":true,"related":{"url":"https://truyenx.link/truyensextv/channels/related/2446","request_headers":[]},"share":{"url":"https://truyenx.link/truyensextv/channels/share/hoi-ky-nu-tu"},"remote_data":{"url":"https://truyenx.link/truyensextv/channels/hoi-ky-nu-tu"}},{"id":"2445-channel","name":"Truyện cấp 3","description":"Phải nói đây là những kỷ niệm khó quên về thời cấp 3 của mình... Đầu tiên là vào lần đốt lửa trại vào năm lớp 12... khi ngọn lửa bùng lên cũng là lúc cả bọn bu lại để...","image":null,"label":null,"display":"text-only","type":"text","enable_detail":true,"related":{"url":"https://truyenx.link/truyensextv/channels/related/2445","request_headers":[]},"share":{"url":"https://truyenx.link/truyensextv/channels/share/truyen-cap-3"},"remote_data":{"url":"https://truyenx.link/truyensextv/channels/truyen-cap-3"}},{"id":"2444-channel","name":"Người vợ đảm đang","description":"Xin chào cả nhà tôi tên Đạt 37 tuổi là nhân viên kinh doanh của cửa hàng ô tô ở tỉnh. Đả cưới vợ được 15 năm và có 2 con trai 14 và 8 tuổi. Vợ tôi tên Linh 33 tuổi mặt đẹp...","image":null,"label":null,"display":"text-only","type":"text","enable_detail":true,"related":{"url":"https://truyenx.link/truyensextv/channels/related/2444","request_headers":[]},"share":{"url":"https://truyenx.link/truyensextv/channels/share/nguoi-vo-dam-dang"},"remote_data":{"url":"https://truyenx.link/truyensextv/channels/nguoi-vo-dam-dang"}},{"id":"2443-channel","name":"Sở thích dâm dục của Nhung","description":"Em là Nhung năm nay 20 em xin kể về sở thích dâm dục của mình... Hồi em còn 18 tuổi em là một người rất ghét mặc đồ lót những lúc không có ai ở nhà em thường không mặc quần banh...","image":null,"label":null,"display":"text-only","type":"text","enable_detail":true,"related":{"url":"https://truyenx.link/truyensextv/channels/related/2443","request_headers":[]},"share":{"url":"https://truyenx.link/truyensextv/channels/share/so-thich-dam-duc-cua-nhung"},"remote_data":{"url":"https://truyenx.link/truyensextv/channels/so-thich-dam-duc-cua-nhung"}},{"id":"2442-channel","name":"Huấn luyện","description":"Em uống nước đi! Dung khẽ nâng chén trà rồi nhấp môi, mắt không rời chàng trai. Trái ngược với chị, Việt khẽ cụp mắt nhấp vội ngụm trà ấm. Chúng ta trao đổi qua chat thế...","image":null,"label":null,"display":"text-only","type":"text","enable_detail":true,"related":{"url":"https://truyenx.link/truyensextv/channels/related/2442","request_headers":[]},"share":{"url":"https://truyenx.link/truyensextv/channels/share/huan-luyen"},"remote_data":{"url":"https://truyenx.link/truyensextv/channels/huan-luyen"}},{"id":"2441-channel","name":"Mẹ bị lão hàng xóm đụ","description":"Tôi là H, là một chàng thanh niên đang độ dậy thì. Mẹ tôi tên là G, một bà nội trợ ngoài 40 tuổi, mặt thì bình thường nhưng body lại cực khủng. Mẹ tôi có mông đít to bự...","image":null,"label":null,"display":"text-only","type":"text","enable_detail":true,"related":{"url":"https://truyenx.link/truyensextv/channels/related/2441","request_headers":[]},"share":{"url":"https://truyenx.link/truyensextv/channels/share/me-bi-lao-hang-xom-du"},"remote_data":{"url":"https://truyenx.link/truyensextv/channels/me-bi-lao-hang-xom-du"}},{"id":"2439-channel","name":"Chuyến đi Châu Âu","description":"Dập vội điếu thuốc đang hút dở, Huy xách chiếc balô và cùng đoàn người lên xe bus. Việc xe đến chậm nửa tiếng so với lịch trình không làm Huy mấy khó chịu hay cụt hứng cho...","image":null,"label":null,"display":"text-only","type":"text","enable_detail":true,"related":{"url":"https://truyenx.link/truyensextv/channels/related/2439","request_headers":[]},"share":{"url":"https://truyenx.link/truyensextv/channels/share/chuyen-di-chau-au"},"remote_data":{"url":"https://truyenx.link/truyensextv/channels/chuyen-di-chau-au"}},{"id":"2440-channel","name":"Bắt cóc bạo dâm","description":"Nó tỉnh dậy trong một căn phòng xa lạ. Trên người nó vẫn nguyên bộ quần áo nó mặc cách đây vài tiếng. Nó không nhớ chính xác chuyện gì đã xảy ra với nó. Nó chỉ nhớ lại khi...","image":null,"label":null,"display":"text-only","type":"text","enable_detail":true,"related":{"url":"https://truyenx.link/truyensextv/channels/related/2440","request_headers":[]},"share":{"url":"https://truyenx.link/truyensextv/channels/share/bat-coc-bao-dam"},"remote_data":{"url":"https://truyenx.link/truyensextv/channels/bat-coc-bao-dam"}},{"id":"2438-channel","name":"Cô giáo dạy thêm","description":"Chuyện là em hồi nhỏ em có được đi học thêm ở nhà một cô giáo tên T. Cô T chỉ mới 39 tuổi thôi nhưng cô đã có 2 đời chồng, cô tuy có một thằng cu 9 tuổi ở theo cha mà nhìn...","image":null,"label":null,"display":"text-only","type":"text","enable_detail":true,"related":{"url":"https://truyenx.link/truyensextv/channels/related/2438","request_headers":[]},"share":{"url":"https://truyenx.link/truyensextv/channels/share/co-giao-day-them"},"remote_data":{"url":"https://truyenx.link/truyensextv/channels/co-giao-day-them"}},{"id":"2437-channel","name":"Bú lồn bé thuê nhà","description":"Lúc sáng ghé căn hộ chung cư cho thuê, tiện mang ít đồ cho 2 đứa ở lại. Căn này mình cho thuê 5 đứa, 3 đứa SV và 2 đã đi làm. Dịch nên mấy đứa SV kia về quê, hôm trước 2 đứa...","image":null,"label":null,"display":"text-only","type":"text","enable_detail":true,"related":{"url":"https://truyenx.link/truyensextv/channels/related/2437","request_headers":[]},"share":{"url":"https://truyenx.link/truyensextv/channels/share/bu-lon-be-thue-nha"},"remote_data":{"url":"https://truyenx.link/truyensextv/channels/bu-lon-be-thue-nha"}},{"id":"2436-channel","name":"Con đường bá chủ - Quyển 6","description":"“Ma Lực sao?” Kim Nhi nhếch miệng, lại lắc đầu: “Hiện tại Tinh Không Long Mã của công tử còn chưa trưởng thành, quá trình biến dị của nó vẫn chưa hoàn chỉnh, vì...","image":null,"label":null,"display":"text-only","type":"text","enable_detail":true,"related":{"url":"https://truyenx.link/truyensextv/channels/related/2436","request_headers":[]},"share":{"url":"https://truyenx.link/truyensextv/channels/share/con-duong-ba-chu-quyen-6"},"remote_data":{"url":"https://truyenx.link/truyensextv/channels/con-duong-ba-chu-quyen-6"}},{"id":"2435-channel","name":"Chuyện tình công sở","description":"Kính gửi Ban giám đốc... Em xin được báo cáo, tường trình với lãnh đạo toàn bộ sự việc xảy ra giữa em và anh Mạnh cùng phòng trong thời gian qua. Mối quan hệ của em với anh Mạnh...","image":null,"label":null,"display":"text-only","type":"text","enable_detail":true,"related":{"url":"https://truyenx.link/truyensextv/channels/related/2435","request_headers":[]},"share":{"url":"https://truyenx.link/truyensextv/channels/share/chuyen-tinh-cong-so"},"remote_data":{"url":"https://truyenx.link/truyensextv/channels/chuyen-tinh-cong-so"}},{"id":"2434-channel","name":"Địt nhau tại nhà bạn","description":"Cuối tuần rảnh rỗi, 2 vợ chồng đều được nghỉ ngơi. Sáng sớm thằng bạn vàng đã alo bảo có làm gì không, sang nhà nó chơi. Mình ậm ờ rồi bảo tý nữa gọi. Mở mắt dậy...","image":null,"label":null,"display":"text-only","type":"text","enable_detail":true,"related":{"url":"https://truyenx.link/truyensextv/channels/related/2434","request_headers":[]},"share":{"url":"https://truyenx.link/truyensextv/channels/share/dit-nhau-tai-nha-ban"},"remote_data":{"url":"https://truyenx.link/truyensextv/channels/dit-nhau-tai-nha-ban"}},{"id":"2433-channel","name":"Đụ con bạn thân","description":"Đầu tiên thì nói sao nhỉ, chuyện này xảy ra cũng cách đây 3 năm rồi và hiện tại do 2 đứa có bồ hết rồi nên cũng không chịch nhau như trước nữa. Cũng nhân cái lần đầu 2 đứa...","image":null,"label":null,"display":"text-only","type":"text","enable_detail":true,"related":{"url":"https://truyenx.link/truyensextv/channels/related/2433","request_headers":[]},"share":{"url":"https://truyenx.link/truyensextv/channels/share/du-con-ban-than"},"remote_data":{"url":"https://truyenx.link/truyensextv/channels/du-con-ban-than"}},{"id":"2432-channel","name":"Hoành Sơn Ký","description":"Phan Nhật Hoành Sơn, 18 tuổi, đang theo học trường THPT chuyên Damde. Mồ côi mẹ, cha là Phan Nhật Vinh, một thương nhân giàu có. Là con lai hai dòng máu Việt và Nga, bởi vậy hắn vô cùng...","image":null,"label":null,"display":"text-only","type":"text","enable_detail":true,"related":{"url":"https://truyenx.link/truyensextv/channels/related/2432","request_headers":[]},"share":{"url":"https://truyenx.link/truyensextv/channels/share/hoanh-son-ky"},"remote_data":{"url":"https://truyenx.link/truyensextv/channels/hoanh-son-ky"}},{"id":"2431-channel","name":"Sờ soạng con em họ","description":"Giới thiệu với mọi người tôi tên Q sinh ra và lớn lên tại một vùng quê, hôm nay tôi sẽ kể lại câu chuyện của tôi được bóp mông con em họ tôi không biết văn vở gì cho câu...","image":null,"label":null,"display":"text-only","type":"text","enable_detail":true,"related":{"url":"https://truyenx.link/truyensextv/channels/related/2431","request_headers":[]},"share":{"url":"https://truyenx.link/truyensextv/channels/share/so-soang-con-em-ho"},"remote_data":{"url":"https://truyenx.link/truyensextv/channels/so-soang-con-em-ho"}},{"id":"2430-channel","name":"Cải tạo bà dì thành bồn chứa tinh","description":"Tôi năm nay 16 tuổi rồi, tính tôi không ngoan cũng không hư, tôi thì lại rất hiểu chuyện từ nhỏ nên việc ba mẹ tôi thường xuyên ra ngoài làm ăn xa để lo cho gia đình cũng là...","image":null,"label":null,"display":"text-only","type":"text","enable_detail":true,"related":{"url":"https://truyenx.link/truyensextv/channels/related/2430","request_headers":[]},"share":{"url":"https://truyenx.link/truyensextv/channels/share/cai-tao-ba-di-thanh-bon-chua-tinh"},"remote_data":{"url":"https://truyenx.link/truyensextv/channels/cai-tao-ba-di-thanh-bon-chua-tinh"}},{"id":"2429-channel","name":"Dickgirl","description":"Tôi là Thu Hương, một cô gái 17 tuổi và là một dân chơi less cùng với một cô bạn cùng khối là Thúy An. Do tôi đã từng đổ vỡ trong tình yêu nên không còn thiết tha gì bọn con trai...","image":null,"label":null,"display":"text-only","type":"text","enable_detail":true,"related":{"url":"https://truyenx.link/truyensextv/channels/related/2429","request_headers":[]},"share":{"url":"https://truyenx.link/truyensextv/channels/share/dickgirl"},"remote_data":{"url":"https://truyenx.link/truyensextv/channels/dickgirl"}},{"id":"2428-channel","name":"Cỏ dại ven đường","description":"Duyên nợ Cuộc đời mỗi người trong chúng ta đều là một câu chuyện. Có điểm chung, cũng không ít sự khác biệt. Người ta nói nên trải qua sóng gió thì mới thấm thía hiểu hết ý...","image":null,"label":null,"display":"text-only","type":"text","enable_detail":true,"related":{"url":"https://truyenx.link/truyensextv/channels/related/2428","request_headers":[]},"share":{"url":"https://truyenx.link/truyensextv/channels/share/co-dai-ven-duong"},"remote_data":{"url":"https://truyenx.link/truyensextv/channels/co-dai-ven-duong"}},{"id":"2427-channel","name":"Thiên đường thành thị","description":"Nó nhìn theo bóng mẹ nó xa dần mà như muốn khóc. Vậy là nó phải xa mẹ thật rồi. Nhà nó nghèo quá, sống giữa vùng chiêm trũng quanh năm chỉ biết chăn trâu, cấy lúa cũng chỉ đủ...","image":null,"label":null,"display":"text-only","type":"text","enable_detail":true,"related":{"url":"https://truyenx.link/truyensextv/channels/related/2427","request_headers":[]},"share":{"url":"https://truyenx.link/truyensextv/channels/share/thien-duong-thanh-thi"},"remote_data":{"url":"https://truyenx.link/truyensextv/channels/thien-duong-thanh-thi"}},{"id":"2426-channel","name":"Lan và Điệp","description":"Tôi và em là 2 anh em họ. Tôi tên Đ. Ba em là cậu ruột của tôi. Tôi hơn em 6 tuổi. Từ nhỏ chúng tôi rất ít tiếp xúc, vì tôi là 1 thằng ăn chơi thích rượu và thuốc lá, còn em thì...","image":null,"label":null,"display":"text-only","type":"text","enable_detail":true,"related":{"url":"https://truyenx.link/truyensextv/channels/related/2426","request_headers":[]},"share":{"url":"https://truyenx.link/truyensextv/channels/share/lan-va-diep"},"remote_data":{"url":"https://truyenx.link/truyensextv/channels/lan-va-diep"}}],"load_more":{"pageInfo":{"current_page":10,"last_page":140,"per_page":30,"total":4188},"paging":{"page_key":"page","size_key":"size"},"remote_data":{"url":"https://truyenx.link/truyensextv/channels"}}}