{
  "grid_number": 1,
  "channels": [
    {
      "id": "618-channel",
      "name": "Mẹ mút cặc cho con",
      "description": "Hoa vẫn hồng trước sân nhà tôi. Chim vẫn hót sau vườn nhà tôi. Giọt nắng bâng khuâng. Giọt nắng rơi rơi bền thềm. Bài hát bâng khuâng. Bài hát mang bao kỷ niệm, những ngày đã...",
      "image": null,
      "label": null,
      "display": "text-only",
      "type": "text",
      "enable_detail": true,
      "related": {
        "url": "https://truyenx.link/truyensextv/channels/related/618",
        "request_headers": []
      },
      "share": {
        "url": "https://truyenx.link/truyensextv/channels/share/me-mut-cac-cho-con"
      },
      "remote_data": {
        "url": "https://truyenx.link/truyensextv/channels/me-mut-cac-cho-con"
      }
    },
    {
      "id": "617-channel",
      "name": "Làm tình với người yêu nhất",
      "description": "Đến giờ em vẫn năm mơ thấy anh, dù đã 7 năm rồi không gặp lại. Làm tình với anh là thích nhất, anh mạnh mẽ, lạnh lùng và rất là sướng, thỏa mãn khi ngủ với anh. Vì thế đến...",
      "image": null,
      "label": null,
      "display": "text-only",
      "type": "text",
      "enable_detail": true,
      "related": {
        "url": "https://truyenx.link/truyensextv/channels/related/617",
        "request_headers": []
      },
      "share": {
        "url": "https://truyenx.link/truyensextv/channels/share/lam-tinh-voi-nguoi-yeu-nhat"
      },
      "remote_data": {
        "url": "https://truyenx.link/truyensextv/channels/lam-tinh-voi-nguoi-yeu-nhat"
      }
    },
    {
      "id": "616-channel",
      "name": "Lấy đĩ về làm vợ",
      "description": "3 nó xin phép thủ trưởng cho nghỉ hai ngày để về nhà, nói là có việc chứ mục đích chính là để về thăm người yêu. Ông Thái bố nó đang ngồi phòng khách, có vẻ như ông biết...",
      "image": null,
      "label": null,
      "display": "text-only",
      "type": "text",
      "enable_detail": true,
      "related": {
        "url": "https://truyenx.link/truyensextv/channels/related/616",
        "request_headers": []
      },
      "share": {
        "url": "https://truyenx.link/truyensextv/channels/share/lay-di-ve-lam-vo"
      },
      "remote_data": {
        "url": "https://truyenx.link/truyensextv/channels/lay-di-ve-lam-vo"
      }
    },
    {
      "id": "615-channel",
      "name": "Yêu người IQ cao",
      "description": "Tôi cực lực phản đối cách giáo dục của những ông bố bà mẹ khi luôn coi con mình là nhất. Tỷ như bố mẹ tôi, Từ bé tôi đã được bố mẹ nhồi nhét vào đầu rằng thì là tôi...",
      "image": null,
      "label": null,
      "display": "text-only",
      "type": "text",
      "enable_detail": true,
      "related": {
        "url": "https://truyenx.link/truyensextv/channels/related/615",
        "request_headers": []
      },
      "share": {
        "url": "https://truyenx.link/truyensextv/channels/share/yeu-nguoi-iq-cao"
      },
      "remote_data": {
        "url": "https://truyenx.link/truyensextv/channels/yeu-nguoi-iq-cao"
      }
    },
    {
      "id": "614-channel",
      "name": "Địt em trong xóm trọ",
      "description": "Cảnh xóm trọ thì cũng quen em, nói chuyện bình thường, chỉ ấn tượng ban đầu là em khá nhỏ nhắn, xinh xắn, hàm răng trắng và cười tươi, tuy nhiên body thì cũng không được ngon...",
      "image": null,
      "label": null,
      "display": "text-only",
      "type": "text",
      "enable_detail": true,
      "related": {
        "url": "https://truyenx.link/truyensextv/channels/related/614",
        "request_headers": []
      },
      "share": {
        "url": "https://truyenx.link/truyensextv/channels/share/dit-em-trong-xom-tro"
      },
      "remote_data": {
        "url": "https://truyenx.link/truyensextv/channels/dit-em-trong-xom-tro"
      }
    },
    {
      "id": "613-channel",
      "name": "Chị vợ dâm đãng",
      "description": "Tôi lấy vợ được 6 năm và cũng có 1 cháu.. Tôi năm nay 30 vợ thì 26, chị vợ tôi năm nay 29, chị lấy chồng và thôi chồng đã 2 năm nay cũng được 1 cháu trai. Nhà chị vợ tôi trong...",
      "image": null,
      "label": null,
      "display": "text-only",
      "type": "text",
      "enable_detail": true,
      "related": {
        "url": "https://truyenx.link/truyensextv/channels/related/613",
        "request_headers": []
      },
      "share": {
        "url": "https://truyenx.link/truyensextv/channels/share/chi-vo-dam-dang"
      },
      "remote_data": {
        "url": "https://truyenx.link/truyensextv/channels/chi-vo-dam-dang"
      }
    },
    {
      "id": "612-channel",
      "name": "Đụ nhau với bố và ông nội",
      "description": "Cách đây vài hôm, mẹ phát hiện bố tôi đang địt 1 đứa con gái 20 tuổi, bằng tuổi tôi ở trong nhà của chúng tôi. Mẹ đi công tác về bất chợt nên đã phát hiện ra điều đó. Tôi...",
      "image": null,
      "label": null,
      "display": "text-only",
      "type": "text",
      "enable_detail": true,
      "related": {
        "url": "https://truyenx.link/truyensextv/channels/related/612",
        "request_headers": []
      },
      "share": {
        "url": "https://truyenx.link/truyensextv/channels/share/du-nhau-voi-bo-va-ong-noi"
      },
      "remote_data": {
        "url": "https://truyenx.link/truyensextv/channels/du-nhau-voi-bo-va-ong-noi"
      }
    },
    {
      "id": "611-channel",
      "name": "Loạn luân với chị em họ",
      "description": "Hồi đó tôi là 1 thằng con trai 14, 15 tuổi gì đó. Đầu truyện phải nói hơi dài về gia đình tôi nên các bạn đừng sốt ruột nhé. Ông nội tôi có 4 người con là 2 bác của tôi, bố...",
      "image": null,
      "label": null,
      "display": "text-only",
      "type": "text",
      "enable_detail": true,
      "related": {
        "url": "https://truyenx.link/truyensextv/channels/related/611",
        "request_headers": []
      },
      "share": {
        "url": "https://truyenx.link/truyensextv/channels/share/loan-luan-voi-chi-em-ho"
      },
      "remote_data": {
        "url": "https://truyenx.link/truyensextv/channels/loan-luan-voi-chi-em-ho"
      }
    },
    {
      "id": "610-channel",
      "name": "Ngày thứ 7",
      "description": "5h30 sáng thứ 7. Như thường lệ, bản nhạc báo thức nhẹ nhàng bắt đầu được phát ra từ chiếc điện thoại đặt đầu giường. Với tay tắt vội vì sợ ảnh hưởng đến giấc...",
      "image": null,
      "label": null,
      "display": "text-only",
      "type": "text",
      "enable_detail": true,
      "related": {
        "url": "https://truyenx.link/truyensextv/channels/related/610",
        "request_headers": []
      },
      "share": {
        "url": "https://truyenx.link/truyensextv/channels/share/ngay-thu-7"
      },
      "remote_data": {
        "url": "https://truyenx.link/truyensextv/channels/ngay-thu-7"
      }
    },
    {
      "id": "609-channel",
      "name": "Con bạn cùng lớp vú to",
      "description": "Đầu tiên xin giới thiệu em tên là Nghĩa, 16 tuổi và đang học lớp 10 tại Cần Thơ ạ. Cũng là lần đầu viết truyện nên cũng không hay lắm mong anh em đồng râm thông cảm ạ. Thôi...",
      "image": null,
      "label": null,
      "display": "text-only",
      "type": "text",
      "enable_detail": true,
      "related": {
        "url": "https://truyenx.link/truyensextv/channels/related/609",
        "request_headers": []
      },
      "share": {
        "url": "https://truyenx.link/truyensextv/channels/share/con-ban-cung-lop-vu-to"
      },
      "remote_data": {
        "url": "https://truyenx.link/truyensextv/channels/con-ban-cung-lop-vu-to"
      }
    },
    {
      "id": "608-channel",
      "name": "Người tình không tên 2",
      "description": "Chào em và tạm biệt em... Người lạ, người tình ngắn ngủi. Xa nhà, mọi thứ xung quanh giường như lạ lẫm với anh, từng con đường, từng ngôi nhà, cùng dòng người qua lại đông...",
      "image": null,
      "label": null,
      "display": "text-only",
      "type": "text",
      "enable_detail": true,
      "related": {
        "url": "https://truyenx.link/truyensextv/channels/related/608",
        "request_headers": []
      },
      "share": {
        "url": "https://truyenx.link/truyensextv/channels/share/nguoi-tinh-khong-ten-2"
      },
      "remote_data": {
        "url": "https://truyenx.link/truyensextv/channels/nguoi-tinh-khong-ten-2"
      }
    },
    {
      "id": "607-channel",
      "name": "Nỗi nhớ",
      "description": "3 năm... Cho 1 nỗi nhớ quá dài. Đây là lần đầu tiên em nói về anh, kể về quãng thời gian ít ỏi ta dành cho nhau. Em gọi anh là Mập, còn em là Đen... Có 1 sự lý giải rất đơn giản...",
      "image": null,
      "label": null,
      "display": "text-only",
      "type": "text",
      "enable_detail": true,
      "related": {
        "url": "https://truyenx.link/truyensextv/channels/related/607",
        "request_headers": []
      },
      "share": {
        "url": "https://truyenx.link/truyensextv/channels/share/noi-nho"
      },
      "remote_data": {
        "url": "https://truyenx.link/truyensextv/channels/noi-nho"
      }
    },
    {
      "id": "606-channel",
      "name": "Người tình không tên",
      "description": "Nhá nhem tối, trong một con hẻm của những người dân lao động, cảnh vật thật tĩnh lặng, không ồn ào, nhộn nhịp như những nơi khác, chỉ có tiếng muỗi, tiếng nước chảy, lâu...",
      "image": null,
      "label": null,
      "display": "text-only",
      "type": "text",
      "enable_detail": true,
      "related": {
        "url": "https://truyenx.link/truyensextv/channels/related/606",
        "request_headers": []
      },
      "share": {
        "url": "https://truyenx.link/truyensextv/channels/share/nguoi-tinh-khong-ten"
      },
      "remote_data": {
        "url": "https://truyenx.link/truyensextv/channels/nguoi-tinh-khong-ten"
      }
    },
    {
      "id": "605-channel",
      "name": "Hai đứa bạn thân",
      "description": "Long cầm mấy điếu thuốc vinataba vừa mua được tận ngoài ngõ rồi đi nhanh về nhà thằng Dũng vì sợ nó đợi lâu. Hai thằng gần nhà nhau, chơi thân với nhau từ hồi học cấp hai...",
      "image": null,
      "label": null,
      "display": "text-only",
      "type": "text",
      "enable_detail": true,
      "related": {
        "url": "https://truyenx.link/truyensextv/channels/related/605",
        "request_headers": []
      },
      "share": {
        "url": "https://truyenx.link/truyensextv/channels/share/hai-dua-ban-than"
      },
      "remote_data": {
        "url": "https://truyenx.link/truyensextv/channels/hai-dua-ban-than"
      }
    },
    {
      "id": "604-channel",
      "name": "Cô vợ thích bạo dâm",
      "description": "Giới thiệu với anh em trên truyensextv2.cc , tui tên Hùng, đang làm bảo vệ cho một công ty điện tử ở quận 3, với 1 thằng con trai 20 tuổi lực lưỡng như tui thì lương 2,5 triệu 1 tháng...",
      "image": null,
      "label": null,
      "display": "text-only",
      "type": "text",
      "enable_detail": true,
      "related": {
        "url": "https://truyenx.link/truyensextv/channels/related/604",
        "request_headers": []
      },
      "share": {
        "url": "https://truyenx.link/truyensextv/channels/share/co-vo-thich-bao-dam"
      },
      "remote_data": {
        "url": "https://truyenx.link/truyensextv/channels/co-vo-thich-bao-dam"
      }
    },
    {
      "id": "603-channel",
      "name": "Bé giúp việc",
      "description": "Chuyện bắt đầu từ khi ông con nhà mình sinh nhật 1 tuổi, bà nội không trông được cháu nên vợ bàn thuê osin, mình OK ngay, chuyện đàn bà cho vợ nó tự quyết đinh. Tối hôm đó, như...",
      "image": null,
      "label": null,
      "display": "text-only",
      "type": "text",
      "enable_detail": true,
      "related": {
        "url": "https://truyenx.link/truyensextv/channels/related/603",
        "request_headers": []
      },
      "share": {
        "url": "https://truyenx.link/truyensextv/channels/share/be-giup-viec"
      },
      "remote_data": {
        "url": "https://truyenx.link/truyensextv/channels/be-giup-viec"
      }
    },
    {
      "id": "602-channel",
      "name": "Nghề chăn gái - Quyển 2",
      "description": "Như mọi người đã đọc kết thúc của Quyển 1 Nghề chăn gái. Quán tôi bị đập, nhân viên thì bỏ về gần hết. Dung mama xin về cũng không quay lại nữa. Chị em Trang Linh nói về...",
      "image": null,
      "label": null,
      "display": "text-only",
      "type": "text",
      "enable_detail": true,
      "related": {
        "url": "https://truyenx.link/truyensextv/channels/related/602",
        "request_headers": []
      },
      "share": {
        "url": "https://truyenx.link/truyensextv/channels/share/nghe-chan-gai-quyen-2"
      },
      "remote_data": {
        "url": "https://truyenx.link/truyensextv/channels/nghe-chan-gai-quyen-2"
      }
    },
    {
      "id": "601-channel",
      "name": "Trộm tình",
      "description": "Là hàng xóm với nhau từ nhỏ, chị em tôi rất thân thiết với nhau. Chị thích cái tính vui vẻ của tôi, coi tôi như em trai vậy. Chị có cái dáng cao ráo nuột nà, sau đi lấy chòng sinh...",
      "image": null,
      "label": null,
      "display": "text-only",
      "type": "text",
      "enable_detail": true,
      "related": {
        "url": "https://truyenx.link/truyensextv/channels/related/601",
        "request_headers": []
      },
      "share": {
        "url": "https://truyenx.link/truyensextv/channels/share/trom-tinh"
      },
      "remote_data": {
        "url": "https://truyenx.link/truyensextv/channels/trom-tinh"
      }
    },
    {
      "id": "600-channel",
      "name": "Những phút thỏa mãn ngắn ngủi",
      "description": "Những ngày cuối năm, tôi hay lang thang một mình ngoài đường phố Sài Gòn. Chuyện học hành cũng đã tạm rảnh rổi, mỗi tuần lên lớp vài buổi, còn lại thời gian ở nhà chỉ biết...",
      "image": null,
      "label": null,
      "display": "text-only",
      "type": "text",
      "enable_detail": true,
      "related": {
        "url": "https://truyenx.link/truyensextv/channels/related/600",
        "request_headers": []
      },
      "share": {
        "url": "https://truyenx.link/truyensextv/channels/share/nhung-phut-thoa-man-ngan-ngui"
      },
      "remote_data": {
        "url": "https://truyenx.link/truyensextv/channels/nhung-phut-thoa-man-ngan-ngui"
      }
    },
    {
      "id": "599-channel",
      "name": "Câu chuyện của một con điếm",
      "description": "Cách đây khoảng 6 tháng, trong một lần gặp lại đám bạn cũ hồi cấp 3, bọn em đã rủ nhau đi ăn nhậu hát hò. Sau chầu nhậu hôm đó, em, thằng Vinh và thằng Bình đánh tẻ đi thêm...",
      "image": null,
      "label": null,
      "display": "text-only",
      "type": "text",
      "enable_detail": true,
      "related": {
        "url": "https://truyenx.link/truyensextv/channels/related/599",
        "request_headers": []
      },
      "share": {
        "url": "https://truyenx.link/truyensextv/channels/share/cau-chuyen-cua-mot-con-diem"
      },
      "remote_data": {
        "url": "https://truyenx.link/truyensextv/channels/cau-chuyen-cua-mot-con-diem"
      }
    },
    {
      "id": "598-channel",
      "name": "Học sinh chuyển trường",
      "description": "Bắt đầu với nhân vật chính nhé: I am Nó Nó tên Nguyễn Mạnh Toàn, sinh ra và lớn lên ở một miền quê Trung du miền núi Bắc Bộ Bắc Giang chính là quê nó, cái tên gắn liền với...",
      "image": null,
      "label": null,
      "display": "text-only",
      "type": "text",
      "enable_detail": true,
      "related": {
        "url": "https://truyenx.link/truyensextv/channels/related/598",
        "request_headers": []
      },
      "share": {
        "url": "https://truyenx.link/truyensextv/channels/share/hoc-sinh-chuyen-truong"
      },
      "remote_data": {
        "url": "https://truyenx.link/truyensextv/channels/hoc-sinh-chuyen-truong"
      }
    },
    {
      "id": "597-channel",
      "name": "Chim em đẹp lắm",
      "description": "Tôi đang đứng chờ xe buýt công ty để đến khách sạn. Công ty nói sẽ mướn xe buýt lớn hạng sang chỉ có 25 chỗ ngồi rộng rãi để rước nhiều người vì khách sạn không có chỗ...",
      "image": null,
      "label": null,
      "display": "text-only",
      "type": "text",
      "enable_detail": true,
      "related": {
        "url": "https://truyenx.link/truyensextv/channels/related/597",
        "request_headers": []
      },
      "share": {
        "url": "https://truyenx.link/truyensextv/channels/share/chim-em-dep-lam"
      },
      "remote_data": {
        "url": "https://truyenx.link/truyensextv/channels/chim-em-dep-lam"
      }
    },
    {
      "id": "596-channel",
      "name": "Băng trộm biến thái",
      "description": "Trong một căn phòng khách sạn, có ba người đàn ông và một cô gái trẻ đẹp đang hưng phấn khoái chí trên chiếc giường lớn đặt giữa phòng. “Ha ha, xem hàng của ta đây…!” Gã...",
      "image": null,
      "label": null,
      "display": "text-only",
      "type": "text",
      "enable_detail": true,
      "related": {
        "url": "https://truyenx.link/truyensextv/channels/related/596",
        "request_headers": []
      },
      "share": {
        "url": "https://truyenx.link/truyensextv/channels/share/bang-trom-bien-thai"
      },
      "remote_data": {
        "url": "https://truyenx.link/truyensextv/channels/bang-trom-bien-thai"
      }
    },
    {
      "id": "595-channel",
      "name": "Trả nợ bằng thân xác",
      "description": "Cái vật dài, cứng như thanh sắt ấy đi vào trong chị nhanh, sâu như một như một mũi khoan chọc thủng ý thức cuối cùng của chị. Cái thứ 2 chạm vào môi chị, đi dần vào cuống...",
      "image": null,
      "label": null,
      "display": "text-only",
      "type": "text",
      "enable_detail": true,
      "related": {
        "url": "https://truyenx.link/truyensextv/channels/related/595",
        "request_headers": []
      },
      "share": {
        "url": "https://truyenx.link/truyensextv/channels/share/tra-no-bang-than-xac"
      },
      "remote_data": {
        "url": "https://truyenx.link/truyensextv/channels/tra-no-bang-than-xac"
      }
    },
    {
      "id": "594-channel",
      "name": "Vợ ơi, đừng đi",
      "description": "“A... a... đã quá anh ơi...” “Hừ... hừ... anh cũng sướng lắm... em là người tuyệt vời nhất trên trái đất này... Phượng ơi... !” Người đàn ông rên hừ hừ khi đang hoan lạc...",
      "image": null,
      "label": null,
      "display": "text-only",
      "type": "text",
      "enable_detail": true,
      "related": {
        "url": "https://truyenx.link/truyensextv/channels/related/594",
        "request_headers": []
      },
      "share": {
        "url": "https://truyenx.link/truyensextv/channels/share/vo-oi-dung-di"
      },
      "remote_data": {
        "url": "https://truyenx.link/truyensextv/channels/vo-oi-dung-di"
      }
    },
    {
      "id": "593-channel",
      "name": "Phá trinh chị Linh",
      "description": "Tôi sinh ra ở một nơi mà gọi là làng quê thì không phải mà gọi là thành phố cũng không đúng. Nói chung là một nơi không quá khó khăn nhưng cũng chẳng giàu có gì. Nói vậy để bạn...",
      "image": null,
      "label": null,
      "display": "text-only",
      "type": "text",
      "enable_detail": true,
      "related": {
        "url": "https://truyenx.link/truyensextv/channels/related/593",
        "request_headers": []
      },
      "share": {
        "url": "https://truyenx.link/truyensextv/channels/share/pha-trinh-chi-linh"
      },
      "remote_data": {
        "url": "https://truyenx.link/truyensextv/channels/pha-trinh-chi-linh"
      }
    },
    {
      "id": "592-channel",
      "name": "Cô vợ ngoại tình",
      "description": "Tôi núp trong tủ quần áo, nghe thấy và nhìn thấy hết toàn bộ cảnh ngoại tình của vợ mình với anh hàng xóm. Xài bao đi anh, hôm nay em không có uống thuốc. Không sao đâu em, anh rút ra...",
      "image": null,
      "label": null,
      "display": "text-only",
      "type": "text",
      "enable_detail": true,
      "related": {
        "url": "https://truyenx.link/truyensextv/channels/related/592",
        "request_headers": []
      },
      "share": {
        "url": "https://truyenx.link/truyensextv/channels/share/co-vo-ngoai-tinh"
      },
      "remote_data": {
        "url": "https://truyenx.link/truyensextv/channels/co-vo-ngoai-tinh"
      }
    },
    {
      "id": "591-channel",
      "name": "Từ trinh nữ thành dâm nữ",
      "description": "Tôi quen em khi tôi làm phụ bếp còn em thì xin vào làm phục vụ. Thỉnh thoảng củng hay chọc em, có lần em vừa vào bếp đưa phiếu thì tôi lấy con chuột hù cái em khóc la...",
      "image": null,
      "label": null,
      "display": "text-only",
      "type": "text",
      "enable_detail": true,
      "related": {
        "url": "https://truyenx.link/truyensextv/channels/related/591",
        "request_headers": []
      },
      "share": {
        "url": "https://truyenx.link/truyensextv/channels/share/tu-trinh-nu-thanh-dam-nu"
      },
      "remote_data": {
        "url": "https://truyenx.link/truyensextv/channels/tu-trinh-nu-thanh-dam-nu"
      }
    },
    {
      "id": "590-channel",
      "name": "Sưu tầm",
      "description": "“Lê Hoàng Minh, nếu cậu cứ cứng đầu thì tội sẽ nặng hơn. Hãy khai báo thành khẩn, sẽ được khoan hồng.” Viên cảnh sát lấy lời khai nói câu này lần thứ 4...",
      "image": null,
      "label": null,
      "display": "text-only",
      "type": "text",
      "enable_detail": true,
      "related": {
        "url": "https://truyenx.link/truyensextv/channels/related/590",
        "request_headers": []
      },
      "share": {
        "url": "https://truyenx.link/truyensextv/channels/share/suu-tam"
      },
      "remote_data": {
        "url": "https://truyenx.link/truyensextv/channels/suu-tam"
      }
    },
    {
      "id": "589-channel",
      "name": "Hà Nội trở lạnh",
      "description": "Em xin chào tất cả các cô, các chú, các bác, các anh, các chị và các bạn đồng dâm trên TruyệnSex.Tv. Hôm nay Hà Nội trở lạnh nên mình quyết định cùng gấu yêu làm lại quả mây...",
      "image": null,
      "label": null,
      "display": "text-only",
      "type": "text",
      "enable_detail": true,
      "related": {
        "url": "https://truyenx.link/truyensextv/channels/related/589",
        "request_headers": []
      },
      "share": {
        "url": "https://truyenx.link/truyensextv/channels/share/ha-noi-tro-lanh"
      },
      "remote_data": {
        "url": "https://truyenx.link/truyensextv/channels/ha-noi-tro-lanh"
      }
    }
  ],
  "load_more": {
    "pageInfo": {
      "current_page": 120,
      "last_page": 140,
      "per_page": 30,
      "total": 4188
    },
    "paging": {
      "page_key": "page",
      "size_key": "size"
    },
    "remote_data": {
      "url": "https://truyenx.link/truyensextv/channels"
    }
  }
}