{
  "grid_number": 1,
  "channels": [
    {
      "id": "918-channel",
      "name": "Địt chị dâu con bạn thân",
      "description": "Chẳng là thế này, ngày xưa em có thích con bạn em, nhưng do cái duyên cái số nên không có thành quả, mà là bạn thân nên mình cũng không làm gì cả, tình cảm trong sáng lành mạnh. Nó...",
      "image": null,
      "label": null,
      "display": "text-only",
      "type": "text",
      "enable_detail": true,
      "related": {
        "url": "https://truyenx.link/truyensextv/channels/related/918",
        "request_headers": []
      },
      "share": {
        "url": "https://truyenx.link/truyensextv/channels/share/dit-chi-dau-con-ban-than"
      },
      "remote_data": {
        "url": "https://truyenx.link/truyensextv/channels/dit-chi-dau-con-ban-than"
      }
    },
    {
      "id": "917-channel",
      "name": "Chị giúp việc dâm đãng",
      "description": "Ba mẹ mình đi làm miết nên thuê chị giúp việc về để tiện chăm sóc mình và làm việc nhà, chị năm nay 30 tuổi, đã có chồng, nhìn chị thì cũng xinh, đặc biệt mông to và vú cũng...",
      "image": null,
      "label": null,
      "display": "text-only",
      "type": "text",
      "enable_detail": true,
      "related": {
        "url": "https://truyenx.link/truyensextv/channels/related/917",
        "request_headers": []
      },
      "share": {
        "url": "https://truyenx.link/truyensextv/channels/share/chi-giup-viec-dam-dang"
      },
      "remote_data": {
        "url": "https://truyenx.link/truyensextv/channels/chi-giup-viec-dam-dang"
      }
    },
    {
      "id": "916-channel",
      "name": "Ỷ thiên đồ long ký - Quyển 3",
      "description": "Mơ màng trong đám sương mù mông trung, Trương Siêu Quần cảm thấy thân thể mình không còn phân biệt rõ ràng lắm, tay chân không nhúc nhích, quá mức quỷ dị, một tia chớp đánh xuống...",
      "image": null,
      "label": null,
      "display": "text-only",
      "type": "text",
      "enable_detail": true,
      "related": {
        "url": "https://truyenx.link/truyensextv/channels/related/916",
        "request_headers": []
      },
      "share": {
        "url": "https://truyenx.link/truyensextv/channels/share/y-thien-do-long-ky-quyen-3"
      },
      "remote_data": {
        "url": "https://truyenx.link/truyensextv/channels/y-thien-do-long-ky-quyen-3"
      }
    },
    {
      "id": "915-channel",
      "name": "Được chịch lần đầu",
      "description": "Xin chào các bác, mình xin kể về câu chuyện của mình, lúc mình được chịch đầu tiên vào năm 15 tuổi... Người mình được chịch đó là chị hàng xóm cách nhà mình không xa và là...",
      "image": null,
      "label": null,
      "display": "text-only",
      "type": "text",
      "enable_detail": true,
      "related": {
        "url": "https://truyenx.link/truyensextv/channels/related/915",
        "request_headers": []
      },
      "share": {
        "url": "https://truyenx.link/truyensextv/channels/share/duoc-chich-lan-dau"
      },
      "remote_data": {
        "url": "https://truyenx.link/truyensextv/channels/duoc-chich-lan-dau"
      }
    },
    {
      "id": "914-channel",
      "name": "Hành trình tình ái",
      "description": "“Sau đêm nay... anh sẽ về nước...” tôi dịu dàng vuốt ve mái tóc nàng rồi nhỏ giọng. “Lúc nào anh quay trở lại đây?” Nàng như giận dỗi, dúi dúi mặt vào ngực...",
      "image": null,
      "label": null,
      "display": "text-only",
      "type": "text",
      "enable_detail": true,
      "related": {
        "url": "https://truyenx.link/truyensextv/channels/related/914",
        "request_headers": []
      },
      "share": {
        "url": "https://truyenx.link/truyensextv/channels/share/hanh-trinh-tinh-ai"
      },
      "remote_data": {
        "url": "https://truyenx.link/truyensextv/channels/hanh-trinh-tinh-ai"
      }
    },
    {
      "id": "913-channel",
      "name": "Em tiếp viên Karaoke",
      "description": "Mình có câu chuyện muốn chia sẻ với anh em trên truyensextv2.cc. Chẳng là cứ nhậu nhẹt xong là mấy thằng rủ nhau đi hát, vào Top One , hôm đầu đi rủ cả tụi con gái đi cùng. Đến...",
      "image": null,
      "label": null,
      "display": "text-only",
      "type": "text",
      "enable_detail": true,
      "related": {
        "url": "https://truyenx.link/truyensextv/channels/related/913",
        "request_headers": []
      },
      "share": {
        "url": "https://truyenx.link/truyensextv/channels/share/em-tiep-vien-karaoke"
      },
      "remote_data": {
        "url": "https://truyenx.link/truyensextv/channels/em-tiep-vien-karaoke"
      }
    },
    {
      "id": "912-channel",
      "name": "Hương Anh",
      "description": "5 năm là một khoảng thời gian không dài cũng không ngắn, 5 năm mọi thứ có thể thay đổi một cách chóng mặt. Cậu Tiến Anh thay vì là một chàng trai như đúng hình hài mà cha mẹ mình...",
      "image": null,
      "label": null,
      "display": "text-only",
      "type": "text",
      "enable_detail": true,
      "related": {
        "url": "https://truyenx.link/truyensextv/channels/related/912",
        "request_headers": []
      },
      "share": {
        "url": "https://truyenx.link/truyensextv/channels/share/huong-anh"
      },
      "remote_data": {
        "url": "https://truyenx.link/truyensextv/channels/huong-anh"
      }
    },
    {
      "id": "911-channel",
      "name": "Sờ mó em gái trong bệnh viện",
      "description": "Cũng mới đây thôi, em lên bệnh viện trông người ốm.. Có 1 em sinh năm 99 cũng chăm người ốm như em.. Tả qua em này thì cũng thuộc dạng bình thường, không xinh cũng không xấu, được...",
      "image": null,
      "label": null,
      "display": "text-only",
      "type": "text",
      "enable_detail": true,
      "related": {
        "url": "https://truyenx.link/truyensextv/channels/related/911",
        "request_headers": []
      },
      "share": {
        "url": "https://truyenx.link/truyensextv/channels/share/so-mo-em-gai-trong-benh-vien"
      },
      "remote_data": {
        "url": "https://truyenx.link/truyensextv/channels/so-mo-em-gai-trong-benh-vien"
      }
    },
    {
      "id": "910-channel",
      "name": "Địt chị Linh đồng nghiệp",
      "description": "Mình năm nay cũng 24 tuổi rồi, học đại học xong thì mình cũng đi làm luôn, chỗ mình làm thì mình là trẻ nhất với lại chỉ có mình là con trai, còn lại toàn các chị lớn và có...",
      "image": null,
      "label": null,
      "display": "text-only",
      "type": "text",
      "enable_detail": true,
      "related": {
        "url": "https://truyenx.link/truyensextv/channels/related/910",
        "request_headers": []
      },
      "share": {
        "url": "https://truyenx.link/truyensextv/channels/share/dit-chi-linh-dong-nghiep"
      },
      "remote_data": {
        "url": "https://truyenx.link/truyensextv/channels/dit-chi-linh-dong-nghiep"
      }
    },
    {
      "id": "909-channel",
      "name": "Địt em thuê trọ",
      "description": "Chuyện là mình có căn nhà cho thuê. Hồi đó, có con bé ở miền tây lên thuê ở học đại học, nghe đâu bố là quan to ở tỉnh nên có điều kiện thuê nguyên căn ở. Nhà có mấy phòng...",
      "image": null,
      "label": null,
      "display": "text-only",
      "type": "text",
      "enable_detail": true,
      "related": {
        "url": "https://truyenx.link/truyensextv/channels/related/909",
        "request_headers": []
      },
      "share": {
        "url": "https://truyenx.link/truyensextv/channels/share/dit-em-thue-tro"
      },
      "remote_data": {
        "url": "https://truyenx.link/truyensextv/channels/dit-em-thue-tro"
      }
    },
    {
      "id": "908-channel",
      "name": "Gái cơ quan",
      "description": "Mình thế hệ 8x, công ăn việc làm tạm coi là ổn định. Cũng chả dư dả gì, nhưng không đến nỗi khốn khó đủ ăn đủ dùng, đủ để đi chơi. Gia đình cũng gọi là cơ bản, ngoại...",
      "image": null,
      "label": null,
      "display": "text-only",
      "type": "text",
      "enable_detail": true,
      "related": {
        "url": "https://truyenx.link/truyensextv/channels/related/908",
        "request_headers": []
      },
      "share": {
        "url": "https://truyenx.link/truyensextv/channels/share/gai-co-quan"
      },
      "remote_data": {
        "url": "https://truyenx.link/truyensextv/channels/gai-co-quan"
      }
    },
    {
      "id": "907-channel",
      "name": "Những lần làm tình đáng nhớ",
      "description": "Làm tình đáng nhớ thì chắc ai cũng có một vài dịp khó quên. Mình với em đi chơi đến lần thứ ba thì hôn nhau. Đứng dưới một tán hoa sữa, ngứa tay kiễng chân bẻ đại một chùm...",
      "image": null,
      "label": null,
      "display": "text-only",
      "type": "text",
      "enable_detail": true,
      "related": {
        "url": "https://truyenx.link/truyensextv/channels/related/907",
        "request_headers": []
      },
      "share": {
        "url": "https://truyenx.link/truyensextv/channels/share/nhung-lan-lam-tinh-dang-nho"
      },
      "remote_data": {
        "url": "https://truyenx.link/truyensextv/channels/nhung-lan-lam-tinh-dang-nho"
      }
    },
    {
      "id": "906-channel",
      "name": "Chị giúp việc",
      "description": "Lúc vợ mình mang bầu nhà mình có thuê 1 chị giúp việc quê ở Đồng Tháp vào làm. Chị ấy 32 tuổi, đã ly hôn chồng, lớn hơn mình 5 tuổi, ngoại hình cũng được được, hơi mập...",
      "image": null,
      "label": null,
      "display": "text-only",
      "type": "text",
      "enable_detail": true,
      "related": {
        "url": "https://truyenx.link/truyensextv/channels/related/906",
        "request_headers": []
      },
      "share": {
        "url": "https://truyenx.link/truyensextv/channels/share/chi-giup-viec"
      },
      "remote_data": {
        "url": "https://truyenx.link/truyensextv/channels/chi-giup-viec"
      }
    },
    {
      "id": "905-channel",
      "name": "Sờ lồn con em họ",
      "description": "Chuyện của em cách đây cũng được 13 14 năm rồi. Ngày đó em học cuối cấp 2 vì lười học nên bị cho lên nhà bà cô cách mấy km để kèm, chẳng là bà cô cũng có con em họ đúng...",
      "image": null,
      "label": null,
      "display": "text-only",
      "type": "text",
      "enable_detail": true,
      "related": {
        "url": "https://truyenx.link/truyensextv/channels/related/905",
        "request_headers": []
      },
      "share": {
        "url": "https://truyenx.link/truyensextv/channels/share/so-lon-con-em-ho"
      },
      "remote_data": {
        "url": "https://truyenx.link/truyensextv/channels/so-lon-con-em-ho"
      }
    },
    {
      "id": "904-channel",
      "name": "Địt em Dung cạnh nhà",
      "description": "Nhà mình ở ngoại ô thành phố cũng lâu rồi. Trước khu nhà mình cũng chưa có phát triển lắm, mang tiếng thành phố chứ vẫn còn đường đất, trẻ em trong khu cũng chơi nghịch đất...",
      "image": null,
      "label": null,
      "display": "text-only",
      "type": "text",
      "enable_detail": true,
      "related": {
        "url": "https://truyenx.link/truyensextv/channels/related/904",
        "request_headers": []
      },
      "share": {
        "url": "https://truyenx.link/truyensextv/channels/share/dit-em-dung-canh-nha"
      },
      "remote_data": {
        "url": "https://truyenx.link/truyensextv/channels/dit-em-dung-canh-nha"
      }
    },
    {
      "id": "903-channel",
      "name": "Đi sinh nhật địt được bà chị mới quen",
      "description": "Năm 2016 mình có dịp đi công tác ở Malaysia. Chuyện cũng chẳng có gì đáng kể nếu không xảy ra tình huống này. Mình qua đó được 4 hôm thì tối đó ông anh dẫn đi dự sinh nhật một...",
      "image": null,
      "label": null,
      "display": "text-only",
      "type": "text",
      "enable_detail": true,
      "related": {
        "url": "https://truyenx.link/truyensextv/channels/related/903",
        "request_headers": []
      },
      "share": {
        "url": "https://truyenx.link/truyensextv/channels/share/di-sinh-nhat-dit-duoc-ba-chi-moi-quen"
      },
      "remote_data": {
        "url": "https://truyenx.link/truyensextv/channels/di-sinh-nhat-dit-duoc-ba-chi-moi-quen"
      }
    },
    {
      "id": "902-channel",
      "name": "Yêu chị trong xóm trọ",
      "description": "Thời đó mới học lớp 10 trên tỉnh, phải thuê trọ. Năm tui vào học thì chị năm cuối trường cao đẳng sư phạm. Khu trọ có 4 phòng, phòng tui sát cạnh phòng chị, nên con bò đội...",
      "image": null,
      "label": null,
      "display": "text-only",
      "type": "text",
      "enable_detail": true,
      "related": {
        "url": "https://truyenx.link/truyensextv/channels/related/902",
        "request_headers": []
      },
      "share": {
        "url": "https://truyenx.link/truyensextv/channels/share/yeu-chi-trong-xom-tro"
      },
      "remote_data": {
        "url": "https://truyenx.link/truyensextv/channels/yeu-chi-trong-xom-tro"
      }
    },
    {
      "id": "901-channel",
      "name": "Chuyến xe đầy cảm xúc",
      "description": "Em cùng mấy đứa bạn có đi Hà Giang thăm lúa thăm hoa. Tối hôm chủ nhật theo lịch trình bọn em đi xe giường nằm Cầu Mè về Hà Nội. Lên xe nhồi nhét kinh quá nhưng do đặt trước...",
      "image": null,
      "label": null,
      "display": "text-only",
      "type": "text",
      "enable_detail": true,
      "related": {
        "url": "https://truyenx.link/truyensextv/channels/related/901",
        "request_headers": []
      },
      "share": {
        "url": "https://truyenx.link/truyensextv/channels/share/chuyen-xe-day-cam-xuc"
      },
      "remote_data": {
        "url": "https://truyenx.link/truyensextv/channels/chuyen-xe-day-cam-xuc"
      }
    },
    {
      "id": "900-channel",
      "name": "Tình một đêm với em dược sĩ",
      "description": "Mình lên thành phố thuê trọ đi học rồi tốt nghiệp đi làm luôn, xóm trọ trong câu truyện này khá là yên bình. Nói là xóm nhưng chính xác thì nó là một tòa nhà 2 tầng với hơn chục...",
      "image": null,
      "label": null,
      "display": "text-only",
      "type": "text",
      "enable_detail": true,
      "related": {
        "url": "https://truyenx.link/truyensextv/channels/related/900",
        "request_headers": []
      },
      "share": {
        "url": "https://truyenx.link/truyensextv/channels/share/tinh-mot-dem-voi-em-duoc-si"
      },
      "remote_data": {
        "url": "https://truyenx.link/truyensextv/channels/tinh-mot-dem-voi-em-duoc-si"
      }
    },
    {
      "id": "899-channel",
      "name": "Địt cô giáo Tiếng Anh",
      "description": "Cô giáo thì đúng 1 nửa, đúng ra lúc đó chị ấy mới đang học trường sư phạm, khoa tiếng anh, còn mình mới học lớp 11. Chị này có người yêu rồi, nhan sắc ở mức 6 điểm, tức...",
      "image": null,
      "label": null,
      "display": "text-only",
      "type": "text",
      "enable_detail": true,
      "related": {
        "url": "https://truyenx.link/truyensextv/channels/related/899",
        "request_headers": []
      },
      "share": {
        "url": "https://truyenx.link/truyensextv/channels/share/dit-co-giao-tieng-anh"
      },
      "remote_data": {
        "url": "https://truyenx.link/truyensextv/channels/dit-co-giao-tieng-anh"
      }
    },
    {
      "id": "898-channel",
      "name": "Em gái quen qua Yahoo",
      "description": "Vào một buổi trưa năm 2005, đang gõ cái công văn trên máy tính thì có một em gái nhảy vài chat yahoo. Nói chuyện thì biết em sinh viên mới ra trường ở Hà nội vào Sài gòn lập nghiệp...",
      "image": null,
      "label": null,
      "display": "text-only",
      "type": "text",
      "enable_detail": true,
      "related": {
        "url": "https://truyenx.link/truyensextv/channels/related/898",
        "request_headers": []
      },
      "share": {
        "url": "https://truyenx.link/truyensextv/channels/share/em-gai-quen-qua-yahoo"
      },
      "remote_data": {
        "url": "https://truyenx.link/truyensextv/channels/em-gai-quen-qua-yahoo"
      }
    },
    {
      "id": "897-channel",
      "name": "Sờ mó chị giảng viên trên tàu",
      "description": "Chuyện đi tàu xe mà được sờ mó bóp vú nó cũng thường. Trên tàu xe đường dài con gái nó cũng dâm dê hơn hay sao đó, mà mình cũng được đôi lần. Nhưng cái lần nhớ nhất là...",
      "image": null,
      "label": null,
      "display": "text-only",
      "type": "text",
      "enable_detail": true,
      "related": {
        "url": "https://truyenx.link/truyensextv/channels/related/897",
        "request_headers": []
      },
      "share": {
        "url": "https://truyenx.link/truyensextv/channels/share/so-mo-chi-giang-vien-tren-tau"
      },
      "remote_data": {
        "url": "https://truyenx.link/truyensextv/channels/so-mo-chi-giang-vien-tren-tau"
      }
    },
    {
      "id": "896-channel",
      "name": "Chứng kiến cô giáo chơi some",
      "description": "Số mình không biết là phải có duyên hay không, nhưng sự thật là mình được làm chuyện người lớn từ hè năm học lớp 10 lên 11 với cô giáo dạy kèm hoá. Nói chắc nhiều bác không...",
      "image": null,
      "label": null,
      "display": "text-only",
      "type": "text",
      "enable_detail": true,
      "related": {
        "url": "https://truyenx.link/truyensextv/channels/related/896",
        "request_headers": []
      },
      "share": {
        "url": "https://truyenx.link/truyensextv/channels/share/chung-kien-co-giao-choi-some"
      },
      "remote_data": {
        "url": "https://truyenx.link/truyensextv/channels/chung-kien-co-giao-choi-some"
      }
    },
    {
      "id": "895-channel",
      "name": "Tình tập thể",
      "description": "Trong căn phòng nhỏ bé xập xệ thuộc khu tập thể của trường cấp 3 Nguyễn Huệ. Thầy Q mơ màng chìm vào giấc ngủ. Đã một tháng nay vợ thầy bỏ về nhà mẹ vì cuộc cãi vã của...",
      "image": null,
      "label": null,
      "display": "text-only",
      "type": "text",
      "enable_detail": true,
      "related": {
        "url": "https://truyenx.link/truyensextv/channels/related/895",
        "request_headers": []
      },
      "share": {
        "url": "https://truyenx.link/truyensextv/channels/share/tinh-tap-the"
      },
      "remote_data": {
        "url": "https://truyenx.link/truyensextv/channels/tinh-tap-the"
      }
    },
    {
      "id": "894-channel",
      "name": "Bạn ngồi cũng bàn",
      "description": "Chuyện mình cách đây hơn một năm, trong cuộc gặp lớp cấp 3 sau 10 năm ra trường tổ chức gặp lại. Mình và nàng ngày ấy ngồi cùng bàn, cảm mến nhau nhưng rồi mình đi học Đại...",
      "image": null,
      "label": null,
      "display": "text-only",
      "type": "text",
      "enable_detail": true,
      "related": {
        "url": "https://truyenx.link/truyensextv/channels/related/894",
        "request_headers": []
      },
      "share": {
        "url": "https://truyenx.link/truyensextv/channels/share/ban-ngoi-cung-ban"
      },
      "remote_data": {
        "url": "https://truyenx.link/truyensextv/channels/ban-ngoi-cung-ban"
      }
    },
    {
      "id": "893-channel",
      "name": "Địt chị học cùng lớp",
      "description": "Mình học CCLLCT cùng chị Giám đốc ngân hàng ở Lào Cai, và năm 2009 lại học cùng lớp với chị MBA tại Hà Nội, nói chung tình cảm bình thường, thỉnh thoảng đi ăn, uống cafe cùng...",
      "image": null,
      "label": null,
      "display": "text-only",
      "type": "text",
      "enable_detail": true,
      "related": {
        "url": "https://truyenx.link/truyensextv/channels/related/893",
        "request_headers": []
      },
      "share": {
        "url": "https://truyenx.link/truyensextv/channels/share/dit-chi-hoc-cung-lop"
      },
      "remote_data": {
        "url": "https://truyenx.link/truyensextv/channels/dit-chi-hoc-cung-lop"
      }
    },
    {
      "id": "892-channel",
      "name": "Tình đầu khó quên",
      "description": "Nhớ hồi đó học lớp 10. Nhà hàng xóm có thằng em kém 1 tuổi. Nó có con chị họ ở quê lên học trên Hà Nội. Con này hơn em 2 tuổi. Xinh và rất ngon. Thời gian đó em hay sang nhà thằng...",
      "image": null,
      "label": null,
      "display": "text-only",
      "type": "text",
      "enable_detail": true,
      "related": {
        "url": "https://truyenx.link/truyensextv/channels/related/892",
        "request_headers": []
      },
      "share": {
        "url": "https://truyenx.link/truyensextv/channels/share/tinh-dau-kho-quen"
      },
      "remote_data": {
        "url": "https://truyenx.link/truyensextv/channels/tinh-dau-kho-quen"
      }
    },
    {
      "id": "891-channel",
      "name": "Tâm sự con gái",
      "description": "Không biết các bạn khác thì có cho đây là hư hỏng không chứ mình thì coi đây là việc bình thường, hàng ngày, mình thích cọ sát vào chym ở môi lớn, hay nhay vào hột le, sẽ có kích...",
      "image": null,
      "label": null,
      "display": "text-only",
      "type": "text",
      "enable_detail": true,
      "related": {
        "url": "https://truyenx.link/truyensextv/channels/related/891",
        "request_headers": []
      },
      "share": {
        "url": "https://truyenx.link/truyensextv/channels/share/tam-su-con-gai"
      },
      "remote_data": {
        "url": "https://truyenx.link/truyensextv/channels/tam-su-con-gai"
      }
    },
    {
      "id": "890-channel",
      "name": "Nụ hôn đầu và những xúc cảm khó quên",
      "description": "Chuyện xảy ra hồi tui học lớp 8. Thời đó bắt đầu được giáo dục giới tính với mấy truyện sex như Cô giáo Thảo... và bọn đàn anh trong làng đầu độc bằng băng hình, nên...",
      "image": null,
      "label": null,
      "display": "text-only",
      "type": "text",
      "enable_detail": true,
      "related": {
        "url": "https://truyenx.link/truyensextv/channels/related/890",
        "request_headers": []
      },
      "share": {
        "url": "https://truyenx.link/truyensextv/channels/share/nu-hon-dau-va-nhung-xuc-cam-kho-quen"
      },
      "remote_data": {
        "url": "https://truyenx.link/truyensextv/channels/nu-hon-dau-va-nhung-xuc-cam-kho-quen"
      }
    },
    {
      "id": "889-channel",
      "name": "Địt lén bà cô say rượu",
      "description": "Trước khi lấy vợ thì vợ mình ở bên nhà bà cô ruột, cô nhưng mà cũng chỉ hơn vợ mình có 10 tuổi thôi. Ngoài vợ mình ra còn có 1 bà chị nhà bác và 1 đứa em nhà cô ruột nữa ở...",
      "image": null,
      "label": null,
      "display": "text-only",
      "type": "text",
      "enable_detail": true,
      "related": {
        "url": "https://truyenx.link/truyensextv/channels/related/889",
        "request_headers": []
      },
      "share": {
        "url": "https://truyenx.link/truyensextv/channels/share/dit-len-ba-co-say-ruou"
      },
      "remote_data": {
        "url": "https://truyenx.link/truyensextv/channels/dit-len-ba-co-say-ruou"
      }
    }
  ],
  "load_more": {
    "pageInfo": {
      "current_page": 110,
      "last_page": 140,
      "per_page": 30,
      "total": 4188
    },
    "paging": {
      "page_key": "page",
      "size_key": "size"
    },
    "remote_data": {
      "url": "https://truyenx.link/truyensextv/channels"
    }
  }
}