{
  "grid_number": 1,
  "channels": [
    {
      "id": "3700-channel",
      "name": "Người mẹ tội lỗi",
      "description": "Vì sinh non, tôi luôn nhỏ bé so với những đứa trẻ khác cùng tuổi. Tôi đã phải trải qua nhiều cuộc phẫu thuật trước khi lên 5. Vì tôi là con một của cha mẹ nên mẹ tôi luôn...",
      "image": null,
      "label": null,
      "display": "text-only",
      "type": "text",
      "enable_detail": true,
      "related": {
        "url": "https://truyenx.link/truyensextv/channels/related/3700",
        "request_headers": []
      },
      "share": {
        "url": "https://truyenx.link/truyensextv/channels/share/nguoi-me-toi-loi"
      },
      "remote_data": {
        "url": "https://truyenx.link/truyensextv/channels/nguoi-me-toi-loi"
      }
    },
    {
      "id": "3699-channel",
      "name": "Buổi sáng",
      "description": "Phụng cao thước tám, da ngâm ngâm vừa phải, không đen, thân thể cường tráng, thể tháo. Là một người trí thức, hoạt bát lại ưa hoạt động nên dáng dấp Phụng rất trẻ trung...",
      "image": null,
      "label": null,
      "display": "text-only",
      "type": "text",
      "enable_detail": true,
      "related": {
        "url": "https://truyenx.link/truyensextv/channels/related/3699",
        "request_headers": []
      },
      "share": {
        "url": "https://truyenx.link/truyensextv/channels/share/buoi-sang"
      },
      "remote_data": {
        "url": "https://truyenx.link/truyensextv/channels/buoi-sang"
      }
    },
    {
      "id": "3698-channel",
      "name": "Xuyến",
      "description": "Tôi bạn học thân với thằng Khánh từ lớp tiểu học. Nhà thằng Khánh có hai chị em, thằng Khánh út, còn người chị tên Xuyến lớn hơn tụi tôi 5, 6, tuổi gì đó, nhưng hồi đó tôi...",
      "image": null,
      "label": null,
      "display": "text-only",
      "type": "text",
      "enable_detail": true,
      "related": {
        "url": "https://truyenx.link/truyensextv/channels/related/3698",
        "request_headers": []
      },
      "share": {
        "url": "https://truyenx.link/truyensextv/channels/share/xuyen"
      },
      "remote_data": {
        "url": "https://truyenx.link/truyensextv/channels/xuyen"
      }
    },
    {
      "id": "3697-channel",
      "name": "Dị nhân",
      "description": "Linh dắt chiếc Dream ra khỏi nhà trong tâm trạng vui vẻ. Hôm nay có thể coi là ngày mong đợi trong tuần vì có tiết Giáo dục công dân. Tất nhiên Linh chẳng trông đợi gì vào cái môn...",
      "image": null,
      "label": null,
      "display": "text-only",
      "type": "text",
      "enable_detail": true,
      "related": {
        "url": "https://truyenx.link/truyensextv/channels/related/3697",
        "request_headers": []
      },
      "share": {
        "url": "https://truyenx.link/truyensextv/channels/share/di-nhan"
      },
      "remote_data": {
        "url": "https://truyenx.link/truyensextv/channels/di-nhan"
      }
    },
    {
      "id": "3696-channel",
      "name": "Loạn luân cùng chị gái",
      "description": "Thằng K đang ngủ thì nghe tiếng chuông điện thoại vang lên nó mắt nhắm mắt mở bật điện thoại lên đầu dây bên kia vang lên tiếng gọi... Alo mày khi nào về đấy tao nghe nói tụi...",
      "image": null,
      "label": null,
      "display": "text-only",
      "type": "text",
      "enable_detail": true,
      "related": {
        "url": "https://truyenx.link/truyensextv/channels/related/3696",
        "request_headers": []
      },
      "share": {
        "url": "https://truyenx.link/truyensextv/channels/share/loan-luan-cung-chi-gai"
      },
      "remote_data": {
        "url": "https://truyenx.link/truyensextv/channels/loan-luan-cung-chi-gai"
      }
    },
    {
      "id": "3695-channel",
      "name": "Xem lén mẹ làm tình",
      "description": "Lyly là một thiếu nữ trên trung bình về nhan sắc, cô còn có một thân hình nảy nở thật toàn vẹn. Từ độ tuổi 13, thân hình của Lyly đã có những dấu hiệu phát triển khá sớm, so...",
      "image": null,
      "label": null,
      "display": "text-only",
      "type": "text",
      "enable_detail": true,
      "related": {
        "url": "https://truyenx.link/truyensextv/channels/related/3695",
        "request_headers": []
      },
      "share": {
        "url": "https://truyenx.link/truyensextv/channels/share/xem-len-me-lam-tinh"
      },
      "remote_data": {
        "url": "https://truyenx.link/truyensextv/channels/xem-len-me-lam-tinh"
      }
    },
    {
      "id": "3694-channel",
      "name": "Bùa thần",
      "description": "Ngồi trước hiên một căn nhà trong con hẻm nhỏ và lầy lội tại Khánh Hội. Phu bưng chiếc hộp sắt, chờ đợi đã hơn một tiếng đồng hồ rồi. Trời còn mưa lâm râm, lành lạnh...",
      "image": null,
      "label": null,
      "display": "text-only",
      "type": "text",
      "enable_detail": true,
      "related": {
        "url": "https://truyenx.link/truyensextv/channels/related/3694",
        "request_headers": []
      },
      "share": {
        "url": "https://truyenx.link/truyensextv/channels/share/bua-than"
      },
      "remote_data": {
        "url": "https://truyenx.link/truyensextv/channels/bua-than"
      }
    },
    {
      "id": "3693-channel",
      "name": "Gia đình dâm loạn",
      "description": "Chuyện loạn luân trong một gia đình thường rất hiếm gặp nhưng không có nghĩa là nó không xảy ra. Tôi sẽ kể cho các bạn nghe một câu chuyện của một gia đình mà tôi đã có dịp...",
      "image": null,
      "label": null,
      "display": "text-only",
      "type": "text",
      "enable_detail": true,
      "related": {
        "url": "https://truyenx.link/truyensextv/channels/related/3693",
        "request_headers": []
      },
      "share": {
        "url": "https://truyenx.link/truyensextv/channels/share/gia-dinh-dam-loan"
      },
      "remote_data": {
        "url": "https://truyenx.link/truyensextv/channels/gia-dinh-dam-loan"
      }
    },
    {
      "id": "3691-channel",
      "name": "Bạn thân của tôi",
      "description": "Chào mọi người tôi muốn kể cho mọi người nghe về câu chuyện bạn thân của tôi. Khi tôi bắt đầu vào năm cấp 2 tôi chưa quen được ai cả chỉ quen biết cho có cho tới khi đầu...",
      "image": null,
      "label": null,
      "display": "text-only",
      "type": "text",
      "enable_detail": true,
      "related": {
        "url": "https://truyenx.link/truyensextv/channels/related/3691",
        "request_headers": []
      },
      "share": {
        "url": "https://truyenx.link/truyensextv/channels/share/ban-than-cua-toi"
      },
      "remote_data": {
        "url": "https://truyenx.link/truyensextv/channels/ban-than-cua-toi"
      }
    },
    {
      "id": "3692-channel",
      "name": "Trở về",
      "description": "Khi cao trào đến lần thứ ba, Triệu Ngu đã cảm giác thân thể sắp không chịu nổi nữa. Nhưng người đàn ông phía sau vẫn không định buông tha cho cô. Hắn rút dương vật ướt át...",
      "image": null,
      "label": null,
      "display": "text-only",
      "type": "text",
      "enable_detail": true,
      "related": {
        "url": "https://truyenx.link/truyensextv/channels/related/3692",
        "request_headers": []
      },
      "share": {
        "url": "https://truyenx.link/truyensextv/channels/share/tro-ve"
      },
      "remote_data": {
        "url": "https://truyenx.link/truyensextv/channels/tro-ve"
      }
    },
    {
      "id": "3690-channel",
      "name": "Dòng đời xô đẩy",
      "description": "Được sống trong một gia đình đầy đủ không sướng gì bằng. Những người Việt trẻ như tôi đều muốn được như vậy. Nhưng dòng đời đâu có cho những gia đình được yên ấm...",
      "image": null,
      "label": null,
      "display": "text-only",
      "type": "text",
      "enable_detail": true,
      "related": {
        "url": "https://truyenx.link/truyensextv/channels/related/3690",
        "request_headers": []
      },
      "share": {
        "url": "https://truyenx.link/truyensextv/channels/share/dong-doi-xo-day"
      },
      "remote_data": {
        "url": "https://truyenx.link/truyensextv/channels/dong-doi-xo-day"
      }
    },
    {
      "id": "3689-channel",
      "name": "Kế hoạch biến mẹ thành vợ",
      "description": "Tôi là Trương Hoàng Huy năm nay 18 tuổi được sinh ra và lớn lên trong một gia đình có giáo dục, tôi hiện đang sinh sống chung với ba và mẹ. Ba tôi tên Trương Văn Vũ năm nay 42 tuổi...",
      "image": null,
      "label": null,
      "display": "text-only",
      "type": "text",
      "enable_detail": true,
      "related": {
        "url": "https://truyenx.link/truyensextv/channels/related/3689",
        "request_headers": []
      },
      "share": {
        "url": "https://truyenx.link/truyensextv/channels/share/ke-hoach-bien-me-thanh-vo"
      },
      "remote_data": {
        "url": "https://truyenx.link/truyensextv/channels/ke-hoach-bien-me-thanh-vo"
      }
    },
    {
      "id": "3688-channel",
      "name": "Anh đồng nghiệp địt tôi phê vãi",
      "description": "Tôi và Hưng là đồng nghiệp làm cùng chung 1 tạp hóa, 1 hôm cửa bị hỏng, bên trong tạp hóa lại còn nóng nên tôi hất chiếc váy của tôi, ai dè Hưng lại thấy chếc quần xì của tôi...",
      "image": null,
      "label": null,
      "display": "text-only",
      "type": "text",
      "enable_detail": true,
      "related": {
        "url": "https://truyenx.link/truyensextv/channels/related/3688",
        "request_headers": []
      },
      "share": {
        "url": "https://truyenx.link/truyensextv/channels/share/anh-dong-nghiep-dit-toi-phe-vai"
      },
      "remote_data": {
        "url": "https://truyenx.link/truyensextv/channels/anh-dong-nghiep-dit-toi-phe-vai"
      }
    },
    {
      "id": "3687-channel",
      "name": "Cu Lửa",
      "description": "Vào nữa nào... sao sướng không con đàn bà kia... có sướng không nào? Có... đã lắm... anh đụ... địt... làm cho em sướng đi anh... a aaa... aaa... Lồn em banh ra rồi đây này... sướng...",
      "image": null,
      "label": null,
      "display": "text-only",
      "type": "text",
      "enable_detail": true,
      "related": {
        "url": "https://truyenx.link/truyensextv/channels/related/3687",
        "request_headers": []
      },
      "share": {
        "url": "https://truyenx.link/truyensextv/channels/share/cu-lua"
      },
      "remote_data": {
        "url": "https://truyenx.link/truyensextv/channels/cu-lua"
      }
    },
    {
      "id": "3686-channel",
      "name": "Bánh trôi nước",
      "description": "Ở một vùng quê nọ ở tỉnh Bắc Giang, nơi mà các nhà máy chưa mọc lên nhiều như bây giờ, hầu hết mọi người đều bấu víu vào mảnh ruộng vườn để nuôi sống chính mình...",
      "image": null,
      "label": null,
      "display": "text-only",
      "type": "text",
      "enable_detail": true,
      "related": {
        "url": "https://truyenx.link/truyensextv/channels/related/3686",
        "request_headers": []
      },
      "share": {
        "url": "https://truyenx.link/truyensextv/channels/share/banh-troi-nuoc"
      },
      "remote_data": {
        "url": "https://truyenx.link/truyensextv/channels/banh-troi-nuoc"
      }
    },
    {
      "id": "3685-channel",
      "name": "Thầy thuốc dâm loạn",
      "description": "Đứa con của quỷ Tại một vùng núi hoang vu luôn ngập chìm trong sương mù... Lúc này đang là nửa đêm. “Kẹt... kẹt... kẹt...” Cánh cửa tre tồi tàn vang lên những âm thanh gai...",
      "image": null,
      "label": null,
      "display": "text-only",
      "type": "text",
      "enable_detail": true,
      "related": {
        "url": "https://truyenx.link/truyensextv/channels/related/3685",
        "request_headers": []
      },
      "share": {
        "url": "https://truyenx.link/truyensextv/channels/share/thay-thuoc-dam-loan"
      },
      "remote_data": {
        "url": "https://truyenx.link/truyensextv/channels/thay-thuoc-dam-loan"
      }
    },
    {
      "id": "3684-channel",
      "name": "Bể hạnh phúc",
      "description": "Bà hội đồng với bộ mặt đanh dữ cầm roi quất xối xả vào cô bé, miệng không ngớt xỉ vả: Mày muốn giật ngôi à? Mới nứt mắt mà biết chài chồng bà... này, thì bà cho này...",
      "image": null,
      "label": null,
      "display": "text-only",
      "type": "text",
      "enable_detail": true,
      "related": {
        "url": "https://truyenx.link/truyensextv/channels/related/3684",
        "request_headers": []
      },
      "share": {
        "url": "https://truyenx.link/truyensextv/channels/share/be-hanh-phuc"
      },
      "remote_data": {
        "url": "https://truyenx.link/truyensextv/channels/be-hanh-phuc"
      }
    },
    {
      "id": "3683-channel",
      "name": "Bạo chúa",
      "description": "Ngày đăng ngôi cũng là ngày bạo chúa Ngu Vương tuyển lựa ra 365 nàng kiều nữ đẹp tuyệt trần trong số mấy vạn cô nương từ khắp các tỉnh thành trong nước. Nếu không phải các...",
      "image": null,
      "label": null,
      "display": "text-only",
      "type": "text",
      "enable_detail": true,
      "related": {
        "url": "https://truyenx.link/truyensextv/channels/related/3683",
        "request_headers": []
      },
      "share": {
        "url": "https://truyenx.link/truyensextv/channels/share/bao-chua"
      },
      "remote_data": {
        "url": "https://truyenx.link/truyensextv/channels/bao-chua"
      }
    },
    {
      "id": "3682-channel",
      "name": "Anh em hết tình",
      "description": "Nhà tôi chỉ có hai anh em trai nên chúng tôi rất quen tính nết nhau và nhường nhịn nhau. Như có lần đã kể trong truyện Anh Em Hợp tính, anh em tôi đi đâu cũng có nhau. Và anh Hai đã...",
      "image": null,
      "label": null,
      "display": "text-only",
      "type": "text",
      "enable_detail": true,
      "related": {
        "url": "https://truyenx.link/truyensextv/channels/related/3682",
        "request_headers": []
      },
      "share": {
        "url": "https://truyenx.link/truyensextv/channels/share/anh-em-het-tinh"
      },
      "remote_data": {
        "url": "https://truyenx.link/truyensextv/channels/anh-em-het-tinh"
      }
    },
    {
      "id": "3681-channel",
      "name": "Chuyện giải tỏa sinh lý mùa Covid",
      "description": "Ở đây chắc không thằng nào quên được cái thời gian giãn cách xã hội đâu nhĩ. Đối với những thằng chưa vợ thì thời gian đó hàng họ đâu mà check. Chỉ có làm bạn với đôi...",
      "image": null,
      "label": null,
      "display": "text-only",
      "type": "text",
      "enable_detail": true,
      "related": {
        "url": "https://truyenx.link/truyensextv/channels/related/3681",
        "request_headers": []
      },
      "share": {
        "url": "https://truyenx.link/truyensextv/channels/share/chuyen-giai-toa-sinh-ly-mua-covid"
      },
      "remote_data": {
        "url": "https://truyenx.link/truyensextv/channels/chuyen-giai-toa-sinh-ly-mua-covid"
      }
    },
    {
      "id": "3680-channel",
      "name": "Ánh Lệ",
      "description": "Khi tôi cưới Hằng hai năm trước đây thì Ánh Lệ, con bé con riêng của Hằng mới mười bốn và bắt đầu nảy nở. Bây giờ nó mười sáu nhưng trông như hăm sáu, có lúc lại có cử...",
      "image": null,
      "label": null,
      "display": "text-only",
      "type": "text",
      "enable_detail": true,
      "related": {
        "url": "https://truyenx.link/truyensextv/channels/related/3680",
        "request_headers": []
      },
      "share": {
        "url": "https://truyenx.link/truyensextv/channels/share/anh-le"
      },
      "remote_data": {
        "url": "https://truyenx.link/truyensextv/channels/anh-le"
      }
    },
    {
      "id": "3679-channel",
      "name": "Anh em hợp tánh",
      "description": "Nhà tôi chỉ có hai anh em trai nên chúng tôi rất quen tính nết nhau và nhường nhịn nhau. Anh tôi lấy vợ sớm nhưng vẫn ở chung nhà với cha mẹ và khi di tản thì tôi đi theo anh chị, cha...",
      "image": null,
      "label": null,
      "display": "text-only",
      "type": "text",
      "enable_detail": true,
      "related": {
        "url": "https://truyenx.link/truyensextv/channels/related/3679",
        "request_headers": []
      },
      "share": {
        "url": "https://truyenx.link/truyensextv/channels/share/anh-em-hop-tanh"
      },
      "remote_data": {
        "url": "https://truyenx.link/truyensextv/channels/anh-em-hop-tanh"
      }
    },
    {
      "id": "3677-channel",
      "name": "Alice ở xứ ở thần tiên",
      "description": "Nói đến những truyện cổ tích thần thoại ngày xa xưa hấp dẫn mọi người từ già đến trẻ thì không thể không kể đến truyện Bạch Tuyết và 7 chú lùn, Hoàng tử chăn lợn, Công...",
      "image": null,
      "label": null,
      "display": "text-only",
      "type": "text",
      "enable_detail": true,
      "related": {
        "url": "https://truyenx.link/truyensextv/channels/related/3677",
        "request_headers": []
      },
      "share": {
        "url": "https://truyenx.link/truyensextv/channels/share/alice-o-xu-o-than-tien"
      },
      "remote_data": {
        "url": "https://truyenx.link/truyensextv/channels/alice-o-xu-o-than-tien"
      }
    },
    {
      "id": "3678-channel",
      "name": "Xa Lộ Cuồng",
      "description": "Lại một ngày đáng ghét! Khi chiếc BMW đen mui trần cắt ngang đầu. Tôi chỉ kịp nhìn tài xế trên xe là em Mỹ trắng tóc vàng. Em “zum” một cái băng ba “lanes” để...",
      "image": null,
      "label": null,
      "display": "text-only",
      "type": "text",
      "enable_detail": true,
      "related": {
        "url": "https://truyenx.link/truyensextv/channels/related/3678",
        "request_headers": []
      },
      "share": {
        "url": "https://truyenx.link/truyensextv/channels/share/xa-lo-cuong"
      },
      "remote_data": {
        "url": "https://truyenx.link/truyensextv/channels/xa-lo-cuong"
      }
    },
    {
      "id": "3676-channel",
      "name": "Vú em",
      "description": "Tôi là đứa con gái mồ côi cha mẹ từ lúc nhỏ. Được ông bà ngoại săn sóc cho tới lớn. Khi tôi tròn mười sáu tuổi thì ông bà ngoại cũng không còn nữa. Tuổi nhỏ không thể nuôi...",
      "image": null,
      "label": null,
      "display": "text-only",
      "type": "text",
      "enable_detail": true,
      "related": {
        "url": "https://truyenx.link/truyensextv/channels/related/3676",
        "request_headers": []
      },
      "share": {
        "url": "https://truyenx.link/truyensextv/channels/share/vu-em"
      },
      "remote_data": {
        "url": "https://truyenx.link/truyensextv/channels/vu-em"
      }
    },
    {
      "id": "3675-channel",
      "name": "Cô giáo xa chồng",
      "description": "Xin chào các bạn mình xin tự giới thiệu là mình là Huy, năm nay tôi đã 23 tuổi tôi nghĩ học từ năm 18 tuổi và cũng đi làm từ khi tôi nghỉ học, tôi có 1 thằng bạn khá là thân, nhà...",
      "image": null,
      "label": null,
      "display": "text-only",
      "type": "text",
      "enable_detail": true,
      "related": {
        "url": "https://truyenx.link/truyensextv/channels/related/3675",
        "request_headers": []
      },
      "share": {
        "url": "https://truyenx.link/truyensextv/channels/share/co-giao-xa-chong"
      },
      "remote_data": {
        "url": "https://truyenx.link/truyensextv/channels/co-giao-xa-chong"
      }
    },
    {
      "id": "3674-channel",
      "name": "Mẹ và bạn gái xinh đẹp biến thành nô lệ tình dục",
      "description": "Trong phòng ngủ tối tăm, một người đàn ông với khuôn mặt hốc hác đang ngồi trước TV, đôi mắt đỏ ngầu nhìn chằm chằm vào màn hình TV, một tay đưa ra như muốn nắm lấy thứ...",
      "image": null,
      "label": null,
      "display": "text-only",
      "type": "text",
      "enable_detail": true,
      "related": {
        "url": "https://truyenx.link/truyensextv/channels/related/3674",
        "request_headers": []
      },
      "share": {
        "url": "https://truyenx.link/truyensextv/channels/share/me-va-ban-gai-xinh-dep-bien-thanh-no-le-tinh-duc"
      },
      "remote_data": {
        "url": "https://truyenx.link/truyensextv/channels/me-va-ban-gai-xinh-dep-bien-thanh-no-le-tinh-duc"
      }
    },
    {
      "id": "3673-channel",
      "name": "Sự thật về người mẹ đáng quý của tôi",
      "description": "Câu chuyện này được kể lại và nó cũng đã diễn ra từ lâu rồi, vì đi làm xa tôi cũng không biết là nó còn tiếp diễn không. Lúc đó tôi đang học lớp 6... Gia đình tôi sống ở...",
      "image": null,
      "label": null,
      "display": "text-only",
      "type": "text",
      "enable_detail": true,
      "related": {
        "url": "https://truyenx.link/truyensextv/channels/related/3673",
        "request_headers": []
      },
      "share": {
        "url": "https://truyenx.link/truyensextv/channels/share/su-that-ve-nguoi-me-dang-quy-cua-toi"
      },
      "remote_data": {
        "url": "https://truyenx.link/truyensextv/channels/su-that-ve-nguoi-me-dang-quy-cua-toi"
      }
    },
    {
      "id": "3672-channel",
      "name": "Con trai là chồng tương lai",
      "description": "Thấy dương vật con trai Xin chào các bạn tôi xin tự giới thiệu tôi tên là Thanh Hoa. Hiện tại tôi sống và làm việc tại thành phố hồ chí minh. Còn về chồng tôi anh ấy tên Minh Huy...",
      "image": null,
      "label": null,
      "display": "text-only",
      "type": "text",
      "enable_detail": true,
      "related": {
        "url": "https://truyenx.link/truyensextv/channels/related/3672",
        "request_headers": []
      },
      "share": {
        "url": "https://truyenx.link/truyensextv/channels/share/con-trai-la-chong-tuong-lai"
      },
      "remote_data": {
        "url": "https://truyenx.link/truyensextv/channels/con-trai-la-chong-tuong-lai"
      }
    },
    {
      "id": "3671-channel",
      "name": "Vợ tôi",
      "description": "Tôi xin kể đến quý bạn một loạt truyện của tôi. Đây là những mẩu truyện có thật 100%. Tôi cưới vợ 03 năm trước, vợ tôi tên là Phương. Chúng tôi cưới nhau sau một năm quen...",
      "image": null,
      "label": null,
      "display": "text-only",
      "type": "text",
      "enable_detail": true,
      "related": {
        "url": "https://truyenx.link/truyensextv/channels/related/3671",
        "request_headers": []
      },
      "share": {
        "url": "https://truyenx.link/truyensextv/channels/share/vo-toi"
      },
      "remote_data": {
        "url": "https://truyenx.link/truyensextv/channels/vo-toi"
      }
    }
  ],
  "load_more": {
    "pageInfo": {
      "current_page": 37,
      "last_page": 140,
      "per_page": 30,
      "total": 4188
    },
    "paging": {
      "page_key": "page",
      "size_key": "size"
    },
    "remote_data": {
      "url": "https://truyenx.link/truyensextv/channels"
    }
  }
}