{"grid_number":1,"channels":[{"id":"888-channel","name":"Lụt mùa hè","description":"3 nhà, cách nhà mình có nhà chị lên ở nhờ mái nhà mình, nhà chị có 2 bác, 2 chị và 1 thằng bằng tuổi mình, mái nhà mình khoảng 20m2, và tất cả quây quần trên đó. Lúc đó mình 12...","image":null,"label":null,"display":"text-only","type":"text","enable_detail":true,"related":{"url":"https://truyenx.link/truyensextv/channels/related/888","request_headers":[]},"share":{"url":"https://truyenx.link/truyensextv/channels/share/lut-mua-he"},"remote_data":{"url":"https://truyenx.link/truyensextv/channels/lut-mua-he"}},{"id":"887-channel","name":"Yêu gái hơn tuổi","description":"Tháng 12 vừa rồi, mình về Việt Nam chơi 1 tháng. Tình cờ, chuyến bay từ LA đến Taipei mình đã gặp được chỉ. Ấn tượng đầu tiên là chỉ khá đẹp, cao ráo, dáng chuẩn, nhìn rất...","image":null,"label":null,"display":"text-only","type":"text","enable_detail":true,"related":{"url":"https://truyenx.link/truyensextv/channels/related/887","request_headers":[]},"share":{"url":"https://truyenx.link/truyensextv/channels/share/yeu-gai-hon-tuoi"},"remote_data":{"url":"https://truyenx.link/truyensextv/channels/yeu-gai-hon-tuoi"}},{"id":"886-channel","name":"Sờ mớ em gái quen qua mạng","description":"Ngày trước, thời còn yahoo, mấy cái diễn đàn mọc lên như nấm, tôi cũng tập tành lên mạng tung hoành. Vào mấy forum giúp đỡ người ta làm bài tập, giải dáp thắc mắc này kìa. Từ...","image":null,"label":null,"display":"text-only","type":"text","enable_detail":true,"related":{"url":"https://truyenx.link/truyensextv/channels/related/886","request_headers":[]},"share":{"url":"https://truyenx.link/truyensextv/channels/share/so-mo-em-gai-quen-qua-mang"},"remote_data":{"url":"https://truyenx.link/truyensextv/channels/so-mo-em-gai-quen-qua-mang"}},{"id":"885-channel","name":"Chinh phục gái đẹp - Chương 4","description":"Đinh Nhị Cẩu đem ý của mình biểu đạt rất rõ ràng, chuyện tiếp theo là chờ xem Lâm Xuân Hiểu có đồng ý thao tác chuyện này hay không, nhưng theo Đinh Nhị Cẩu suy nghĩ, phàm là...","image":null,"label":null,"display":"text-only","type":"text","enable_detail":true,"related":{"url":"https://truyenx.link/truyensextv/channels/related/885","request_headers":[]},"share":{"url":"https://truyenx.link/truyensextv/channels/share/chinh-phuc-gai-dep-chuong-4"},"remote_data":{"url":"https://truyenx.link/truyensextv/channels/chinh-phuc-gai-dep-chuong-4"}},{"id":"884-channel","name":"Hương đĩ","description":"Kể ra thì dông dài, tui làm đĩ như vầy cũng gần 2 năm rồi. Thực ra gia đình tui rất khá giả, ông bà già có tới mấy căn nhà lầu bên quận 4, nhưng không hợp tính nên tui đã bỏ...","image":null,"label":null,"display":"text-only","type":"text","enable_detail":true,"related":{"url":"https://truyenx.link/truyensextv/channels/related/884","request_headers":[]},"share":{"url":"https://truyenx.link/truyensextv/channels/share/huong-di"},"remote_data":{"url":"https://truyenx.link/truyensextv/channels/huong-di"}},{"id":"883-channel","name":"Trào lưu khỏa thân - ở nhà một mình","description":"Ai đó đặt tay lên đầu tôi *xoa xoa* Tôi *hất tay* Bốp !!! Cả tiết của thầy mà con còn dám ngủ hả? Ông thầy dạy lí vui tính lớp tôi said Dạ con mệt quá, hôm qua làm đêm thầy ạ...","image":null,"label":null,"display":"text-only","type":"text","enable_detail":true,"related":{"url":"https://truyenx.link/truyensextv/channels/related/883","request_headers":[]},"share":{"url":"https://truyenx.link/truyensextv/channels/share/trao-luu-khoa-than-o-nha-mot-minh"},"remote_data":{"url":"https://truyenx.link/truyensextv/channels/trao-luu-khoa-than-o-nha-mot-minh"}},{"id":"882-channel","name":"Cô chủ nhà trọ","description":"Giới thiệu với mọi người chút về bản thân mình để mọi người dễ hình dung. Mình tên G, thuộc thế hệ 8x, sinh ra và lớn lên ở 1 tỉnh đồng bằng Bắc Bộ cách Hà Nội vài...","image":null,"label":null,"display":"text-only","type":"text","enable_detail":true,"related":{"url":"https://truyenx.link/truyensextv/channels/related/882","request_headers":[]},"share":{"url":"https://truyenx.link/truyensextv/channels/share/co-chu-nha-tro"},"remote_data":{"url":"https://truyenx.link/truyensextv/channels/co-chu-nha-tro"}},{"id":"881-channel","name":"Thằng bạn khốn nạn","description":"Tôi là Phi, 28 tuổi là cảnh sát điều tra tội phạm, Lệ vợ tôi 26 tuổi giáo viên mầm non của 1 trường tư thục nhưng đã nghỉ ở nhà để dưỡng thai. Trong số bạn bè của tôi có...","image":null,"label":null,"display":"text-only","type":"text","enable_detail":true,"related":{"url":"https://truyenx.link/truyensextv/channels/related/881","request_headers":[]},"share":{"url":"https://truyenx.link/truyensextv/channels/share/thang-ban-khon-nan"},"remote_data":{"url":"https://truyenx.link/truyensextv/channels/thang-ban-khon-nan"}},{"id":"880-channel","name":"Thím tôi","description":"Tôi sinh ra ở vùng quê bắc bộ, tuổi thơ của tôi cũng như bao nhiêu người khác sống tại vùng quê quanh năm cấy cày, sáng đi học chiều cùng bạn bè đi chăn trâu thả bò. Cuộc sống...","image":null,"label":null,"display":"text-only","type":"text","enable_detail":true,"related":{"url":"https://truyenx.link/truyensextv/channels/related/880","request_headers":[]},"share":{"url":"https://truyenx.link/truyensextv/channels/share/thim-toi"},"remote_data":{"url":"https://truyenx.link/truyensextv/channels/thim-toi"}},{"id":"879-channel","name":"Thần dâm","description":"Em đang là sinh viên năm 4. Yêu đương cũng nhăng nhít vớ vẩn. Chịch choạc cũng bình thương không nhiều không ít. Em thì thường 1 tháng về quê 1 lần 2 3 ngày. Về nhà không có gấu...","image":null,"label":null,"display":"text-only","type":"text","enable_detail":true,"related":{"url":"https://truyenx.link/truyensextv/channels/related/879","request_headers":[]},"share":{"url":"https://truyenx.link/truyensextv/channels/share/than-dam"},"remote_data":{"url":"https://truyenx.link/truyensextv/channels/than-dam"}},{"id":"878-channel","name":"Cô người yêu dâm đãng","description":"Chuyện này xảy ra khi vợ chồng mình chưa cưới nhau, còn ở Việt Nam, trong 1 lần mình đi nghỉ mát với công ty ở Mũi Né. Vào tối hôm đó, sau khi mọi người đã về phòng. Mình rủ...","image":null,"label":null,"display":"text-only","type":"text","enable_detail":true,"related":{"url":"https://truyenx.link/truyensextv/channels/related/878","request_headers":[]},"share":{"url":"https://truyenx.link/truyensextv/channels/share/co-nguoi-yeu-dam-dang"},"remote_data":{"url":"https://truyenx.link/truyensextv/channels/co-nguoi-yeu-dam-dang"}},{"id":"877-channel","name":"Nhỏ bạn dâm","description":"Năm 2007, lúc mình học Đại học cũng được năm 2 rùi, lúc đó mình về nhà chơi, tối đó nhà mình đi chơi hết rồi, mình thì ở nhà giữ nhà vì nhà mình có buôn bán, lúc đó tầm...","image":null,"label":null,"display":"text-only","type":"text","enable_detail":true,"related":{"url":"https://truyenx.link/truyensextv/channels/related/877","request_headers":[]},"share":{"url":"https://truyenx.link/truyensextv/channels/share/nho-ban-dam"},"remote_data":{"url":"https://truyenx.link/truyensextv/channels/nho-ban-dam"}},{"id":"876-channel","name":"Một lần ngoại tình","description":"Tôi cố gắng kìm lại ham muốn của mình nhưng dục vọng thể xác thôi thúc tôi như bản năng của một con đực lúc nào cũng ham muốn được giao phối với một bạn tình gợi dục...","image":null,"label":null,"display":"text-only","type":"text","enable_detail":true,"related":{"url":"https://truyenx.link/truyensextv/channels/related/876","request_headers":[]},"share":{"url":"https://truyenx.link/truyensextv/channels/share/mot-lan-ngoai-tinh"},"remote_data":{"url":"https://truyenx.link/truyensextv/channels/mot-lan-ngoai-tinh"}},{"id":"875-channel","name":"Móc lồn trong quán cafe","description":"Chuyện nó là thế này. Hồi đấy mình với bạn gái, giờ là bà xã rồi, giận nhau cái gì đấy cũng quên mất tiêu rồi. Thế là mình với bạn gái chia tay nhau 1 thời gian để xem lại...","image":null,"label":null,"display":"text-only","type":"text","enable_detail":true,"related":{"url":"https://truyenx.link/truyensextv/channels/related/875","request_headers":[]},"share":{"url":"https://truyenx.link/truyensextv/channels/share/moc-lon-trong-quan-cafe"},"remote_data":{"url":"https://truyenx.link/truyensextv/channels/moc-lon-trong-quan-cafe"}},{"id":"874-channel","name":"Mò vú chị họ","description":"Mình cũng có 1 thời gian kích thích lắm, chuyện là như thế này, lúc mình 17 tuổi thì bà dì của mình dắt bà chị lên nhà mình xin ở lại học lớp 9 để thi lên lớp 10 cho tốt. Thời...","image":null,"label":null,"display":"text-only","type":"text","enable_detail":true,"related":{"url":"https://truyenx.link/truyensextv/channels/related/874","request_headers":[]},"share":{"url":"https://truyenx.link/truyensextv/channels/share/mo-vu-chi-ho"},"remote_data":{"url":"https://truyenx.link/truyensextv/channels/mo-vu-chi-ho"}},{"id":"873-channel","name":"Phá trinh bạn ngồi cùng bàn","description":"Mới sáu giờ sáng mà tôi phải gồng người dậy để vô trường, vì hôm nay là ngày khối lớp mười một tập trung. Bước vô lớp tôi thấy mất hết ba đứa, hỏi thì mới biết tụi...","image":null,"label":null,"display":"text-only","type":"text","enable_detail":true,"related":{"url":"https://truyenx.link/truyensextv/channels/related/873","request_headers":[]},"share":{"url":"https://truyenx.link/truyensextv/channels/share/pha-trinh-ban-ngoi-cung-ban"},"remote_data":{"url":"https://truyenx.link/truyensextv/channels/pha-trinh-ban-ngoi-cung-ban"}},{"id":"872-channel","name":"Học sinh ăn chơi","description":"Vèo.... Vèo... hú hú... Tiếng xé gió của chiếc CBR 600 trên đoạn đường vắng lúc hai giờ đêm phấn khích vô cùng. Vừa bóp côn vừa đá số tôi cho chiếc xe lao nhanh hơn. Ôm sát eo tôi...","image":null,"label":null,"display":"text-only","type":"text","enable_detail":true,"related":{"url":"https://truyenx.link/truyensextv/channels/related/872","request_headers":[]},"share":{"url":"https://truyenx.link/truyensextv/channels/share/hoc-sinh-an-choi"},"remote_data":{"url":"https://truyenx.link/truyensextv/channels/hoc-sinh-an-choi"}},{"id":"871-channel","name":"Quan hệ lén lút","description":"Mình có chuyện này. Mình yêu sớm, 16 tuổi đã yêu vợ mình lúc đó rồi rồi, và vợ mình có con em con bà dì kém vợ mình 5 tuổi, lúc yêu vợ mình 15, con bé 10, thường được đi chơi...","image":null,"label":null,"display":"text-only","type":"text","enable_detail":true,"related":{"url":"https://truyenx.link/truyensextv/channels/related/871","request_headers":[]},"share":{"url":"https://truyenx.link/truyensextv/channels/share/quan-he-len-lut"},"remote_data":{"url":"https://truyenx.link/truyensextv/channels/quan-he-len-lut"}},{"id":"870-channel","name":"Kỷ niệm tuổi thơ","description":"Thế hệ 7x đéo có gì chơi, loanh quanh cũng mấy trò thể chất: thả diều, đá bóng nhựa, trốn tìm... Ở xóm tôi có ông anh lớn kia như trẻ con, rất nghịch... Sáng nọ các bố mẹ đi...","image":null,"label":null,"display":"text-only","type":"text","enable_detail":true,"related":{"url":"https://truyenx.link/truyensextv/channels/related/870","request_headers":[]},"share":{"url":"https://truyenx.link/truyensextv/channels/share/ky-niem-tuoi-tho"},"remote_data":{"url":"https://truyenx.link/truyensextv/channels/ky-niem-tuoi-tho"}},{"id":"869-channel","name":"Chơi em công nhân","description":"Hồi mình làm công nhân ở xóm trọ, có bé mới chuyển đến nhìn gợi dục quá, thế là mình lân la rủ đi chơi ăn chè, rồi ra công viên mình rải chiếu ngồi nhìn ngắm các đôi tình...","image":null,"label":null,"display":"text-only","type":"text","enable_detail":true,"related":{"url":"https://truyenx.link/truyensextv/channels/related/869","request_headers":[]},"share":{"url":"https://truyenx.link/truyensextv/channels/share/choi-em-cong-nhan"},"remote_data":{"url":"https://truyenx.link/truyensextv/channels/choi-em-cong-nhan"}},{"id":"868-channel","name":"Sờ lồn em Linh","description":"Hồi còn là sinh viên, trong dãy trọ có 4 gái. Em Phương cùng tỉnh người nhỏ nhắn nhưng vếu to vãi đạn em Linh người mảnh mai da trắng mịn, kính cận răng duyên. Còn lại em Thương...","image":null,"label":null,"display":"text-only","type":"text","enable_detail":true,"related":{"url":"https://truyenx.link/truyensextv/channels/related/868","request_headers":[]},"share":{"url":"https://truyenx.link/truyensextv/channels/share/so-lon-em-linh"},"remote_data":{"url":"https://truyenx.link/truyensextv/channels/so-lon-em-linh"}},{"id":"867-channel","name":"Hẹn hò cùng cô giáo chủ nhiệm","description":"Còn nhớ ngày xưa ấy, ngày đầu tiên đi học của năm cuối cấp, nó được gặp cô cô giáo chủ nhiệm của nó. Có lẽ không chỉ mình nó, thằng con trai nào trong lớp cũng trầm trồ...","image":null,"label":null,"display":"text-only","type":"text","enable_detail":true,"related":{"url":"https://truyenx.link/truyensextv/channels/related/867","request_headers":[]},"share":{"url":"https://truyenx.link/truyensextv/channels/share/hen-ho-cung-co-giao-chu-nhiem"},"remote_data":{"url":"https://truyenx.link/truyensextv/channels/hen-ho-cung-co-giao-chu-nhiem"}},{"id":"866-channel","name":"Nhìn lén chị vợ","description":"Mình cũng có 1 chuyện kích thích vãi, hôm qua, 2 vợ chồng mình qua nhà ông anh cột chèo tức là chị vợ mình nhậu vì ổng mới vừa mua bình rượu Hãi mã và 2 bộ ngọc dương. Chị vợ...","image":null,"label":null,"display":"text-only","type":"text","enable_detail":true,"related":{"url":"https://truyenx.link/truyensextv/channels/related/866","request_headers":[]},"share":{"url":"https://truyenx.link/truyensextv/channels/share/nhin-len-chi-vo"},"remote_data":{"url":"https://truyenx.link/truyensextv/channels/nhin-len-chi-vo"}},{"id":"865-channel","name":"Địt bé hàng xóm dâm đãng","description":"Cách đây 2 năm, vào một buổi sáng đẹp trời, cô bé hàng xóm gọi mình sang: Anh T ơi, chạy sang nhà xem hộ em cái modem tự nhiên mất mạng, từ sáng tới giờ vào không được, bực...","image":null,"label":null,"display":"text-only","type":"text","enable_detail":true,"related":{"url":"https://truyenx.link/truyensextv/channels/related/865","request_headers":[]},"share":{"url":"https://truyenx.link/truyensextv/channels/share/dit-be-hang-xom-dam-dang"},"remote_data":{"url":"https://truyenx.link/truyensextv/channels/dit-be-hang-xom-dam-dang"}},{"id":"864-channel","name":"Cho thằng bạn địt nát lồn người yêu","description":"Chuyện là thế này, biết nói thế nào nhỉ, thôi vào thẳng vấn đề lun. Mình đã có bạn gái từ năm lớp 10, và cũng làm chuyện ấy lần đầu tiên vào năm đó, rồi thì, như các bạn...","image":null,"label":null,"display":"text-only","type":"text","enable_detail":true,"related":{"url":"https://truyenx.link/truyensextv/channels/related/864","request_headers":[]},"share":{"url":"https://truyenx.link/truyensextv/channels/share/cho-thang-ban-dit-nat-lon-nguoi-yeu"},"remote_data":{"url":"https://truyenx.link/truyensextv/channels/cho-thang-ban-dit-nat-lon-nguoi-yeu"}},{"id":"863-channel","name":"Phá trinh cô giáo thực tập","description":"Cách đây 2 năm, khi ấy mình còn là học sinh cấp 3, còn nàng thì là giáo viên mới môn anh văn của trường. Mới gặp nàng, mình cảm thấy thích cái vẻ dịu dàng, pha chút gì đó...","image":null,"label":null,"display":"text-only","type":"text","enable_detail":true,"related":{"url":"https://truyenx.link/truyensextv/channels/related/863","request_headers":[]},"share":{"url":"https://truyenx.link/truyensextv/channels/share/pha-trinh-co-giao-thuc-tap"},"remote_data":{"url":"https://truyenx.link/truyensextv/channels/pha-trinh-co-giao-thuc-tap"}},{"id":"862-channel","name":"Dòng sữa mẹ","description":"Lâm đẩy cánh cửa mở bằng chân và uể oải bước vào nhà. Cả 2 tay nặng trĩu đồ đạc: 1 tay là túi nhựa lớn đựng tã em bé, còn 1 tay là 2 túi đặt đồ tạp phẩm. Nó mệt mỏi...","image":null,"label":null,"display":"text-only","type":"text","enable_detail":true,"related":{"url":"https://truyenx.link/truyensextv/channels/related/862","request_headers":[]},"share":{"url":"https://truyenx.link/truyensextv/channels/share/dong-sua-me"},"remote_data":{"url":"https://truyenx.link/truyensextv/channels/dong-sua-me"}},{"id":"861-channel","name":"Người mẹ dâm đãng","description":"Tôi hoàn thành câu hỏi cuối cùng và thở hắt ra 1 cách nhẹ nhõm cuối cùng cũng thi học kỳ xong. Tôi thậm chí còn không quan tâm làm bài có tốt hay không mà chỉ nghĩ cách giảm bớt...","image":null,"label":null,"display":"text-only","type":"text","enable_detail":true,"related":{"url":"https://truyenx.link/truyensextv/channels/related/861","request_headers":[]},"share":{"url":"https://truyenx.link/truyensextv/channels/share/nguoi-me-dam-dang"},"remote_data":{"url":"https://truyenx.link/truyensextv/channels/nguoi-me-dam-dang"}},{"id":"860-channel","name":"Đẻ mướn","description":"Tôi tên là L, sinh ra và lớn lên ở TP HCM, tôi vốn là 1 thanh niên năng động với vẻ ngoài khá là cao ráo và khuôn mặt khá sáng sủa, nhờ vậy mà tôi đã chinh phục được trái tim...","image":null,"label":null,"display":"text-only","type":"text","enable_detail":true,"related":{"url":"https://truyenx.link/truyensextv/channels/related/860","request_headers":[]},"share":{"url":"https://truyenx.link/truyensextv/channels/share/de-muon"},"remote_data":{"url":"https://truyenx.link/truyensextv/channels/de-muon"}},{"id":"859-channel","name":"Mối tình từ Audition","description":"Bắt đầu từ những lần trốn học đi nhảy Audition của hắn, một thời dữ dội của các 8x đời cuối và 9x đời đầu. Này thì finish, này thì perfect x 10, nhảy 8k... Có lẽ các bạn...","image":null,"label":null,"display":"text-only","type":"text","enable_detail":true,"related":{"url":"https://truyenx.link/truyensextv/channels/related/859","request_headers":[]},"share":{"url":"https://truyenx.link/truyensextv/channels/share/moi-tinh-tu-audition"},"remote_data":{"url":"https://truyenx.link/truyensextv/channels/moi-tinh-tu-audition"}}],"load_more":{"pageInfo":{"current_page":111,"last_page":140,"per_page":30,"total":4188},"paging":{"page_key":"page","size_key":"size"},"remote_data":{"url":"https://truyenx.link/truyensextv/channels"}}}