{"grid_number":1,"channels":[{"id":"1998-channel","name":"Được mẹ phá trinh","description":"Không biết trong số các bạn có ai từng mơ tưởng đến việc sẽ đụ mẹ mình chưa, còn với tôi, từ nhỏ tôi đã thèm khát đụ mẹ mình rồi, cũng bởi vì ở nhà mẹ tôi thường...","image":null,"label":null,"display":"text-only","type":"text","enable_detail":true,"related":{"url":"https://truyenx.link/truyensextv/channels/related/1998","request_headers":[]},"share":{"url":"https://truyenx.link/truyensextv/channels/share/duoc-me-pha-trinh"},"remote_data":{"url":"https://truyenx.link/truyensextv/channels/duoc-me-pha-trinh"}},{"id":"1997-channel","name":"Xem phim cùng bạn vợ","description":"Như đã hẹn nhau từ trước, tôi cùng Huyền bạn thân của vợ tôi đi xem phim, chẳng hiểu vì sao nàng lại muốn đi xem phim phòng riêng chứ không muốn đi ra rạp xem. Thú thực tôi khá...","image":null,"label":null,"display":"text-only","type":"text","enable_detail":true,"related":{"url":"https://truyenx.link/truyensextv/channels/related/1997","request_headers":[]},"share":{"url":"https://truyenx.link/truyensextv/channels/share/xem-phim-cung-ban-vo"},"remote_data":{"url":"https://truyenx.link/truyensextv/channels/xem-phim-cung-ban-vo"}},{"id":"1996-channel","name":"Bí mật kinh doanh","description":"Tôi cùng người bận thân thành lập công ty về xuất nhập khẩu cách đây 2 năm, người bạn ấy tên Long làm quản lý, còn vợ Long tên Hồng làm thư ký. Sau đó thì Hồng mất, vợ tôi...","image":null,"label":null,"display":"text-only","type":"text","enable_detail":true,"related":{"url":"https://truyenx.link/truyensextv/channels/related/1996","request_headers":[]},"share":{"url":"https://truyenx.link/truyensextv/channels/share/bi-mat-kinh-doanh"},"remote_data":{"url":"https://truyenx.link/truyensextv/channels/bi-mat-kinh-doanh"}},{"id":"1995-channel","name":"Hàng xóm dâm đãng 2","description":"Ánh đèn vàng rực rỡ ấm áp chiếu tỏa khắp căn phòng bếp và soi sáng chiếc bàn ăn hình chữ nhật. Ở đó có bốn người đang ngồi quây quần bên nhau, trên mặt bàn những món ăn...","image":null,"label":null,"display":"text-only","type":"text","enable_detail":true,"related":{"url":"https://truyenx.link/truyensextv/channels/related/1995","request_headers":[]},"share":{"url":"https://truyenx.link/truyensextv/channels/share/hang-xom-dam-dang-2"},"remote_data":{"url":"https://truyenx.link/truyensextv/channels/hang-xom-dam-dang-2"}},{"id":"1994-channel","name":"Chữa bệnh","description":"Tùng là người học giỏi, ít nói lịch thiệp. Cậu khá đẹp trai trắng bóc, do học giỏi, khá rụt rè, hiền lành kiểu tự kỷ. Nên trong lớp cực kỳ ít tiếp xúc với bạn bè. Cậu...","image":null,"label":null,"display":"text-only","type":"text","enable_detail":true,"related":{"url":"https://truyenx.link/truyensextv/channels/related/1994","request_headers":[]},"share":{"url":"https://truyenx.link/truyensextv/channels/share/chua-benh"},"remote_data":{"url":"https://truyenx.link/truyensextv/channels/chua-benh"}},{"id":"1993-channel","name":"Ngọc Trinh và bố chồng","description":"“Choang!!!” Âm thanh chát chúa vang lên trong phòng khách... Ngọc Trinh nhìn chiếc cốc vỡ nát dưới đất, trong lòng cô cũng không khác gì nó. Cô cầm ly rượu trên bàn uống một...","image":null,"label":null,"display":"text-only","type":"text","enable_detail":true,"related":{"url":"https://truyenx.link/truyensextv/channels/related/1993","request_headers":[]},"share":{"url":"https://truyenx.link/truyensextv/channels/share/ngoc-trinh-va-bo-chong"},"remote_data":{"url":"https://truyenx.link/truyensextv/channels/ngoc-trinh-va-bo-chong"}},{"id":"1992-channel","name":"Quỷ dục","description":"Thưa cha con mới về! Hà vừa về đến phòng khách thì lão Tôn ngồi ngay đó, lão hạ tờ báo xuống nhìn đứa con dâu có cái dáng ngực tấn công mông phòng thủ kia rồi um nhẹ một...","image":null,"label":null,"display":"text-only","type":"text","enable_detail":true,"related":{"url":"https://truyenx.link/truyensextv/channels/related/1992","request_headers":[]},"share":{"url":"https://truyenx.link/truyensextv/channels/share/quy-duc"},"remote_data":{"url":"https://truyenx.link/truyensextv/channels/quy-duc"}},{"id":"1991-channel","name":"Mẹ chồng nàng dâu","description":"Vào thời nhà Đường, có một gia đình nhà nghèo ở Phúc Châu Giang Tây. Không may, ông chồng họ Hứa qua đời khi còn trẻ, để lại cô vợ góa cùng đứa con thơ, gia cảnh lâm ly bi...","image":null,"label":null,"display":"text-only","type":"text","enable_detail":true,"related":{"url":"https://truyenx.link/truyensextv/channels/related/1991","request_headers":[]},"share":{"url":"https://truyenx.link/truyensextv/channels/share/me-chong-nang-dau"},"remote_data":{"url":"https://truyenx.link/truyensextv/channels/me-chong-nang-dau"}},{"id":"1990-channel","name":"Phá trinh em thư ký riêng","description":"Hôm nay Nga thư ký riêng của tôi đã đi làm trở lại, nhìn khuôn mặt hốc hác, phờ phạc đi mà tôi thấy thương cho nàng quá, một người con gái xinh đẹp như thế mà vớ phải thằng...","image":null,"label":null,"display":"text-only","type":"text","enable_detail":true,"related":{"url":"https://truyenx.link/truyensextv/channels/related/1990","request_headers":[]},"share":{"url":"https://truyenx.link/truyensextv/channels/share/pha-trinh-em-thu-ky-rieng"},"remote_data":{"url":"https://truyenx.link/truyensextv/channels/pha-trinh-em-thu-ky-rieng"}},{"id":"1989-channel","name":"Làm chồng của mợ","description":"Mợ tôi tên Huyền, đã ly hôn cậu tôi được hơn 10 năm nhưng vẫn chưa hề tái hôn. Khi còn trẻ, cậu tôi là dân xã hội, lúc cưới mợ mới 17 tuổi, theo như lời người lớn trong nhà...","image":null,"label":null,"display":"text-only","type":"text","enable_detail":true,"related":{"url":"https://truyenx.link/truyensextv/channels/related/1989","request_headers":[]},"share":{"url":"https://truyenx.link/truyensextv/channels/share/lam-chong-cua-mo"},"remote_data":{"url":"https://truyenx.link/truyensextv/channels/lam-chong-cua-mo"}},{"id":"1988-channel","name":"Phá trinh em Khánh Ly","description":"Khánh Ly, em hàng xóm xinh đẹp của tôi vừa đi du học từ Hàn về, em có làn da trắng mịn, khuôn mặt xinh xắn tự nhiên, đặc biệt là đùi em nó thon và rất trắng, đẹp chả khác gì...","image":null,"label":null,"display":"text-only","type":"text","enable_detail":true,"related":{"url":"https://truyenx.link/truyensextv/channels/related/1988","request_headers":[]},"share":{"url":"https://truyenx.link/truyensextv/channels/share/pha-trinh-em-khanh-ly"},"remote_data":{"url":"https://truyenx.link/truyensextv/channels/pha-trinh-em-khanh-ly"}},{"id":"1987-channel","name":"Yêu mẹ người yêu","description":"Long Cậu trai đẹp trai, tài giỏi con nhà giàu có. Nhưng phải mất đến năm tháng có mới tán được Linh một cô gái làm cùng công ty. Linh là cô gái khá chảnh, nhà cô bề thế nhưng...","image":null,"label":null,"display":"text-only","type":"text","enable_detail":true,"related":{"url":"https://truyenx.link/truyensextv/channels/related/1987","request_headers":[]},"share":{"url":"https://truyenx.link/truyensextv/channels/share/yeu-me-nguoi-yeu"},"remote_data":{"url":"https://truyenx.link/truyensextv/channels/yeu-me-nguoi-yeu"}},{"id":"1986-channel","name":"Cô em vợ của tôi","description":"Em vợ kém vợ tôi 6 tuổi. Tôi yêu vợ tôi từ hồi cấp 3, lúc đó tôi chỉ quan tâm mỗi vợ chứ chả để ý gì đến cô em, nhưng tôi vấn ấn tượng về tính cách khá cá tính, nhí...","image":null,"label":null,"display":"text-only","type":"text","enable_detail":true,"related":{"url":"https://truyenx.link/truyensextv/channels/related/1986","request_headers":[]},"share":{"url":"https://truyenx.link/truyensextv/channels/share/co-em-vo-cua-toi"},"remote_data":{"url":"https://truyenx.link/truyensextv/channels/co-em-vo-cua-toi"}},{"id":"1985-channel","name":"Được cô em họ bóc zin","description":"“Reng... reng...” Mới tắm được 5 phút thì chợt điện thoại reo, thú thực thì tôi cũng chả muốn ra ngoài để nghe đâu, nhưng mà nó cứ kêu mãi không ngớt làm tôi phải ra...","image":null,"label":null,"display":"text-only","type":"text","enable_detail":true,"related":{"url":"https://truyenx.link/truyensextv/channels/related/1985","request_headers":[]},"share":{"url":"https://truyenx.link/truyensextv/channels/share/duoc-co-em-ho-boc-zin"},"remote_data":{"url":"https://truyenx.link/truyensextv/channels/duoc-co-em-ho-boc-zin"}},{"id":"1984-channel","name":"Những bạn tình của tao","description":"Sinh ra ở một làng quê khá nghèo ở Quảng Nam nhưng gia đình tôi cũng thuộc diện khá giả. Đó là tầm những năm 1995. Lúc đó tôi đã lên 10, trong xóm nhà ai cũng nghèo, riêng tôi...","image":null,"label":null,"display":"text-only","type":"text","enable_detail":true,"related":{"url":"https://truyenx.link/truyensextv/channels/related/1984","request_headers":[]},"share":{"url":"https://truyenx.link/truyensextv/channels/share/nhung-ban-tinh-cua-tao"},"remote_data":{"url":"https://truyenx.link/truyensextv/channels/nhung-ban-tinh-cua-tao"}},{"id":"1983-channel","name":"Sự quyến rũ của bà chủ","description":"Sau khi tốt nghiệp đại học, tôi trở thành nhân viên bán hàng cho một công ty chuyên về vật liệu xây dựng, nhiệm vụ của tôi là đến tiếp thị và giao hàng cho các đại lý vật...","image":null,"label":null,"display":"text-only","type":"text","enable_detail":true,"related":{"url":"https://truyenx.link/truyensextv/channels/related/1983","request_headers":[]},"share":{"url":"https://truyenx.link/truyensextv/channels/share/su-quyen-ru-cua-ba-chu"},"remote_data":{"url":"https://truyenx.link/truyensextv/channels/su-quyen-ru-cua-ba-chu"}},{"id":"1982-channel","name":"Em gái nhỏ","description":"Cuối tháng 10 năm đó. Bây giờ bắt đầu vào thời điểm thu hoạch Cafe. Bạn tôi bảo có người thuê đi hái Cafe, cỡ 5 ngày thôi. Điểm hái Cafe này nằm xa khu dân cư, nên làm chòi ăn...","image":null,"label":null,"display":"text-only","type":"text","enable_detail":true,"related":{"url":"https://truyenx.link/truyensextv/channels/related/1982","request_headers":[]},"share":{"url":"https://truyenx.link/truyensextv/channels/share/em-gai-nho"},"remote_data":{"url":"https://truyenx.link/truyensextv/channels/em-gai-nho"}},{"id":"1981-channel","name":"Địt con bạn thân Tomboy","description":"Hello các bác hôm nay em sẽ kể một câu chuyện tóm tắt ngắn về con bạn thân Tomboy của em mong các bác ủng hộ. Em tên TA sinh năm 2k4 cao 1m70 khuôn mặt thì không có gì, đặc biệt học...","image":null,"label":null,"display":"text-only","type":"text","enable_detail":true,"related":{"url":"https://truyenx.link/truyensextv/channels/related/1981","request_headers":[]},"share":{"url":"https://truyenx.link/truyensextv/channels/share/dit-con-ban-than-tomboy"},"remote_data":{"url":"https://truyenx.link/truyensextv/channels/dit-con-ban-than-tomboy"}},{"id":"1980-channel","name":"Lần đầu được yêu","description":"Sau mấy năm tích góp tiền bạc, nhờ thêm sự giúp đỡ của anh em họ hàng, tôi đã mở được quán cafe khá đông khách. Từ đây, tôi cũng gần như lột xác hoàn toàn, tôi thay đổi...","image":null,"label":null,"display":"text-only","type":"text","enable_detail":true,"related":{"url":"https://truyenx.link/truyensextv/channels/related/1980","request_headers":[]},"share":{"url":"https://truyenx.link/truyensextv/channels/share/lan-dau-duoc-yeu"},"remote_data":{"url":"https://truyenx.link/truyensextv/channels/lan-dau-duoc-yeu"}},{"id":"1979-channel","name":"Chị bán kính xinh đẹp","description":"Từ khi vào đại học, có vẻ như thị lực của tôi bị giảm sút nghiêm trọng, nếu ngồi quá xa, tôi còn không nhìn rõ chữ trên bảng. Lúc đầu tôi còn tính đi bệnh viện mắt để...","image":null,"label":null,"display":"text-only","type":"text","enable_detail":true,"related":{"url":"https://truyenx.link/truyensextv/channels/related/1979","request_headers":[]},"share":{"url":"https://truyenx.link/truyensextv/channels/share/chi-ban-kinh-xinh-dep"},"remote_data":{"url":"https://truyenx.link/truyensextv/channels/chi-ban-kinh-xinh-dep"}},{"id":"1978-channel","name":"Địt bà chị nuôi","description":"Thấm thoát đã hơn hai mươi năm rồi, từ một thằng nhóc mới mười bốn mười lăm tuổi bây giờ đã gần ba nhăm, chàng vẫn chưa vợ con. Thị trấn nhỏ bé nơi hắn ở cách biên...","image":null,"label":null,"display":"text-only","type":"text","enable_detail":true,"related":{"url":"https://truyenx.link/truyensextv/channels/related/1978","request_headers":[]},"share":{"url":"https://truyenx.link/truyensextv/channels/share/dit-ba-chi-nuoi"},"remote_data":{"url":"https://truyenx.link/truyensextv/channels/dit-ba-chi-nuoi"}},{"id":"1977-channel","name":"Cuộc đời hoan lạc","description":"Sung vừa mở mắt sau một giấc ngủ miệt mài, tâm trí còn chưa tỉnh táo sau một đêm đầy giao hoan khoái lạc. Đôi mắt hắn lim dim nhìn lên trần nhà, đôi tai hắn còn nghe rõ tiếng...","image":null,"label":null,"display":"text-only","type":"text","enable_detail":true,"related":{"url":"https://truyenx.link/truyensextv/channels/related/1977","request_headers":[]},"share":{"url":"https://truyenx.link/truyensextv/channels/share/cuoc-doi-hoan-lac"},"remote_data":{"url":"https://truyenx.link/truyensextv/channels/cuoc-doi-hoan-lac"}},{"id":"1976-channel","name":"Địt cô giáo cũ","description":"Năm đấy tôi là 1 thằng thanh niên 21 tuổi, cái tuổi vẫn còn ngựa non háu đá. Tôi có đam mê với việc lập trình từ lúc còn đi học cấp 3, vì vậy nên mặc dù ngày thi đại học...","image":null,"label":null,"display":"text-only","type":"text","enable_detail":true,"related":{"url":"https://truyenx.link/truyensextv/channels/related/1976","request_headers":[]},"share":{"url":"https://truyenx.link/truyensextv/channels/share/dit-co-giao-cu"},"remote_data":{"url":"https://truyenx.link/truyensextv/channels/dit-co-giao-cu"}},{"id":"1975-channel","name":"Một đêm với gái bầu","description":"Trưa hôm đó, vì khá chán nên tôi lên một phòng chat sex mà tôi vẫn thường vào. Khá bất ngờ vì hôm đó tôi lại bắt gặp một cô nàng đang mang bầu. Trước giờ tôi vẫn không nghĩ...","image":null,"label":null,"display":"text-only","type":"text","enable_detail":true,"related":{"url":"https://truyenx.link/truyensextv/channels/related/1975","request_headers":[]},"share":{"url":"https://truyenx.link/truyensextv/channels/share/mot-dem-voi-gai-bau"},"remote_data":{"url":"https://truyenx.link/truyensextv/channels/mot-dem-voi-gai-bau"}},{"id":"1974-channel","name":"Hồ sơ huấn luyện của nô lệ tình dục","description":"Tôi vô tình thu nhận được 1 tập hồ sơ trong máy tính bố mình và tôi bắt đầu tìm hiểu về nó. Mở đầu... Nhắc nhở quan trọng: S&M là 1 loại hình sex, đòi hỏi phải có sự...","image":null,"label":null,"display":"text-only","type":"text","enable_detail":true,"related":{"url":"https://truyenx.link/truyensextv/channels/related/1974","request_headers":[]},"share":{"url":"https://truyenx.link/truyensextv/channels/share/ho-so-huan-luyen-cua-no-le-tinh-duc"},"remote_data":{"url":"https://truyenx.link/truyensextv/channels/ho-so-huan-luyen-cua-no-le-tinh-duc"}},{"id":"1973-channel","name":"Chị gái và cô bạn thân","description":"Tôi là Trung, sinh ra 1 gia đình không mấy hạnh phúc, tôi có chị gái hơn 6 tuổi tên là Hồng Tâm. Lúc tôi 8 tuổi, bố mẹ tôi ly hôn sau khi trải qua kỳ chiến tranh lạnh hơn 6 tháng. Lý...","image":null,"label":null,"display":"text-only","type":"text","enable_detail":true,"related":{"url":"https://truyenx.link/truyensextv/channels/related/1973","request_headers":[]},"share":{"url":"https://truyenx.link/truyensextv/channels/share/chi-gai-va-co-ban-than"},"remote_data":{"url":"https://truyenx.link/truyensextv/channels/chi-gai-va-co-ban-than"}},{"id":"1972-channel","name":"Con đường bá chủ - Quyển 2","description":"Thời gian chầm chậm trôi qua, bầu không khí bên trong bí cảnh càng lúc càng trở nên nóng nảy... Vẫn còn không ít tu sĩ có Điểm Tích Lũy chưa đạt đến 1000, lo lắng bản thân không...","image":null,"label":null,"display":"text-only","type":"text","enable_detail":true,"related":{"url":"https://truyenx.link/truyensextv/channels/related/1972","request_headers":[]},"share":{"url":"https://truyenx.link/truyensextv/channels/share/con-duong-ba-chu-quyen-2"},"remote_data":{"url":"https://truyenx.link/truyensextv/channels/con-duong-ba-chu-quyen-2"}},{"id":"1971-channel","name":"Học nhóm với lớp trưởng","description":"Linh là lớp trưởng của lớp. Cô học giỏi, thông minh, và cực kỳ xinh đẹp. Mũi cao vút, da trắng bóc, thân hình đầy đặn. Bố mẹ cô khá giả, cô nhìn cực kỳ sang chảnh. Cô đẹp...","image":null,"label":null,"display":"text-only","type":"text","enable_detail":true,"related":{"url":"https://truyenx.link/truyensextv/channels/related/1971","request_headers":[]},"share":{"url":"https://truyenx.link/truyensextv/channels/share/hoc-nhom-voi-lop-truong"},"remote_data":{"url":"https://truyenx.link/truyensextv/channels/hoc-nhom-voi-lop-truong"}},{"id":"1970-channel","name":"Gặp lại Phấn","description":"10, riêng quả mông tao mạnh dạn chấm cho 9 điểm. Ấy là quả mông tao nhìn thấy...","image":null,"label":null,"display":"text-only","type":"text","enable_detail":true,"related":{"url":"https://truyenx.link/truyensextv/channels/related/1970","request_headers":[]},"share":{"url":"https://truyenx.link/truyensextv/channels/share/gap-lai-phan"},"remote_data":{"url":"https://truyenx.link/truyensextv/channels/gap-lai-phan"}},{"id":"1969-channel","name":"Chị Hai","description":"Sau gần 10 năm xa quê hương để đi du học xa rồi sau đó được tiếp tục đi làm ở nước ngoài, đến hôm nay tôi mới có cơ hội về thăm gia đình. Tôi hồi hộp vô cùng khi bước...","image":null,"label":null,"display":"text-only","type":"text","enable_detail":true,"related":{"url":"https://truyenx.link/truyensextv/channels/related/1969","request_headers":[]},"share":{"url":"https://truyenx.link/truyensextv/channels/share/chi-hai"},"remote_data":{"url":"https://truyenx.link/truyensextv/channels/chi-hai"}}],"load_more":{"pageInfo":{"current_page":74,"last_page":140,"per_page":30,"total":4188},"paging":{"page_key":"page","size_key":"size"},"remote_data":{"url":"https://truyenx.link/truyensextv/channels"}}}