{"grid_number":1,"channels":[{"id":"3460-channel","name":"Nàng dâu dâm loàn","description":"Cái chết bất ngờ của ông Tâm đã ảnh hưởng rất lớn tới cuộc sống của gia đình Phượng. Thanh, chồng Phượng thì như người mất hồn, anh vì quá thương ba, Ông vất vả ở...","image":null,"label":null,"display":"text-only","type":"text","enable_detail":true,"related":{"url":"https://truyenx.link/truyensextv/channels/related/3460","request_headers":[]},"share":{"url":"https://truyenx.link/truyensextv/channels/share/nang-dau-dam-loan"},"remote_data":{"url":"https://truyenx.link/truyensextv/channels/nang-dau-dam-loan"}},{"id":"3459-channel","name":"Mở hàng em đi anh","description":"Ra trường đã hai năm, vừa tìm việc, vừa nộp đơn xin học bổng du học, nhưng chẳng đâu vào đâu. Minh đành chấp nhận vào làm IT cho một công ty chuyên sản xuất các mặt hàng gia...","image":null,"label":null,"display":"text-only","type":"text","enable_detail":true,"related":{"url":"https://truyenx.link/truyensextv/channels/related/3459","request_headers":[]},"share":{"url":"https://truyenx.link/truyensextv/channels/share/mo-hang-em-di-anh"},"remote_data":{"url":"https://truyenx.link/truyensextv/channels/mo-hang-em-di-anh"}},{"id":"3457-channel","name":"Chuyện của chị và tôi","description":"Chuyện tưởng đã trôi dần vào ký ức... Nhưng... cuối tháng 11 năm 2021 tôi vô tình gặp lại chị. Dường như thời gian không làm chị già đi mà nó tô điểm thêm sự mặn mà ấy. Vẫn...","image":null,"label":null,"display":"text-only","type":"text","enable_detail":true,"related":{"url":"https://truyenx.link/truyensextv/channels/related/3457","request_headers":[]},"share":{"url":"https://truyenx.link/truyensextv/channels/share/chuyen-cua-chi-va-toi"},"remote_data":{"url":"https://truyenx.link/truyensextv/channels/chuyen-cua-chi-va-toi"}},{"id":"3458-channel","name":"Lưỡi Hoa Đinh Lăng","description":"Hoa Đinh Lăng sở hữu nét đẹp liêu trai của cửu vĩ hồ ... Đôi mắt xếch... Lưỡi nhọn và dài... Bộ móng tỉa tót tinh vi, sắc lẻm. Và hương thơm da thịt lan tỏa xạ hương thơm...","image":null,"label":null,"display":"text-only","type":"text","enable_detail":true,"related":{"url":"https://truyenx.link/truyensextv/channels/related/3458","request_headers":[]},"share":{"url":"https://truyenx.link/truyensextv/channels/share/luoi-hoa-dinh-lang"},"remote_data":{"url":"https://truyenx.link/truyensextv/channels/luoi-hoa-dinh-lang"}},{"id":"3456-channel","name":"Yêu chị hàng xóm","description":"Nhà tôi và nhà chị là hàng xóm thân thiết với nhau. Hai nhà chỉ cách nhau một bức tường bao thấp và một luống hoa với đủ loại cây cỏ linh tinh. Chị hơn tôi hai tuổi, đang học...","image":null,"label":null,"display":"text-only","type":"text","enable_detail":true,"related":{"url":"https://truyenx.link/truyensextv/channels/related/3456","request_headers":[]},"share":{"url":"https://truyenx.link/truyensextv/channels/share/yeu-chi-hang-xom"},"remote_data":{"url":"https://truyenx.link/truyensextv/channels/yeu-chi-hang-xom"}},{"id":"3455-channel","name":"Hoa rơi trên xác cặc","description":"Vừa trở về từ Hoa Kỳ, Trang đã vội lao ngay vào công việc, để chuẩn bị cho việc thực hiện các hạng mục của hợp đồng vừa được ký kết. Một tối, hai vợ chồng Hoàng Khôi...","image":null,"label":null,"display":"text-only","type":"text","enable_detail":true,"related":{"url":"https://truyenx.link/truyensextv/channels/related/3455","request_headers":[]},"share":{"url":"https://truyenx.link/truyensextv/channels/share/hoa-roi-tren-xac-cac"},"remote_data":{"url":"https://truyenx.link/truyensextv/channels/hoa-roi-tren-xac-cac"}},{"id":"3454-channel","name":"Cháu gái hờ","description":"Tôi theo Ba vào Sài Gòn sống và tôi được đi học ở Cần Thơ nơi mà người ta gọi là gạo trắng nước trong, sau đó lên tp Hcm học tiếp đến 2001 thì order theo lời Ba tôi về quê...","image":null,"label":null,"display":"text-only","type":"text","enable_detail":true,"related":{"url":"https://truyenx.link/truyensextv/channels/related/3454","request_headers":[]},"share":{"url":"https://truyenx.link/truyensextv/channels/share/chau-gai-ho"},"remote_data":{"url":"https://truyenx.link/truyensextv/channels/chau-gai-ho"}},{"id":"3453-channel","name":"6 múi","description":"A lô! Chị Thanh, 6 múi, cặc to và dài cả tấc hai. Hai triệu, em 1 triệu, chị 1 triệu chị Ok không? Nghe có vẻ được đấy, có sẵn hàng ở bên đó không, để em qua kiểm hàng trước...","image":null,"label":null,"display":"text-only","type":"text","enable_detail":true,"related":{"url":"https://truyenx.link/truyensextv/channels/related/3453","request_headers":[]},"share":{"url":"https://truyenx.link/truyensextv/channels/share/6-mui"},"remote_data":{"url":"https://truyenx.link/truyensextv/channels/6-mui"}},{"id":"3452-channel","name":"Trai dân tộc","description":"Tôi tên là mạnh, bố tôi đặt tên mạnh cho tôi cũng là muốn tôi mạnh, mạnh là mạnh về khoản tình dục giống như ông. Ông nội tôi là người miền xuôi, lên miền núi làm ăn buôn...","image":null,"label":null,"display":"text-only","type":"text","enable_detail":true,"related":{"url":"https://truyenx.link/truyensextv/channels/related/3452","request_headers":[]},"share":{"url":"https://truyenx.link/truyensextv/channels/share/trai-dan-toc"},"remote_data":{"url":"https://truyenx.link/truyensextv/channels/trai-dan-toc"}},{"id":"3451-channel","name":"Người trong giang hồ","description":"Sài Gòn 1995. “Ahhh... Ahhhh...” “Lồn em bóp chặt quá... Sướng vô cùng... hít hà” Bạch... Bạch... Bạch. Những âm thanh dâm dục vang vọng trong một căn phòng chật hẹp...","image":null,"label":null,"display":"text-only","type":"text","enable_detail":true,"related":{"url":"https://truyenx.link/truyensextv/channels/related/3451","request_headers":[]},"share":{"url":"https://truyenx.link/truyensextv/channels/share/nguoi-trong-giang-ho"},"remote_data":{"url":"https://truyenx.link/truyensextv/channels/nguoi-trong-giang-ho"}},{"id":"3450-channel","name":"Được em mẫu ảnh BJ","description":"Minh quen em cũng vô tình qua 1 người bạn học cấp 3. Em làm người mẫu ảnh. Mặc dù không cao nhưng dáng người cũng khá đẹp, mông ngực căng đét. Em ấy thì có bồ là người Hàn...","image":null,"label":null,"display":"text-only","type":"text","enable_detail":true,"related":{"url":"https://truyenx.link/truyensextv/channels/related/3450","request_headers":[]},"share":{"url":"https://truyenx.link/truyensextv/channels/share/duoc-em-mau-anh-bj"},"remote_data":{"url":"https://truyenx.link/truyensextv/channels/duoc-em-mau-anh-bj"}},{"id":"3449-channel","name":"LA, Tiên dâm cõi tục","description":"Chuyến bay thẳng của Khôi và Trang đáp xuống phi trường LA. Lúc 6. 05 chiều. Hai nhân viên của Trang: Ngọc Minh và Thu Uyên cũng vừa đến trước đó năm phút theo chuyến bay từ phi...","image":null,"label":null,"display":"text-only","type":"text","enable_detail":true,"related":{"url":"https://truyenx.link/truyensextv/channels/related/3449","request_headers":[]},"share":{"url":"https://truyenx.link/truyensextv/channels/share/la-tien-dam-coi-tuc"},"remote_data":{"url":"https://truyenx.link/truyensextv/channels/la-tien-dam-coi-tuc"}},{"id":"3448-channel","name":"Chiếc vòng thần kỳ","description":"Tám giờ tối, tiếng xe đạp lạch cạch rơi vang lên trong hẻm vắng. Tùng lật đật phóng như bay về nhà. Năm giờ chiều là Tùng học, 5h20′ là nó phải có mặt ở nhà rồi. Nhưng...","image":null,"label":null,"display":"text-only","type":"text","enable_detail":true,"related":{"url":"https://truyenx.link/truyensextv/channels/related/3448","request_headers":[]},"share":{"url":"https://truyenx.link/truyensextv/channels/share/chiec-vong-than-ky"},"remote_data":{"url":"https://truyenx.link/truyensextv/channels/chiec-vong-than-ky"}},{"id":"3447-channel","name":"Cervical cancer - Ung Thư Cổ Tử Cung","description":"Xạ trị khiến Hường bị rụng tóc tới độ trọc lóc. Nhưng, vấn đề nghiêm trọng hơn nhiều ở chỗ: Hường không thể ăn uống bất cứ thứ gì vào cơ thể vì hễ ăn uống vào là...","image":null,"label":null,"display":"text-only","type":"text","enable_detail":true,"related":{"url":"https://truyenx.link/truyensextv/channels/related/3447","request_headers":[]},"share":{"url":"https://truyenx.link/truyensextv/channels/share/cervical-cancer-ung-thu-co-tu-cung"},"remote_data":{"url":"https://truyenx.link/truyensextv/channels/cervical-cancer-ung-thu-co-tu-cung"}},{"id":"3446-channel","name":"Chuyện dâm của vợ chồng em","description":"Thời còn sinh viên chưa cưới. Nhớ có lần ông chồng rủ em về phòng trọ ổng nhậu. Mà phòng ổng thì có ông bạn cùng phòng cũng hay tia em lắm. Nay ổng rủ còn dặn kèm là mặc cái...","image":null,"label":null,"display":"text-only","type":"text","enable_detail":true,"related":{"url":"https://truyenx.link/truyensextv/channels/related/3446","request_headers":[]},"share":{"url":"https://truyenx.link/truyensextv/channels/share/chuyen-dam-cua-vo-chong-em"},"remote_data":{"url":"https://truyenx.link/truyensextv/channels/chuyen-dam-cua-vo-chong-em"}},{"id":"3444-channel","name":"Em là cô gái đam mê sex","description":"Em dùng từ đam mê bởi vì em thật sự thích sex, thích các trải nghiệm về sex, nhưng phải kèm theo cả việc thỏa mãn về tinh thần lẫn cảm xúc. Chứ không bao giờ lên giường với ai...","image":null,"label":null,"display":"text-only","type":"text","enable_detail":true,"related":{"url":"https://truyenx.link/truyensextv/channels/related/3444","request_headers":[]},"share":{"url":"https://truyenx.link/truyensextv/channels/share/em-la-co-gai-dam-me-sex"},"remote_data":{"url":"https://truyenx.link/truyensextv/channels/em-la-co-gai-dam-me-sex"}},{"id":"3445-channel","name":"Chăm phụ lồn vợ thằng khác","description":"Chả là bạn gái hiện tại của mình là bạn cùng phòng với người yêu cũ của mình. Đợt người yêu cũ hờn dỗi mình không quan tâm nên rủ bạn cùng phòng đi nhậu. Về phòng em nó...","image":null,"label":null,"display":"text-only","type":"text","enable_detail":true,"related":{"url":"https://truyenx.link/truyensextv/channels/related/3445","request_headers":[]},"share":{"url":"https://truyenx.link/truyensextv/channels/share/cham-phu-lon-vo-thang-khac"},"remote_data":{"url":"https://truyenx.link/truyensextv/channels/cham-phu-lon-vo-thang-khac"}},{"id":"3443-channel","name":"Thuyền tình nơi viễn xứ","description":"Đứng nhìn theo xe của Rita và Kathy dần mất hút, Khôi mới lững thững đi vào nhà. Bàn ăn đã dọn dẹp, mọi người đều đã về phòng. Khôi bỗng cảm thấy rã rời, nên vào nằm bên...","image":null,"label":null,"display":"text-only","type":"text","enable_detail":true,"related":{"url":"https://truyenx.link/truyensextv/channels/related/3443","request_headers":[]},"share":{"url":"https://truyenx.link/truyensextv/channels/share/thuyen-tinh-noi-vien-xu"},"remote_data":{"url":"https://truyenx.link/truyensextv/channels/thuyen-tinh-noi-vien-xu"}},{"id":"3442-channel","name":"Tiên tộc","description":"ROẠTTTTT!!! ROẠTTT!! ROẠTTT!! Tiếng vải bị xé rách vang lên. Tiếng kêu khóc, tiếng van xin cùng những tiếng cười khả ố đối lập nhau tạo cảm giác hỗn loạn một cách sợ hãi...","image":null,"label":null,"display":"text-only","type":"text","enable_detail":true,"related":{"url":"https://truyenx.link/truyensextv/channels/related/3442","request_headers":[]},"share":{"url":"https://truyenx.link/truyensextv/channels/share/tien-toc"},"remote_data":{"url":"https://truyenx.link/truyensextv/channels/tien-toc"}},{"id":"3440-channel","name":"Nga bị hiếp dâm tập thể","description":"Vừa đóng cửa taxi cho chồng, Nga nhanh chóng quay vào nhà, khoát vội chiếc áo khác bên ngoài vào rồi cất tiếng gọi con bé Lan, đứa con gái đang theo học lớp 11. Cả hai mẹ con nhanh...","image":null,"label":null,"display":"text-only","type":"text","enable_detail":true,"related":{"url":"https://truyenx.link/truyensextv/channels/related/3440","request_headers":[]},"share":{"url":"https://truyenx.link/truyensextv/channels/share/nga-bi-hiep-dam-tap-the"},"remote_data":{"url":"https://truyenx.link/truyensextv/channels/nga-bi-hiep-dam-tap-the"}},{"id":"3441-channel","name":"Nhìn lén mẹ kế thủ dâm","description":"Đối với tôi, hình ảnh mà tôi biết về một người mẹ đó là, bức ảnh đã vàng ố qua năm tháng, nén hương được thắp trong ngày sinh nhật tôi và đôi mắt buồn của bố. Mẹ...","image":null,"label":null,"display":"text-only","type":"text","enable_detail":true,"related":{"url":"https://truyenx.link/truyensextv/channels/related/3441","request_headers":[]},"share":{"url":"https://truyenx.link/truyensextv/channels/share/nhin-len-me-ke-thu-dam"},"remote_data":{"url":"https://truyenx.link/truyensextv/channels/nhin-len-me-ke-thu-dam"}},{"id":"3439-channel","name":"Dũng","description":"Sinh ra và lớn lên tại Thái Bình, một vùng quê lấy việc đồng áng làm công việc mưu sinh, vùng thôn quê tuy nghèo nhưng đầy ắp tình người, Dũng một chàng trai năm nay vừa tròn 15...","image":null,"label":null,"display":"text-only","type":"text","enable_detail":true,"related":{"url":"https://truyenx.link/truyensextv/channels/related/3439","request_headers":[]},"share":{"url":"https://truyenx.link/truyensextv/channels/share/dung"},"remote_data":{"url":"https://truyenx.link/truyensextv/channels/dung"}},{"id":"3438-channel","name":"Loạn luân mẹ con","description":"Tôi tên Long năm nay 17t, tôi sống ở một thị xã nhỏ cách thành phố khoảng 5km, gia đình tôi chỉ có tôi và mẹ tôi sống trong một ngôi nhà nhỏ có hàng rào tường bao bộc. Mẹ tôi...","image":null,"label":null,"display":"text-only","type":"text","enable_detail":true,"related":{"url":"https://truyenx.link/truyensextv/channels/related/3438","request_headers":[]},"share":{"url":"https://truyenx.link/truyensextv/channels/share/loan-luan-me-con"},"remote_data":{"url":"https://truyenx.link/truyensextv/channels/loan-luan-me-con"}},{"id":"3436-channel","name":"Làm đĩ đực","description":"Đĩ có tính là một nghề không? Câu trả lời chắc chắn là có. Thế làm đĩ có được xã hội chấp nhận không? Dĩ nhiên không. Vậy tại sao phải đi làm đĩ? Thật ra chẳng có câu...","image":null,"label":null,"display":"text-only","type":"text","enable_detail":true,"related":{"url":"https://truyenx.link/truyensextv/channels/related/3436","request_headers":[]},"share":{"url":"https://truyenx.link/truyensextv/channels/share/lam-di-duc"},"remote_data":{"url":"https://truyenx.link/truyensextv/channels/lam-di-duc"}},{"id":"3435-channel","name":"Truyện sex Vi Tiểu Bảo","description":"Vi Tiểu Bảo hoàn thành thánh chỉ từ Ngũ Ðài Sơn xuống mới về tới Bắc Kinh. Gã tìm vào Như Quy khách sạn mướn một gian phòng thượng hạng để an trí Song Nhi, sáng mai sẽ vào ra...","image":null,"label":null,"display":"text-only","type":"text","enable_detail":true,"related":{"url":"https://truyenx.link/truyensextv/channels/related/3435","request_headers":[]},"share":{"url":"https://truyenx.link/truyensextv/channels/share/truyen-sex-vi-tieu-bao"},"remote_data":{"url":"https://truyenx.link/truyensextv/channels/truyen-sex-vi-tieu-bao"}},{"id":"3434-channel","name":"Bước chân âm thầm","description":"Như mọi ngày, cô Hoan rời nhà đi đến trường vào lúc gần 8 giờ sáng. Vì trường ở gần, nên cô thường đi bộ để tiện thực hành động tác thể dục luôn. Cô ôm sách vở trong...","image":null,"label":null,"display":"text-only","type":"text","enable_detail":true,"related":{"url":"https://truyenx.link/truyensextv/channels/related/3434","request_headers":[]},"share":{"url":"https://truyenx.link/truyensextv/channels/share/buoc-chan-am-tham"},"remote_data":{"url":"https://truyenx.link/truyensextv/channels/buoc-chan-am-tham"}},{"id":"3433-channel","name":"Florida, biển mặn tình nồng","description":"Được đối tác mời đi Mỹ để tham quan và thương thảo hợp tác liên kết với các tour du lịch ở VN. Trang rủ vợ chồng Khôi và Thư đi cùng, Thư viện cớ có con nhỏ, còn vợ Khôi...","image":null,"label":null,"display":"text-only","type":"text","enable_detail":true,"related":{"url":"https://truyenx.link/truyensextv/channels/related/3433","request_headers":[]},"share":{"url":"https://truyenx.link/truyensextv/channels/share/florida-bien-man-tinh-nong"},"remote_data":{"url":"https://truyenx.link/truyensextv/channels/florida-bien-man-tinh-nong"}},{"id":"3432-channel","name":"Hành trình chinh phục lồn lớp","description":"Tôi là một thằng con trai khá đặc biệt so với các bạn đồng trang lứa. Tuy chỉ mới 16 tuổi nhưng tôi lại có một niềm ham muốn tình dục mãnh liệt. Đó không chỉ đơn giản là ham...","image":null,"label":null,"display":"text-only","type":"text","enable_detail":true,"related":{"url":"https://truyenx.link/truyensextv/channels/related/3432","request_headers":[]},"share":{"url":"https://truyenx.link/truyensextv/channels/share/hanh-trinh-chinh-phuc-lon-lop"},"remote_data":{"url":"https://truyenx.link/truyensextv/channels/hanh-trinh-chinh-phuc-lon-lop"}},{"id":"3431-channel","name":"Thụ tinh","description":"Ông Vũ Cạch! Ông Vũ chọc đôi đũa vào bát và gắp thức ăn cho mọi người. Ăn đi con, ăn nhiều vào rồi đẻ cho bố một thằng cu kháu khỉnh nhé. Ông vũ nhìn Thảo mỉm cười trìu...","image":null,"label":null,"display":"text-only","type":"text","enable_detail":true,"related":{"url":"https://truyenx.link/truyensextv/channels/related/3431","request_headers":[]},"share":{"url":"https://truyenx.link/truyensextv/channels/share/thu-tinh"},"remote_data":{"url":"https://truyenx.link/truyensextv/channels/thu-tinh"}},{"id":"3430-channel","name":"Con đường quan lộ - Quyển 2","description":"VÀO ĐỀ Đối mặt với sự quở trách của Bí thư Thành ủy Trương, An Kiến Quốc chỉ im lặng. Ông ta biết căn bản lúc này Bí thư Trương không nghe ông ta giải thích. Thành ủy và...","image":null,"label":null,"display":"text-only","type":"text","enable_detail":true,"related":{"url":"https://truyenx.link/truyensextv/channels/related/3430","request_headers":[]},"share":{"url":"https://truyenx.link/truyensextv/channels/share/con-duong-quan-lo-quyen-2"},"remote_data":{"url":"https://truyenx.link/truyensextv/channels/con-duong-quan-lo-quyen-2"}}],"load_more":{"pageInfo":{"current_page":45,"last_page":140,"per_page":30,"total":4188},"paging":{"page_key":"page","size_key":"size"},"remote_data":{"url":"https://truyenx.link/truyensextv/channels"}}}