{
  "grid_number": 1,
  "channels": [
    {
      "id": "2648-channel",
      "name": "Những đứa con",
      "description": "Chiều muộn tôi mới về tới nhà. Vừa cho xe vào Gara, bước vào phòng khách đã nghe vợ hỏi: Anh không mang theo điện thoại à? Chị hòa gọi cho em bảo gọi anh mãi mà không nghe máy. Ờ...",
      "image": null,
      "label": null,
      "display": "text-only",
      "type": "text",
      "enable_detail": true,
      "related": {
        "url": "https://truyenx.link/truyensextv/channels/related/2648",
        "request_headers": []
      },
      "share": {
        "url": "https://truyenx.link/truyensextv/channels/share/nhung-dua-con"
      },
      "remote_data": {
        "url": "https://truyenx.link/truyensextv/channels/nhung-dua-con"
      }
    },
    {
      "id": "2647-channel",
      "name": "Bảy ngày hoan lạc và ứng dụng thần kỳ",
      "description": "Ở một vùng ngoại ô, có gia đình rất hạnh phúc gồm ba người và đó là gia đình của Ngọc. Để vun đắp và tiếp lửa, bố mẹ cô quyết định hưởng tuần trăng mật với nhau cho...",
      "image": null,
      "label": null,
      "display": "text-only",
      "type": "text",
      "enable_detail": true,
      "related": {
        "url": "https://truyenx.link/truyensextv/channels/related/2647",
        "request_headers": []
      },
      "share": {
        "url": "https://truyenx.link/truyensextv/channels/share/bay-ngay-hoan-lac-va-ung-dung-than-ky"
      },
      "remote_data": {
        "url": "https://truyenx.link/truyensextv/channels/bay-ngay-hoan-lac-va-ung-dung-than-ky"
      }
    },
    {
      "id": "2646-channel",
      "name": "Nghe lén",
      "description": "Làng quê yên bình bỗng lên cơn sốt đất. Đất trước đây cho cũng không lấy, vậy mà giờ đây miếng nhỏ xấu mà giờ cả tỉ bạc. Do quy hoạch lớn giờ tấc đất là tấc vàng...",
      "image": null,
      "label": null,
      "display": "text-only",
      "type": "text",
      "enable_detail": true,
      "related": {
        "url": "https://truyenx.link/truyensextv/channels/related/2646",
        "request_headers": []
      },
      "share": {
        "url": "https://truyenx.link/truyensextv/channels/share/nghe-len"
      },
      "remote_data": {
        "url": "https://truyenx.link/truyensextv/channels/nghe-len"
      }
    },
    {
      "id": "2645-channel",
      "name": "Ngôi trường kỳ lạ",
      "description": "Mẹ kế: An ơi, xe buýt trường tới rồi kìa... Thanh An: Dạ, con xuống liền. Khi cô bước xuống đứng trước chuyến xe buýt mẹ kế đã nhéo sau lưng cô. Mẹ kế: Tao đã đăng ký cho...",
      "image": null,
      "label": null,
      "display": "text-only",
      "type": "text",
      "enable_detail": true,
      "related": {
        "url": "https://truyenx.link/truyensextv/channels/related/2645",
        "request_headers": []
      },
      "share": {
        "url": "https://truyenx.link/truyensextv/channels/share/ngoi-truong-ky-la"
      },
      "remote_data": {
        "url": "https://truyenx.link/truyensextv/channels/ngoi-truong-ky-la"
      }
    },
    {
      "id": "2644-channel",
      "name": "Đụ cả chị lẫn mẹ của bạn",
      "description": "Thằng Trí giao banh cho thằng Cự, Cự vượt qua hàng rào phòng thủ, đem banh tiến nhanh vào vùng cấm địa sút cái mạnh, thủ môn nhảy lên hứng chận. Wow! Nhưng, banh lọt vào lưới trong...",
      "image": null,
      "label": null,
      "display": "text-only",
      "type": "text",
      "enable_detail": true,
      "related": {
        "url": "https://truyenx.link/truyensextv/channels/related/2644",
        "request_headers": []
      },
      "share": {
        "url": "https://truyenx.link/truyensextv/channels/share/du-ca-chi-lan-me-cua-ban"
      },
      "remote_data": {
        "url": "https://truyenx.link/truyensextv/channels/du-ca-chi-lan-me-cua-ban"
      }
    },
    {
      "id": "2643-channel",
      "name": "Tình dục tuổi 13",
      "description": "Năm đó, Mai rủ chồng đi nghỉ hè ở Phú Quốc. Họ cưới nhau đã trên 5 năm rồi nhưng vẫn chưa có con vì cả hai đặt sự nghiệp lên ưu tiên hàng đầu nên không muốn bị vướng...",
      "image": null,
      "label": null,
      "display": "text-only",
      "type": "text",
      "enable_detail": true,
      "related": {
        "url": "https://truyenx.link/truyensextv/channels/related/2643",
        "request_headers": []
      },
      "share": {
        "url": "https://truyenx.link/truyensextv/channels/share/tinh-duc-tuoi-13"
      },
      "remote_data": {
        "url": "https://truyenx.link/truyensextv/channels/tinh-duc-tuoi-13"
      }
    },
    {
      "id": "2642-channel",
      "name": "Đụ chị dâu sướng lồn",
      "description": "Chị Tuyến đem thêm đồ ăn lên bàn, nhìn anh Bang và nhìn xéo người em chồng tên Bản đang ngồi ăn. Anh chồng thì nhìn ốm yếu còn cậu em thì lực lưỡng nhưng thấp hơn anh. Đứng...",
      "image": null,
      "label": null,
      "display": "text-only",
      "type": "text",
      "enable_detail": true,
      "related": {
        "url": "https://truyenx.link/truyensextv/channels/related/2642",
        "request_headers": []
      },
      "share": {
        "url": "https://truyenx.link/truyensextv/channels/share/du-chi-dau-suong-lon"
      },
      "remote_data": {
        "url": "https://truyenx.link/truyensextv/channels/du-chi-dau-suong-lon"
      }
    },
    {
      "id": "2641-channel",
      "name": "Bạn bè trao đổi",
      "description": "Chuyện kể ông bà Nguyễn Hải rất chịu chơi. Ông tên Hải bà tên Hà. Mới đó mà hôn nhân của ông bà đã gần 20 năm. Họ rất hạnh phúc trong cuộc sống lứa đôi và có một con gái...",
      "image": null,
      "label": null,
      "display": "text-only",
      "type": "text",
      "enable_detail": true,
      "related": {
        "url": "https://truyenx.link/truyensextv/channels/related/2641",
        "request_headers": []
      },
      "share": {
        "url": "https://truyenx.link/truyensextv/channels/share/ban-be-trao-doi"
      },
      "remote_data": {
        "url": "https://truyenx.link/truyensextv/channels/ban-be-trao-doi"
      }
    },
    {
      "id": "2640-channel",
      "name": "Hai cô bạn",
      "description": "Anh chở em đi đâu vậy? Hôm nay về nhà anh nhé. Không phải anh nói sẽ đi khách sạn à? Anh có bất ngờ dành cho em. Nói xong Hùng phóng ga đi nhanh hơn nữa thế là Phượng chỉ biết ôm...",
      "image": null,
      "label": null,
      "display": "text-only",
      "type": "text",
      "enable_detail": true,
      "related": {
        "url": "https://truyenx.link/truyensextv/channels/related/2640",
        "request_headers": []
      },
      "share": {
        "url": "https://truyenx.link/truyensextv/channels/share/hai-co-ban"
      },
      "remote_data": {
        "url": "https://truyenx.link/truyensextv/channels/hai-co-ban"
      }
    },
    {
      "id": "2639-channel",
      "name": "Ở rể",
      "description": "Kể từ hôm nay, Minh bắt đầu cuộc sống ở rể của mình. Gia đình vợ Minh có ba người con gái, vợ Minh tên Thanh là con giữa, trên có Lan là chị cả và em út là Thương. Chị Lan đã...",
      "image": null,
      "label": null,
      "display": "text-only",
      "type": "text",
      "enable_detail": true,
      "related": {
        "url": "https://truyenx.link/truyensextv/channels/related/2639",
        "request_headers": []
      },
      "share": {
        "url": "https://truyenx.link/truyensextv/channels/share/o-re"
      },
      "remote_data": {
        "url": "https://truyenx.link/truyensextv/channels/o-re"
      }
    },
    {
      "id": "2638-channel",
      "name": "Nợ máu phải trả bằng máu",
      "description": "Bịch! Một người đàn ông vừa lĩnh trọn một cú đá từ tên bịt mặt. Hắn đột nhập vào nhà, đánh thuốc mê cả nhà và bây giờ, hai vợ chồng và đứa con cái đang bị trói ở...",
      "image": null,
      "label": null,
      "display": "text-only",
      "type": "text",
      "enable_detail": true,
      "related": {
        "url": "https://truyenx.link/truyensextv/channels/related/2638",
        "request_headers": []
      },
      "share": {
        "url": "https://truyenx.link/truyensextv/channels/share/no-mau-phai-tra-bang-mau"
      },
      "remote_data": {
        "url": "https://truyenx.link/truyensextv/channels/no-mau-phai-tra-bang-mau"
      }
    },
    {
      "id": "2637-channel",
      "name": "Cận thị nặng",
      "description": "Tôi bị cận thị bẩm sinh từ bé, nên đeo kính cận dày cộm. Tôi khá tự ti về điều này. Nên từ bé tôi chỉ có học và học. Tôi bỏ kính ra mà nhất là ban đêm rất kèm nhèm nhìn...",
      "image": null,
      "label": null,
      "display": "text-only",
      "type": "text",
      "enable_detail": true,
      "related": {
        "url": "https://truyenx.link/truyensextv/channels/related/2637",
        "request_headers": []
      },
      "share": {
        "url": "https://truyenx.link/truyensextv/channels/share/can-thi-nang"
      },
      "remote_data": {
        "url": "https://truyenx.link/truyensextv/channels/can-thi-nang"
      }
    },
    {
      "id": "2636-channel",
      "name": "Gia đình Tachibana",
      "description": "Tháng tư... ~Lời kể của Yuu~ Reng Reng Reng... Đồng hồ báo thức kêu... Tôi vặn vẹo tấm ga nệm và tắt báo thức của đồng hồ. Không khí đầu xuân không còn se lạnh và ánh nắng...",
      "image": null,
      "label": null,
      "display": "text-only",
      "type": "text",
      "enable_detail": true,
      "related": {
        "url": "https://truyenx.link/truyensextv/channels/related/2636",
        "request_headers": []
      },
      "share": {
        "url": "https://truyenx.link/truyensextv/channels/share/gia-dinh-tachibana"
      },
      "remote_data": {
        "url": "https://truyenx.link/truyensextv/channels/gia-dinh-tachibana"
      }
    },
    {
      "id": "2635-channel",
      "name": "Con bạn thân",
      "description": "Giữa trưa, cái nóng oi bức muốn cháy da cháy thịt, tôi lủi thủi đi trên vỉa hè thành phố để trở về nhà, đầu đổ mồ hôi ứa ra như tắm. Tiện chân, tôi đá văng cái lon coca...",
      "image": null,
      "label": null,
      "display": "text-only",
      "type": "text",
      "enable_detail": true,
      "related": {
        "url": "https://truyenx.link/truyensextv/channels/related/2635",
        "request_headers": []
      },
      "share": {
        "url": "https://truyenx.link/truyensextv/channels/share/con-ban-than"
      },
      "remote_data": {
        "url": "https://truyenx.link/truyensextv/channels/con-ban-than"
      }
    },
    {
      "id": "2634-channel",
      "name": "Bạn thân phản bội",
      "description": "Không chịu đâu, anh cứ bắt em phải quỳ như cún thế này em mỏi lắm. Mà em nói trước là đêm nay em không chịu để anh đụ vô lỗ đít em đâu nghen. Thiệt không, vậy mà hôm rày có...",
      "image": null,
      "label": null,
      "display": "text-only",
      "type": "text",
      "enable_detail": true,
      "related": {
        "url": "https://truyenx.link/truyensextv/channels/related/2634",
        "request_headers": []
      },
      "share": {
        "url": "https://truyenx.link/truyensextv/channels/share/ban-than-phan-boi"
      },
      "remote_data": {
        "url": "https://truyenx.link/truyensextv/channels/ban-than-phan-boi"
      }
    },
    {
      "id": "2633-channel",
      "name": "Ba dòng tâm sự chung một hướng nhìn",
      "description": "Dòng thứ nhất Tôi đã 62 tuổi, cái tuổi mà đa số phụ nữ không còn mấy đam mê chuyện tình dục. Nhưng tôi khác họ vì trong tôi luôn có sự thèm khát đàn ông. Có thể do cơ địa...",
      "image": null,
      "label": null,
      "display": "text-only",
      "type": "text",
      "enable_detail": true,
      "related": {
        "url": "https://truyenx.link/truyensextv/channels/related/2633",
        "request_headers": []
      },
      "share": {
        "url": "https://truyenx.link/truyensextv/channels/share/ba-dong-tam-su-chung-mot-huong-nhin"
      },
      "remote_data": {
        "url": "https://truyenx.link/truyensextv/channels/ba-dong-tam-su-chung-mot-huong-nhin"
      }
    },
    {
      "id": "2632-channel",
      "name": "Những bà chị dâm đãng",
      "description": "Đang thiu thiu ngủ ở cái võng mắc đầu hè thì tôi nghe tiếng thằng Tiến gọi: Long ơi, Long ơi! Bình thường thì tầm này là thằng Tiến đã đi chơi điện tử rồi chứ có mấy khi ở...",
      "image": null,
      "label": null,
      "display": "text-only",
      "type": "text",
      "enable_detail": true,
      "related": {
        "url": "https://truyenx.link/truyensextv/channels/related/2632",
        "request_headers": []
      },
      "share": {
        "url": "https://truyenx.link/truyensextv/channels/share/nhung-ba-chi-dam-dang"
      },
      "remote_data": {
        "url": "https://truyenx.link/truyensextv/channels/nhung-ba-chi-dam-dang"
      }
    },
    {
      "id": "2631-channel",
      "name": "Những cái lồn dâm dục 1",
      "description": "Thời cấp 3 Em là Dung kém tôi một tuổi, hai đứa tôi quen nhau từ khi tôi học lớp 11 còn em học lớp 10, tình yêu tuổi học trò lúc nào cũng đẹp bởi vì sự vô tư trong sáng của nó...",
      "image": null,
      "label": null,
      "display": "text-only",
      "type": "text",
      "enable_detail": true,
      "related": {
        "url": "https://truyenx.link/truyensextv/channels/related/2631",
        "request_headers": []
      },
      "share": {
        "url": "https://truyenx.link/truyensextv/channels/share/nhung-cai-lon-dam-duc-1"
      },
      "remote_data": {
        "url": "https://truyenx.link/truyensextv/channels/nhung-cai-lon-dam-duc-1"
      }
    },
    {
      "id": "2630-channel",
      "name": "Kỳ nghỉ hè đáng nhớ",
      "description": "Em là V 17 tuổi. Hè năm trước em được về quê nội chơi 2 tuần. Nhà bà nội của em thì có bà, thím và 1 con em họ mới học lớp 9. Ở cái tuổi 16 ấy thì thằng con trai nào thấy...",
      "image": null,
      "label": null,
      "display": "text-only",
      "type": "text",
      "enable_detail": true,
      "related": {
        "url": "https://truyenx.link/truyensextv/channels/related/2630",
        "request_headers": []
      },
      "share": {
        "url": "https://truyenx.link/truyensextv/channels/share/ky-nghi-he-dang-nho"
      },
      "remote_data": {
        "url": "https://truyenx.link/truyensextv/channels/ky-nghi-he-dang-nho"
      }
    },
    {
      "id": "2629-channel",
      "name": "Dục vọng gia đình",
      "description": "Năm nay tôi đã 34 tuổi, là 1 người là việc cũng bình thường. Sáng đi chiều về như mọi người, có thể nói nhàm chán. Bạn bè ngày xưa rất đông nhưng qua nhiều sự cố nên tôi...",
      "image": null,
      "label": null,
      "display": "text-only",
      "type": "text",
      "enable_detail": true,
      "related": {
        "url": "https://truyenx.link/truyensextv/channels/related/2629",
        "request_headers": []
      },
      "share": {
        "url": "https://truyenx.link/truyensextv/channels/share/duc-vong-gia-dinh"
      },
      "remote_data": {
        "url": "https://truyenx.link/truyensextv/channels/duc-vong-gia-dinh"
      }
    },
    {
      "id": "2628-channel",
      "name": "Quay lén người yêu thằng bạn",
      "description": "Tôi năm nay 25 tuổi, công việc chính làm cũng đã lâu tại chợ hoa quả cùng với người anh họ của tôi, nhà có cửa hàng cho thuê mặt tiền lớn không có máu đỏ đen nên thời điểm...",
      "image": null,
      "label": null,
      "display": "text-only",
      "type": "text",
      "enable_detail": true,
      "related": {
        "url": "https://truyenx.link/truyensextv/channels/related/2628",
        "request_headers": []
      },
      "share": {
        "url": "https://truyenx.link/truyensextv/channels/share/quay-len-nguoi-yeu-thang-ban"
      },
      "remote_data": {
        "url": "https://truyenx.link/truyensextv/channels/quay-len-nguoi-yeu-thang-ban"
      }
    },
    {
      "id": "2627-channel",
      "name": "Yêu là phải thế!",
      "description": "Ông bảo: Mẹ thằng Thắng dọn hàng nghỉ sớm đi mua đồ ăn tươi hơn mọi ngày nhé, chiều nay nhà mình ăn mừng... Tôi thoáng chút ngạc nhiên, tính hỏi ông cho rõ thì cu Thắng đã le te...",
      "image": null,
      "label": null,
      "display": "text-only",
      "type": "text",
      "enable_detail": true,
      "related": {
        "url": "https://truyenx.link/truyensextv/channels/related/2627",
        "request_headers": []
      },
      "share": {
        "url": "https://truyenx.link/truyensextv/channels/share/yeu-la-phai-the"
      },
      "remote_data": {
        "url": "https://truyenx.link/truyensextv/channels/yeu-la-phai-the"
      }
    },
    {
      "id": "2626-channel",
      "name": "Con gái mới lớn",
      "description": "Mùa hè năm đó tôi được Cậu Mợ 3 kêu tôi về chơi với Cậu Mợ trong mùa nghỉ hè. Được về cái tỉnh nhỏ này tôi vui lắm. Lúc nhỏ tôi thường được về đây nhưng từ lúc...",
      "image": null,
      "label": null,
      "display": "text-only",
      "type": "text",
      "enable_detail": true,
      "related": {
        "url": "https://truyenx.link/truyensextv/channels/related/2626",
        "request_headers": []
      },
      "share": {
        "url": "https://truyenx.link/truyensextv/channels/share/con-gai-moi-lon"
      },
      "remote_data": {
        "url": "https://truyenx.link/truyensextv/channels/con-gai-moi-lon"
      }
    },
    {
      "id": "2625-channel",
      "name": "Chuyện gái ngoại tình",
      "description": "Nó là dân tỉnh lẻ một vùng của miền tây sông nước như bao thằng trai mới lớn, nó biết phim sex từ năm lớp 6 do một lần tình cờ phát hiện ra cái đĩa phim mà ba nó cất trong tủ...",
      "image": null,
      "label": null,
      "display": "text-only",
      "type": "text",
      "enable_detail": true,
      "related": {
        "url": "https://truyenx.link/truyensextv/channels/related/2625",
        "request_headers": []
      },
      "share": {
        "url": "https://truyenx.link/truyensextv/channels/share/chuyen-gai-ngoai-tinh"
      },
      "remote_data": {
        "url": "https://truyenx.link/truyensextv/channels/chuyen-gai-ngoai-tinh"
      }
    },
    {
      "id": "2624-channel",
      "name": "Giúp chồng",
      "description": "Xin kể sơ qua về hoàn cảnh gia đình. Tôi và anh cưới nhau đã 5 năm rồi. Tôi cũng khá mạnh về chuyện tình dục còn anh thì ngược lại tuy anh có nhiều ham muốn nhưng chim bé lại bị...",
      "image": null,
      "label": null,
      "display": "text-only",
      "type": "text",
      "enable_detail": true,
      "related": {
        "url": "https://truyenx.link/truyensextv/channels/related/2624",
        "request_headers": []
      },
      "share": {
        "url": "https://truyenx.link/truyensextv/channels/share/giup-chong"
      },
      "remote_data": {
        "url": "https://truyenx.link/truyensextv/channels/giup-chong"
      }
    },
    {
      "id": "2623-channel",
      "name": "Chị giúp việc lấy trinh tôi",
      "description": "Bố tôi là thầu công trình nên tôi phải cùng bố lang bạt suốt. Hè năm ấy nhà tôi dừng chân ở một vùng quê nhỏ, mẹ tôi làm hồ sơ cho tôi vào học lớp 7 ở một trường trong...",
      "image": null,
      "label": null,
      "display": "text-only",
      "type": "text",
      "enable_detail": true,
      "related": {
        "url": "https://truyenx.link/truyensextv/channels/related/2623",
        "request_headers": []
      },
      "share": {
        "url": "https://truyenx.link/truyensextv/channels/share/chi-giup-viec-lay-trinh-toi"
      },
      "remote_data": {
        "url": "https://truyenx.link/truyensextv/channels/chi-giup-viec-lay-trinh-toi"
      }
    },
    {
      "id": "2622-channel",
      "name": "Hiếp dâm mẹ ruột",
      "description": "Thằng Tuấn mở mắt, ngáp ngắn ngáp dài mấy cái, gãi đầu mấy hồi rồi lồm cồm bò dậy, hôm nay là ngày nghỉ hè đầu tiên, bây giờ đã là 10h. Nghỉ hè nên phải ngủ thật đã...",
      "image": null,
      "label": null,
      "display": "text-only",
      "type": "text",
      "enable_detail": true,
      "related": {
        "url": "https://truyenx.link/truyensextv/channels/related/2622",
        "request_headers": []
      },
      "share": {
        "url": "https://truyenx.link/truyensextv/channels/share/hiep-dam-me-ruot"
      },
      "remote_data": {
        "url": "https://truyenx.link/truyensextv/channels/hiep-dam-me-ruot"
      }
    },
    {
      "id": "2621-channel",
      "name": "Bà ngoại, mẹ và vợ",
      "description": "Tôi nhớ năm tôi 7 tuổi thì cậu tôi bị chết đuối ở hồ nước trong công viên thị xã. Cậu bằng tuổi tôi nên thỉnh thoảng khi vui đùa tôi vẫn mày, tao với cậu nên hay bị mẹ...",
      "image": null,
      "label": null,
      "display": "text-only",
      "type": "text",
      "enable_detail": true,
      "related": {
        "url": "https://truyenx.link/truyensextv/channels/related/2621",
        "request_headers": []
      },
      "share": {
        "url": "https://truyenx.link/truyensextv/channels/share/ba-ngoai-me-va-vo"
      },
      "remote_data": {
        "url": "https://truyenx.link/truyensextv/channels/ba-ngoai-me-va-vo"
      }
    },
    {
      "id": "2620-channel",
      "name": "Gấu mẹ vĩ đại",
      "description": "Dạo này rảnh, vợ lại đi làm sớm nên nhận luôn nhiệm vụ đưa con bé đi học thay cho cô giúp việc. Bé nhà mình năm nay 2 tuổi, xinh nhất lớp, chắc giống mẹ nó. Mình yêu con bé...",
      "image": null,
      "label": null,
      "display": "text-only",
      "type": "text",
      "enable_detail": true,
      "related": {
        "url": "https://truyenx.link/truyensextv/channels/related/2620",
        "request_headers": []
      },
      "share": {
        "url": "https://truyenx.link/truyensextv/channels/share/gau-me-vi-dai"
      },
      "remote_data": {
        "url": "https://truyenx.link/truyensextv/channels/gau-me-vi-dai"
      }
    },
    {
      "id": "2619-channel",
      "name": "Cùng chung tổ ấm",
      "description": "Khi ra ngoài nghe người ta gọi tôi là bà Loan tôi cũng chẳng lấy làm phiền lòng. Vì năm nay tôi đã bước sang tuổi 54, đã có hai con gái. Đứa lớn tên Linh nay cũng 36 và đứa nhỏ tên...",
      "image": null,
      "label": null,
      "display": "text-only",
      "type": "text",
      "enable_detail": true,
      "related": {
        "url": "https://truyenx.link/truyensextv/channels/related/2619",
        "request_headers": []
      },
      "share": {
        "url": "https://truyenx.link/truyensextv/channels/share/cung-chung-to-am"
      },
      "remote_data": {
        "url": "https://truyenx.link/truyensextv/channels/cung-chung-to-am"
      }
    }
  ],
  "load_more": {
    "pageInfo": {
      "current_page": 72,
      "last_page": 140,
      "per_page": 30,
      "total": 4188
    },
    "paging": {
      "page_key": "page",
      "size_key": "size"
    },
    "remote_data": {
      "url": "https://truyenx.link/truyensextv/channels"
    }
  }
}