{"grid_number":1,"channels":[{"id":"858-channel","name":"Giấc mơ thành sự thực","description":"Hưng không bao giờ biết được mẹ đẹp như thế nào cho đến ngày đột nhiên thấy mẹ mình theo 1 cách nhìn hoàn toàn mới. Sau 1 ngày đi làm và trở về nhà bước vào nhà bếp, Hưng...","image":null,"label":null,"display":"text-only","type":"text","enable_detail":true,"related":{"url":"https://truyenx.link/truyensextv/channels/related/858","request_headers":[]},"share":{"url":"https://truyenx.link/truyensextv/channels/share/giac-mo-thanh-su-thuc"},"remote_data":{"url":"https://truyenx.link/truyensextv/channels/giac-mo-thanh-su-thuc"}},{"id":"857-channel","name":"Câu chuyện đời tôi - Ngoại truyện","description":"Trời Sài Gòn nắng như đổ lửa, cái nóng nôn nao người khiến một thằng cho dù đã sống ở Sài Gòn nhiều năm cũng cảm thấy thực sự khó chịu, có lẽ cái thời tiết mát lạnh...","image":null,"label":null,"display":"text-only","type":"text","enable_detail":true,"related":{"url":"https://truyenx.link/truyensextv/channels/related/857","request_headers":[]},"share":{"url":"https://truyenx.link/truyensextv/channels/share/cau-chuyen-doi-toi-ngoai-truyen"},"remote_data":{"url":"https://truyenx.link/truyensextv/channels/cau-chuyen-doi-toi-ngoai-truyen"}},{"id":"856-channel","name":"Sinh nhật của con trai","description":"Tôi bước vào nhà bếp với một giỏ đựng đầy quần áo bẩn và đã thấy con trai ở đó. Hoàng Tử, biệt danh mà tôi gọi con trai. Đó đã là 1 giờ chiều và Hoàng đang ngồi ở bếp...","image":null,"label":null,"display":"text-only","type":"text","enable_detail":true,"related":{"url":"https://truyenx.link/truyensextv/channels/related/856","request_headers":[]},"share":{"url":"https://truyenx.link/truyensextv/channels/share/sinh-nhat-cua-con-trai"},"remote_data":{"url":"https://truyenx.link/truyensextv/channels/sinh-nhat-cua-con-trai"}},{"id":"855-channel","name":"Tiếng động lúc nửa đêm","description":"Vân nghe thấy tiếng rên rỉ khe khẽ trong phòng con trai... Bây giờ đã là nửa đêm và Nam – chồng nàng thì đang ngáy như chết bên cạnh. Tiếng động nho nhỏ này đủ để nàng giật...","image":null,"label":null,"display":"text-only","type":"text","enable_detail":true,"related":{"url":"https://truyenx.link/truyensextv/channels/related/855","request_headers":[]},"share":{"url":"https://truyenx.link/truyensextv/channels/share/tieng-dong-luc-nua-dem"},"remote_data":{"url":"https://truyenx.link/truyensextv/channels/tieng-dong-luc-nua-dem"}},{"id":"854-channel","name":"Mẹ và con","description":"Dung từ từ mở mắt khi từng tia nắng chiếu rọi vào mặt nàng qua khung cửa sổ. Nàng nhìn cái đồng hồ trên bàn thì bây giờ đã 8 giờ sáng. Đôi khi Dung cũng cho phép mình ngủ dậy...","image":null,"label":null,"display":"text-only","type":"text","enable_detail":true,"related":{"url":"https://truyenx.link/truyensextv/channels/related/854","request_headers":[]},"share":{"url":"https://truyenx.link/truyensextv/channels/share/me-va-con"},"remote_data":{"url":"https://truyenx.link/truyensextv/channels/me-va-con"}},{"id":"853-channel","name":"Nỗi đau của người chồng","description":"Sau đám cưới chúng tôi lên kế hoạch để đi hưởng tuần trăng mật, và nơi chúng tôi lựa chọn là 1 hòn đảo thuộc tỉnh Quảng Ngãi, đó là đảo Lý Sơn. Nga vợ tôi là con gái duy...","image":null,"label":null,"display":"text-only","type":"text","enable_detail":true,"related":{"url":"https://truyenx.link/truyensextv/channels/related/853","request_headers":[]},"share":{"url":"https://truyenx.link/truyensextv/channels/share/noi-dau-cua-nguoi-chong"},"remote_data":{"url":"https://truyenx.link/truyensextv/channels/noi-dau-cua-nguoi-chong"}},{"id":"852-channel","name":"Người con gái yêu thầm hồi cấp 3","description":"Nhân dịp kỷ niệm 15 năm ra trường, bọn bạn cấp 3 quyết định tổ chức cuộc họp lớp hoành tráng tại Hà Nội vì ai cũng đã có gia đình và sự nghiệp hết cả rồi. Hồi học...","image":null,"label":null,"display":"text-only","type":"text","enable_detail":true,"related":{"url":"https://truyenx.link/truyensextv/channels/related/852","request_headers":[]},"share":{"url":"https://truyenx.link/truyensextv/channels/share/nguoi-con-gai-yeu-tham-hoi-cap-3"},"remote_data":{"url":"https://truyenx.link/truyensextv/channels/nguoi-con-gai-yeu-tham-hoi-cap-3"}},{"id":"851-channel","name":"Yêu điếm","description":"Vợ xin lỗi, vợ không đến được đâu, nhà vợ hôm nay có việc gấp, híc... Ừ, không sao đâu. Vâng, để mai vợ đền cho chồng yêu nha. Ừ, vợ nhớ nha. Vâng. Hôm nay...","image":null,"label":null,"display":"text-only","type":"text","enable_detail":true,"related":{"url":"https://truyenx.link/truyensextv/channels/related/851","request_headers":[]},"share":{"url":"https://truyenx.link/truyensextv/channels/share/yeu-diem"},"remote_data":{"url":"https://truyenx.link/truyensextv/channels/yeu-diem"}},{"id":"850-channel","name":"Nhìn lén và thủ dâm","description":"Câu truyện xảy ra vào 1 buổi tối năm tôi tròn 16 tuổi... Tôi học bài mệt quá ngủ thiếp đi lúc nào mà không biết, tôi tỉnh dậy vì mắc tiểu, đứng dậy rời khỏi bàn học tôi đi...","image":null,"label":null,"display":"text-only","type":"text","enable_detail":true,"related":{"url":"https://truyenx.link/truyensextv/channels/related/850","request_headers":[]},"share":{"url":"https://truyenx.link/truyensextv/channels/share/nhin-len-va-thu-dam"},"remote_data":{"url":"https://truyenx.link/truyensextv/channels/nhin-len-va-thu-dam"}},{"id":"849-channel","name":"Người mẹ yếu đuối","description":"Gia đình thằng Hiếu là một gia đình trung lưu như bao gia đình khác ở Sài Gòn. Ba nó làm việc trong một công ty lớn với mức thu nhập khá cao, nhờ đó mà mẹ nó không cần phải đi...","image":null,"label":null,"display":"text-only","type":"text","enable_detail":true,"related":{"url":"https://truyenx.link/truyensextv/channels/related/849","request_headers":[]},"share":{"url":"https://truyenx.link/truyensextv/channels/share/nguoi-me-yeu-duoi"},"remote_data":{"url":"https://truyenx.link/truyensextv/channels/nguoi-me-yeu-duoi"}},{"id":"848-channel","name":"Mưa bụi","description":"Năm đó, cũng là những ngày ra Tết, vừa trở về sau mấy năm đi học xa nhà. Gác những cái bộn bề của cuộc sống, tôi hối hả hòa vào dòng người đang nô nức du xuân. Khoảng 1...","image":null,"label":null,"display":"text-only","type":"text","enable_detail":true,"related":{"url":"https://truyenx.link/truyensextv/channels/related/848","request_headers":[]},"share":{"url":"https://truyenx.link/truyensextv/channels/share/mua-bui"},"remote_data":{"url":"https://truyenx.link/truyensextv/channels/mua-bui"}},{"id":"847-channel","name":"Dâm điên cuồng","description":"Hồ Gươm... Nơi hắn sáng sớm hôm nào cũng như hôm nào... 1 tháng 30 ngày... 1 năm 365 ngày đều như cơm bữa chạy đủ 3 vòng hồ. Cho dù mưa bão hay cái giá lạnh thấu xương... hắn vẫn...","image":null,"label":null,"display":"text-only","type":"text","enable_detail":true,"related":{"url":"https://truyenx.link/truyensextv/channels/related/847","request_headers":[]},"share":{"url":"https://truyenx.link/truyensextv/channels/share/dam-dien-cuong"},"remote_data":{"url":"https://truyenx.link/truyensextv/channels/dam-dien-cuong"}},{"id":"846-channel","name":"Người con gái đã đi ngang đời tôi","description":"Tôi quen em trong một lần đi nhậu cùng cơ quan – em là tiếp viên ở quán nhậu đó, phải nói lần đầu tiên gặp em đã làm cho tôi xao xuyến. Rồi sau đó, tôi thường đến quán nhậu...","image":null,"label":null,"display":"text-only","type":"text","enable_detail":true,"related":{"url":"https://truyenx.link/truyensextv/channels/related/846","request_headers":[]},"share":{"url":"https://truyenx.link/truyensextv/channels/share/nguoi-con-gai-da-di-ngang-doi-toi"},"remote_data":{"url":"https://truyenx.link/truyensextv/channels/nguoi-con-gai-da-di-ngang-doi-toi"}},{"id":"845-channel","name":"Kỷ niệm đi xem phim","description":"Yêu ba năm rồi cưới, trong suốt ba năm đó và có lẽ cả sau này nữa tôi sẽ chẳng bao giờ tìm lại được phút giây thăng hoa cuồng nhiệt đến như vậy, trong một đêm xem phim cùng...","image":null,"label":null,"display":"text-only","type":"text","enable_detail":true,"related":{"url":"https://truyenx.link/truyensextv/channels/related/845","request_headers":[]},"share":{"url":"https://truyenx.link/truyensextv/channels/share/ky-niem-di-xem-phim"},"remote_data":{"url":"https://truyenx.link/truyensextv/channels/ky-niem-di-xem-phim"}},{"id":"844-channel","name":"Nhớ cái bướm dâm","description":"Câu chuyện này xảy ra đã khá lâu rồi. Ngày đó Hà Nội vẫn còn yên bình lắm, nhớ những đêm cả hội bạn đi chơi lang thang, 2 3h sáng mới về đến nhà. Mà chả vướng bận gì...","image":null,"label":null,"display":"text-only","type":"text","enable_detail":true,"related":{"url":"https://truyenx.link/truyensextv/channels/related/844","request_headers":[]},"share":{"url":"https://truyenx.link/truyensextv/channels/share/nho-cai-buom-dam"},"remote_data":{"url":"https://truyenx.link/truyensextv/channels/nho-cai-buom-dam"}},{"id":"843-channel","name":"Cô giáo bướng bỉnh và tên lái xe cứng đầu","description":"Vừa tắm xong sau chuyến đi hơn 1000km không ngủ, trên tay chiếc khăn tắm đang lau khô người thì điện thoại có cuộc gọi đến. Là thằng L gọi... Nói nhanh kẻo trễ... Đm mày không...","image":null,"label":null,"display":"text-only","type":"text","enable_detail":true,"related":{"url":"https://truyenx.link/truyensextv/channels/related/843","request_headers":[]},"share":{"url":"https://truyenx.link/truyensextv/channels/share/co-giao-buong-binh-va-ten-lai-xe-cung-dau"},"remote_data":{"url":"https://truyenx.link/truyensextv/channels/co-giao-buong-binh-va-ten-lai-xe-cung-dau"}},{"id":"842-channel","name":"Vợ chồng tôi","description":"Người ta nói “vợ chồng bằng tuổi nằm duỗi mà ăn”, thế nhưng có lẽ chưa gặp thời nên kinh tế của 2 vợ chồng tôi còn khá eo hẹp, đặc biệt kể từ khi có em bé thì...","image":null,"label":null,"display":"text-only","type":"text","enable_detail":true,"related":{"url":"https://truyenx.link/truyensextv/channels/related/842","request_headers":[]},"share":{"url":"https://truyenx.link/truyensextv/channels/share/vo-chong-toi"},"remote_data":{"url":"https://truyenx.link/truyensextv/channels/vo-chong-toi"}},{"id":"841-channel","name":"Yêu trẻ con - Quyển 1","description":"Không còn lối thoát, tôi đành quay đầu lại. Con đường sỏi dẫn chúng tôi vào sâu trong rừng bỗng chốc trở thành ngõ cụt. Xung quanh tôi, những đám dây leo um tùm chặn mất lối...","image":null,"label":null,"display":"text-only","type":"text","enable_detail":true,"related":{"url":"https://truyenx.link/truyensextv/channels/related/841","request_headers":[]},"share":{"url":"https://truyenx.link/truyensextv/channels/share/yeu-tre-con-quyen-1"},"remote_data":{"url":"https://truyenx.link/truyensextv/channels/yeu-tre-con-quyen-1"}},{"id":"840-channel","name":"Món ăn đặc biệt","description":"Một cặp vợ chồng trẻ ngoài sức khoẻ và niềm đam mê tình dục, còn phải có những bữa cơm gia đình thật ấm áp và hạnh phúc để có thể giữ lửa yêu thương cho một chặng...","image":null,"label":null,"display":"text-only","type":"text","enable_detail":true,"related":{"url":"https://truyenx.link/truyensextv/channels/related/840","request_headers":[]},"share":{"url":"https://truyenx.link/truyensextv/channels/share/mon-an-dac-biet"},"remote_data":{"url":"https://truyenx.link/truyensextv/channels/mon-an-dac-biet"}},{"id":"839-channel","name":"Vợ ông anh họ","description":"Mình có 1 ông anh họ. Anh và mình lớn lên cùng nhau, thời thơ ấu, gia cảnh của 2 anh em chẳng có gì là nổi trội so với các trẻ trong xóm. Gia cảnh 2 anh em cùng nghèo khó như nhau, sáng...","image":null,"label":null,"display":"text-only","type":"text","enable_detail":true,"related":{"url":"https://truyenx.link/truyensextv/channels/related/839","request_headers":[]},"share":{"url":"https://truyenx.link/truyensextv/channels/share/vo-ong-anh-ho"},"remote_data":{"url":"https://truyenx.link/truyensextv/channels/vo-ong-anh-ho"}},{"id":"838-channel","name":"Bệnh dâm","description":"Bà Thúy Hạnh đi chơi về sớm hơn mọi khi bởi hôm nay bà thấy hơi mệt trong người. Mở cửa chưa kịp bước chân vào nhà bà đã nghe thấy tiếng rên rỉ của cô con dâu tương lai yêu...","image":null,"label":null,"display":"text-only","type":"text","enable_detail":true,"related":{"url":"https://truyenx.link/truyensextv/channels/related/838","request_headers":[]},"share":{"url":"https://truyenx.link/truyensextv/channels/share/benh-dam"},"remote_data":{"url":"https://truyenx.link/truyensextv/channels/benh-dam"}},{"id":"837-channel","name":"Gã hàng xóm","description":"Tôi là Phi còn vợ tôi tên Mỹ Lệ, năm nay cả hai đều 33 tuổi và kết quả của hạnh phúc đó là 1 cô con gái nhỏ. Nét đẹp mặn mà quyến rũ của gái 1 con khiến tôi không ít lần...","image":null,"label":null,"display":"text-only","type":"text","enable_detail":true,"related":{"url":"https://truyenx.link/truyensextv/channels/related/837","request_headers":[]},"share":{"url":"https://truyenx.link/truyensextv/channels/share/ga-hang-xom"},"remote_data":{"url":"https://truyenx.link/truyensextv/channels/ga-hang-xom"}},{"id":"836-channel","name":"Mợ tôi thật tuyệt","description":"Một hôm, đi học về vừa ngồi vào mâm cơm thì mẹ tôi bảo: Ăn cơm xong thì lên ở nhà cho bà ngoại Ăn xong bữa cơm tôi lên nhà bà ngoại thì chỉ thấy mợ với cô con gái với một...","image":null,"label":null,"display":"text-only","type":"text","enable_detail":true,"related":{"url":"https://truyenx.link/truyensextv/channels/related/836","request_headers":[]},"share":{"url":"https://truyenx.link/truyensextv/channels/share/mo-toi-that-tuyet"},"remote_data":{"url":"https://truyenx.link/truyensextv/channels/mo-toi-that-tuyet"}},{"id":"835-channel","name":"Đàn bà cũng thủ dâm","description":"Chả là vừa đi công tác hơn chục ngày các bác ạ. Cuối cùng thì cũng về đến nhà và kết thúc chuyến công tác Miền Trung dài 11 ngày. Ra khỏi Cơ quan mình bắt Taxi phi thẳng 1 mạch...","image":null,"label":null,"display":"text-only","type":"text","enable_detail":true,"related":{"url":"https://truyenx.link/truyensextv/channels/related/835","request_headers":[]},"share":{"url":"https://truyenx.link/truyensextv/channels/share/dan-ba-cung-thu-dam"},"remote_data":{"url":"https://truyenx.link/truyensextv/channels/dan-ba-cung-thu-dam"}},{"id":"834-channel","name":"Kỳ thực tập vui vẻ","description":"Tôi là Hoàng, năm nay 22 tuổi, đang thực tập tại chi nhánh một ngân hàng ở thị trấn này. Dù sao thì cũng được về quê nhà, tôi tự động viên vậy khi phải tạm xa Hà Nội phồn hoa...","image":null,"label":null,"display":"text-only","type":"text","enable_detail":true,"related":{"url":"https://truyenx.link/truyensextv/channels/related/834","request_headers":[]},"share":{"url":"https://truyenx.link/truyensextv/channels/share/ky-thuc-tap-vui-ve"},"remote_data":{"url":"https://truyenx.link/truyensextv/channels/ky-thuc-tap-vui-ve"}},{"id":"833-channel","name":"3 somes","description":"Qua một groups facebook chuyên về swing, mình biết anh, hợp nhau nên thân. Anh 7x, cũng dân Hà Nội gốc, nhỏ nhẹ, hài hước, thâm thúy. Anh em mời nhau cafe vài lần rồi thành thân, dễ tâm...","image":null,"label":null,"display":"text-only","type":"text","enable_detail":true,"related":{"url":"https://truyenx.link/truyensextv/channels/related/833","request_headers":[]},"share":{"url":"https://truyenx.link/truyensextv/channels/share/3-somes"},"remote_data":{"url":"https://truyenx.link/truyensextv/channels/3-somes"}},{"id":"832-channel","name":"Ánh mắt","description":"Vào đầu thập niên 80 tại Cần thơ. Hắn là 1 chàng trai 21 tuổi đang thi hành nghĩa vụ đối với đất nước. Trong đơn vị hắn có anh bạn nhà ở gần nơi hắn đóng...","image":null,"label":null,"display":"text-only","type":"text","enable_detail":true,"related":{"url":"https://truyenx.link/truyensextv/channels/related/832","request_headers":[]},"share":{"url":"https://truyenx.link/truyensextv/channels/share/anh-mat"},"remote_data":{"url":"https://truyenx.link/truyensextv/channels/anh-mat"}},{"id":"831-channel","name":"Địt nhau cực sướng","description":"Nam cởi trần, mặc vỏn vẹn cái quần đùi đi ngang phòng bố mẹ thì nghe tiếng rên rỉ, Nam hồi hộp nhìn lén qua cánh cửa khép không chặt... Bố nó nằm ngửa rên hừ hự trong khi mẹ...","image":null,"label":null,"display":"text-only","type":"text","enable_detail":true,"related":{"url":"https://truyenx.link/truyensextv/channels/related/831","request_headers":[]},"share":{"url":"https://truyenx.link/truyensextv/channels/share/dit-nhau-cuc-suong"},"remote_data":{"url":"https://truyenx.link/truyensextv/channels/dit-nhau-cuc-suong"}},{"id":"830-channel","name":"Tuổi 21","description":"Khi còn trẻ, hãy làm những điều điên cuồng và rồ dại để sau này khi đã là một quý ông lịch thiệp hay một người phụ nữ tôn quý, bạn hối tiếc đã không thể thực hiện...","image":null,"label":null,"display":"text-only","type":"text","enable_detail":true,"related":{"url":"https://truyenx.link/truyensextv/channels/related/830","request_headers":[]},"share":{"url":"https://truyenx.link/truyensextv/channels/share/tuoi-21"},"remote_data":{"url":"https://truyenx.link/truyensextv/channels/tuoi-21"}},{"id":"829-channel","name":"Vợ chồng cùng chơi bài","description":"Đây là một trải nghiệm thú vị mà vợ chồng mình sẽ không thể quên. Tối thứ 6... Cho cu Bin ăn xong mình vừa rong xe ra định chở mẹ con Bin xuống nhà ngoại thì trời đổ mưa. Cũng...","image":null,"label":null,"display":"text-only","type":"text","enable_detail":true,"related":{"url":"https://truyenx.link/truyensextv/channels/related/829","request_headers":[]},"share":{"url":"https://truyenx.link/truyensextv/channels/share/vo-chong-cung-choi-bai"},"remote_data":{"url":"https://truyenx.link/truyensextv/channels/vo-chong-cung-choi-bai"}}],"load_more":{"pageInfo":{"current_page":112,"last_page":140,"per_page":30,"total":4188},"paging":{"page_key":"page","size_key":"size"},"remote_data":{"url":"https://truyenx.link/truyensextv/channels"}}}