{
  "grid_number": 1,
  "channels": [
    {
      "id": "3399-channel",
      "name": "Cái giá của loạn luân",
      "description": "Tôi toan đứng dậy định bỏ ra ngoài phòng nhưng bà đã kịp quỳ xuống và ôm chân tôi lại... Mẹ: Mẹ xin lỗi, mẹ van con con đừng nói chuyện này cho ba mà, con mà nói thì mẹ chỉ...",
      "image": null,
      "label": null,
      "display": "text-only",
      "type": "text",
      "enable_detail": true,
      "related": {
        "url": "https://truyenx.link/truyensextv/channels/related/3399",
        "request_headers": []
      },
      "share": {
        "url": "https://truyenx.link/truyensextv/channels/share/cai-gia-cua-loan-luan"
      },
      "remote_data": {
        "url": "https://truyenx.link/truyensextv/channels/cai-gia-cua-loan-luan"
      }
    },
    {
      "id": "3398-channel",
      "name": "Làm tình với bạn bè",
      "description": "Nhắc tới bạn bè, mình lại nhớ đám bạn thời Đại Học. Hồi ấy chơi với nhau cũng thân, vui vẻ lắm. Nhóm được 7 đứa con gái và 9 thằng con trai. Cả đám nguyên là ban chấp hành...",
      "image": null,
      "label": null,
      "display": "text-only",
      "type": "text",
      "enable_detail": true,
      "related": {
        "url": "https://truyenx.link/truyensextv/channels/related/3398",
        "request_headers": []
      },
      "share": {
        "url": "https://truyenx.link/truyensextv/channels/share/lam-tinh-voi-ban-be"
      },
      "remote_data": {
        "url": "https://truyenx.link/truyensextv/channels/lam-tinh-voi-ban-be"
      }
    },
    {
      "id": "3397-channel",
      "name": "Hương vị tình thân",
      "description": "Có bốn thằng thôi mà cứ cãi nhau suốt là thế nào, anh em chia nhau ra mà quản lý chứ. Công việc thì nhiều mà cứ cãi cọ. Chúng mày không làm được thì để tao thuê người ngoài...",
      "image": null,
      "label": null,
      "display": "text-only",
      "type": "text",
      "enable_detail": true,
      "related": {
        "url": "https://truyenx.link/truyensextv/channels/related/3397",
        "request_headers": []
      },
      "share": {
        "url": "https://truyenx.link/truyensextv/channels/share/huong-vi-tinh-than"
      },
      "remote_data": {
        "url": "https://truyenx.link/truyensextv/channels/huong-vi-tinh-than"
      }
    },
    {
      "id": "3395-channel",
      "name": "Địt cả mẹ lẫn con",
      "description": "Câu chuyện bắt đầu từ một đám cưới tại một nhà hàng sang trọng, cô dâu bước vào sảnh đường đầy trang trọng và cao sang, được dõi theo bởi biết bao nhiêu ánh nhìn ngưỡng...",
      "image": null,
      "label": null,
      "display": "text-only",
      "type": "text",
      "enable_detail": true,
      "related": {
        "url": "https://truyenx.link/truyensextv/channels/related/3395",
        "request_headers": []
      },
      "share": {
        "url": "https://truyenx.link/truyensextv/channels/share/dit-ca-me-lan-con"
      },
      "remote_data": {
        "url": "https://truyenx.link/truyensextv/channels/dit-ca-me-lan-con"
      }
    },
    {
      "id": "3396-channel",
      "name": "Phụ nữ dâm",
      "description": "Xe taxi đậu trước cổng nhà, Nam bước xuống xe trong tâm trạng vui vẻ, vui vì anh vừa lấy được lô hàng có giá trị, đồng thời sắp gặp lại Duyên cô vợ xinh đẹp cùng đứa con...",
      "image": null,
      "label": null,
      "display": "text-only",
      "type": "text",
      "enable_detail": true,
      "related": {
        "url": "https://truyenx.link/truyensextv/channels/related/3396",
        "request_headers": []
      },
      "share": {
        "url": "https://truyenx.link/truyensextv/channels/share/phu-nu-dam"
      },
      "remote_data": {
        "url": "https://truyenx.link/truyensextv/channels/phu-nu-dam"
      }
    },
    {
      "id": "3394-channel",
      "name": "Cô giáo Vân",
      "description": "Gặp gỡ Tôi 28 tuổi sau khi đi du học từ nước ngoài về thì được nhận vào dạy ngoại ngữ tại trường đại học ở Hà Nội. Sau khi gặp gỡ toàn bộ giảng viên trong trường thì...",
      "image": null,
      "label": null,
      "display": "text-only",
      "type": "text",
      "enable_detail": true,
      "related": {
        "url": "https://truyenx.link/truyensextv/channels/related/3394",
        "request_headers": []
      },
      "share": {
        "url": "https://truyenx.link/truyensextv/channels/share/co-giao-van"
      },
      "remote_data": {
        "url": "https://truyenx.link/truyensextv/channels/co-giao-van"
      }
    },
    {
      "id": "3393-channel",
      "name": "Đú đởn, lồn khai hoa",
      "description": "Người xưa có câu: “Đụ gái có chửa, sướng nửa cuộc đời”. Bởi vì đàn bà khi có chửa, nội tiết tố trong người thay đổi, làm họ dễ dàng hưng phấn, cuồng nhiệt...",
      "image": null,
      "label": null,
      "display": "text-only",
      "type": "text",
      "enable_detail": true,
      "related": {
        "url": "https://truyenx.link/truyensextv/channels/related/3393",
        "request_headers": []
      },
      "share": {
        "url": "https://truyenx.link/truyensextv/channels/share/du-don-lon-khai-hoa"
      },
      "remote_data": {
        "url": "https://truyenx.link/truyensextv/channels/du-don-lon-khai-hoa"
      }
    },
    {
      "id": "3392-channel",
      "name": "Chơi gái say",
      "description": "Hồi tôi ở chung cư XX ở Linh đàm, đối diện có cặp vợ chồng, chồng 88 vợ 91 có 1 con 2 tuổi. Con vợ cao m55 nặng tầm 45kg vú cam nhưng mông mẩy lắm, suốt ngày mặc quần ngắn bó...",
      "image": null,
      "label": null,
      "display": "text-only",
      "type": "text",
      "enable_detail": true,
      "related": {
        "url": "https://truyenx.link/truyensextv/channels/related/3392",
        "request_headers": []
      },
      "share": {
        "url": "https://truyenx.link/truyensextv/channels/share/choi-gai-say"
      },
      "remote_data": {
        "url": "https://truyenx.link/truyensextv/channels/choi-gai-say"
      }
    },
    {
      "id": "3391-channel",
      "name": "Lần some đầu tiên",
      "description": "Mình quen một anh hơn 2 tuổi từ hồi c3, lên ĐH anh em vẫn thân thiết. Nhà ổng giàu nhất nhì cái huyện đấy, đi học dùng PDA như doanh nhân. Từ hồi năm nhất ổng đã khoe với mình...",
      "image": null,
      "label": null,
      "display": "text-only",
      "type": "text",
      "enable_detail": true,
      "related": {
        "url": "https://truyenx.link/truyensextv/channels/related/3391",
        "request_headers": []
      },
      "share": {
        "url": "https://truyenx.link/truyensextv/channels/share/lan-some-dau-tien"
      },
      "remote_data": {
        "url": "https://truyenx.link/truyensextv/channels/lan-some-dau-tien"
      }
    },
    {
      "id": "3390-channel",
      "name": "Cưới được vợ dâm",
      "description": "Tôi tên D, là nhân viên văn phòng, năm nay 35 tuổi. Vợ tôi hơn tôi 2 tuổi, và làm giáo viên cho một trường cấp 2 gần nhà. Chúng tôi cưới nhau đã hơn 3 năm, thời gian mới quen nhau...",
      "image": null,
      "label": null,
      "display": "text-only",
      "type": "text",
      "enable_detail": true,
      "related": {
        "url": "https://truyenx.link/truyensextv/channels/related/3390",
        "request_headers": []
      },
      "share": {
        "url": "https://truyenx.link/truyensextv/channels/share/cuoi-duoc-vo-dam"
      },
      "remote_data": {
        "url": "https://truyenx.link/truyensextv/channels/cuoi-duoc-vo-dam"
      }
    },
    {
      "id": "3389-channel",
      "name": "Tôi và mẹ bị biến thành bồn chứa tinh",
      "description": "Không phải đối xử với bất kỳ tốt chúng ta đều sẽ nhận lại những điều tốt đẹp. Điển hình là mẹ tôi đã quyết định 1 việc vô cùng sai lầm khi giúp đỡ tên đàn ông...",
      "image": null,
      "label": null,
      "display": "text-only",
      "type": "text",
      "enable_detail": true,
      "related": {
        "url": "https://truyenx.link/truyensextv/channels/related/3389",
        "request_headers": []
      },
      "share": {
        "url": "https://truyenx.link/truyensextv/channels/share/toi-va-me-bi-bien-thanh-bon-chua-tinh"
      },
      "remote_data": {
        "url": "https://truyenx.link/truyensextv/channels/toi-va-me-bi-bien-thanh-bon-chua-tinh"
      }
    },
    {
      "id": "3388-channel",
      "name": "Như một chuyện tình",
      "description": "P nhận vào làm với một vị trí và đồng lương tương đối khá cao, tôi rời xa khung trời...",
      "image": null,
      "label": null,
      "display": "text-only",
      "type": "text",
      "enable_detail": true,
      "related": {
        "url": "https://truyenx.link/truyensextv/channels/related/3388",
        "request_headers": []
      },
      "share": {
        "url": "https://truyenx.link/truyensextv/channels/share/nhu-mot-chuyen-tinh"
      },
      "remote_data": {
        "url": "https://truyenx.link/truyensextv/channels/nhu-mot-chuyen-tinh"
      }
    },
    {
      "id": "3387-channel",
      "name": "Chơi chị đồng nghiệp",
      "description": "Mới ra trường đi làm được giao làm chân quản lý tài liệu. Đợt phải tăng ca làm hồ sơ hoàn công cả cuối tuần. Team có 3 người, cuối tuần lên in, photo hồ sơ đến trưa thì 1 bà...",
      "image": null,
      "label": null,
      "display": "text-only",
      "type": "text",
      "enable_detail": true,
      "related": {
        "url": "https://truyenx.link/truyensextv/channels/related/3387",
        "request_headers": []
      },
      "share": {
        "url": "https://truyenx.link/truyensextv/channels/share/choi-chi-dong-nghiep"
      },
      "remote_data": {
        "url": "https://truyenx.link/truyensextv/channels/choi-chi-dong-nghiep"
      }
    },
    {
      "id": "3386-channel",
      "name": "Bú lồn chị vợ",
      "description": "Câu chuyện của mình thì cũng không có gì đặc biệt nhưng mỗi lần nghĩ tới là nứng kinh khủng. Vốn là mình cưới vợ được 5 năm rồi vợ chồng mình sinh năm 87. Vợ mình là con...",
      "image": null,
      "label": null,
      "display": "text-only",
      "type": "text",
      "enable_detail": true,
      "related": {
        "url": "https://truyenx.link/truyensextv/channels/related/3386",
        "request_headers": []
      },
      "share": {
        "url": "https://truyenx.link/truyensextv/channels/share/bu-lon-chi-vo"
      },
      "remote_data": {
        "url": "https://truyenx.link/truyensextv/channels/bu-lon-chi-vo"
      }
    },
    {
      "id": "3385-channel",
      "name": "Những em rau đáng nhớ",
      "description": "Chuyện là mình làm việc với em đối tác cung cấp vật dụng tên Vân, qua điện thoại, xong thì yahoo chat. Chưa gặp mặt nhưng thấy cách nói chuyện cũng đong đưa. Mình cũng thả thính...",
      "image": null,
      "label": null,
      "display": "text-only",
      "type": "text",
      "enable_detail": true,
      "related": {
        "url": "https://truyenx.link/truyensextv/channels/related/3385",
        "request_headers": []
      },
      "share": {
        "url": "https://truyenx.link/truyensextv/channels/share/nhung-em-rau-dang-nho"
      },
      "remote_data": {
        "url": "https://truyenx.link/truyensextv/channels/nhung-em-rau-dang-nho"
      }
    },
    {
      "id": "3384-channel",
      "name": "Ngọc Huyền",
      "description": "Sinh ra và lớn lên trong một gia đinh gia lao động nghèo ở Cố Ðô Huế, Tôn Nữ Ngọc Huyền cũng mang trong mình một ít dòng máu Hoàng tộc mặc dù trong gia phả nhà nàng cái dòng máu...",
      "image": null,
      "label": null,
      "display": "text-only",
      "type": "text",
      "enable_detail": true,
      "related": {
        "url": "https://truyenx.link/truyensextv/channels/related/3384",
        "request_headers": []
      },
      "share": {
        "url": "https://truyenx.link/truyensextv/channels/share/ngoc-huyen"
      },
      "remote_data": {
        "url": "https://truyenx.link/truyensextv/channels/ngoc-huyen"
      }
    },
    {
      "id": "3383-channel",
      "name": "Bị nhầm là đĩ",
      "description": "Chuyện là tuần trước em có đi du lịch Cô Tô 3 ngày 2 đêm cùng anh người yêu. Đặt một phòng ở tầng 5 một khách sạn nhìn ra biển. Sau một tối mây mưa vần vũ với anh bồ đủ...",
      "image": null,
      "label": null,
      "display": "text-only",
      "type": "text",
      "enable_detail": true,
      "related": {
        "url": "https://truyenx.link/truyensextv/channels/related/3383",
        "request_headers": []
      },
      "share": {
        "url": "https://truyenx.link/truyensextv/channels/share/bi-nham-la-di"
      },
      "remote_data": {
        "url": "https://truyenx.link/truyensextv/channels/bi-nham-la-di"
      }
    },
    {
      "id": "3382-channel",
      "name": "Diệp Phi",
      "description": "Giới thiệu: Một gã công tử nhà giàu thể chất nhu nhược, thuần khiết thiện lương, vốn là đối tượng luôn được mọi người bảo vệ, từ sau khi trải qua hai tháng sinh hoạt tại...",
      "image": null,
      "label": null,
      "display": "text-only",
      "type": "text",
      "enable_detail": true,
      "related": {
        "url": "https://truyenx.link/truyensextv/channels/related/3382",
        "request_headers": []
      },
      "share": {
        "url": "https://truyenx.link/truyensextv/channels/share/diep-phi"
      },
      "remote_data": {
        "url": "https://truyenx.link/truyensextv/channels/diep-phi"
      }
    },
    {
      "id": "3381-channel",
      "name": "Ông Chánh",
      "description": "Bên bờ con sông Giang êm ả, vụ thu đông đã đến lúc thu hoạch, dân làng Từ Phú nhìn từng hàng sóng vàng uốn lượn trong cơn gió rào rạt mà đôi mắt cũng cong cong theo cùng tiếng...",
      "image": null,
      "label": null,
      "display": "text-only",
      "type": "text",
      "enable_detail": true,
      "related": {
        "url": "https://truyenx.link/truyensextv/channels/related/3381",
        "request_headers": []
      },
      "share": {
        "url": "https://truyenx.link/truyensextv/channels/share/ong-chanh"
      },
      "remote_data": {
        "url": "https://truyenx.link/truyensextv/channels/ong-chanh"
      }
    },
    {
      "id": "3380-channel",
      "name": "Kỷ niệm với gái Cà Mau",
      "description": "Năm đó, quen em gái Cà Mau tên H, mới 20 tuổi, cao gần 1.7m . Em giống má y hệt về ngoại hình. Chỉ khác má em có nét mặn mà, thuần thục & đầy đặn của đàn bà có con. Ngược...",
      "image": null,
      "label": null,
      "display": "text-only",
      "type": "text",
      "enable_detail": true,
      "related": {
        "url": "https://truyenx.link/truyensextv/channels/related/3380",
        "request_headers": []
      },
      "share": {
        "url": "https://truyenx.link/truyensextv/channels/share/ky-niem-voi-gai-ca-mau"
      },
      "remote_data": {
        "url": "https://truyenx.link/truyensextv/channels/ky-niem-voi-gai-ca-mau"
      }
    },
    {
      "id": "3379-channel",
      "name": "Địt em gái giận chồng",
      "description": "Đang đi công tác biệt phái ở Sài Gòn, em hàng xóm ở quê cùng chồng và con gái vừa học 12 xong cũng vào Sài Gòn để phỏng vấn du học bên Usa. Cả 3 ở nhờ nhà người quen ở quận...",
      "image": null,
      "label": null,
      "display": "text-only",
      "type": "text",
      "enable_detail": true,
      "related": {
        "url": "https://truyenx.link/truyensextv/channels/related/3379",
        "request_headers": []
      },
      "share": {
        "url": "https://truyenx.link/truyensextv/channels/share/dit-em-gai-gian-chong"
      },
      "remote_data": {
        "url": "https://truyenx.link/truyensextv/channels/dit-em-gai-gian-chong"
      }
    },
    {
      "id": "3378-channel",
      "name": "Nguyên tắc của em",
      "description": "Em đến với mình khá đặc biệt, khi người yêu em không có nhiều thời gian dành cho em lại hơi yếu nữa. Mỗi lần làm tình em rất chăm chỉ bú cu cho mình. Nó giống như đam mê của em...",
      "image": null,
      "label": null,
      "display": "text-only",
      "type": "text",
      "enable_detail": true,
      "related": {
        "url": "https://truyenx.link/truyensextv/channels/related/3378",
        "request_headers": []
      },
      "share": {
        "url": "https://truyenx.link/truyensextv/channels/share/nguyen-tac-cua-em"
      },
      "remote_data": {
        "url": "https://truyenx.link/truyensextv/channels/nguyen-tac-cua-em"
      }
    },
    {
      "id": "3377-channel",
      "name": "Mèo con miệt vườn",
      "description": "Châu Thành, Bến Tre, 06/02/2024. Ai mà tả cảnh đêm thơ mộng với ánh trăng vằng vặc sáng soi, lối đi lúc mờ lúc tỏ, rả rích tiếng dế kêu... sẽ cụt hứng ngay khi bước vào ngôi...",
      "image": null,
      "label": null,
      "display": "text-only",
      "type": "text",
      "enable_detail": true,
      "related": {
        "url": "https://truyenx.link/truyensextv/channels/related/3377",
        "request_headers": []
      },
      "share": {
        "url": "https://truyenx.link/truyensextv/channels/share/meo-con-miet-vuon"
      },
      "remote_data": {
        "url": "https://truyenx.link/truyensextv/channels/meo-con-miet-vuon"
      }
    },
    {
      "id": "3376-channel",
      "name": "Ngu ngơ, lồn vụng dại",
      "description": "Cơm chiều đã sẵn sàng, chỉ chờ Khôi về là dọn ra bàn. Hoàng lau tay, ngồi xuống cạnh bàn, bảo Trang rửa tay rồi cùng ra ngồi chờ. Nhìn Trang đi lại từ phía sau, Hoàng giật mình...",
      "image": null,
      "label": null,
      "display": "text-only",
      "type": "text",
      "enable_detail": true,
      "related": {
        "url": "https://truyenx.link/truyensextv/channels/related/3376",
        "request_headers": []
      },
      "share": {
        "url": "https://truyenx.link/truyensextv/channels/share/ngu-ngo-lon-vung-dai"
      },
      "remote_data": {
        "url": "https://truyenx.link/truyensextv/channels/ngu-ngo-lon-vung-dai"
      }
    },
    {
      "id": "3375-channel",
      "name": "Tôi và em người yêu",
      "description": "Tôi là MT sinh năm 2006, tôi có 1 cô bạn gái kém tôi 1 tuổi được gọi là siêu phẩm khối 11. Tạm gọi người yêu tôi là K mối tình của tụi tôi từ năm tôi lớp 9 và K lớp 8. Hồi...",
      "image": null,
      "label": null,
      "display": "text-only",
      "type": "text",
      "enable_detail": true,
      "related": {
        "url": "https://truyenx.link/truyensextv/channels/related/3375",
        "request_headers": []
      },
      "share": {
        "url": "https://truyenx.link/truyensextv/channels/share/toi-va-em-nguoi-yeu"
      },
      "remote_data": {
        "url": "https://truyenx.link/truyensextv/channels/toi-va-em-nguoi-yeu"
      }
    },
    {
      "id": "3374-channel",
      "name": "Bé dâm cùng dãy trọ",
      "description": "Gấu trọ gần trường, dãy trọ có 5 phòng, 4 phòng là các bạn sinh viên cùng trường, còn 1p là đôi vc trẻ đi làm rồi. Từ chỗ gấu học cách nhà mình gần 40km, rãnh là cũng hay phi...",
      "image": null,
      "label": null,
      "display": "text-only",
      "type": "text",
      "enable_detail": true,
      "related": {
        "url": "https://truyenx.link/truyensextv/channels/related/3374",
        "request_headers": []
      },
      "share": {
        "url": "https://truyenx.link/truyensextv/channels/share/be-dam-cung-day-tro"
      },
      "remote_data": {
        "url": "https://truyenx.link/truyensextv/channels/be-dam-cung-day-tro"
      }
    },
    {
      "id": "3373-channel",
      "name": "Địt em môi giới chứng khoán",
      "description": "Mấy năm trước, tôi làm ăn cũng tốt, có chút vốn cò con, nên quyết định đầu tư chứng khoán. Lúc mở tài khoản thì có 2 em tư vấn bên công ty ck đến giải thích và làm hồ sơ cho...",
      "image": null,
      "label": null,
      "display": "text-only",
      "type": "text",
      "enable_detail": true,
      "related": {
        "url": "https://truyenx.link/truyensextv/channels/related/3373",
        "request_headers": []
      },
      "share": {
        "url": "https://truyenx.link/truyensextv/channels/share/dit-em-moi-gioi-chung-khoan"
      },
      "remote_data": {
        "url": "https://truyenx.link/truyensextv/channels/dit-em-moi-gioi-chung-khoan"
      }
    },
    {
      "id": "3372-channel",
      "name": "Cô Mỹ Dung",
      "description": "Cô là mẹ của một thằng bạn của tôi. Tính đến nay thì tôi và thằng bạn này cũng quen nhau được 20 năm rồi. Hơn chục năm trước, khi cô và thằng bạn tôi vừa qua Mỹ, vì chưa...",
      "image": null,
      "label": null,
      "display": "text-only",
      "type": "text",
      "enable_detail": true,
      "related": {
        "url": "https://truyenx.link/truyensextv/channels/related/3372",
        "request_headers": []
      },
      "share": {
        "url": "https://truyenx.link/truyensextv/channels/share/co-my-dung"
      },
      "remote_data": {
        "url": "https://truyenx.link/truyensextv/channels/co-my-dung"
      }
    },
    {
      "id": "3371-channel",
      "name": "Sứ mệnh Cảnh sát: Đấu tranh cho Công Bằng",
      "description": "Trong một đêm mùa đông u ám, nữ cảnh sát Marie Claire, một người Việt gốc Pháp với vẻ đẹp kiêu sa và sự thông minh sắc bén, nhận nhiệm vụ điều tra một loạt các vụ án mạng...",
      "image": null,
      "label": null,
      "display": "text-only",
      "type": "text",
      "enable_detail": true,
      "related": {
        "url": "https://truyenx.link/truyensextv/channels/related/3371",
        "request_headers": []
      },
      "share": {
        "url": "https://truyenx.link/truyensextv/channels/share/su-menh-canh-sat-dau-tranh-cho-cong-bang"
      },
      "remote_data": {
        "url": "https://truyenx.link/truyensextv/channels/su-menh-canh-sat-dau-tranh-cho-cong-bang"
      }
    },
    {
      "id": "3370-channel",
      "name": "Căn nhà ngoại ô",
      "description": "Hai vợ chồng Hùng lấy nhau được gần 2 năm. Hùng 25 tuổi làm việc ở Cảng, còn Hương 23 tuổi đang làm ở công ty Kiểm toán. Họ sống ở thành phố nhưng vào ngày thứ Bảy là lại...",
      "image": null,
      "label": null,
      "display": "text-only",
      "type": "text",
      "enable_detail": true,
      "related": {
        "url": "https://truyenx.link/truyensextv/channels/related/3370",
        "request_headers": []
      },
      "share": {
        "url": "https://truyenx.link/truyensextv/channels/share/can-nha-ngoai-o"
      },
      "remote_data": {
        "url": "https://truyenx.link/truyensextv/channels/can-nha-ngoai-o"
      }
    }
  ],
  "load_more": {
    "pageInfo": {
      "current_page": 47,
      "last_page": 140,
      "per_page": 30,
      "total": 4188
    },
    "paging": {
      "page_key": "page",
      "size_key": "size"
    },
    "remote_data": {
      "url": "https://truyenx.link/truyensextv/channels"
    }
  }
}