{"grid_number":1,"channels":[{"id":"1788-channel","name":"Chinh phục gái đẹp - Chương 7","description":"Về việc bổ nhiệm Lương Văn Tường, trung ương vẫn rất xem trọng, dự định tới tham dự là một cục phó tổ chức cán bộ của trung ương, nhưng cuối cùng không biết nguyên nhân...","image":null,"label":null,"display":"text-only","type":"text","enable_detail":true,"related":{"url":"https://truyenx.link/truyensextv/channels/related/1788","request_headers":[]},"share":{"url":"https://truyenx.link/truyensextv/channels/share/chinh-phuc-gai-dep-chuong-7"},"remote_data":{"url":"https://truyenx.link/truyensextv/channels/chinh-phuc-gai-dep-chuong-7"}},{"id":"1787-channel","name":"Bẫy tình vợ dâm","description":"Đêm mưa Hà Nội ngày cuối thu, Thùy Dương nằm một mình trằn trọc khó ngủ, cơ thể cô không ngừng thèm muốn cảm giác ấm cúng khi vùi đầu vào ngực Tuấn. Trong người Cô lúc nào...","image":null,"label":null,"display":"text-only","type":"text","enable_detail":true,"related":{"url":"https://truyenx.link/truyensextv/channels/related/1787","request_headers":[]},"share":{"url":"https://truyenx.link/truyensextv/channels/share/bay-tinh-vo-dam"},"remote_data":{"url":"https://truyenx.link/truyensextv/channels/bay-tinh-vo-dam"}},{"id":"1786-channel","name":"Những câu chuyện","description":"Câu chuyện thứ nhất Người ta thường nói nếu như có thể quay lại thời gian thì hay biết mấy. Tôi cũng vậy, nếu tôi có được cỗ máy thời gian thần kỳ của Doraemon thì có lẽ...","image":null,"label":null,"display":"text-only","type":"text","enable_detail":true,"related":{"url":"https://truyenx.link/truyensextv/channels/related/1786","request_headers":[]},"share":{"url":"https://truyenx.link/truyensextv/channels/share/nhung-cau-chuyen"},"remote_data":{"url":"https://truyenx.link/truyensextv/channels/nhung-cau-chuyen"}},{"id":"1785-channel","name":"Ba và tôi","description":"Tuy gọi là ba nhưng thực chất thì chúng tôi chẳng có máu mủ gì cả. Vốn dĩ tôi là một cô gái vùng sâu vùng xa, gia cảnh nghèo nên tôi quyết chí theo đuổi học hành và sự nghiệp...","image":null,"label":null,"display":"text-only","type":"text","enable_detail":true,"related":{"url":"https://truyenx.link/truyensextv/channels/related/1785","request_headers":[]},"share":{"url":"https://truyenx.link/truyensextv/channels/share/ba-va-toi"},"remote_data":{"url":"https://truyenx.link/truyensextv/channels/ba-va-toi"}},{"id":"1784-channel","name":"Đánh thuốc mê em hàng xóm","description":"Chán... chán không biết phải tả thế nào cho hết... Từ ngày thất nghiệp đến nay là hơn hai tháng rồi hắn vẫn chưa tìm được chỗ nào ưng ý. Cũng may là hồi trước hắn cũng kiếm...","image":null,"label":null,"display":"text-only","type":"text","enable_detail":true,"related":{"url":"https://truyenx.link/truyensextv/channels/related/1784","request_headers":[]},"share":{"url":"https://truyenx.link/truyensextv/channels/share/danh-thuoc-me-em-hang-xom"},"remote_data":{"url":"https://truyenx.link/truyensextv/channels/danh-thuoc-me-em-hang-xom"}},{"id":"1783-channel","name":"Cái lồn chùa","description":"Cô dạy học trò đếm theo nhịp tiếng lốc cốc gõ nhịp cầm canh của xe mì Hoành Thánh đánh tan không gian tĩnh mịch của khu xóm nhỏ Bàn Cờ. Xong buổi học, thằng Tạo rủ: Đi ăn mì...","image":null,"label":null,"display":"text-only","type":"text","enable_detail":true,"related":{"url":"https://truyenx.link/truyensextv/channels/related/1783","request_headers":[]},"share":{"url":"https://truyenx.link/truyensextv/channels/share/cai-lon-chua"},"remote_data":{"url":"https://truyenx.link/truyensextv/channels/cai-lon-chua"}},{"id":"1782-channel","name":"Mợ của vợ","description":"Tôi là Nam năm nay 36t, một vợ hai con, tôi làm vườn vợ buôn bán nhỏ. Cuộc sống vợ chồng tôi cũng gọi là tạm ổn, sau một thời gian tích lũy vợ chồng tôi cũng xây được căn nhà...","image":null,"label":null,"display":"text-only","type":"text","enable_detail":true,"related":{"url":"https://truyenx.link/truyensextv/channels/related/1782","request_headers":[]},"share":{"url":"https://truyenx.link/truyensextv/channels/share/mo-cua-vo"},"remote_data":{"url":"https://truyenx.link/truyensextv/channels/mo-cua-vo"}},{"id":"1781-channel","name":"Những em gái thèm đụ - Quyển 2","description":"5h chiều Vn bắt đầu cất cánh 7h15 tối Taiwan, máy bay bắt đầu mở cửa. Cả đoàn 27 người dắt nhau qua cổng hải quan rồi lấy đồ, ngồi đợi xe công ty bắt tạm wifi free của sân...","image":null,"label":null,"display":"text-only","type":"text","enable_detail":true,"related":{"url":"https://truyenx.link/truyensextv/channels/related/1781","request_headers":[]},"share":{"url":"https://truyenx.link/truyensextv/channels/share/nhung-em-gai-them-du-quyen-2"},"remote_data":{"url":"https://truyenx.link/truyensextv/channels/nhung-em-gai-them-du-quyen-2"}},{"id":"1780-channel","name":"Sự ham muốn tuổi 17","description":"Liveshow Nói sơ lược về An, người con gái sinh năm 2000 quê Cà Mau nhưng sinh sống ở Thái Bình từ bé và tôi xin phép kêu bằng nàng hoặc An... gia đình rất chi là giàu có, ba nàng làm...","image":null,"label":null,"display":"text-only","type":"text","enable_detail":true,"related":{"url":"https://truyenx.link/truyensextv/channels/related/1780","request_headers":[]},"share":{"url":"https://truyenx.link/truyensextv/channels/share/su-ham-muon-tuoi-17"},"remote_data":{"url":"https://truyenx.link/truyensextv/channels/su-ham-muon-tuoi-17"}},{"id":"1779-channel","name":"[Truyện sex kinh dị] Thổi kèn","description":"Clarissa ngồi trên chiếc ghế bành sang trọng, ngón tay cô lo lắng xoắn xoắn một lọn tóc vàng óng ả. Phòng chờ được tối giản, những bức tường, trần và sàn nhà trắng toáng và...","image":null,"label":null,"display":"text-only","type":"text","enable_detail":true,"related":{"url":"https://truyenx.link/truyensextv/channels/related/1779","request_headers":[]},"share":{"url":"https://truyenx.link/truyensextv/channels/share/truyen-sex-kinh-di-thoi-ken"},"remote_data":{"url":"https://truyenx.link/truyensextv/channels/truyen-sex-kinh-di-thoi-ken"}},{"id":"1778-channel","name":"Cô vợ dâm của em","description":"Vợ mình đi với bồ cũng nhiều rồi. Lần nào cũng được xem. Thực ra thì sau khi xem lại thì vợ chồng mình càng mặn hơn. Tiếc là tuần sau bồ vợ chuyển công tác. Vợ xin mình đi 1...","image":null,"label":null,"display":"text-only","type":"text","enable_detail":true,"related":{"url":"https://truyenx.link/truyensextv/channels/related/1778","request_headers":[]},"share":{"url":"https://truyenx.link/truyensextv/channels/share/co-vo-dam-cua-em"},"remote_data":{"url":"https://truyenx.link/truyensextv/channels/co-vo-dam-cua-em"}},{"id":"1777-channel","name":"Con đường trở thành chị đại","description":"Ngọc Linh, một cô gái vừa tròn 18 với nhựa sống lúc nào cũng tràn đầy cơ thể. Có thể nói ở cái tuổi này người con gái lúc nào cũng nóng bỏng nhất và đầy ham muốn nhất. Nói...","image":null,"label":null,"display":"text-only","type":"text","enable_detail":true,"related":{"url":"https://truyenx.link/truyensextv/channels/related/1777","request_headers":[]},"share":{"url":"https://truyenx.link/truyensextv/channels/share/con-duong-tro-thanh-chi-dai"},"remote_data":{"url":"https://truyenx.link/truyensextv/channels/con-duong-tro-thanh-chi-dai"}},{"id":"1776-channel","name":"Người mẹ làm đĩ","description":"Tí vừa ngồi xem TV vừa trông mẹ đi chợ về, bên cạnh nó là Tèo, đứa em trai khờ khạo bẩm sinh của nó. Nghe tiếng xe, biết mẹ đã về, nó vội chạy ra cửa đón mẹ. Tí mang đồ...","image":null,"label":null,"display":"text-only","type":"text","enable_detail":true,"related":{"url":"https://truyenx.link/truyensextv/channels/related/1776","request_headers":[]},"share":{"url":"https://truyenx.link/truyensextv/channels/share/nguoi-me-lam-di"},"remote_data":{"url":"https://truyenx.link/truyensextv/channels/nguoi-me-lam-di"}},{"id":"1775-channel","name":"Con trai và mẹ","description":"Tôi năm nay 30 tuổi tên là Kiên. Hôm nay là một ngày đầy mưa gió ở nơi tôi sinh sống nó làm cho con người ta trở nên càng buồn hơn nên tôi quyết định viết ra những dòng chữ này...","image":null,"label":null,"display":"text-only","type":"text","enable_detail":true,"related":{"url":"https://truyenx.link/truyensextv/channels/related/1775","request_headers":[]},"share":{"url":"https://truyenx.link/truyensextv/channels/share/con-trai-va-me"},"remote_data":{"url":"https://truyenx.link/truyensextv/channels/con-trai-va-me"}},{"id":"1774-channel","name":"Vợ tôi thích móc lồn","description":"Số là bấy lâu quen nhau, hai đứa làm tình thật là mỹ...","image":null,"label":null,"display":"text-only","type":"text","enable_detail":true,"related":{"url":"https://truyenx.link/truyensextv/channels/related/1774","request_headers":[]},"share":{"url":"https://truyenx.link/truyensextv/channels/share/vo-toi-thich-moc-lon"},"remote_data":{"url":"https://truyenx.link/truyensextv/channels/vo-toi-thich-moc-lon"}},{"id":"1773-channel","name":"Hận tình","description":"Trần Mạnh Đức là một thanh niên 26 tuổi, sinh ra trong một gia đình mà có cha là một đại gia bất động sản ở đất Hà thành, có thể nói là hắn có một cuộc sống đáng mơ ước...","image":null,"label":null,"display":"text-only","type":"text","enable_detail":true,"related":{"url":"https://truyenx.link/truyensextv/channels/related/1773","request_headers":[]},"share":{"url":"https://truyenx.link/truyensextv/channels/share/han-tinh"},"remote_data":{"url":"https://truyenx.link/truyensextv/channels/han-tinh"}},{"id":"1772-channel","name":"Đại náo học đường","description":"Đang ngồi nhâm nhi gói bim bim với cốc trà đá ở cổng trường thì thấy mấy thằng choai choai lớp mười hai vắt vẻo điếu thuốc trên môi lững thững bước từ quán nước ven...","image":null,"label":null,"display":"text-only","type":"text","enable_detail":true,"related":{"url":"https://truyenx.link/truyensextv/channels/related/1772","request_headers":[]},"share":{"url":"https://truyenx.link/truyensextv/channels/share/dai-nao-hoc-duong"},"remote_data":{"url":"https://truyenx.link/truyensextv/channels/dai-nao-hoc-duong"}},{"id":"1771-channel","name":"Kim Trinh và bạn của chồng","description":"Kim Trinh vừa vén áo cho đứa con gái yêu dấu hơn 4 tháng tuổi bú vừa phải hẩy mông cong ra hết cỡ để đón nhận những cú thúc hết sức thô bạo mà khúc gân khổng lồ của thằng...","image":null,"label":null,"display":"text-only","type":"text","enable_detail":true,"related":{"url":"https://truyenx.link/truyensextv/channels/related/1771","request_headers":[]},"share":{"url":"https://truyenx.link/truyensextv/channels/share/kim-trinh-va-ban-cua-chong"},"remote_data":{"url":"https://truyenx.link/truyensextv/channels/kim-trinh-va-ban-cua-chong"}},{"id":"1770-channel","name":"Hai vợ chồng","description":"Toàn trằn trọc thao thức mãi không ngủ được. Nhìn con bé con đang say nồng trong giấc ngủ, Toàn lại càng nhớ Nhung da diết. Lâu lắm rồi Nhung mới có chuyến đi công tác xa nhà, để...","image":null,"label":null,"display":"text-only","type":"text","enable_detail":true,"related":{"url":"https://truyenx.link/truyensextv/channels/related/1770","request_headers":[]},"share":{"url":"https://truyenx.link/truyensextv/channels/share/hai-vo-chong"},"remote_data":{"url":"https://truyenx.link/truyensextv/channels/hai-vo-chong"}},{"id":"1769-channel","name":"Sói săn mồi - Quyển 3","description":"Bắc Kinh những ngày cuối tháng năm đón những cơn mưa dai dẳng, ẩm ướt kết hợp với không khí bụi mù ô nhiễm bởi nền công nghiệp phát triển không kiểm soát khiến vùng đất...","image":null,"label":null,"display":"text-only","type":"text","enable_detail":true,"related":{"url":"https://truyenx.link/truyensextv/channels/related/1769","request_headers":[]},"share":{"url":"https://truyenx.link/truyensextv/channels/share/soi-san-moi-quyen-3"},"remote_data":{"url":"https://truyenx.link/truyensextv/channels/soi-san-moi-quyen-3"}},{"id":"1768-channel","name":"Dị dương vật","description":"Hàn đứng trước cửa phòng khám nam học do dự đã nửa tiếng đồng hồ. Người qua người lại không biết đã bao nhiêu lượt rồi, người ta chả để ý hắn nhưng bản thân hắn...","image":null,"label":null,"display":"text-only","type":"text","enable_detail":true,"related":{"url":"https://truyenx.link/truyensextv/channels/related/1768","request_headers":[]},"share":{"url":"https://truyenx.link/truyensextv/channels/share/di-duong-vat"},"remote_data":{"url":"https://truyenx.link/truyensextv/channels/di-duong-vat"}},{"id":"1767-channel","name":"Cô tiếp viên hàng không","description":"Cô tiếp viên hàng không này là đứa con gái hư thân mất nết, nó sống ngoài đường nhiều hơn trong nhà. Bạn bè thì toàn cái lũ như nó thường hay gọi là lũ xì cút! Mọi người...","image":null,"label":null,"display":"text-only","type":"text","enable_detail":true,"related":{"url":"https://truyenx.link/truyensextv/channels/related/1767","request_headers":[]},"share":{"url":"https://truyenx.link/truyensextv/channels/share/co-tiep-vien-hang-khong"},"remote_data":{"url":"https://truyenx.link/truyensextv/channels/co-tiep-vien-hang-khong"}},{"id":"1766-channel","name":"Nhường vợ cho cha","description":"Tôi tự giới thiệu, tôi tên Liêu, năm nay 34 tuổi, đang làm việc tại một công ty giày da chức vụ giám sát công đoạn. Tôi có cô vợ tên Nguyễn Hà Ly, Ly làm việc tại một cửa hàng...","image":null,"label":null,"display":"text-only","type":"text","enable_detail":true,"related":{"url":"https://truyenx.link/truyensextv/channels/related/1766","request_headers":[]},"share":{"url":"https://truyenx.link/truyensextv/channels/share/nhuong-vo-cho-cha"},"remote_data":{"url":"https://truyenx.link/truyensextv/channels/nhuong-vo-cho-cha"}},{"id":"1765-channel","name":"Chị vợ dâm","description":"Tôi là Nam năm nay tôi 34 tuổi cao 1m73 nặng 74kg nói tới đây thì mọi người hiểu rồi chứ gì. Ngoại hình thì chưa giống người mẫu nhưng một số nàng phải ngưỡng mộ trong đó có...","image":null,"label":null,"display":"text-only","type":"text","enable_detail":true,"related":{"url":"https://truyenx.link/truyensextv/channels/related/1765","request_headers":[]},"share":{"url":"https://truyenx.link/truyensextv/channels/share/chi-vo-dam"},"remote_data":{"url":"https://truyenx.link/truyensextv/channels/chi-vo-dam"}},{"id":"1764-channel","name":"Tán gái Mỹ","description":"Thứ sáu tuần đó, tôi tiếp tục với những việc mình vẫn làm, và ý định tập gym vào buổi chiều. 3h chiều là lúc tôi làm cho xong những việc dở dang để gói ghém đi tập gym, đang...","image":null,"label":null,"display":"text-only","type":"text","enable_detail":true,"related":{"url":"https://truyenx.link/truyensextv/channels/related/1764","request_headers":[]},"share":{"url":"https://truyenx.link/truyensextv/channels/share/tan-gai-my"},"remote_data":{"url":"https://truyenx.link/truyensextv/channels/tan-gai-my"}},{"id":"1763-channel","name":"Khát khao được đụ","description":"Em Hằng sinh ra vốn mang cái họ của dòng con vua cháu chúa ở cái chốn ngày xưa gọi là cố đô. Hằng nhớ lại cái ngày lâu lắm rồi, khi cô mới vừa bị kẹt. Lúc đó cô rất sợ hãi...","image":null,"label":null,"display":"text-only","type":"text","enable_detail":true,"related":{"url":"https://truyenx.link/truyensextv/channels/related/1763","request_headers":[]},"share":{"url":"https://truyenx.link/truyensextv/channels/share/khat-khao-duoc-du"},"remote_data":{"url":"https://truyenx.link/truyensextv/channels/khat-khao-duoc-du"}},{"id":"1762-channel","name":"Cô nha sĩ dâm đãng","description":"Hồi nhỏ, tôi chúa sợ nhìn thấy máu. Chỉ cần vài giọt nhỏ trước mắt là tôi muốn ngất xỉu ngay. Mấy con nhỏ cùng học có lần thấy tôi choáng váng khi nhìn một đứa đạp đinh...","image":null,"label":null,"display":"text-only","type":"text","enable_detail":true,"related":{"url":"https://truyenx.link/truyensextv/channels/related/1762","request_headers":[]},"share":{"url":"https://truyenx.link/truyensextv/channels/share/co-nha-si-dam-dang"},"remote_data":{"url":"https://truyenx.link/truyensextv/channels/co-nha-si-dam-dang"}},{"id":"1761-channel","name":"Tâm sự tuổi 32","description":"Tôi năm nay 32 tuổi, đã có vợ con, trích ngang lý lịch để các bạn biết những gì mình sắp kể đã là quá khứ. Năm mình 25 tuổi, mình chuẩn bị lấy vợ, cô ấy xinh xắn dễ...","image":null,"label":null,"display":"text-only","type":"text","enable_detail":true,"related":{"url":"https://truyenx.link/truyensextv/channels/related/1761","request_headers":[]},"share":{"url":"https://truyenx.link/truyensextv/channels/share/tam-su-tuoi-32"},"remote_data":{"url":"https://truyenx.link/truyensextv/channels/tam-su-tuoi-32"}},{"id":"1760-channel","name":"Thịt hai em liên tiếp","description":"Nơi góc Bar có một gã còn trẻ đang dốc hết chai bia cuối cùng. Hắn đốt lên 1 điếu thuốc, suy tư về khoảng thời gian hạnh phúc và cũng thật buồn của quá khứ đã đi qua... Đức...","image":null,"label":null,"display":"text-only","type":"text","enable_detail":true,"related":{"url":"https://truyenx.link/truyensextv/channels/related/1760","request_headers":[]},"share":{"url":"https://truyenx.link/truyensextv/channels/share/thit-hai-em-lien-tiep"},"remote_data":{"url":"https://truyenx.link/truyensextv/channels/thit-hai-em-lien-tiep"}},{"id":"1759-channel","name":"Lồn của mẹ, lồn của con","description":"Tôi quen chị lúc mới tới trại tị nạn. Ðộ đó chị khoảng tầm 29, 30 tuổi. Trông chị rất đẹp, mặt trái xoan, da trắng, tóc đen dài. Chị có dáng của một người mẫu. Chị có...","image":null,"label":null,"display":"text-only","type":"text","enable_detail":true,"related":{"url":"https://truyenx.link/truyensextv/channels/related/1759","request_headers":[]},"share":{"url":"https://truyenx.link/truyensextv/channels/share/lon-cua-me-lon-cua-con"},"remote_data":{"url":"https://truyenx.link/truyensextv/channels/lon-cua-me-lon-cua-con"}}],"load_more":{"pageInfo":{"current_page":81,"last_page":140,"per_page":30,"total":4188},"paging":{"page_key":"page","size_key":"size"},"remote_data":{"url":"https://truyenx.link/truyensextv/channels"}}}