{"grid_number":1,"channels":[{"id":"468-channel","name":"Loạn luân mẹ và tôi","description":"Tôi sinh ra trong một gia đình không mấy giàu có, nhưng không đến nỗi đói ăn đói mặc. Cha tôi làm công chức nhà nước, mẹ tôi bán 1 quán nhỏ... Mẹ tôi nay đã hơn 40, nhưng thân...","image":null,"label":null,"display":"text-only","type":"text","enable_detail":true,"related":{"url":"https://truyenx.link/truyensextv/channels/related/468","request_headers":[]},"share":{"url":"https://truyenx.link/truyensextv/channels/share/loan-luan-me-va-toi"},"remote_data":{"url":"https://truyenx.link/truyensextv/channels/loan-luan-me-va-toi"}},{"id":"467-channel","name":"Lovely Girl","description":"Trần Tường Vy là cô bé 17 rất dễ thương. Điều kiện gia đình khá giả, cô lại học giỏi lớp trưởng lớp 11 chuyên Văn. Chính vì thế, có rất nhiều chàng trai trong...","image":null,"label":null,"display":"text-only","type":"text","enable_detail":true,"related":{"url":"https://truyenx.link/truyensextv/channels/related/467","request_headers":[]},"share":{"url":"https://truyenx.link/truyensextv/channels/share/lovely-girl"},"remote_data":{"url":"https://truyenx.link/truyensextv/channels/lovely-girl"}},{"id":"466-channel","name":"Cơn mưa vội","description":"Có một thời như thế! Một thời mỉm cười với những thứ mà cuộc sống đã quá ưu ái cho mình, có một khoảng thời gian để yêu và được yêu, có đôi chút vị ngọt đến đắng...","image":null,"label":null,"display":"text-only","type":"text","enable_detail":true,"related":{"url":"https://truyenx.link/truyensextv/channels/related/466","request_headers":[]},"share":{"url":"https://truyenx.link/truyensextv/channels/share/con-mua-voi"},"remote_data":{"url":"https://truyenx.link/truyensextv/channels/con-mua-voi"}},{"id":"465-channel","name":"Nhã Uyên","description":"Vợ tôi, Nhã Uyên, có một nét đẹp đầm thắm, hiền dịu và sâu lắng đặc trưng của vùng sông Hương – núi Ngự Bình nơi nàng sinh ra. Với chiều cao 1.69m, nặng 47kg, số đo ba vòng...","image":null,"label":null,"display":"text-only","type":"text","enable_detail":true,"related":{"url":"https://truyenx.link/truyensextv/channels/related/465","request_headers":[]},"share":{"url":"https://truyenx.link/truyensextv/channels/share/nha-uyen"},"remote_data":{"url":"https://truyenx.link/truyensextv/channels/nha-uyen"}},{"id":"464-channel","name":"Mẹ tôi là con đĩ","description":"Lần đầu tiên 1 đứa con gái 7 tuổi như tôi chứng kiến sự làm tình lại là cảnh tượng mẹ mình trần trụi với người đàn ông khác chứ không phải là với ba đã tác động sâu...","image":null,"label":null,"display":"text-only","type":"text","enable_detail":true,"related":{"url":"https://truyenx.link/truyensextv/channels/related/464","request_headers":[]},"share":{"url":"https://truyenx.link/truyensextv/channels/share/me-toi-la-con-di"},"remote_data":{"url":"https://truyenx.link/truyensextv/channels/me-toi-la-con-di"}},{"id":"463-channel","name":"Cho gấu đụ với tây","description":"Rảnh rỗi 1 dẫn gấu đi ăn để hâm nóng tình cảm. Chuyện không có gì nếu mình không dắt gấu lên 1 cửa hàng pizza có tiếng sát hồ tây. Chọn 1 bàn ngồi view ra hồ, ăn uống thưởng...","image":null,"label":null,"display":"text-only","type":"text","enable_detail":true,"related":{"url":"https://truyenx.link/truyensextv/channels/related/463","request_headers":[]},"share":{"url":"https://truyenx.link/truyensextv/channels/share/cho-gau-du-voi-tay"},"remote_data":{"url":"https://truyenx.link/truyensextv/channels/cho-gau-du-voi-tay"}},{"id":"462-channel","name":"Thiên thần và ác quỷ","description":"Trường chuyên Nguyễn Du, một trong những ngôi trường có tiếng về chất lượng giảng dạy nhất của Sài thành, hôm nay đón hai giáo viên mới về. “Hôm nay chúng ta có hai giáo...","image":null,"label":null,"display":"text-only","type":"text","enable_detail":true,"related":{"url":"https://truyenx.link/truyensextv/channels/related/462","request_headers":[]},"share":{"url":"https://truyenx.link/truyensextv/channels/share/thien-than-va-ac-quy"},"remote_data":{"url":"https://truyenx.link/truyensextv/channels/thien-than-va-ac-quy"}},{"id":"461-channel","name":"Cô vợ dâm đãng của tôi","description":"Yêu nhau lâu tôi và vợ tôi lại càng hiểu và đồng điệu với nhau về mọi thứ, cuộc sống...và đặt biệt là làm...","image":null,"label":null,"display":"text-only","type":"text","enable_detail":true,"related":{"url":"https://truyenx.link/truyensextv/channels/related/461","request_headers":[]},"share":{"url":"https://truyenx.link/truyensextv/channels/share/co-vo-dam-dang-cua-toi"},"remote_data":{"url":"https://truyenx.link/truyensextv/channels/co-vo-dam-dang-cua-toi"}},{"id":"460-channel","name":"Cô giáo Phương","description":"Miệt Thứ là vùng đất nằm giữa hai tỉnh Kiên Giang và Cà Mau, xưa kia gắn liền với rừng U Minh, là một chốn hoang vu, xa xôi để cô gái Tiền Giang theo chồng về đây chỉ biết thở...","image":null,"label":null,"display":"text-only","type":"text","enable_detail":true,"related":{"url":"https://truyenx.link/truyensextv/channels/related/460","request_headers":[]},"share":{"url":"https://truyenx.link/truyensextv/channels/share/co-giao-phuong"},"remote_data":{"url":"https://truyenx.link/truyensextv/channels/co-giao-phuong"}},{"id":"459-channel","name":"Mối tình thời học sinh","description":"Câu chuyện bắt đầu ở biển... Thật ra đó là thói quen rồi, cứ chiều chiều thì tui lại ra đây hóng mát, mà hóng mát là phụ thôi, hóng gái mới là chính. Chiều nay cũng như thường...","image":null,"label":null,"display":"text-only","type":"text","enable_detail":true,"related":{"url":"https://truyenx.link/truyensextv/channels/related/459","request_headers":[]},"share":{"url":"https://truyenx.link/truyensextv/channels/share/moi-tinh-thoi-hoc-sinh"},"remote_data":{"url":"https://truyenx.link/truyensextv/channels/moi-tinh-thoi-hoc-sinh"}},{"id":"458-channel","name":"Mãi mãi yêu em - Quyển 1","description":"Bến xe cạnh ngôi trường cấp hai đông đúc lạ thường, không có thêm nó thì cũng chẳng mất đi cái sự tấp nập vốn có này. Nó, một thằng sinh viên mới đỗ đại học, ước mơ...","image":null,"label":null,"display":"text-only","type":"text","enable_detail":true,"related":{"url":"https://truyenx.link/truyensextv/channels/related/458","request_headers":[]},"share":{"url":"https://truyenx.link/truyensextv/channels/share/mai-mai-yeu-em-quyen-1"},"remote_data":{"url":"https://truyenx.link/truyensextv/channels/mai-mai-yeu-em-quyen-1"}},{"id":"457-channel","name":"Ký ức tuổi trẻ - Quyển 1","description":"Cuộc đời trãi qua biết bao bể dâu, thăng trầm mà khi nghĩ lại những đoạn ký ức đó luôn cho ta những hoài niệm về nó mãi không thể quên. Chính nó là quá khứ của cuộc đời...","image":null,"label":null,"display":"text-only","type":"text","enable_detail":true,"related":{"url":"https://truyenx.link/truyensextv/channels/related/457","request_headers":[]},"share":{"url":"https://truyenx.link/truyensextv/channels/share/ky-uc-tuoi-tre-quyen-1"},"remote_data":{"url":"https://truyenx.link/truyensextv/channels/ky-uc-tuoi-tre-quyen-1"}},{"id":"456-channel","name":"Ác giả ác báo","description":"Sài Gòn cuối thu, tòa nhà Golden tọa lạc trên con đường Lê Lợi, đây là trụ sở của tập đoàn Đông Á. Trên tầng cao nhất tòa nhà, trong một căn phòng sang trọng, ở chiếc ghế...","image":null,"label":null,"display":"text-only","type":"text","enable_detail":true,"related":{"url":"https://truyenx.link/truyensextv/channels/related/456","request_headers":[]},"share":{"url":"https://truyenx.link/truyensextv/channels/share/ac-gia-ac-bao"},"remote_data":{"url":"https://truyenx.link/truyensextv/channels/ac-gia-ac-bao"}},{"id":"455-channel","name":"Cô giáo Mai","description":"Mai là cô hiệu trưởng của một trường tiểu học nổi tiếng trong thành phố, năm nay bà 37 tuổi, chồng bà là CEO một công ty lớn của nhà nước, bà có 2 người con một gái, một...","image":null,"label":null,"display":"text-only","type":"text","enable_detail":true,"related":{"url":"https://truyenx.link/truyensextv/channels/related/455","request_headers":[]},"share":{"url":"https://truyenx.link/truyensextv/channels/share/co-giao-mai"},"remote_data":{"url":"https://truyenx.link/truyensextv/channels/co-giao-mai"}},{"id":"454-channel","name":"Bố đụ bạn thân của con gái","description":"Tôi 18 tuổi, là nữ. Cực kỳ nghiện sex. Tôi có thể xem sex cả ngày không chán. Đặc biệt, tôi rất dễ nứng khi nhìn thấy cơ thể đẹp của 1 người con gái. Nên tôi chọn cho mình 1...","image":null,"label":null,"display":"text-only","type":"text","enable_detail":true,"related":{"url":"https://truyenx.link/truyensextv/channels/related/454","request_headers":[]},"share":{"url":"https://truyenx.link/truyensextv/channels/share/bo-du-ban-than-cua-con-gai"},"remote_data":{"url":"https://truyenx.link/truyensextv/channels/bo-du-ban-than-cua-con-gai"}},{"id":"453-channel","name":"12 nữ thần - Quyển 1","description":"Căn nhà hai tầng đã cũ kĩ và tối om, đó là nhà của lão Dương, một lão già thích ve vãn gái trẻ và thường trộm đồ lót những bà hàng xóm. Vì tính cách bẩn bựa mà đến 69...","image":null,"label":null,"display":"text-only","type":"text","enable_detail":true,"related":{"url":"https://truyenx.link/truyensextv/channels/related/453","request_headers":[]},"share":{"url":"https://truyenx.link/truyensextv/channels/share/12-nu-than-quyen-1"},"remote_data":{"url":"https://truyenx.link/truyensextv/channels/12-nu-than-quyen-1"}},{"id":"452-channel","name":"Đụ gái dâm đang có thai","description":"Chào các anh em đồng dâm, hôm nay mình xin mạn phép gửi tới anh em một trong những kí ức đẹp nhất trong cuộc đời săn máy bay của mình. Hi vọng anh em đọc và sẽ chia sẻ được...","image":null,"label":null,"display":"text-only","type":"text","enable_detail":true,"related":{"url":"https://truyenx.link/truyensextv/channels/related/452","request_headers":[]},"share":{"url":"https://truyenx.link/truyensextv/channels/share/du-gai-dam-dang-co-thai"},"remote_data":{"url":"https://truyenx.link/truyensextv/channels/du-gai-dam-dang-co-thai"}},{"id":"451-channel","name":"Chị… mối tính đầu tiên","description":"Nói đến chị, một cô gái cao m6, dáng người nhỏ nhắn gầy và điệu cười gọi là toả nắng ấy ạ, dáng người chỉ không cao nhưng bù lại bầu ngực của chị to...","image":null,"label":null,"display":"text-only","type":"text","enable_detail":true,"related":{"url":"https://truyenx.link/truyensextv/channels/related/451","request_headers":[]},"share":{"url":"https://truyenx.link/truyensextv/channels/share/chi-moi-tinh-dau-tien"},"remote_data":{"url":"https://truyenx.link/truyensextv/channels/chi-moi-tinh-dau-tien"}},{"id":"450-channel","name":"Thằng nhà nghèo","description":"Nó sinh ra ở một vùng núi mà người ta hay gọi là khu vực 1 vùng sâu vùng xa, cái làng của nó rất nghèo mà nhà nó thì có lẽ nằm trong những nhà nghèo nhất ở đây, bố nó mất khi...","image":null,"label":null,"display":"text-only","type":"text","enable_detail":true,"related":{"url":"https://truyenx.link/truyensextv/channels/related/450","request_headers":[]},"share":{"url":"https://truyenx.link/truyensextv/channels/share/thang-nha-ngheo"},"remote_data":{"url":"https://truyenx.link/truyensextv/channels/thang-nha-ngheo"}},{"id":"449-channel","name":"Hai ngày hiếp dâm nữ sinh tuổi teen","description":"Một hôm, Linh và Ngọc đang trên đường đi học về ở một con ngõ ít người qua lại. Bỗng nhiên xuất hiện đằng sau hai cô bé là hai thanh niên trạc 30 tuổi. Hai cô bé vừa đi vừa...","image":null,"label":null,"display":"text-only","type":"text","enable_detail":true,"related":{"url":"https://truyenx.link/truyensextv/channels/related/449","request_headers":[]},"share":{"url":"https://truyenx.link/truyensextv/channels/share/hai-ngay-hiep-dam-nu-sinh-tuoi-teen"},"remote_data":{"url":"https://truyenx.link/truyensextv/channels/hai-ngay-hiep-dam-nu-sinh-tuoi-teen"}},{"id":"448-channel","name":"Cô vợ hư hỏng","description":"Hai vợ chồng tôi đều sinh và lớn lên tại Hà Nội. Chúng tôi lấy nhau đã được 4 năm và hiện cả hai đều 27 tuổi. Tôi tên Dũng, người hơi thấp, chỉ cao 1m68, cũng không được...","image":null,"label":null,"display":"text-only","type":"text","enable_detail":true,"related":{"url":"https://truyenx.link/truyensextv/channels/related/448","request_headers":[]},"share":{"url":"https://truyenx.link/truyensextv/channels/share/co-vo-hu-hong"},"remote_data":{"url":"https://truyenx.link/truyensextv/channels/co-vo-hu-hong"}},{"id":"447-channel","name":"Người chị dâm đãng","description":"Quen chị trên facebook, nói chuyện cũng hợp nên 2 chị em quyết định gặp mặt hẹn hò... Cuối tuần đưa chị ra hồ nói chuyện đến 10h thì dẫn chị vô nhà nghỉ. Chị không phản ứng...","image":null,"label":null,"display":"text-only","type":"text","enable_detail":true,"related":{"url":"https://truyenx.link/truyensextv/channels/related/447","request_headers":[]},"share":{"url":"https://truyenx.link/truyensextv/channels/share/nguoi-chi-dam-dang"},"remote_data":{"url":"https://truyenx.link/truyensextv/channels/nguoi-chi-dam-dang"}},{"id":"446-channel","name":"Người tình ướt át","description":"Mọi thứ nó cứ ướt...ướt nhẹp đến sũng nước Ôm em giữ em trong những ngày ướt át, từ trong tâm hồn đến tấm thân em cứ run rẩy trong vòng tay tôi! Ngoài kia sóng gió cứ nhấn...","image":null,"label":null,"display":"text-only","type":"text","enable_detail":true,"related":{"url":"https://truyenx.link/truyensextv/channels/related/446","request_headers":[]},"share":{"url":"https://truyenx.link/truyensextv/channels/share/nguoi-tinh-uot-at"},"remote_data":{"url":"https://truyenx.link/truyensextv/channels/nguoi-tinh-uot-at"}},{"id":"445-channel","name":"Làm cho đàn bà sướng trên giường","description":"Tôi gặp vợ tôi, người đầu ấp tay gối với tôi khá là đặc biệt, từ việc quen, rồi yêu, rồi nện, vân vân... và xung quanh đó còn khá nhiều thứ thú vị Lần đầu gặp cô ấy...","image":null,"label":null,"display":"text-only","type":"text","enable_detail":true,"related":{"url":"https://truyenx.link/truyensextv/channels/related/445","request_headers":[]},"share":{"url":"https://truyenx.link/truyensextv/channels/share/lam-cho-dan-ba-suong-tren-giuong"},"remote_data":{"url":"https://truyenx.link/truyensextv/channels/lam-cho-dan-ba-suong-tren-giuong"}},{"id":"444-channel","name":"Truyện Cô giáo Lan","description":"Chủ nhật, 15:05 p.m. Tại tầng hai quán internet Phong Game 5. Một nhóm 4 bạn trẩu đang ngồi chơi CrossFire, chế độ C4, team Blacklist, 3 đồng đội đã chết, chỉ còn lại một bạn trẩu...","image":null,"label":null,"display":"text-only","type":"text","enable_detail":true,"related":{"url":"https://truyenx.link/truyensextv/channels/related/444","request_headers":[]},"share":{"url":"https://truyenx.link/truyensextv/channels/share/truyen-co-giao-lan"},"remote_data":{"url":"https://truyenx.link/truyensextv/channels/truyen-co-giao-lan"}},{"id":"443-channel","name":"Âm mưu và dục vọng","description":"Mẹ cha thằng chó, bà nhà nó, thằng khốn nạn, thằng mất dậy. Hắn vừa phóng xe vừa lầm bầm chửi. Cái thằng phó giám đốc chết tiệt đã bao lần công kích hắn. Cái thằng chó...","image":null,"label":null,"display":"text-only","type":"text","enable_detail":true,"related":{"url":"https://truyenx.link/truyensextv/channels/related/443","request_headers":[]},"share":{"url":"https://truyenx.link/truyensextv/channels/share/am-muu-va-duc-vong"},"remote_data":{"url":"https://truyenx.link/truyensextv/channels/am-muu-va-duc-vong"}},{"id":"442-channel","name":"Tình mãi xanh","description":"Quê tôi là một tỉnh thuộc vùng trung du, từ bé tôi đi học thuộc loại luôn đứng đầu lớp nên vào cấp 3 bố mẹ cho tôi đi thi rồi đỗ vào học chuyên Toán ở dưới thành phố...","image":null,"label":null,"display":"text-only","type":"text","enable_detail":true,"related":{"url":"https://truyenx.link/truyensextv/channels/related/442","request_headers":[]},"share":{"url":"https://truyenx.link/truyensextv/channels/share/tinh-mai-xanh"},"remote_data":{"url":"https://truyenx.link/truyensextv/channels/tinh-mai-xanh"}},{"id":"441-channel","name":"Đụ bồ cũ","description":"Nó về đến nhà sau mấy tiếng kẹt xe ngoài đường, nó chỉ muốn ngủ 1 giấc thật sâu nhưng không tài nào chợp mắt được. Mở điện thoại thì tin nhắn zalo hiện lên: Anh đang làm...","image":null,"label":null,"display":"text-only","type":"text","enable_detail":true,"related":{"url":"https://truyenx.link/truyensextv/channels/related/441","request_headers":[]},"share":{"url":"https://truyenx.link/truyensextv/channels/share/du-bo-cu"},"remote_data":{"url":"https://truyenx.link/truyensextv/channels/du-bo-cu"}},{"id":"440-channel","name":"Người mẹ ưa khổ dâm","description":"Hắn và mẹ tôi đã quen nhau gần hai năm, hay nói chính xác hơn là mẹ tôi đã được hắn huấn luyện gần hai năm trời. Hắn huấn luyện tốt đến nỗi mẹ tôi còn ngoan hơn cả những...","image":null,"label":null,"display":"text-only","type":"text","enable_detail":true,"related":{"url":"https://truyenx.link/truyensextv/channels/related/440","request_headers":[]},"share":{"url":"https://truyenx.link/truyensextv/channels/share/nguoi-me-ua-kho-dam"},"remote_data":{"url":"https://truyenx.link/truyensextv/channels/nguoi-me-ua-kho-dam"}},{"id":"439-channel","name":"Đồng hồ cát","description":"Từng dòng nước trắng đục, ấm áp chạy ra từ cái lỗ nhỏ của Vy, Phong kêu lên, khuôn mặt tỏ vẻ sung sướng: Đã quá em ơi... Vy kề đôi môi vào sát mặt Phong. Hắn cảm nhận...","image":null,"label":null,"display":"text-only","type":"text","enable_detail":true,"related":{"url":"https://truyenx.link/truyensextv/channels/related/439","request_headers":[]},"share":{"url":"https://truyenx.link/truyensextv/channels/share/dong-ho-cat"},"remote_data":{"url":"https://truyenx.link/truyensextv/channels/dong-ho-cat"}}],"load_more":{"pageInfo":{"current_page":125,"last_page":140,"per_page":30,"total":4188},"paging":{"page_key":"page","size_key":"size"},"remote_data":{"url":"https://truyenx.link/truyensextv/channels"}}}