{"grid_number":1,"channels":[{"id":"3158-channel","name":"Nheo nhóc","description":"10 Đứa con rồi, mà chỉ toàn những vịt giời, lần nào cũng tràn trề hy vọng đẻ con giai, bây giờ đẻ nữa mà vẫn là con gái, thì đúng là đội tuyển bóng đá gồm toàn nữ, rầu...","image":null,"label":null,"display":"text-only","type":"text","enable_detail":true,"related":{"url":"https://truyenx.link/truyensextv/channels/related/3158","request_headers":[]},"share":{"url":"https://truyenx.link/truyensextv/channels/share/nheo-nhoc"},"remote_data":{"url":"https://truyenx.link/truyensextv/channels/nheo-nhoc"}},{"id":"3157-channel","name":"Khách sạn - Hoa Hồng Nhung","description":"Rose Velvet Hotel Bà chủ khách sạn Lý Diễm Lệ, đang kiểm tra thợ điện sửa thang máy của khách sạn. Kiểm tra lại lần cuối, xem thật hoàn hảo cả hai chiều lên xuống của thang máy...","image":null,"label":null,"display":"text-only","type":"text","enable_detail":true,"related":{"url":"https://truyenx.link/truyensextv/channels/related/3157","request_headers":[]},"share":{"url":"https://truyenx.link/truyensextv/channels/share/khach-san-hoa-hong-nhung"},"remote_data":{"url":"https://truyenx.link/truyensextv/channels/khach-san-hoa-hong-nhung"}},{"id":"3156-channel","name":"Nữ pháp sư nghiệp dư","description":"6 giờ chiều, ánh nắng như ngọn nến le lói sau dải mái nhà. Dừng lại ở một quầy bán báo ở chợ bành thành. Chuyện bán báo buổi chiều khỏi cần bàn, cũng giống như khuôn mặt...","image":null,"label":null,"display":"text-only","type":"text","enable_detail":true,"related":{"url":"https://truyenx.link/truyensextv/channels/related/3156","request_headers":[]},"share":{"url":"https://truyenx.link/truyensextv/channels/share/nu-phap-su-nghiep-du"},"remote_data":{"url":"https://truyenx.link/truyensextv/channels/nu-phap-su-nghiep-du"}},{"id":"3154-channel","name":"Đời sinh viên","description":"Tôi sinh và và lớn lên ở 1 thành phố cạnh biển, lớn lên trong cái thành phố mà trường cấp 3 vừa dạy bạn học thật tốt để còn thi đại học, vừa dạy bạn đánh nhau thật...","image":null,"label":null,"display":"text-only","type":"text","enable_detail":true,"related":{"url":"https://truyenx.link/truyensextv/channels/related/3154","request_headers":[]},"share":{"url":"https://truyenx.link/truyensextv/channels/share/doi-sinh-vien"},"remote_data":{"url":"https://truyenx.link/truyensextv/channels/doi-sinh-vien"}},{"id":"3155-channel","name":"Mắt biếc - môi hồng","description":"Anh sướng không? Anh sướng! Nàng bú nút liếm dương vật của khách với tất cả nhiệt tình. Khách quen, tính nết của khách như thế nào, nàng biết rõ. Anh chàng này thích bú cặc. Bú...","image":null,"label":null,"display":"text-only","type":"text","enable_detail":true,"related":{"url":"https://truyenx.link/truyensextv/channels/related/3155","request_headers":[]},"share":{"url":"https://truyenx.link/truyensextv/channels/share/mat-biec-moi-hong"},"remote_data":{"url":"https://truyenx.link/truyensextv/channels/mat-biec-moi-hong"}},{"id":"3153-channel","name":"Chuyện tình mẹ con trên hoang đảo","description":"LỜI TỰA... Kính thưa quý vị độc giả! Tôi vốn là một người không thích những chuyện tình loạn luân. Điều này vốn dĩ rất rõ ràng bởi lẽ trong một xã hội văn minh hiện đại...","image":null,"label":null,"display":"text-only","type":"text","enable_detail":true,"related":{"url":"https://truyenx.link/truyensextv/channels/related/3153","request_headers":[]},"share":{"url":"https://truyenx.link/truyensextv/channels/share/chuyen-tinh-me-con-tren-hoang-dao"},"remote_data":{"url":"https://truyenx.link/truyensextv/channels/chuyen-tinh-me-con-tren-hoang-dao"}},{"id":"3152-channel","name":"Loạn luân lồn cặc","description":"Chơi chung với nhau từ thuở bé, cái thuở còn ở truồng tắm mưa, nhìn thấy hết của nhau, hai đứa nó, một đứa là con ông anh, một đứa là con ông em, tụi nó tò mò, sờ thử cái...","image":null,"label":null,"display":"text-only","type":"text","enable_detail":true,"related":{"url":"https://truyenx.link/truyensextv/channels/related/3152","request_headers":[]},"share":{"url":"https://truyenx.link/truyensextv/channels/share/loan-luan-lon-cac"},"remote_data":{"url":"https://truyenx.link/truyensextv/channels/loan-luan-lon-cac"}},{"id":"3151-channel","name":"Qúy bà tinh nghịch","description":"Sao chi? Ghé nhà ăn sáng hả? Ghé nhà anh Dũng ăn sáng, ảnh mời hai chị em mình! Úi! Em ngại lắm, tay chân ảnh táy máy lắm. Có chị ở đó, đố dám! Vậy là chị không biết rồi, coi...","image":null,"label":null,"display":"text-only","type":"text","enable_detail":true,"related":{"url":"https://truyenx.link/truyensextv/channels/related/3151","request_headers":[]},"share":{"url":"https://truyenx.link/truyensextv/channels/share/quy-ba-tinh-nghich"},"remote_data":{"url":"https://truyenx.link/truyensextv/channels/quy-ba-tinh-nghich"}},{"id":"3150-channel","name":"Của trời cho","description":"Nó ỷ nó có con cặc bảo bối và nghệ thuật làm tình khiến bất kỳ phụ nữ nào sa vào tay nó đều phải đi kiếm nó để nó phục vụ cho sướng tê lồn. Được nó phục vụ cái...","image":null,"label":null,"display":"text-only","type":"text","enable_detail":true,"related":{"url":"https://truyenx.link/truyensextv/channels/related/3150","request_headers":[]},"share":{"url":"https://truyenx.link/truyensextv/channels/share/cua-troi-cho"},"remote_data":{"url":"https://truyenx.link/truyensextv/channels/cua-troi-cho"}},{"id":"3149-channel","name":"Tình vụng trộm","description":"Khoảng hai mươi phút sau, tôi nghe thấy tiếng mở cửa, rồi tiếng vợ tôi cởi quần áo và thay giày. Ngay lập tức, tiếng bước chân của một người khác bước vào cửa, thì thầm...","image":null,"label":null,"display":"text-only","type":"text","enable_detail":true,"related":{"url":"https://truyenx.link/truyensextv/channels/related/3149","request_headers":[]},"share":{"url":"https://truyenx.link/truyensextv/channels/share/tinh-vung-trom"},"remote_data":{"url":"https://truyenx.link/truyensextv/channels/tinh-vung-trom"}},{"id":"3148-channel","name":"Dâm nữ","description":"Tống ba, Liễu ngồi giữa, đàng sau, Tiến hai tay vòng ra đằng trước bóp vú Liễu, đồng thời, tiến thúc con cặc vào mông Liễu. Không vừa gì, Liễu kéo khóa kéo của Tiến xuống...","image":null,"label":null,"display":"text-only","type":"text","enable_detail":true,"related":{"url":"https://truyenx.link/truyensextv/channels/related/3148","request_headers":[]},"share":{"url":"https://truyenx.link/truyensextv/channels/share/dam-nu"},"remote_data":{"url":"https://truyenx.link/truyensextv/channels/dam-nu"}},{"id":"3147-channel","name":"Massage em Liễu","description":"Chỉ riêng cái phong cách ăn mặc của Liễu thôi, ai cũng biết nàng dâm lộ liễu. Áo xẻ xuống tận rốn, chỉ che hờ hai cái đầu ti. Như thế, có nghĩa rằng chỉ hơi cúi xuống làm chi...","image":null,"label":null,"display":"text-only","type":"text","enable_detail":true,"related":{"url":"https://truyenx.link/truyensextv/channels/related/3147","request_headers":[]},"share":{"url":"https://truyenx.link/truyensextv/channels/share/massage-em-lieu"},"remote_data":{"url":"https://truyenx.link/truyensextv/channels/massage-em-lieu"}},{"id":"3146-channel","name":"Vụng trộm","description":"Sinh ra ở một hòn đảo nhỏ ở Quảng Ninh. Từ bé nó đã không biết bố là ai. Ở với mẹ. Học hết cấp 3 nó thi vào trường đại học nhỏ ở Hải Phòng. Gia đình nghèo, mẹ nó...","image":null,"label":null,"display":"text-only","type":"text","enable_detail":true,"related":{"url":"https://truyenx.link/truyensextv/channels/related/3146","request_headers":[]},"share":{"url":"https://truyenx.link/truyensextv/channels/share/vung-trom"},"remote_data":{"url":"https://truyenx.link/truyensextv/channels/vung-trom"}},{"id":"3145-channel","name":"Sói hoang","description":"Hồi mới vào năm nhất, lên Sài gòn tui đã để ý chị, một thiếu phụ chừng gần 30 tuổi có khuôn mặt thanh tú, chiều nào cũng dong con đi khắp xóm để dỗ cho nó ăn, thằng Bi lúc...","image":null,"label":null,"display":"text-only","type":"text","enable_detail":true,"related":{"url":"https://truyenx.link/truyensextv/channels/related/3145","request_headers":[]},"share":{"url":"https://truyenx.link/truyensextv/channels/share/soi-hoang"},"remote_data":{"url":"https://truyenx.link/truyensextv/channels/soi-hoang"}},{"id":"3144-channel","name":"Trai bao","description":"Chuông điện thoại réo vang... Tôi lật đật bắt máy ngay, bên kia sóng: Em đang nứng lồn lắm, anh đến ngay nhà em, em chờ, cửa không khóa... Oh! Mỹ Lệ hả? Anh qua ngay với em, chờ anh...","image":null,"label":null,"display":"text-only","type":"text","enable_detail":true,"related":{"url":"https://truyenx.link/truyensextv/channels/related/3144","request_headers":[]},"share":{"url":"https://truyenx.link/truyensextv/channels/share/trai-bao"},"remote_data":{"url":"https://truyenx.link/truyensextv/channels/trai-bao"}},{"id":"3143-channel","name":"Thợ săn vợ người","description":"Bên trong đen tối gian phòng ánh sáng xuyên qua rèm cửa chiếu xạ đến cảnh tượng trong phòng mơ hồ có thể thấy được đây là một căn phòng kết hôn, chính giữa gian phòng có một...","image":null,"label":null,"display":"text-only","type":"text","enable_detail":true,"related":{"url":"https://truyenx.link/truyensextv/channels/related/3143","request_headers":[]},"share":{"url":"https://truyenx.link/truyensextv/channels/share/tho-san-vo-nguoi"},"remote_data":{"url":"https://truyenx.link/truyensextv/channels/tho-san-vo-nguoi"}},{"id":"3142-channel","name":"Hội kín dâm loạn","description":"Trong căn bếp sạch sẽ tinh tươm, một nồi thịt hầm đang sôi sùng sục, khói bay từ lỗ thoát hơi nghi ngút. Một người phụ nữ đang nấu ăn, tay nàng thoăn thoắt dùng dao. Gương mặt...","image":null,"label":null,"display":"text-only","type":"text","enable_detail":true,"related":{"url":"https://truyenx.link/truyensextv/channels/related/3142","request_headers":[]},"share":{"url":"https://truyenx.link/truyensextv/channels/share/hoi-kin-dam-loan"},"remote_data":{"url":"https://truyenx.link/truyensextv/channels/hoi-kin-dam-loan"}},{"id":"3141-channel","name":"Osin lên làm bà chủ","description":"Biết chồng hay táy máy tay, chân. Nhưng cảnh nhà hổng ai chăm sóc việc nhà, bếp núc. Tâm cũng đã tính hết cả rồi, khi mướn Osin từ dưới quê nhà đưa lên. Có nghĩa rằng lý lịch...","image":null,"label":null,"display":"text-only","type":"text","enable_detail":true,"related":{"url":"https://truyenx.link/truyensextv/channels/related/3141","request_headers":[]},"share":{"url":"https://truyenx.link/truyensextv/channels/share/osin-len-lam-ba-chu"},"remote_data":{"url":"https://truyenx.link/truyensextv/channels/osin-len-lam-ba-chu"}},{"id":"3140-channel","name":"Thôn Huyền hồn","description":"Leng keng... leng keng... Nghe tiếng chuông xin thắp đèn... Chiếc đèn lồng của ai màu tím... Anh sẽ được chọn làm chồng... 12h đêm chúng ta đi miếu hoang nhé... Con trai 22 tuổi thì cùng...","image":null,"label":null,"display":"text-only","type":"text","enable_detail":true,"related":{"url":"https://truyenx.link/truyensextv/channels/related/3140","request_headers":[]},"share":{"url":"https://truyenx.link/truyensextv/channels/share/thon-huyen-hon"},"remote_data":{"url":"https://truyenx.link/truyensextv/channels/thon-huyen-hon"}},{"id":"3139-channel","name":"Chuyện cô Bí Thư Đoàn","description":"Hoàn là một nam sinh lớp 10 ở trường THPT X, có sở thích là máy tính và chụp hình. Anh sống cùng mẹ và hai chị em gái trong một căn nhà nhỏ ở Tân Phú. Ba anh đã mất từ khi anh...","image":null,"label":null,"display":"text-only","type":"text","enable_detail":true,"related":{"url":"https://truyenx.link/truyensextv/channels/related/3139","request_headers":[]},"share":{"url":"https://truyenx.link/truyensextv/channels/share/chuyen-co-bi-thu-doan"},"remote_data":{"url":"https://truyenx.link/truyensextv/channels/chuyen-co-bi-thu-doan"}},{"id":"3138-channel","name":"Người em dâm đãng","description":"2019... Mình thức dậy, đánh răng để bắt đầu một ngày thú vị, vì hôm nay là đám cưới chị Mình, Mình Đánh tí phấn tí son rồi mặt một bộ váy ngắn và áo phông trắng, qua đêm...","image":null,"label":null,"display":"text-only","type":"text","enable_detail":true,"related":{"url":"https://truyenx.link/truyensextv/channels/related/3138","request_headers":[]},"share":{"url":"https://truyenx.link/truyensextv/channels/share/nguoi-em-dam-dang"},"remote_data":{"url":"https://truyenx.link/truyensextv/channels/nguoi-em-dam-dang"}},{"id":"3137-channel","name":"Tài xế Taxi","description":"Tôi 27 tuổi, là tài xế taxi, đang ngồi ở trong chiếc taxi của mình trước cổng trường. Tôi đã đợi khách hàng ở cổng trường hơn một tiếng đồng hồ rồi mà không thấy khách...","image":null,"label":null,"display":"text-only","type":"text","enable_detail":true,"related":{"url":"https://truyenx.link/truyensextv/channels/related/3137","request_headers":[]},"share":{"url":"https://truyenx.link/truyensextv/channels/share/tai-xe-taxi"},"remote_data":{"url":"https://truyenx.link/truyensextv/channels/tai-xe-taxi"}},{"id":"3136-channel","name":"Đồng hồ ngưng đọng thời gian","description":"Dung năm nay 20 tuổi Dung khá là xinh xắn thân hình cân đối Dung đang học đại học mình sẽ kể khúc đầu với vai trò là người dẫn chuyện còn khúc sau thì mình sẽ kể với góc nhìn...","image":null,"label":null,"display":"text-only","type":"text","enable_detail":true,"related":{"url":"https://truyenx.link/truyensextv/channels/related/3136","request_headers":[]},"share":{"url":"https://truyenx.link/truyensextv/channels/share/dong-ho-ngung-dong-thoi-gian"},"remote_data":{"url":"https://truyenx.link/truyensextv/channels/dong-ho-ngung-dong-thoi-gian"}},{"id":"3135-channel","name":"Ngoại tình cùng cô đồng nghiệp","description":"Tho sinh năm 1992, đã lập gia đình và có 1 con trai học lớp 3. Hiện đang là điều dưỡng của trung tâm y tế huyện... Tôi là bác sĩ chung khoa với Tho, 38 tuổi cũng lập gia đình và có 2...","image":null,"label":null,"display":"text-only","type":"text","enable_detail":true,"related":{"url":"https://truyenx.link/truyensextv/channels/related/3135","request_headers":[]},"share":{"url":"https://truyenx.link/truyensextv/channels/share/ngoai-tinh-cung-co-dong-nghiep"},"remote_data":{"url":"https://truyenx.link/truyensextv/channels/ngoai-tinh-cung-co-dong-nghiep"}},{"id":"3134-channel","name":"Biến mẹ thành đĩ","description":"Nó là 1 chàng thanh niên 16 tuổi đang trong độ tuổi dậy thì và người mà khiến nó tò mò nhất khi đến tuổi dậy thì chính là người mẹ thân yêu luôn bên cạnh nó. Mẹ nó tên là G...","image":null,"label":null,"display":"text-only","type":"text","enable_detail":true,"related":{"url":"https://truyenx.link/truyensextv/channels/related/3134","request_headers":[]},"share":{"url":"https://truyenx.link/truyensextv/channels/share/bien-me-thanh-di"},"remote_data":{"url":"https://truyenx.link/truyensextv/channels/bien-me-thanh-di"}},{"id":"3133-channel","name":"Cái lồn có gai","description":"Sự cám dỗ ngọt ngào của gái một con như Trâm Anh, trên đời này hiếm gặp. Anh rể, mình yêu nhau được không? Nàng ngồi gọn lỏn trên đùi tôi, tất nhiên lồn nàng đang đè lên con...","image":null,"label":null,"display":"text-only","type":"text","enable_detail":true,"related":{"url":"https://truyenx.link/truyensextv/channels/related/3133","request_headers":[]},"share":{"url":"https://truyenx.link/truyensextv/channels/share/cai-lon-co-gai"},"remote_data":{"url":"https://truyenx.link/truyensextv/channels/cai-lon-co-gai"}},{"id":"3132-channel","name":"Cuộc sống hàng ngày của mẹ","description":"10 nhưng bù lại mẹ tôi lại có cặp đít nhìn vào là nứng với lại công việc nội trợ nên mẹ tôi nhìn cũng trắng trẻo nên nhìn cũng trẻ hơn so với tuổi. Chuyện là mẹ tôi làm...","image":null,"label":null,"display":"text-only","type":"text","enable_detail":true,"related":{"url":"https://truyenx.link/truyensextv/channels/related/3132","request_headers":[]},"share":{"url":"https://truyenx.link/truyensextv/channels/share/cuoc-song-hang-ngay-cua-me"},"remote_data":{"url":"https://truyenx.link/truyensextv/channels/cuoc-song-hang-ngay-cua-me"}},{"id":"3131-channel","name":"Mặt nạ","description":"Hạnh phúc viên mãn 23h30 đêm, Hoàng vẫn ngồi trên bàn làm việc với chiếc máy tính cùng đống bản thảo chất cao như núi. Những ngón tay thoăn thoắt trên bàn phím nghe tách tách là...","image":null,"label":null,"display":"text-only","type":"text","enable_detail":true,"related":{"url":"https://truyenx.link/truyensextv/channels/related/3131","request_headers":[]},"share":{"url":"https://truyenx.link/truyensextv/channels/share/mat-na"},"remote_data":{"url":"https://truyenx.link/truyensextv/channels/mat-na"}},{"id":"3130-channel","name":"Chạm đáy nỗi đau","description":"Bầu trời nước rơi rả rích, tạo nên những cơn gió làm cho những tán cây nghiêng qua nghiêng lại. Mọi người ở công viên đã dần về hết. Những cặp đôi vẫn luôn thường thấy...","image":null,"label":null,"display":"text-only","type":"text","enable_detail":true,"related":{"url":"https://truyenx.link/truyensextv/channels/related/3130","request_headers":[]},"share":{"url":"https://truyenx.link/truyensextv/channels/share/cham-day-noi-dau"},"remote_data":{"url":"https://truyenx.link/truyensextv/channels/cham-day-noi-dau"}},{"id":"3129-channel","name":"Chat sex thủ dâm với bạn trai cũ","description":"Anh ơi! Em nứng... Em nứng lồn... làm sao bây giờ anh? Anh cũng nứng. Cặc anh cũng nứng. Ta chat sex rồi thủ dâm nhé em yêu! Vâng anh yêu! Những lần lên cơn nứng Vân và Nam lại gửi cho...","image":null,"label":null,"display":"text-only","type":"text","enable_detail":true,"related":{"url":"https://truyenx.link/truyensextv/channels/related/3129","request_headers":[]},"share":{"url":"https://truyenx.link/truyensextv/channels/share/chat-sex-thu-dam-voi-ban-trai-cu"},"remote_data":{"url":"https://truyenx.link/truyensextv/channels/chat-sex-thu-dam-voi-ban-trai-cu"}}],"load_more":{"pageInfo":{"current_page":55,"last_page":140,"per_page":30,"total":4188},"paging":{"page_key":"page","size_key":"size"},"remote_data":{"url":"https://truyenx.link/truyensextv/channels"}}}