{"grid_number":1,"channels":[{"id":"3218-channel","name":"Tình yêu muộn màng","description":"Tức giận, căm phẫn và ý muốn trả thù cứ liên tục xuất hiện trong đầu tôi, mẹ tôi đang thút thít trong lồng ngực tôi, trên người bà không một mảnh vải che thân, chiếc...","image":null,"label":null,"display":"text-only","type":"text","enable_detail":true,"related":{"url":"https://truyenx.link/truyensextv/channels/related/3218","request_headers":[]},"share":{"url":"https://truyenx.link/truyensextv/channels/share/tinh-yeu-muon-mang"},"remote_data":{"url":"https://truyenx.link/truyensextv/channels/tinh-yeu-muon-mang"}},{"id":"3217-channel","name":"Bánh trôi nước","description":"Sáng mùa thu Hà Nội thật đẹp, những cơn gió heo may se se lạnh khiến không khí vốn nhộn nhịp nay bỗng trở nên nhẹ nhàng, hiền hòa hơn. Mọi con đường, góc phố Thủ đô len lỏi...","image":null,"label":null,"display":"text-only","type":"text","enable_detail":true,"related":{"url":"https://truyenx.link/truyensextv/channels/related/3217","request_headers":[]},"share":{"url":"https://truyenx.link/truyensextv/channels/share/banh-troi-nuoc"},"remote_data":{"url":"https://truyenx.link/truyensextv/channels/banh-troi-nuoc"}},{"id":"3216-channel","name":"Bí mật sau cánh cửa","description":"Một buổi tối mùa hè, trời nhiều mây vần vũ. Cơn gió thổi qua, lũy tre mọc dại bên lề xào xạc xen lẫn vài tiếng chó sủa đâu đó. Hai lão trung niên đang khoác vai nhau lắc lư...","image":null,"label":null,"display":"text-only","type":"text","enable_detail":true,"related":{"url":"https://truyenx.link/truyensextv/channels/related/3216","request_headers":[]},"share":{"url":"https://truyenx.link/truyensextv/channels/share/bi-mat-sau-canh-cua"},"remote_data":{"url":"https://truyenx.link/truyensextv/channels/bi-mat-sau-canh-cua"}},{"id":"3215-channel","name":"Người vợ dâm đãng tuyệt vời","description":"Gã môi giới đại lý bất động sản trước mắt đẹp trai đến mức làm tôi phát ghét. Tôi luôn cảm thấy chiều cao 1m72 của mình cũng không đến nỗi nào cho đến khi đứng cạnh gã...","image":null,"label":null,"display":"text-only","type":"text","enable_detail":true,"related":{"url":"https://truyenx.link/truyensextv/channels/related/3215","request_headers":[]},"share":{"url":"https://truyenx.link/truyensextv/channels/share/nguoi-vo-dam-dang-tuyet-voi"},"remote_data":{"url":"https://truyenx.link/truyensextv/channels/nguoi-vo-dam-dang-tuyet-voi"}},{"id":"3214-channel","name":"Cha và vợ - Quyển 2","description":"“Tại sao máy nước nóng không hoạt động?” Sau khi cha bước vào nhà tắm, ông đứng trước máy nước nóng, nhìn chằm chằm vào nó. “Chỉ là không có nước, không biết...","image":null,"label":null,"display":"text-only","type":"text","enable_detail":true,"related":{"url":"https://truyenx.link/truyensextv/channels/related/3214","request_headers":[]},"share":{"url":"https://truyenx.link/truyensextv/channels/share/cha-va-vo-quyen-2"},"remote_data":{"url":"https://truyenx.link/truyensextv/channels/cha-va-vo-quyen-2"}},{"id":"3213-channel","name":"Cha và vợ","description":"Một trăm điều thiện hiếu thảo đứng trước, nhất là sau khi làm cha mẹ, bạn mới nhận ra tình cha mẹ lớn đến nhường nào. Không nuôi gia đình thì không biết giá gỗ, cơm áo...","image":null,"label":null,"display":"text-only","type":"text","enable_detail":true,"related":{"url":"https://truyenx.link/truyensextv/channels/related/3213","request_headers":[]},"share":{"url":"https://truyenx.link/truyensextv/channels/share/cha-va-vo"},"remote_data":{"url":"https://truyenx.link/truyensextv/channels/cha-va-vo"}},{"id":"3212-channel","name":"Chung cư","description":"Chào tất cả các bạn, lại là tôi đây... Vậy là sau bao tháng ngày mong ngóng đợi chờ gia đình tôi đã chính thức chuyển về ngôi nhà mới, đó là một căn hộ chung cư trong một khu...","image":null,"label":null,"display":"text-only","type":"text","enable_detail":true,"related":{"url":"https://truyenx.link/truyensextv/channels/related/3212","request_headers":[]},"share":{"url":"https://truyenx.link/truyensextv/channels/share/chung-cu"},"remote_data":{"url":"https://truyenx.link/truyensextv/channels/chung-cu"}},{"id":"3211-channel","name":"Người yêu dâm đãng","description":"Lần đầu làm chuyện ấy Xin chào tất cả anh em đam mê truyện 18+, tôi xin giới thiệu bản thân mình 1 chút, tôi là Khôi, 1 sinh viên năm cuối của 1 trường đại học trên địa bàn HN...","image":null,"label":null,"display":"text-only","type":"text","enable_detail":true,"related":{"url":"https://truyenx.link/truyensextv/channels/related/3211","request_headers":[]},"share":{"url":"https://truyenx.link/truyensextv/channels/share/nguoi-yeu-dam-dang"},"remote_data":{"url":"https://truyenx.link/truyensextv/channels/nguoi-yeu-dam-dang"}},{"id":"3210-channel","name":"Trải nghiệm với mẹ đơn thân","description":"Xin chào độc giả, nay tôi muốn chia sẻ một câu chuyện về trải nghiệm một cuộc tình khá thú vị của tôi. Giới thiệu sơ qua thì tôi đã ra trường và đi làm, thời sinh viên yêu...","image":null,"label":null,"display":"text-only","type":"text","enable_detail":true,"related":{"url":"https://truyenx.link/truyensextv/channels/related/3210","request_headers":[]},"share":{"url":"https://truyenx.link/truyensextv/channels/share/trai-nghiem-voi-me-don-than"},"remote_data":{"url":"https://truyenx.link/truyensextv/channels/trai-nghiem-voi-me-don-than"}},{"id":"3209-channel","name":"Cô giáo, nữ sinh, chị hàng xóm và gái Thổ","description":"Câu chuyện tôi kể bắt đầu từ khi tôi còn học cấp hai, đó là những tháng ngày tôi đang học lớp 9. Tôi bắt đầu dậy thì từ năm lớp 7, thế nên so với bạn bè, lớp 9 nhưng tôi...","image":null,"label":null,"display":"text-only","type":"text","enable_detail":true,"related":{"url":"https://truyenx.link/truyensextv/channels/related/3209","request_headers":[]},"share":{"url":"https://truyenx.link/truyensextv/channels/share/co-giao-nu-sinh-chi-hang-xom-va-gai-tho"},"remote_data":{"url":"https://truyenx.link/truyensextv/channels/co-giao-nu-sinh-chi-hang-xom-va-gai-tho"}},{"id":"3208-channel","name":"Ấn ký tình dục","description":"Hậu quả buổi nhậu tăng 2? Ông Khang nay 40 tuổi, là chủ tịch một tập đoàn xây dựng, đời ông đi lên từ tay trắng nên cái thú dân dã đã ngấm vào máu. Đâu ai biết dưới bàn tay...","image":null,"label":null,"display":"text-only","type":"text","enable_detail":true,"related":{"url":"https://truyenx.link/truyensextv/channels/related/3208","request_headers":[]},"share":{"url":"https://truyenx.link/truyensextv/channels/share/an-ky-tinh-duc"},"remote_data":{"url":"https://truyenx.link/truyensextv/channels/an-ky-tinh-duc"}},{"id":"3207-channel","name":"Bề hội đồng","description":"Liễu chỉ biết đi khách thôi, chuyện tiền bạc má mì chung chi cho, có giá cả của nó tất. Liễu lên xe bảy chỗ, tức là ngoài Liễu ra còn sáu người khác. Bởi lẽ Liễu có tí nhan...","image":null,"label":null,"display":"text-only","type":"text","enable_detail":true,"related":{"url":"https://truyenx.link/truyensextv/channels/related/3207","request_headers":[]},"share":{"url":"https://truyenx.link/truyensextv/channels/share/be-hoi-dong"},"remote_data":{"url":"https://truyenx.link/truyensextv/channels/be-hoi-dong"}},{"id":"3206-channel","name":"Hang Lũng Mu","description":"Mở đầu: Tư liệu được ghi lại từ nguồn dân trí, và thêm vài phần viễn tưởng. Có đôi chút hôn nhau. Vùng đất phía Tây tỉnh Thanh Hóa từ lâu đã xuất hiện nhiều hang quan tài...","image":null,"label":null,"display":"text-only","type":"text","enable_detail":true,"related":{"url":"https://truyenx.link/truyensextv/channels/related/3206","request_headers":[]},"share":{"url":"https://truyenx.link/truyensextv/channels/share/hang-lung-mu"},"remote_data":{"url":"https://truyenx.link/truyensextv/channels/hang-lung-mu"}},{"id":"3205-channel","name":"Ngọc ngà Châu báu","description":"Con không muốn làm bác sĩ, con cũng chả hứng thú làm cô giáo. Đừng bắt ép con nữa. Hãy cho con theo đuổi đam mê của con chứ. Mày nghĩ mày sống được với cái đam mê làm diễn viên...","image":null,"label":null,"display":"text-only","type":"text","enable_detail":true,"related":{"url":"https://truyenx.link/truyensextv/channels/related/3205","request_headers":[]},"share":{"url":"https://truyenx.link/truyensextv/channels/share/ngoc-nga-chau-bau"},"remote_data":{"url":"https://truyenx.link/truyensextv/channels/ngoc-nga-chau-bau"}},{"id":"3204-channel","name":"Chuyện loạn luân nhà tôi","description":"Gia đình tôi sinh sống tại miền tây thuộc dạng hơi còn hẻo lánh chưa có phát triển được nhiều, vì đường vô nhà tôi mới có đường lộ nông thôn ngôi nhà hiện tại của gia...","image":null,"label":null,"display":"text-only","type":"text","enable_detail":true,"related":{"url":"https://truyenx.link/truyensextv/channels/related/3204","request_headers":[]},"share":{"url":"https://truyenx.link/truyensextv/channels/share/chuyen-loan-luan-nha-toi"},"remote_data":{"url":"https://truyenx.link/truyensextv/channels/chuyen-loan-luan-nha-toi"}},{"id":"3203-channel","name":"Cực phẩm loạn luân - Quyển 2","description":"Trong khi tôi ở nhà làm tình với mấy người thì cùng khoảng thời gian đó chú Thắng cùng anh Vinh vui vẻ hoan lạc với hai mẹ con bà Huyền và Huế. Chiều chú Thắng xong thì hai mẹ con...","image":null,"label":null,"display":"text-only","type":"text","enable_detail":true,"related":{"url":"https://truyenx.link/truyensextv/channels/related/3203","request_headers":[]},"share":{"url":"https://truyenx.link/truyensextv/channels/share/cuc-pham-loan-luan-quyen-2"},"remote_data":{"url":"https://truyenx.link/truyensextv/channels/cuc-pham-loan-luan-quyen-2"}},{"id":"3202-channel","name":"Mẹ vợ","description":"Khoảng hai tiếng đồng hồ trước đó. Hôm nay là ngày ông Vũ và bà Trinh dọn về ở chung cùng với gia đình của con gái cũng như con rể của mình. Vốn dĩ chỉ cần bà Trinh tạm thời...","image":null,"label":null,"display":"text-only","type":"text","enable_detail":true,"related":{"url":"https://truyenx.link/truyensextv/channels/related/3202","request_headers":[]},"share":{"url":"https://truyenx.link/truyensextv/channels/share/me-vo"},"remote_data":{"url":"https://truyenx.link/truyensextv/channels/me-vo"}},{"id":"3201-channel","name":"Chị Thủy và em chồng","description":"Chồng ra nhanh đi vợ mệt lắm rồi. Khiếp gì mà lâu quá trời. Tiếng nói của Thu vọng lên giữa đêm, ở ngoài nếu ai nghe thấy cứ nghĩ 2 vợ chồng cô đang ân ái, nhưng không chỉ...","image":null,"label":null,"display":"text-only","type":"text","enable_detail":true,"related":{"url":"https://truyenx.link/truyensextv/channels/related/3201","request_headers":[]},"share":{"url":"https://truyenx.link/truyensextv/channels/share/chi-thuy-va-em-chong"},"remote_data":{"url":"https://truyenx.link/truyensextv/channels/chi-thuy-va-em-chong"}},{"id":"3200-channel","name":"Món quà bất ngờ","description":"Sáng chủ nhật, buổi sáng yên bình. Tôi loay hoay chuẩn bị đi lễ nhà thờ với đứa con thơ và bà mẹ vợ trung niên chuẩn bị bước vào tuổi ngũ tuần. Thế nhưng nàng vợ đảm đang...","image":null,"label":null,"display":"text-only","type":"text","enable_detail":true,"related":{"url":"https://truyenx.link/truyensextv/channels/related/3200","request_headers":[]},"share":{"url":"https://truyenx.link/truyensextv/channels/share/mon-qua-bat-ngo"},"remote_data":{"url":"https://truyenx.link/truyensextv/channels/mon-qua-bat-ngo"}},{"id":"3199-channel","name":"Tình vụng trộm muộn màng","description":"Giới thiệu qua về gia đình của Mai. Mai lấy chồng năm 24 tuổi. Nàng và chồng học cùng trường. Nhưng thực sự biết đến nhau khi được bạn bè giới thiệu. Chồng nàng hơn nàng 2...","image":null,"label":null,"display":"text-only","type":"text","enable_detail":true,"related":{"url":"https://truyenx.link/truyensextv/channels/related/3199","request_headers":[]},"share":{"url":"https://truyenx.link/truyensextv/channels/share/tinh-vung-trom-muon-mang"},"remote_data":{"url":"https://truyenx.link/truyensextv/channels/tinh-vung-trom-muon-mang"}},{"id":"3198-channel","name":"Chu Hổ","description":"Hậu cung Vũ Thiên Quốc, Vũ Vương tức Vũ Trọng Đế đang cùng một thanh niên tuấn tú thương thảo một số chuyện đại sự. Điểm khác thường duy nhất ở đây, đó là cả hai đều...","image":null,"label":null,"display":"text-only","type":"text","enable_detail":true,"related":{"url":"https://truyenx.link/truyensextv/channels/related/3198","request_headers":[]},"share":{"url":"https://truyenx.link/truyensextv/channels/share/chu-ho"},"remote_data":{"url":"https://truyenx.link/truyensextv/channels/chu-ho"}},{"id":"3197-channel","name":"Cám dỗ sai trái","description":"Sự quyến rũ Quang, người đàn ông có vẻ ngoài điển trai và quyến rũ tự nhiên, luôn thu hút ánh nhìn từ phụ nữ xung quanh. Anh là một bác sĩ tài năng, luôn tận tâm và chăm chỉ...","image":null,"label":null,"display":"text-only","type":"text","enable_detail":true,"related":{"url":"https://truyenx.link/truyensextv/channels/related/3197","request_headers":[]},"share":{"url":"https://truyenx.link/truyensextv/channels/share/cam-do-sai-trai"},"remote_data":{"url":"https://truyenx.link/truyensextv/channels/cam-do-sai-trai"}},{"id":"3196-channel","name":"Đinh tà - đa tình","description":"Nó nằm đó thở thoi thóp, hít thở khó khăn, hành xác mãi vẫn không chết cho. Nhưng, Y, Bác sĩ dẫu biết nó chết não rồi, vẫn cố cứu nó theo tinh thần y học, Còn Nước Còn Tát và y...","image":null,"label":null,"display":"text-only","type":"text","enable_detail":true,"related":{"url":"https://truyenx.link/truyensextv/channels/related/3196","request_headers":[]},"share":{"url":"https://truyenx.link/truyensextv/channels/share/dinh-ta-da-tinh"},"remote_data":{"url":"https://truyenx.link/truyensextv/channels/dinh-ta-da-tinh"}},{"id":"3194-channel","name":"Đầy tớ","description":"Tiếng gà kêu vang khắp một góc nhỏ mé đất gần lạch nương, cả một túm người xúm lại hò hét inh ỏi, màn sát phạt này cứ chiều là lại diễn ra, thứ cờ bạc đã ngấm vào...","image":null,"label":null,"display":"text-only","type":"text","enable_detail":true,"related":{"url":"https://truyenx.link/truyensextv/channels/related/3194","request_headers":[]},"share":{"url":"https://truyenx.link/truyensextv/channels/share/day-to"},"remote_data":{"url":"https://truyenx.link/truyensextv/channels/day-to"}},{"id":"3195-channel","name":"Khách sạn ma ám","description":"Tôi tên Lâm Thụy Liên, tôi 22 tuổi, tôi là lễ tân tại khách sạn Hoa Hồng. Hôm nay là ngày đầu tiên tôi chuyển vào Đà Lạt làm việc. Công việc của tôi là hướng dẫn khách...","image":null,"label":null,"display":"text-only","type":"text","enable_detail":true,"related":{"url":"https://truyenx.link/truyensextv/channels/related/3195","request_headers":[]},"share":{"url":"https://truyenx.link/truyensextv/channels/share/khach-san-ma-am"},"remote_data":{"url":"https://truyenx.link/truyensextv/channels/khach-san-ma-am"}},{"id":"3193-channel","name":"Truyện của L","description":"Chào mọi người! Mình tên là L mình lên đây vì muốn thỏa mãn sau khi đọc qua kha khá truyện thì mình muốn viết một bộ truyện Nhà tôi có 5 người ba mẹ, chị gái, tôi và em gái...","image":null,"label":null,"display":"text-only","type":"text","enable_detail":true,"related":{"url":"https://truyenx.link/truyensextv/channels/related/3193","request_headers":[]},"share":{"url":"https://truyenx.link/truyensextv/channels/share/truyen-cua-l"},"remote_data":{"url":"https://truyenx.link/truyensextv/channels/truyen-cua-l"}},{"id":"3191-channel","name":"BÓ TAY. com","description":"Ngồi ngó mông lung đám lục bình trôi xuôi. Nhác trông thấy thím ba Cộm giở sào chuẩn bị đi đặt lờ bắt cá Rô Phi. Vì đang là mùa nước nổi. Tuyến cũng lật đật nhổ sào, lặng...","image":null,"label":null,"display":"text-only","type":"text","enable_detail":true,"related":{"url":"https://truyenx.link/truyensextv/channels/related/3191","request_headers":[]},"share":{"url":"https://truyenx.link/truyensextv/channels/share/bo-tay-com"},"remote_data":{"url":"https://truyenx.link/truyensextv/channels/bo-tay-com"}},{"id":"3192-channel","name":"Xin mưa ngừng rơi","description":"Hôm nay, Hà Nội cũng mưa, ngồi nâng một lon bia, viết lại đôi dòng... Năm ấy, em mười tám tuổi... Còn tôi là sinh viên năm gần cuối đại học. Em là cô gái Huế duyên dáng. Còn tôi...","image":null,"label":null,"display":"text-only","type":"text","enable_detail":true,"related":{"url":"https://truyenx.link/truyensextv/channels/related/3192","request_headers":[]},"share":{"url":"https://truyenx.link/truyensextv/channels/share/xin-mua-ngung-roi"},"remote_data":{"url":"https://truyenx.link/truyensextv/channels/xin-mua-ngung-roi"}},{"id":"3190-channel","name":"Sex vô tận","description":"Vũ với lấy gói thuốc trên bàn tính làm một điếu, nhưng gói đã trống không. Bóp mạnh gói thuốc hắn lầm bầm. Mịa, hơn 9 giờ tối rồi không biết tiệm tạp hóa cuối xóm còn...","image":null,"label":null,"display":"text-only","type":"text","enable_detail":true,"related":{"url":"https://truyenx.link/truyensextv/channels/related/3190","request_headers":[]},"share":{"url":"https://truyenx.link/truyensextv/channels/share/sex-vo-tan"},"remote_data":{"url":"https://truyenx.link/truyensextv/channels/sex-vo-tan"}},{"id":"3189-channel","name":"Những bà hàng xóm dâm đãng 2","description":"Thấm thoắt thoi đưa, mới đó mà đã... 1 ngày... trôi qua. Việc đéo gì phải sầu, việc đéo gì phải buồn rầu vì 1 con đàn bà. Đéo có con này thì có con khác. Chỉ sợ đéo có...","image":null,"label":null,"display":"text-only","type":"text","enable_detail":true,"related":{"url":"https://truyenx.link/truyensextv/channels/related/3189","request_headers":[]},"share":{"url":"https://truyenx.link/truyensextv/channels/share/nhung-ba-hang-xom-dam-dang-2"},"remote_data":{"url":"https://truyenx.link/truyensextv/channels/nhung-ba-hang-xom-dam-dang-2"}}],"load_more":{"pageInfo":{"current_page":53,"last_page":140,"per_page":30,"total":4188},"paging":{"page_key":"page","size_key":"size"},"remote_data":{"url":"https://truyenx.link/truyensextv/channels"}}}