{
  "grid_number": 1,
  "channels": [
    {
      "id": "3008-channel",
      "name": "Chị gái của tôi",
      "description": "Tôi và chị gái cách nhau 2 tuổi, chị năm nay 27 còn tôi cũng đã 25. 2 chị em thì vẫn ở chung nhà, nhà tôi cũng rộng nên cũng thoải mái, tôi và chị tôi ở lầu trên, còn bố mẹ thì...",
      "image": null,
      "label": null,
      "display": "text-only",
      "type": "text",
      "enable_detail": true,
      "related": {
        "url": "https://truyenx.link/truyensextv/channels/related/3008",
        "request_headers": []
      },
      "share": {
        "url": "https://truyenx.link/truyensextv/channels/share/chi-gai-cua-toi"
      },
      "remote_data": {
        "url": "https://truyenx.link/truyensextv/channels/chi-gai-cua-toi"
      }
    },
    {
      "id": "3007-channel",
      "name": "Địt cô em dâu",
      "description": "Mấy hôm nay tôi thấy con Hường có những sự thay đổi khác thường. Tôi bắt gặp nó nhìn lén tôi với ánh mắt thật lạ. Hường là cô em dâu của tôi. Nó lấy thằng Đức, đứa em...",
      "image": null,
      "label": null,
      "display": "text-only",
      "type": "text",
      "enable_detail": true,
      "related": {
        "url": "https://truyenx.link/truyensextv/channels/related/3007",
        "request_headers": []
      },
      "share": {
        "url": "https://truyenx.link/truyensextv/channels/share/dit-co-em-dau"
      },
      "remote_data": {
        "url": "https://truyenx.link/truyensextv/channels/dit-co-em-dau"
      }
    },
    {
      "id": "3006-channel",
      "name": "Vợ mê cu to",
      "description": "Thảo Vy cùng chồng tìm nhà trọ: Hai vợ chồng vừa mới sang Nhật để tham quan du lịch, họ muốn trải nghiệm cuộc sống bên xứ sở “Hoa Anh Đào” này thế nào và phong cảnh...",
      "image": null,
      "label": null,
      "display": "text-only",
      "type": "text",
      "enable_detail": true,
      "related": {
        "url": "https://truyenx.link/truyensextv/channels/related/3006",
        "request_headers": []
      },
      "share": {
        "url": "https://truyenx.link/truyensextv/channels/share/vo-me-cu-to"
      },
      "remote_data": {
        "url": "https://truyenx.link/truyensextv/channels/vo-me-cu-to"
      }
    },
    {
      "id": "3005-channel",
      "name": "Chuyện đời lính",
      "description": "Chuyện ở Lào Cuối 94 đầu 95 anh em tôi chuyển tới Hủa Phăn, ở được ít bữa thì di chuyển lên Na Ao, chỗ này là ngã ba đường 6, phía trái là Bản Tat, bên phải là hướng rẽ đi...",
      "image": null,
      "label": null,
      "display": "text-only",
      "type": "text",
      "enable_detail": true,
      "related": {
        "url": "https://truyenx.link/truyensextv/channels/related/3005",
        "request_headers": []
      },
      "share": {
        "url": "https://truyenx.link/truyensextv/channels/share/chuyen-doi-linh"
      },
      "remote_data": {
        "url": "https://truyenx.link/truyensextv/channels/chuyen-doi-linh"
      }
    },
    {
      "id": "3004-channel",
      "name": "Tình yêu và thù hận",
      "description": "“Chúc mừng cô dâu chú rể, trăm năm hạnh phúc!” *Keng, keng...* ... Bạn đang đọc truyện Tình yêu và thù hận tại nguồn: http://truyensextv2.cc/tinh-yeu-va-thu-han/ Đó là những...",
      "image": null,
      "label": null,
      "display": "text-only",
      "type": "text",
      "enable_detail": true,
      "related": {
        "url": "https://truyenx.link/truyensextv/channels/related/3004",
        "request_headers": []
      },
      "share": {
        "url": "https://truyenx.link/truyensextv/channels/share/tinh-yeu-va-thu-han"
      },
      "remote_data": {
        "url": "https://truyenx.link/truyensextv/channels/tinh-yeu-va-thu-han"
      }
    },
    {
      "id": "3003-channel",
      "name": "Thăng chức nhờ vợ",
      "description": "Phương châm điếu thuốc rít 1 hơi thật sâu, nhẹ nhàng thở ra nhìn ra cửa sổ trời đang mưa, Phương quay vào nhìn đồng hồ cùng ảnh cưới của hai VC. Đã 1h sáng nhưng Hằng chưa...",
      "image": null,
      "label": null,
      "display": "text-only",
      "type": "text",
      "enable_detail": true,
      "related": {
        "url": "https://truyenx.link/truyensextv/channels/related/3003",
        "request_headers": []
      },
      "share": {
        "url": "https://truyenx.link/truyensextv/channels/share/thang-chuc-nho-vo"
      },
      "remote_data": {
        "url": "https://truyenx.link/truyensextv/channels/thang-chuc-nho-vo"
      }
    },
    {
      "id": "3002-channel",
      "name": "Cô vợ trẻ dâm đãng",
      "description": "Mai lấy chồng từ năm 18 tuổi... Khi vừa bước chân ra trường cấp 3... Là 1 cô gái có sắc đẹp nhất nhì thành phố... Rất nhiều người theo đuổi... Nhưng chả hiểu thế nào cô...",
      "image": null,
      "label": null,
      "display": "text-only",
      "type": "text",
      "enable_detail": true,
      "related": {
        "url": "https://truyenx.link/truyensextv/channels/related/3002",
        "request_headers": []
      },
      "share": {
        "url": "https://truyenx.link/truyensextv/channels/share/co-vo-tre-dam-dang"
      },
      "remote_data": {
        "url": "https://truyenx.link/truyensextv/channels/co-vo-tre-dam-dang"
      }
    },
    {
      "id": "3001-channel",
      "name": "Cô em gái của tôi",
      "description": "Chào anh em, hôm nay tôi sẽ kể cho anh em về con em gái ruột của tui. Nó tên Trâm, 2k10, dáng cao, vừa, ngực đít thì lép chả có, nhưng mặt thì khá xinh, trắng, và đặc biệt dâm. Tôi và...",
      "image": null,
      "label": null,
      "display": "text-only",
      "type": "text",
      "enable_detail": true,
      "related": {
        "url": "https://truyenx.link/truyensextv/channels/related/3001",
        "request_headers": []
      },
      "share": {
        "url": "https://truyenx.link/truyensextv/channels/share/co-em-gai-cua-toi"
      },
      "remote_data": {
        "url": "https://truyenx.link/truyensextv/channels/co-em-gai-cua-toi"
      }
    },
    {
      "id": "3000-channel",
      "name": "12 nữ thần - Quyển 3",
      "description": "Trên đấu trường, Dương và Độc Hành đứng đối diện nhau, trên môi Độc Hành nở một nụ cười nửa miệng kèm ánh mắt gian xảo, nụ cười Dương chưa từng thấy ở Độc Hành...",
      "image": null,
      "label": null,
      "display": "text-only",
      "type": "text",
      "enable_detail": true,
      "related": {
        "url": "https://truyenx.link/truyensextv/channels/related/3000",
        "request_headers": []
      },
      "share": {
        "url": "https://truyenx.link/truyensextv/channels/share/12-nu-than-quyen-3"
      },
      "remote_data": {
        "url": "https://truyenx.link/truyensextv/channels/12-nu-than-quyen-3"
      }
    },
    {
      "id": "2999-channel",
      "name": "Gia đình dâm loạn",
      "description": "Ông Nam: Nhân vật chính. Bà Thảo: Vợ ông Nam. Bắc: Con trai cả. Trung: Con trai thứ. Quỳnh: Con gái út. Yến: Vợ của Bắc. Cùng với sự góp mặt của một số nhân vật khác... Năm 2022...",
      "image": null,
      "label": null,
      "display": "text-only",
      "type": "text",
      "enable_detail": true,
      "related": {
        "url": "https://truyenx.link/truyensextv/channels/related/2999",
        "request_headers": []
      },
      "share": {
        "url": "https://truyenx.link/truyensextv/channels/share/gia-dinh-dam-loan"
      },
      "remote_data": {
        "url": "https://truyenx.link/truyensextv/channels/gia-dinh-dam-loan"
      }
    },
    {
      "id": "2998-channel",
      "name": "Song tính",
      "description": "Mùa hè oi bức, ánh nắng chói chang, tiếng ve kêu râm ran đến khó chịu vang vọng khắp căn nhà. Chu Chu ngủ quên ở phòng khách bị cái nóng làm cho tỉnh giấc. Lông mi run run mấy cái...",
      "image": null,
      "label": null,
      "display": "text-only",
      "type": "text",
      "enable_detail": true,
      "related": {
        "url": "https://truyenx.link/truyensextv/channels/related/2998",
        "request_headers": []
      },
      "share": {
        "url": "https://truyenx.link/truyensextv/channels/share/song-tinh"
      },
      "remote_data": {
        "url": "https://truyenx.link/truyensextv/channels/song-tinh"
      }
    },
    {
      "id": "2997-channel",
      "name": "Yêu em gái",
      "description": "Để ý em gái Haizzz... Tiếng ngáp dài của Phương Hoàng Hiền Minh khi vừa mới thức giấc thể hiện sự mệt mỏi sau một đêm dài. Cậu xem phim người lớn và quay tay suốt đêm mãi...",
      "image": null,
      "label": null,
      "display": "text-only",
      "type": "text",
      "enable_detail": true,
      "related": {
        "url": "https://truyenx.link/truyensextv/channels/related/2997",
        "request_headers": []
      },
      "share": {
        "url": "https://truyenx.link/truyensextv/channels/share/yeu-em-gai"
      },
      "remote_data": {
        "url": "https://truyenx.link/truyensextv/channels/yeu-em-gai"
      }
    },
    {
      "id": "2996-channel",
      "name": "Dì ruột là người tình của tôi",
      "description": "Chào anh em, tôi tên Kiên , ngực cũng thuộc dạng nhỏ, mông rất bự. Bả hiện đang có thai con đầu được 6 tháng rồi. Lần đầu tôi địt bả là khi cả nhà đi du lịch, cả nhà đi...",
      "image": null,
      "label": null,
      "display": "text-only",
      "type": "text",
      "enable_detail": true,
      "related": {
        "url": "https://truyenx.link/truyensextv/channels/related/2996",
        "request_headers": []
      },
      "share": {
        "url": "https://truyenx.link/truyensextv/channels/share/di-ruot-la-nguoi-tinh-cua-toi"
      },
      "remote_data": {
        "url": "https://truyenx.link/truyensextv/channels/di-ruot-la-nguoi-tinh-cua-toi"
      }
    },
    {
      "id": "2995-channel",
      "name": "Chuyện đàn bà",
      "description": "Khi Trung đánh xe ra khỏi cổng. Cả ba mẹ con, bà cháu nhìn theo rồi quay lại nhìn nhau. Ai cũng tỏ rõ nét buồn trên mặt và thừa biết nguyên do dẫu không ai nói câu nào. Con bé Ngọc Anh...",
      "image": null,
      "label": null,
      "display": "text-only",
      "type": "text",
      "enable_detail": true,
      "related": {
        "url": "https://truyenx.link/truyensextv/channels/related/2995",
        "request_headers": []
      },
      "share": {
        "url": "https://truyenx.link/truyensextv/channels/share/chuyen-dan-ba"
      },
      "remote_data": {
        "url": "https://truyenx.link/truyensextv/channels/chuyen-dan-ba"
      }
    },
    {
      "id": "2994-channel",
      "name": "Truyện loạn luân chị em có thật",
      "description": "Mình là Hải 15 tuổi, có cô chị ruột hơn 4 tuổi đang học đại học năm nhất. Đợt nghỉ lễ 30 4 vừa qua, bả được về nhà chơi, đúng hôm đó bố mẹ mình đi du lịch với công ty...",
      "image": null,
      "label": null,
      "display": "text-only",
      "type": "text",
      "enable_detail": true,
      "related": {
        "url": "https://truyenx.link/truyensextv/channels/related/2994",
        "request_headers": []
      },
      "share": {
        "url": "https://truyenx.link/truyensextv/channels/share/truyen-loan-luan-chi-em-co-that"
      },
      "remote_data": {
        "url": "https://truyenx.link/truyensextv/channels/truyen-loan-luan-chi-em-co-that"
      }
    },
    {
      "id": "2993-channel",
      "name": "Bị sếp của chồng đụ",
      "description": "Cuối cùng thì Ngọc cũng nghe thấy tiếng mở cửa, sau một ngày buồn chán, cô lập tức hào hứng để chuẩn bị chào đón anh ấy, tức chồng của mình về. Cô nói: “A... Chồng, anh...",
      "image": null,
      "label": null,
      "display": "text-only",
      "type": "text",
      "enable_detail": true,
      "related": {
        "url": "https://truyenx.link/truyensextv/channels/related/2993",
        "request_headers": []
      },
      "share": {
        "url": "https://truyenx.link/truyensextv/channels/share/bi-sep-cua-chong-du"
      },
      "remote_data": {
        "url": "https://truyenx.link/truyensextv/channels/bi-sep-cua-chong-du"
      }
    },
    {
      "id": "2992-channel",
      "name": "Sở thích chịch public",
      "description": "Mình tên là Nam, em người yêu bằng tuổi tên là Vân. Giới thiệu sơ qua thì em ny mình m62, ngực 86 chỉ có mông thì hơi lép, chắc là bao nhiêu vào hết ngực rồi. Cơ mà mình lại chỉ...",
      "image": null,
      "label": null,
      "display": "text-only",
      "type": "text",
      "enable_detail": true,
      "related": {
        "url": "https://truyenx.link/truyensextv/channels/related/2992",
        "request_headers": []
      },
      "share": {
        "url": "https://truyenx.link/truyensextv/channels/share/so-thich-chich-public"
      },
      "remote_data": {
        "url": "https://truyenx.link/truyensextv/channels/so-thich-chich-public"
      }
    },
    {
      "id": "2991-channel",
      "name": "Du học sinh",
      "description": "Chuyến tàu subway Toronto 2 lao nhanh trong màn đêm. Trên tàu, người đi thưa thớt, đủ ghế cho mọi người ngồi. Khom mình ở một góc, Thu đang nhắn tin vào group chat của gia đình ở...",
      "image": null,
      "label": null,
      "display": "text-only",
      "type": "text",
      "enable_detail": true,
      "related": {
        "url": "https://truyenx.link/truyensextv/channels/related/2991",
        "request_headers": []
      },
      "share": {
        "url": "https://truyenx.link/truyensextv/channels/share/du-hoc-sinh"
      },
      "remote_data": {
        "url": "https://truyenx.link/truyensextv/channels/du-hoc-sinh"
      }
    },
    {
      "id": "2990-channel",
      "name": "Diễn viên Mỹ Ngọc",
      "description": "Lần đầu đóng cảnh nóng của Mỹ Ngọc Mỹ Ngọc là một diễn viên trẻ được săn đón trong nhiều năm nay nhờ vẻ ngoài xinh đẹp và khả năng diễn xuất tuyệt vời và thu hút màn...",
      "image": null,
      "label": null,
      "display": "text-only",
      "type": "text",
      "enable_detail": true,
      "related": {
        "url": "https://truyenx.link/truyensextv/channels/related/2990",
        "request_headers": []
      },
      "share": {
        "url": "https://truyenx.link/truyensextv/channels/share/dien-vien-my-ngoc"
      },
      "remote_data": {
        "url": "https://truyenx.link/truyensextv/channels/dien-vien-my-ngoc"
      }
    },
    {
      "id": "2989-channel",
      "name": "Xóm nhỏ",
      "description": "Hút ít ít thôi ông thần! Diễm đặt ly cafe kèm ly trà đá lên bàn. Sáng sớm mới hút điếu đầu tiên luôn á bà chế! Ừ, ngày nào cũng hơn cả gói. Quy chẳng buồn trả lời bà chị...",
      "image": null,
      "label": null,
      "display": "text-only",
      "type": "text",
      "enable_detail": true,
      "related": {
        "url": "https://truyenx.link/truyensextv/channels/related/2989",
        "request_headers": []
      },
      "share": {
        "url": "https://truyenx.link/truyensextv/channels/share/xom-nho"
      },
      "remote_data": {
        "url": "https://truyenx.link/truyensextv/channels/xom-nho"
      }
    },
    {
      "id": "2988-channel",
      "name": "Hệ thống trên chiếc điện thoại thần bí",
      "description": "Giấc mơ kỳ lạ Thu là một người phụ nữ bình thường xuất thân từ một gia đình khó khăn, với ngoại hình không quá xuất sắc nên khi ra trường và đi làm Thu đã lấy Thành, Thành...",
      "image": null,
      "label": null,
      "display": "text-only",
      "type": "text",
      "enable_detail": true,
      "related": {
        "url": "https://truyenx.link/truyensextv/channels/related/2988",
        "request_headers": []
      },
      "share": {
        "url": "https://truyenx.link/truyensextv/channels/share/he-thong-tren-chiec-dien-thoai-than-bi"
      },
      "remote_data": {
        "url": "https://truyenx.link/truyensextv/channels/he-thong-tren-chiec-dien-thoai-than-bi"
      }
    },
    {
      "id": "2987-channel",
      "name": "Chịch mẹ bạn",
      "description": "Hello các bác, em tên Hưng năm nay 15 tuổi em có một đứa bạn thân tên Tùng chơi với nó từ nhỏ nên em rất thân với nó thì câu chuyện là vầy... Bữa đó là sinh nhật của em gái nó...",
      "image": null,
      "label": null,
      "display": "text-only",
      "type": "text",
      "enable_detail": true,
      "related": {
        "url": "https://truyenx.link/truyensextv/channels/related/2987",
        "request_headers": []
      },
      "share": {
        "url": "https://truyenx.link/truyensextv/channels/share/chich-me-ban"
      },
      "remote_data": {
        "url": "https://truyenx.link/truyensextv/channels/chich-me-ban"
      }
    },
    {
      "id": "2986-channel",
      "name": "Phòng gym thời Covid",
      "description": "Trải nghiệm mới của Huyền Về nhà sau một ngày làm việc mệt nhọc, Huyền không túi bụi vào cơm nước như mọi ngày. Hôm nay nàng có một niềm vui mới. Mà trước tiên phải trút...",
      "image": null,
      "label": null,
      "display": "text-only",
      "type": "text",
      "enable_detail": true,
      "related": {
        "url": "https://truyenx.link/truyensextv/channels/related/2986",
        "request_headers": []
      },
      "share": {
        "url": "https://truyenx.link/truyensextv/channels/share/phong-gym-thoi-covid"
      },
      "remote_data": {
        "url": "https://truyenx.link/truyensextv/channels/phong-gym-thoi-covid"
      }
    },
    {
      "id": "2985-channel",
      "name": "Sự thông đồng cấm kỵ",
      "description": "Đây là mùa xuân thứ tư mẹ tôi đến Canada. Mẹ nói mùa xuân năm nay muộn hơn những năm trước, và luôn không có cảm giác ấm áp. Tôi chỉ gật đầu, nhưng trong thâm tâm biết rằng...",
      "image": null,
      "label": null,
      "display": "text-only",
      "type": "text",
      "enable_detail": true,
      "related": {
        "url": "https://truyenx.link/truyensextv/channels/related/2985",
        "request_headers": []
      },
      "share": {
        "url": "https://truyenx.link/truyensextv/channels/share/su-thong-dong-cam-ky"
      },
      "remote_data": {
        "url": "https://truyenx.link/truyensextv/channels/su-thong-dong-cam-ky"
      }
    },
    {
      "id": "2984-channel",
      "name": "Chuyện của vợ tôi",
      "description": "Xin chào tôi là Tuấn năm nay 28 tuổi tôi sinh ra và lớn lên ở miền trung nghèo khó. Tôi cao 1m75 thân hình vạm vỡ khuôn mặt ưa nhìn. Chim to 17cm đặc biệt thứ làm chị em chết mê...",
      "image": null,
      "label": null,
      "display": "text-only",
      "type": "text",
      "enable_detail": true,
      "related": {
        "url": "https://truyenx.link/truyensextv/channels/related/2984",
        "request_headers": []
      },
      "share": {
        "url": "https://truyenx.link/truyensextv/channels/share/chuyen-cua-vo-toi"
      },
      "remote_data": {
        "url": "https://truyenx.link/truyensextv/channels/chuyen-cua-vo-toi"
      }
    },
    {
      "id": "2983-channel",
      "name": "Trò chơi cuckold",
      "description": "Hắn tên Bảo. Như bao thằng con trai 17 tuổi khác, hàng ngày Bảo vật vờ lên lớp, tối lại đâm đầu vào các lớp luyện thi tốt nghiệp, có thời gian rảnh thì ôm máy chơi game. Chẳng...",
      "image": null,
      "label": null,
      "display": "text-only",
      "type": "text",
      "enable_detail": true,
      "related": {
        "url": "https://truyenx.link/truyensextv/channels/related/2983",
        "request_headers": []
      },
      "share": {
        "url": "https://truyenx.link/truyensextv/channels/share/tro-choi-cuckold"
      },
      "remote_data": {
        "url": "https://truyenx.link/truyensextv/channels/tro-choi-cuckold"
      }
    },
    {
      "id": "2982-channel",
      "name": "Địt trộm mẹ",
      "description": "Tuổi dậy thì của em đến sớm và dữ dội lắm, học lớp 7 là em đã nứng quay quắt suốt ngày, một phần do em tiếp xúc internet sớm, một phần do bạn bè đồng lứa em trong khu tập...",
      "image": null,
      "label": null,
      "display": "text-only",
      "type": "text",
      "enable_detail": true,
      "related": {
        "url": "https://truyenx.link/truyensextv/channels/related/2982",
        "request_headers": []
      },
      "share": {
        "url": "https://truyenx.link/truyensextv/channels/share/dit-trom-me"
      },
      "remote_data": {
        "url": "https://truyenx.link/truyensextv/channels/dit-trom-me"
      }
    },
    {
      "id": "2981-channel",
      "name": "Bảo mẫu thiên thần",
      "description": "Mỗi một con người khi sinh ra đều có một linh hồn, đến khi chết đi thì linh hồn sẽ được định đoạt trước khi tới Thiên Đường, nếu không đủ điều kiện thì sẽ bị đày...",
      "image": null,
      "label": null,
      "display": "text-only",
      "type": "text",
      "enable_detail": true,
      "related": {
        "url": "https://truyenx.link/truyensextv/channels/related/2981",
        "request_headers": []
      },
      "share": {
        "url": "https://truyenx.link/truyensextv/channels/share/bao-mau-thien-than"
      },
      "remote_data": {
        "url": "https://truyenx.link/truyensextv/channels/bao-mau-thien-than"
      }
    },
    {
      "id": "2980-channel",
      "name": "Thôi miên XxX nô lệ tình dục",
      "description": "Tôi tên Quỳnh, tôi rất thương em trai mình, tôi yêu nó. Nhưng tôi có em trai từ khi nào nhỉ, à phải rồi thằng bé rất đáng yêu, tôi và mẹ đều rất yêu thương thằng bé mà, sao tôi...",
      "image": null,
      "label": null,
      "display": "text-only",
      "type": "text",
      "enable_detail": true,
      "related": {
        "url": "https://truyenx.link/truyensextv/channels/related/2980",
        "request_headers": []
      },
      "share": {
        "url": "https://truyenx.link/truyensextv/channels/share/thoi-mien-xxx-no-le-tinh-duc"
      },
      "remote_data": {
        "url": "https://truyenx.link/truyensextv/channels/thoi-mien-xxx-no-le-tinh-duc"
      }
    },
    {
      "id": "2979-channel",
      "name": "Già mà còn ham",
      "description": "Ông Huỳnh Cự qua Mỹ định cư với Vợ và hai đứa con trai. Thời gian sau vợ ông mất, hai đứa con vừa lớn. Thời gian đầu ông bị khủng hoảng vì mất đi người vợ thương yêu...",
      "image": null,
      "label": null,
      "display": "text-only",
      "type": "text",
      "enable_detail": true,
      "related": {
        "url": "https://truyenx.link/truyensextv/channels/related/2979",
        "request_headers": []
      },
      "share": {
        "url": "https://truyenx.link/truyensextv/channels/share/gia-ma-con-ham"
      },
      "remote_data": {
        "url": "https://truyenx.link/truyensextv/channels/gia-ma-con-ham"
      }
    }
  ],
  "load_more": {
    "pageInfo": {
      "current_page": 60,
      "last_page": 140,
      "per_page": 30,
      "total": 4188
    },
    "paging": {
      "page_key": "page",
      "size_key": "size"
    },
    "remote_data": {
      "url": "https://truyenx.link/truyensextv/channels"
    }
  }
}