{
  "grid_number": 1,
  "channels": [
    {
      "id": "1968-channel",
      "name": "Nợ 10 tỷ và cái kết",
      "description": "Anh làm thất thoát công ty 10 tỷ, sắp tới nếu không trả bù được, anh có thể ngồi tù. Nghe chồng nói tin dữ làm Linh nghe như sét đánh ngang tai. Linh bàng hoàng một lúc lâu. Chồng...",
      "image": null,
      "label": null,
      "display": "text-only",
      "type": "text",
      "enable_detail": true,
      "related": {
        "url": "https://truyenx.link/truyensextv/channels/related/1968",
        "request_headers": []
      },
      "share": {
        "url": "https://truyenx.link/truyensextv/channels/share/no-10-ty-va-cai-ket"
      },
      "remote_data": {
        "url": "https://truyenx.link/truyensextv/channels/no-10-ty-va-cai-ket"
      }
    },
    {
      "id": "1967-channel",
      "name": "Hoa hồng trên ngực trái",
      "description": "Tác giả: Mr. Four Một buổi chiều tại Sài Gòn, như bao buổi chiều bình thường khác cơn nắng gắt vẫn tới đỉnh điểm khiến biết bao nhiêu người phải nhăn mặt lắc đầu, mồ hôi...",
      "image": null,
      "label": null,
      "display": "text-only",
      "type": "text",
      "enable_detail": true,
      "related": {
        "url": "https://truyenx.link/truyensextv/channels/related/1967",
        "request_headers": []
      },
      "share": {
        "url": "https://truyenx.link/truyensextv/channels/share/hoa-hong-tren-nguc-trai"
      },
      "remote_data": {
        "url": "https://truyenx.link/truyensextv/channels/hoa-hong-tren-nguc-trai"
      }
    },
    {
      "id": "1966-channel",
      "name": "Sáng làm con, tối làm vợ",
      "description": "Câu chuyện được chính ông kể lại với tôi trong lúc nhậu thật say... một người bạn thân thiết nhất từ hồi ông còn chưa lập gia đình... Căn nhà nhỏ nằm cuối dãy ở một thị...",
      "image": null,
      "label": null,
      "display": "text-only",
      "type": "text",
      "enable_detail": true,
      "related": {
        "url": "https://truyenx.link/truyensextv/channels/related/1966",
        "request_headers": []
      },
      "share": {
        "url": "https://truyenx.link/truyensextv/channels/share/sang-lam-con-toi-lam-vo"
      },
      "remote_data": {
        "url": "https://truyenx.link/truyensextv/channels/sang-lam-con-toi-lam-vo"
      }
    },
    {
      "id": "1965-channel",
      "name": "Bạn của vợ tao",
      "description": "Vợ của tao có vài người bạn thân, tất nhiên là cùng giới, nhưng nghe bảo thân cũng là thân từ hồi nảo hồi nào, cái hồi còn trẻ, thân đến mức ăn ở cùng nhau, đi đâu cũng...",
      "image": null,
      "label": null,
      "display": "text-only",
      "type": "text",
      "enable_detail": true,
      "related": {
        "url": "https://truyenx.link/truyensextv/channels/related/1965",
        "request_headers": []
      },
      "share": {
        "url": "https://truyenx.link/truyensextv/channels/share/ban-cua-vo-tao"
      },
      "remote_data": {
        "url": "https://truyenx.link/truyensextv/channels/ban-cua-vo-tao"
      }
    },
    {
      "id": "1964-channel",
      "name": "Chị đồng nát",
      "description": "Những ngày trời đổ lửa, đã thế lại còn mất điện. Mẹ nó nữa, không biết dùng từ gì diễn tả cho hết cái cảm giác nóng bức này, chỉ biết là nắng và nóng vl. Nắng nóng...",
      "image": null,
      "label": null,
      "display": "text-only",
      "type": "text",
      "enable_detail": true,
      "related": {
        "url": "https://truyenx.link/truyensextv/channels/related/1964",
        "request_headers": []
      },
      "share": {
        "url": "https://truyenx.link/truyensextv/channels/share/chi-dong-nat"
      },
      "remote_data": {
        "url": "https://truyenx.link/truyensextv/channels/chi-dong-nat"
      }
    },
    {
      "id": "1963-channel",
      "name": "Threesome cùng người yêu",
      "description": "Tôi là 1 du học sinh vừa sang 1 đất nước khác được khoảng vài tháng thì quen anh. Thời gian đầu tôi cũng đã tình một đêm thậm chí là friends with benefit với khoảng 4 người đàn...",
      "image": null,
      "label": null,
      "display": "text-only",
      "type": "text",
      "enable_detail": true,
      "related": {
        "url": "https://truyenx.link/truyensextv/channels/related/1963",
        "request_headers": []
      },
      "share": {
        "url": "https://truyenx.link/truyensextv/channels/share/threesome-cung-nguoi-yeu"
      },
      "remote_data": {
        "url": "https://truyenx.link/truyensextv/channels/threesome-cung-nguoi-yeu"
      }
    },
    {
      "id": "1962-channel",
      "name": "Cô bạn thân",
      "description": "Tôi và Dung là bạn thân từ nhỏ. Tôi và cô bạn thân này đều sống và lớn lên trong những gia đình thuộc loại bình thường. Ngày đó, khi tụi tôi còn nhỏ, hai đứa đã rất thân...",
      "image": null,
      "label": null,
      "display": "text-only",
      "type": "text",
      "enable_detail": true,
      "related": {
        "url": "https://truyenx.link/truyensextv/channels/related/1962",
        "request_headers": []
      },
      "share": {
        "url": "https://truyenx.link/truyensextv/channels/share/co-ban-than"
      },
      "remote_data": {
        "url": "https://truyenx.link/truyensextv/channels/co-ban-than"
      }
    },
    {
      "id": "1961-channel",
      "name": "Những cô vợ đa tình",
      "description": "Nhâm nhi từng chút café đắng ngăm, ngửa lên trần nhà qua làn khói thuốc của thằng Phương, bạn chí cốt. Đang đau đầu nghĩ không biết có cách gì kiếm được nhiều tiền một chút...",
      "image": null,
      "label": null,
      "display": "text-only",
      "type": "text",
      "enable_detail": true,
      "related": {
        "url": "https://truyenx.link/truyensextv/channels/related/1961",
        "request_headers": []
      },
      "share": {
        "url": "https://truyenx.link/truyensextv/channels/share/nhung-co-vo-da-tinh"
      },
      "remote_data": {
        "url": "https://truyenx.link/truyensextv/channels/nhung-co-vo-da-tinh"
      }
    },
    {
      "id": "1960-channel",
      "name": "Xóm cave",
      "description": "Bỏ qua những chuyện trong Kỹ sư tự truyện về thời sinh viên. Tao nhớ hồi năm đầu, lúc mà tao chưa chuyển sang xóm trọ chỗ Mỹ Đình thì là ở xóm cave. Hồi đó còn ngáo ngơ đéo...",
      "image": null,
      "label": null,
      "display": "text-only",
      "type": "text",
      "enable_detail": true,
      "related": {
        "url": "https://truyenx.link/truyensextv/channels/related/1960",
        "request_headers": []
      },
      "share": {
        "url": "https://truyenx.link/truyensextv/channels/share/xom-cave"
      },
      "remote_data": {
        "url": "https://truyenx.link/truyensextv/channels/xom-cave"
      }
    },
    {
      "id": "1959-channel",
      "name": "Theo tình tình chạy, chạy tình tình theo",
      "description": "Tao có thằng bạn cùng chơi với nhau trong nhóm bạn thân. Thằng ml chẳng thấy tán gái gủng gì, giờ vẫn chưa vợ con gì cả, lúc trước cứ tưởng nó pede nhưng nhiều lần đi chơi...",
      "image": null,
      "label": null,
      "display": "text-only",
      "type": "text",
      "enable_detail": true,
      "related": {
        "url": "https://truyenx.link/truyensextv/channels/related/1959",
        "request_headers": []
      },
      "share": {
        "url": "https://truyenx.link/truyensextv/channels/share/theo-tinh-tinh-chay-chay-tinh-tinh-theo"
      },
      "remote_data": {
        "url": "https://truyenx.link/truyensextv/channels/theo-tinh-tinh-chay-chay-tinh-tinh-theo"
      }
    },
    {
      "id": "1958-channel",
      "name": "Thung lũng hoa vàng",
      "description": "Thủy tụt quần áo quẳng lên giường nói với anh Sơn, chồng Thuỷ: Em đi tắm cho sạch sẽ chuẩn bị trận đụ tối nay. Sơn ngăn lại: Khoan đã, sao không đợi đụ trận đầu rồi...",
      "image": null,
      "label": null,
      "display": "text-only",
      "type": "text",
      "enable_detail": true,
      "related": {
        "url": "https://truyenx.link/truyensextv/channels/related/1958",
        "request_headers": []
      },
      "share": {
        "url": "https://truyenx.link/truyensextv/channels/share/thung-lung-hoa-vang"
      },
      "remote_data": {
        "url": "https://truyenx.link/truyensextv/channels/thung-lung-hoa-vang"
      }
    },
    {
      "id": "1957-channel",
      "name": "Hai chị em Linh",
      "description": "Tôi là người bình thường như bao người khác. Nhưng được cái là có ông bố bà mẹ giàu có. Trước bố mẹ tôi có đi cò đất nên vốn liếng cũng khá. Sau tôi tuy học không tốt...",
      "image": null,
      "label": null,
      "display": "text-only",
      "type": "text",
      "enable_detail": true,
      "related": {
        "url": "https://truyenx.link/truyensextv/channels/related/1957",
        "request_headers": []
      },
      "share": {
        "url": "https://truyenx.link/truyensextv/channels/share/hai-chi-em-linh"
      },
      "remote_data": {
        "url": "https://truyenx.link/truyensextv/channels/hai-chi-em-linh"
      }
    },
    {
      "id": "1956-channel",
      "name": "Phá trinh cô thôn nữ",
      "description": "Đây là một câu chuyện có thật của một người bạn tôi, hắn lúc đó là một sinh viên mới ra trường và đang trong thời kỳ tìm việc. Cậu ta ở vùng quê ra Hà Nội học và bây giờ...",
      "image": null,
      "label": null,
      "display": "text-only",
      "type": "text",
      "enable_detail": true,
      "related": {
        "url": "https://truyenx.link/truyensextv/channels/related/1956",
        "request_headers": []
      },
      "share": {
        "url": "https://truyenx.link/truyensextv/channels/share/pha-trinh-co-thon-nu"
      },
      "remote_data": {
        "url": "https://truyenx.link/truyensextv/channels/pha-trinh-co-thon-nu"
      }
    },
    {
      "id": "1955-channel",
      "name": "Kỹ sư tự truyện",
      "description": "Trời rét căm căm, gió rít từng cơn làm cái lạnh thấu da thấu thịt. Con ngõ nhỏ ngoằn ngoèo tối như mực, đm Hà Nội đéo gì mà tối mù tối mịt thế không biết. Tao với thằng...",
      "image": null,
      "label": null,
      "display": "text-only",
      "type": "text",
      "enable_detail": true,
      "related": {
        "url": "https://truyenx.link/truyensextv/channels/related/1955",
        "request_headers": []
      },
      "share": {
        "url": "https://truyenx.link/truyensextv/channels/share/ky-su-tu-truyen"
      },
      "remote_data": {
        "url": "https://truyenx.link/truyensextv/channels/ky-su-tu-truyen"
      }
    },
    {
      "id": "1954-channel",
      "name": "Mợ 8 của tôi",
      "description": "Nhà tôi khó khăn nên mợ có mướn tôi làm đồn điền cao su phụ nhà mợ và trả lương hằng tháng cho tôi. Cách đây 2 năm tôi có làm việc cho gia đình mợ, tối cạo mủ cao su và sáng...",
      "image": null,
      "label": null,
      "display": "text-only",
      "type": "text",
      "enable_detail": true,
      "related": {
        "url": "https://truyenx.link/truyensextv/channels/related/1954",
        "request_headers": []
      },
      "share": {
        "url": "https://truyenx.link/truyensextv/channels/share/mo-8-cua-toi"
      },
      "remote_data": {
        "url": "https://truyenx.link/truyensextv/channels/mo-8-cua-toi"
      }
    },
    {
      "id": "1953-channel",
      "name": "Người tình của tôi",
      "description": "Miền đất mới, nơi mà tôi vừa đến, sinh sống và làm việc. Sau một thời gian đi lại, tôi nhìn thấy một người con gái xinh đẹp thỉnh thoảng vẫn hay xuất hiện trong trong vườn...",
      "image": null,
      "label": null,
      "display": "text-only",
      "type": "text",
      "enable_detail": true,
      "related": {
        "url": "https://truyenx.link/truyensextv/channels/related/1953",
        "request_headers": []
      },
      "share": {
        "url": "https://truyenx.link/truyensextv/channels/share/nguoi-tinh-cua-toi"
      },
      "remote_data": {
        "url": "https://truyenx.link/truyensextv/channels/nguoi-tinh-cua-toi"
      }
    },
    {
      "id": "1952-channel",
      "name": "Chuyện tình năm cuối",
      "description": "Chiều thứ 7 yên ả, đang ngồi thẫn thờ bên chiếc laptop HP đen thui chơi cái game cũ rơ cũ rích “Shogun: Total War”. Thư viện hôm nay khá vắng, ngày mai là chủ nhật mà. Người...",
      "image": null,
      "label": null,
      "display": "text-only",
      "type": "text",
      "enable_detail": true,
      "related": {
        "url": "https://truyenx.link/truyensextv/channels/related/1952",
        "request_headers": []
      },
      "share": {
        "url": "https://truyenx.link/truyensextv/channels/share/chuyen-tinh-nam-cuoi"
      },
      "remote_data": {
        "url": "https://truyenx.link/truyensextv/channels/chuyen-tinh-nam-cuoi"
      }
    },
    {
      "id": "1951-channel",
      "name": "Cave hạng sang",
      "description": "Dũng ngạc nhiên, khi thấy Huyền bước vào văn phòng của chàng. Đã lâu Dũng không gặp, bỗng dưng nàng đến mà hề không báo trước. Huyền là em dâu của vợ Dũng. Chàng đã để ý...",
      "image": null,
      "label": null,
      "display": "text-only",
      "type": "text",
      "enable_detail": true,
      "related": {
        "url": "https://truyenx.link/truyensextv/channels/related/1951",
        "request_headers": []
      },
      "share": {
        "url": "https://truyenx.link/truyensextv/channels/share/cave-hang-sang"
      },
      "remote_data": {
        "url": "https://truyenx.link/truyensextv/channels/cave-hang-sang"
      }
    },
    {
      "id": "1950-channel",
      "name": "Một lần cứu nét",
      "description": "Tôi xin tự giới thiệu tôi một thanh niên thuộc thế hệ 8X của Hà Nội. Câu chuyện của tôi kể cho các bạn dưới đây là một kỷ niệm của một lần cứu net. Chắc các bạn đã...",
      "image": null,
      "label": null,
      "display": "text-only",
      "type": "text",
      "enable_detail": true,
      "related": {
        "url": "https://truyenx.link/truyensextv/channels/related/1950",
        "request_headers": []
      },
      "share": {
        "url": "https://truyenx.link/truyensextv/channels/share/mot-lan-cuu-net"
      },
      "remote_data": {
        "url": "https://truyenx.link/truyensextv/channels/mot-lan-cuu-net"
      }
    },
    {
      "id": "1949-channel",
      "name": "Lớp trưởng Diệu Linh",
      "description": "Buổi trưa hôm ấy là lần đầu tiên mà Diệu Linh, cô lớp trưởng gương mẫu của lớp chọn trường phổ thông trung học Phú Nhuận trốn học. Cô bé lấy cớ đau đầu xin nghỉ hai...",
      "image": null,
      "label": null,
      "display": "text-only",
      "type": "text",
      "enable_detail": true,
      "related": {
        "url": "https://truyenx.link/truyensextv/channels/related/1949",
        "request_headers": []
      },
      "share": {
        "url": "https://truyenx.link/truyensextv/channels/share/lop-truong-dieu-linh"
      },
      "remote_data": {
        "url": "https://truyenx.link/truyensextv/channels/lop-truong-dieu-linh"
      }
    },
    {
      "id": "1948-channel",
      "name": "Gái văn phòng",
      "description": "Cô gái ngồi trước mặt Thắng tầm 25 tuổi, ngoại hình dễ nhìn cũng có thể nói là khá xinh đẹp. Với vóc dáng cao ráo, nước da trắng trẻo cộng thêm khuôn mặt sáng sủa cô ta thừa...",
      "image": null,
      "label": null,
      "display": "text-only",
      "type": "text",
      "enable_detail": true,
      "related": {
        "url": "https://truyenx.link/truyensextv/channels/related/1948",
        "request_headers": []
      },
      "share": {
        "url": "https://truyenx.link/truyensextv/channels/share/gai-van-phong"
      },
      "remote_data": {
        "url": "https://truyenx.link/truyensextv/channels/gai-van-phong"
      }
    },
    {
      "id": "1947-channel",
      "name": "Cắm sừng",
      "description": "Sau bao cố gắng thì vợ chồng tôi cũng mở được một tiệm tạp hóa nhỏ trong niềm vui sướng. Tôi là 1 tài xế giao hàng cho một công ty vận chuyển nên tôi chỉ phụ giúp được vợ...",
      "image": null,
      "label": null,
      "display": "text-only",
      "type": "text",
      "enable_detail": true,
      "related": {
        "url": "https://truyenx.link/truyensextv/channels/related/1947",
        "request_headers": []
      },
      "share": {
        "url": "https://truyenx.link/truyensextv/channels/share/cam-sung"
      },
      "remote_data": {
        "url": "https://truyenx.link/truyensextv/channels/cam-sung"
      }
    },
    {
      "id": "1946-channel",
      "name": "Bé Thảo nhà đối diện",
      "description": "Tôi là Trung, câu chuyện đã xảy ra cách đây 2 năm, đây cũng là lúc tôi lần đầu thực hiện sex, trước đó tôi đã được coi phim sex rồi thật ra là đi thăm bà con trong đó, ở lại...",
      "image": null,
      "label": null,
      "display": "text-only",
      "type": "text",
      "enable_detail": true,
      "related": {
        "url": "https://truyenx.link/truyensextv/channels/related/1946",
        "request_headers": []
      },
      "share": {
        "url": "https://truyenx.link/truyensextv/channels/share/be-thao-nha-doi-dien"
      },
      "remote_data": {
        "url": "https://truyenx.link/truyensextv/channels/be-thao-nha-doi-dien"
      }
    },
    {
      "id": "1945-channel",
      "name": "Việt Long Hội",
      "description": "Cậu bé thích thú nhìn tập giấy dày đặc thứ chữ mà cậu không hề biết vi hình vẻ cổ quái bên trên. Hình từng bộ phận con người, hình người bị kiệt trên giường với nhiều...",
      "image": null,
      "label": null,
      "display": "text-only",
      "type": "text",
      "enable_detail": true,
      "related": {
        "url": "https://truyenx.link/truyensextv/channels/related/1945",
        "request_headers": []
      },
      "share": {
        "url": "https://truyenx.link/truyensextv/channels/share/viet-long-hoi"
      },
      "remote_data": {
        "url": "https://truyenx.link/truyensextv/channels/viet-long-hoi"
      }
    },
    {
      "id": "1944-channel",
      "name": "Best dâm hệ thống",
      "description": "Trần Thanh Đẳng là một thanh niên mê game và phim jav hen tai. Trong 1 lần trời mưa to thanh niên này đang quay tay xem jav thì bị sét đánh chết trong sinh sang 1 thế giới tên là thiên đế...",
      "image": null,
      "label": null,
      "display": "text-only",
      "type": "text",
      "enable_detail": true,
      "related": {
        "url": "https://truyenx.link/truyensextv/channels/related/1944",
        "request_headers": []
      },
      "share": {
        "url": "https://truyenx.link/truyensextv/channels/share/best-dam-he-thong"
      },
      "remote_data": {
        "url": "https://truyenx.link/truyensextv/channels/best-dam-he-thong"
      }
    },
    {
      "id": "1943-channel",
      "name": "Cô giáo dâm đãng và cô bạn cùng lớp",
      "description": "Hà là một cô giáo dạy văn của trường cấp 3 công lập nổi tiếng của huyện. Cô luôn được mọi người ái mộ không chỉ về thành tích giảng dạy xuất sắc mà còn về vẻ ngoài...",
      "image": null,
      "label": null,
      "display": "text-only",
      "type": "text",
      "enable_detail": true,
      "related": {
        "url": "https://truyenx.link/truyensextv/channels/related/1943",
        "request_headers": []
      },
      "share": {
        "url": "https://truyenx.link/truyensextv/channels/share/co-giao-dam-dang-va-co-ban-cung-lop"
      },
      "remote_data": {
        "url": "https://truyenx.link/truyensextv/channels/co-giao-dam-dang-va-co-ban-cung-lop"
      }
    },
    {
      "id": "1942-channel",
      "name": "Đụ em Trang nát lồn",
      "description": "16h30p, tiếng trống trường quen thuộc vang lên, kết thúc những giờ học tập mệt mỏi. Trang bước ra khỏi lớp, tuy hơi mệt nhưng trong lòng cô đang rất vui, bởi bố cô hôm nay nói sẽ...",
      "image": null,
      "label": null,
      "display": "text-only",
      "type": "text",
      "enable_detail": true,
      "related": {
        "url": "https://truyenx.link/truyensextv/channels/related/1942",
        "request_headers": []
      },
      "share": {
        "url": "https://truyenx.link/truyensextv/channels/share/du-em-trang-nat-lon"
      },
      "remote_data": {
        "url": "https://truyenx.link/truyensextv/channels/du-em-trang-nat-lon"
      }
    },
    {
      "id": "1941-channel",
      "name": "Ta xuyên không thành Tà Thần",
      "description": "Bạch bạch bạch... Ưm... á... Âm thanh nhỏ nhẹ đều đều và phát ra liên tục trong phòng một thanh niên Fa lâu năm, phòng của một thanh niên mê truyện, mê hentai chính hiệu. Trong phòng...",
      "image": null,
      "label": null,
      "display": "text-only",
      "type": "text",
      "enable_detail": true,
      "related": {
        "url": "https://truyenx.link/truyensextv/channels/related/1941",
        "request_headers": []
      },
      "share": {
        "url": "https://truyenx.link/truyensextv/channels/share/ta-xuyen-khong-thanh-ta-than"
      },
      "remote_data": {
        "url": "https://truyenx.link/truyensextv/channels/ta-xuyen-khong-thanh-ta-than"
      }
    },
    {
      "id": "1940-channel",
      "name": "Hàng xóm láng giềng",
      "description": "Hôm nay sinh nhật của Hoa, rất tiếc chồng lại đi công tác không về kịp nên Hoa chỉ dẫn hai đứa con ra quán để mừng sinh nhật của mình. Vào tuổi này thì Hoa cũng không còn thấy...",
      "image": null,
      "label": null,
      "display": "text-only",
      "type": "text",
      "enable_detail": true,
      "related": {
        "url": "https://truyenx.link/truyensextv/channels/related/1940",
        "request_headers": []
      },
      "share": {
        "url": "https://truyenx.link/truyensextv/channels/share/hang-xom-lang-gieng"
      },
      "remote_data": {
        "url": "https://truyenx.link/truyensextv/channels/hang-xom-lang-gieng"
      }
    },
    {
      "id": "1939-channel",
      "name": "Cặp vợ chồng thích bạo dâm",
      "description": "Ngọc nhớ lại ngày xưa mình lấy chồng... Anh ấy hiền như cục bột. Thông minh, hòa nhã, ít nói... không uống rượu, không bài bạc, không đua đòi... có gì hơn kia chứ... Cô nhớ lại...",
      "image": null,
      "label": null,
      "display": "text-only",
      "type": "text",
      "enable_detail": true,
      "related": {
        "url": "https://truyenx.link/truyensextv/channels/related/1939",
        "request_headers": []
      },
      "share": {
        "url": "https://truyenx.link/truyensextv/channels/share/cap-vo-chong-thich-bao-dam"
      },
      "remote_data": {
        "url": "https://truyenx.link/truyensextv/channels/cap-vo-chong-thich-bao-dam"
      }
    }
  ],
  "load_more": {
    "pageInfo": {
      "current_page": 75,
      "last_page": 140,
      "per_page": 30,
      "total": 4188
    },
    "paging": {
      "page_key": "page",
      "size_key": "size"
    },
    "remote_data": {
      "url": "https://truyenx.link/truyensextv/channels"
    }
  }
}