{
  "grid_number": 1,
  "channels": [
    {
      "id": "3128-channel",
      "name": "Hai mẹ con",
      "description": "Mẹ ơi, bố ngủ chưa? Đang ngủ dưới nhà, ngủ say tới nỗi há miệng mà ngáy pho pho trong phòng. Mẹ ơi, con muốn bú vú mẹ... Lên giường nằm đàng hoàng đi, mẹ cho con bú vú mẹ...",
      "image": null,
      "label": null,
      "display": "text-only",
      "type": "text",
      "enable_detail": true,
      "related": {
        "url": "https://truyenx.link/truyensextv/channels/related/3128",
        "request_headers": []
      },
      "share": {
        "url": "https://truyenx.link/truyensextv/channels/share/hai-me-con"
      },
      "remote_data": {
        "url": "https://truyenx.link/truyensextv/channels/hai-me-con"
      }
    },
    {
      "id": "3127-channel",
      "name": "Bà chủ của tôi",
      "description": "Tôi đang nằm chèo queo trong lẫm lúa để thủ dâm, thì con bé Năm làm công, bất ngờ xuất hiện, cầm lấy con cặc của tôi mà sục cặc. Tôi đã quen mò lồn nó rồi cho nên tôi luồn...",
      "image": null,
      "label": null,
      "display": "text-only",
      "type": "text",
      "enable_detail": true,
      "related": {
        "url": "https://truyenx.link/truyensextv/channels/related/3127",
        "request_headers": []
      },
      "share": {
        "url": "https://truyenx.link/truyensextv/channels/share/ba-chu-cua-toi"
      },
      "remote_data": {
        "url": "https://truyenx.link/truyensextv/channels/ba-chu-cua-toi"
      }
    },
    {
      "id": "3126-channel",
      "name": "Ngoại tình với anh hàng xóm cặc to",
      "description": "Huệ lấy chồng đã ba năm và đã có đứa con trai hai tuổi. Cuộc sống của Huệ và chồng dù còn khó khăn nhưng khá hạnh phúc vì chồng Huệ rất thương yêu Huệ. Đời sống tình dục...",
      "image": null,
      "label": null,
      "display": "text-only",
      "type": "text",
      "enable_detail": true,
      "related": {
        "url": "https://truyenx.link/truyensextv/channels/related/3126",
        "request_headers": []
      },
      "share": {
        "url": "https://truyenx.link/truyensextv/channels/share/ngoai-tinh-voi-anh-hang-xom-cac-to"
      },
      "remote_data": {
        "url": "https://truyenx.link/truyensextv/channels/ngoai-tinh-voi-anh-hang-xom-cac-to"
      }
    },
    {
      "id": "3125-channel",
      "name": "Tình em - Tình chị",
      "description": "Rất sướng khi được đụ cả hai chị em. Đụ cô em xong lại cà rà dụ khị đụ luôn cả cô chị. Thiệt sướng. Tư, anh muốn đụ chị hai em. Tôi ưỡn lên để thằng em sâu hơn trong...",
      "image": null,
      "label": null,
      "display": "text-only",
      "type": "text",
      "enable_detail": true,
      "related": {
        "url": "https://truyenx.link/truyensextv/channels/related/3125",
        "request_headers": []
      },
      "share": {
        "url": "https://truyenx.link/truyensextv/channels/share/tinh-em-tinh-chi"
      },
      "remote_data": {
        "url": "https://truyenx.link/truyensextv/channels/tinh-em-tinh-chi"
      }
    },
    {
      "id": "3124-channel",
      "name": "Nàng dâu đô thành",
      "description": "Tôi tên Cảm Tình, năm nay bốn mươi ba tuổi, hiện tại sống ở thành phố miền tây nam bộ. Còn con dâu tôi tên là Vân Hi, năm nay hai mươi ba tuổi, hiện tại con bé sống với chồng...",
      "image": null,
      "label": null,
      "display": "text-only",
      "type": "text",
      "enable_detail": true,
      "related": {
        "url": "https://truyenx.link/truyensextv/channels/related/3124",
        "request_headers": []
      },
      "share": {
        "url": "https://truyenx.link/truyensextv/channels/share/nang-dau-do-thanh"
      },
      "remote_data": {
        "url": "https://truyenx.link/truyensextv/channels/nang-dau-do-thanh"
      }
    },
    {
      "id": "3121-channel",
      "name": "Dòng máu dâm",
      "description": "Bình minh nhẹ nhàng ló dạng từ đường chân trời, những ánh nắng ban mai tuy yếu ớt nhưng dư sức xuyên qua lớp rèm khá mỏng manh. Đang lơ mơ chuẩn bị thức giấc thì tôi bừng...",
      "image": null,
      "label": null,
      "display": "text-only",
      "type": "text",
      "enable_detail": true,
      "related": {
        "url": "https://truyenx.link/truyensextv/channels/related/3121",
        "request_headers": []
      },
      "share": {
        "url": "https://truyenx.link/truyensextv/channels/share/dong-mau-dam"
      },
      "remote_data": {
        "url": "https://truyenx.link/truyensextv/channels/dong-mau-dam"
      }
    },
    {
      "id": "3123-channel",
      "name": "Bú lồn cô em vợ",
      "description": "Cái lồn phụ nữ, vốn rất nhạy cảm, chỉ hơi chạm nhẹ trúng lồn là em nứng lồn không chịu được. Nhất là mấy em lâu ngày không được gần đàn ông, nó còn rượn nứng tươm...",
      "image": null,
      "label": null,
      "display": "text-only",
      "type": "text",
      "enable_detail": true,
      "related": {
        "url": "https://truyenx.link/truyensextv/channels/related/3123",
        "request_headers": []
      },
      "share": {
        "url": "https://truyenx.link/truyensextv/channels/share/bu-lon-co-em-vo"
      },
      "remote_data": {
        "url": "https://truyenx.link/truyensextv/channels/bu-lon-co-em-vo"
      }
    },
    {
      "id": "3119-channel",
      "name": "Vợ tôi quá dâm",
      "description": "Tôi tên Minh, 30 tuổi, quê tôi thì ở Miền Tây sông nước, tôi đã có vợ nhưng ly dị rồi, vợ chồng tôi quen nhau rồi cưới được 6 năm, có với nhau 1 cô con gái 3t. Do cuộc sống xô...",
      "image": null,
      "label": null,
      "display": "text-only",
      "type": "text",
      "enable_detail": true,
      "related": {
        "url": "https://truyenx.link/truyensextv/channels/related/3119",
        "request_headers": []
      },
      "share": {
        "url": "https://truyenx.link/truyensextv/channels/share/vo-toi-qua-dam"
      },
      "remote_data": {
        "url": "https://truyenx.link/truyensextv/channels/vo-toi-qua-dam"
      }
    },
    {
      "id": "3122-channel",
      "name": "Chị gái tôi",
      "description": "Trước khi vào câu chuyện tôi xin phép được giới thiệu về gia đình tôi? Nhà tôi lúc trước gồm có 5 người ba mẹ và 2 người chị gái đã mất do dịch bệnh “COVID 19”. Gia...",
      "image": null,
      "label": null,
      "display": "text-only",
      "type": "text",
      "enable_detail": true,
      "related": {
        "url": "https://truyenx.link/truyensextv/channels/related/3122",
        "request_headers": []
      },
      "share": {
        "url": "https://truyenx.link/truyensextv/channels/share/chi-gai-toi"
      },
      "remote_data": {
        "url": "https://truyenx.link/truyensextv/channels/chi-gai-toi"
      }
    },
    {
      "id": "3120-channel",
      "name": "Chuyện cả nhà",
      "description": "Thăng đệ rủ tôi lên nhà con ghẹ của nó. Thôi đi, bồ em anh lên làm phiền à. Không mà. Anh cứ đi với em rồi biết. Vừa nói nó vừa kéo đẩy tôi lên xe. Trên đường đi nó mới...",
      "image": null,
      "label": null,
      "display": "text-only",
      "type": "text",
      "enable_detail": true,
      "related": {
        "url": "https://truyenx.link/truyensextv/channels/related/3120",
        "request_headers": []
      },
      "share": {
        "url": "https://truyenx.link/truyensextv/channels/share/chuyen-ca-nha"
      },
      "remote_data": {
        "url": "https://truyenx.link/truyensextv/channels/chuyen-ca-nha"
      }
    },
    {
      "id": "3118-channel",
      "name": "Mây mưa cùng vợ bạn",
      "description": "Vừa gặp mặt Thu, Dũng liền sờ ngay đũng quần Thu mà xoa, mà bóp mà cung tay gãi nhẹ lồn Thu qua lần vải quần, Dũng cảm nhận ngay Thu không mặc quần lót. Tuy Dũng kín đáo che bớt...",
      "image": null,
      "label": null,
      "display": "text-only",
      "type": "text",
      "enable_detail": true,
      "related": {
        "url": "https://truyenx.link/truyensextv/channels/related/3118",
        "request_headers": []
      },
      "share": {
        "url": "https://truyenx.link/truyensextv/channels/share/may-mua-cung-vo-ban"
      },
      "remote_data": {
        "url": "https://truyenx.link/truyensextv/channels/may-mua-cung-vo-ban"
      }
    },
    {
      "id": "3117-channel",
      "name": "Bí ẩn làng Thất Sơn",
      "description": "Tôi tên là Nguyễn Thị Tuyết, quê ở Thất Sơn, ông nội, bà nội nuôi tôi từ nhỏ cho đến tận bây giờ. Ông nội tôi thật thà chất phác, bà nội tôi cũng tốt nhưng tính tình hơi...",
      "image": null,
      "label": null,
      "display": "text-only",
      "type": "text",
      "enable_detail": true,
      "related": {
        "url": "https://truyenx.link/truyensextv/channels/related/3117",
        "request_headers": []
      },
      "share": {
        "url": "https://truyenx.link/truyensextv/channels/share/bi-an-lang-that-son"
      },
      "remote_data": {
        "url": "https://truyenx.link/truyensextv/channels/bi-an-lang-that-son"
      }
    },
    {
      "id": "3116-channel",
      "name": "Bố nuôi thịt con gái nuôi",
      "description": "Mỗi buổi tối trong công viên Tình Nhân, một đôi nam nữ không đối xứng tuổi tác, họ khoác tay nhau đi dạo trên những con đường mòn, người đàn ông dịu dàng và tao nhã, tóc hoa...",
      "image": null,
      "label": null,
      "display": "text-only",
      "type": "text",
      "enable_detail": true,
      "related": {
        "url": "https://truyenx.link/truyensextv/channels/related/3116",
        "request_headers": []
      },
      "share": {
        "url": "https://truyenx.link/truyensextv/channels/share/bo-nuoi-thit-con-gai-nuoi"
      },
      "remote_data": {
        "url": "https://truyenx.link/truyensextv/channels/bo-nuoi-thit-con-gai-nuoi"
      }
    },
    {
      "id": "3115-channel",
      "name": "Địt em họ",
      "description": "Tôi có một đứa em họ, tên Ly, là sinh viên năm nhất, đang đi làm thêm. Mấy anh em tôi thuê một tầng trong căn nhà ba tầng tầng ba nơi chúng tôi ở gồm hai phòng, một nhà tắm cửa...",
      "image": null,
      "label": null,
      "display": "text-only",
      "type": "text",
      "enable_detail": true,
      "related": {
        "url": "https://truyenx.link/truyensextv/channels/related/3115",
        "request_headers": []
      },
      "share": {
        "url": "https://truyenx.link/truyensextv/channels/share/dit-em-ho"
      },
      "remote_data": {
        "url": "https://truyenx.link/truyensextv/channels/dit-em-ho"
      }
    },
    {
      "id": "3114-channel",
      "name": "Địt cả mẹ lẫn chị gái",
      "description": "Vào cuối những năm 1960, tôi sinh ra ở một ngôi làng miền núi nhỏ tên là Đào Viên ở chân dãy núi Lang Bang ở phía tây Đồng bằng Hoa Bắc. Thôn trang nơi đây không lớn lắm, chỉ...",
      "image": null,
      "label": null,
      "display": "text-only",
      "type": "text",
      "enable_detail": true,
      "related": {
        "url": "https://truyenx.link/truyensextv/channels/related/3114",
        "request_headers": []
      },
      "share": {
        "url": "https://truyenx.link/truyensextv/channels/share/dit-ca-me-lan-chi-gai"
      },
      "remote_data": {
        "url": "https://truyenx.link/truyensextv/channels/dit-ca-me-lan-chi-gai"
      }
    },
    {
      "id": "3113-channel",
      "name": "Cho mượn bạn gái",
      "description": "Tôi xin giới thiệu một chút, bạn gái của tôi tên là Nhi, năm nay 24 tuổi, cao 1m67, nặng 48kg, ba vòng 88, 62, 95 như người mẫu, đặc biệt là bờ mông to tròn trịa cực kỳ gợi cảm...",
      "image": null,
      "label": null,
      "display": "text-only",
      "type": "text",
      "enable_detail": true,
      "related": {
        "url": "https://truyenx.link/truyensextv/channels/related/3113",
        "request_headers": []
      },
      "share": {
        "url": "https://truyenx.link/truyensextv/channels/share/cho-muon-ban-gai"
      },
      "remote_data": {
        "url": "https://truyenx.link/truyensextv/channels/cho-muon-ban-gai"
      }
    },
    {
      "id": "3112-channel",
      "name": "Em vợ nứng lồn",
      "description": "Em vợ thôi chồng. Suốt ngày cứ dập dìu trai tơ hú hí với nhau trong phòng mà không khép cửa. Chưa đã nư, em còn luôn thả rông gợi cảm, luôn lượn qua lượn lại trước mặt anh rể...",
      "image": null,
      "label": null,
      "display": "text-only",
      "type": "text",
      "enable_detail": true,
      "related": {
        "url": "https://truyenx.link/truyensextv/channels/related/3112",
        "request_headers": []
      },
      "share": {
        "url": "https://truyenx.link/truyensextv/channels/share/em-vo-nung-lon"
      },
      "remote_data": {
        "url": "https://truyenx.link/truyensextv/channels/em-vo-nung-lon"
      }
    },
    {
      "id": "3111-channel",
      "name": "Cô giáo Thu Thuỷ và anh bạn may mắn",
      "description": "Lại nói về Thu Thuỷ, một cô giáo dịu dàng, nết na, xinh đẹp, nhưng có số đào hoa. Theo sách nhân tướng học có ba đặc điểm để nhận diện phụ nữ đa dâm, mà Thuỷ đều có...",
      "image": null,
      "label": null,
      "display": "text-only",
      "type": "text",
      "enable_detail": true,
      "related": {
        "url": "https://truyenx.link/truyensextv/channels/related/3111",
        "request_headers": []
      },
      "share": {
        "url": "https://truyenx.link/truyensextv/channels/share/co-giao-thu-thuy-va-anh-ban-may-man"
      },
      "remote_data": {
        "url": "https://truyenx.link/truyensextv/channels/co-giao-thu-thuy-va-anh-ban-may-man"
      }
    },
    {
      "id": "3110-channel",
      "name": "Người tình của vợ",
      "description": "Vứt cái áo bảo hộ màu vàng cánh gián xuống cái ghế gỗ nâu xỉn rồi mở cái tủ lạnh cũ mèm, lấy chai nước lọc lít rưỡi tu ừng ực để xua tan cái nóng trên ba mươi độ rồi...",
      "image": null,
      "label": null,
      "display": "text-only",
      "type": "text",
      "enable_detail": true,
      "related": {
        "url": "https://truyenx.link/truyensextv/channels/related/3110",
        "request_headers": []
      },
      "share": {
        "url": "https://truyenx.link/truyensextv/channels/share/nguoi-tinh-cua-vo"
      },
      "remote_data": {
        "url": "https://truyenx.link/truyensextv/channels/nguoi-tinh-cua-vo"
      }
    },
    {
      "id": "3109-channel",
      "name": "Chuyện của Liên 2",
      "description": "Liên lại tiếp tục kể cho các bạn về những gì mình đã trải qua nhé. Chắc hẳn các bạn và Liên đều giống nhau, bởi chúng ta đều là con người, đều có cảm xúc, đều bị chịu...",
      "image": null,
      "label": null,
      "display": "text-only",
      "type": "text",
      "enable_detail": true,
      "related": {
        "url": "https://truyenx.link/truyensextv/channels/related/3109",
        "request_headers": []
      },
      "share": {
        "url": "https://truyenx.link/truyensextv/channels/share/chuyen-cua-lien-2"
      },
      "remote_data": {
        "url": "https://truyenx.link/truyensextv/channels/chuyen-cua-lien-2"
      }
    },
    {
      "id": "3108-channel",
      "name": "Má vợ thằng bạn thân",
      "description": "Thằng Đán dẹo bước từng bước khập khiễng ra khỏi cánh cửa phi trường quốc tế Tân Sơn nhất, từ một xứ Bắc Âu với bầu trời đầy mây mù lạnh giá xám xịt và thưa thớt...",
      "image": null,
      "label": null,
      "display": "text-only",
      "type": "text",
      "enable_detail": true,
      "related": {
        "url": "https://truyenx.link/truyensextv/channels/related/3108",
        "request_headers": []
      },
      "share": {
        "url": "https://truyenx.link/truyensextv/channels/share/ma-vo-thang-ban-than"
      },
      "remote_data": {
        "url": "https://truyenx.link/truyensextv/channels/ma-vo-thang-ban-than"
      }
    },
    {
      "id": "3107-channel",
      "name": "Khoảng thời gian nghỉ hè với chị gái",
      "description": "Tôi viết vội câu chuyện này để chia sẻ cho anh em đồng dâm về câu chuyện của mình với chị tôi, tôi dốt văn nên anh em ráng tưởng tượng nhé. Chị tôi thì học đại học năm 2...",
      "image": null,
      "label": null,
      "display": "text-only",
      "type": "text",
      "enable_detail": true,
      "related": {
        "url": "https://truyenx.link/truyensextv/channels/related/3107",
        "request_headers": []
      },
      "share": {
        "url": "https://truyenx.link/truyensextv/channels/share/khoang-thoi-gian-nghi-he-voi-chi-gai"
      },
      "remote_data": {
        "url": "https://truyenx.link/truyensextv/channels/khoang-thoi-gian-nghi-he-voi-chi-gai"
      }
    },
    {
      "id": "3106-channel",
      "name": "Sếp - Chị, Chị - Sếp",
      "description": "Sếp chị Anh Dz ngồi đây, mình bàn chuyện chút. Ông Canh vừa nói vừa mở cửa xe Lada. Tôi hay đi chung với ông trong công việc và thường ngồi ghế trước cạnh Tám tài. Lần này ông...",
      "image": null,
      "label": null,
      "display": "text-only",
      "type": "text",
      "enable_detail": true,
      "related": {
        "url": "https://truyenx.link/truyensextv/channels/related/3106",
        "request_headers": []
      },
      "share": {
        "url": "https://truyenx.link/truyensextv/channels/share/sep-chi-chi-sep"
      },
      "remote_data": {
        "url": "https://truyenx.link/truyensextv/channels/sep-chi-chi-sep"
      }
    },
    {
      "id": "3105-channel",
      "name": "Tướng đa dâm",
      "description": "Lời nói đầu: Trong nhân tướng học, phụ nữ đa dâm dễ nhận diện nhất ở ba đặc điểm: “Phụ nữ đa dâm có sắc da trắng nhưng hơi pha hồng là tướng đào hoa sắc.”...",
      "image": null,
      "label": null,
      "display": "text-only",
      "type": "text",
      "enable_detail": true,
      "related": {
        "url": "https://truyenx.link/truyensextv/channels/related/3105",
        "request_headers": []
      },
      "share": {
        "url": "https://truyenx.link/truyensextv/channels/share/tuong-da-dam"
      },
      "remote_data": {
        "url": "https://truyenx.link/truyensextv/channels/tuong-da-dam"
      }
    },
    {
      "id": "3104-channel",
      "name": "Tuyển tập truyện Hentai Doremon",
      "description": "Con chó mới của Suneo Trong bãi đất trống Suneo vẫn đen khoe về con chó mới của cậu ấy, nó là 1 con Bull Pháp đực, nặng khoản hơn 30 kg. Màu nâu sẫm, nhìn sơ qua nó đủ mạnh mẽ...",
      "image": null,
      "label": null,
      "display": "text-only",
      "type": "text",
      "enable_detail": true,
      "related": {
        "url": "https://truyenx.link/truyensextv/channels/related/3104",
        "request_headers": []
      },
      "share": {
        "url": "https://truyenx.link/truyensextv/channels/share/tuyen-tap-truyen-hentai-doremon"
      },
      "remote_data": {
        "url": "https://truyenx.link/truyensextv/channels/tuyen-tap-truyen-hentai-doremon"
      }
    },
    {
      "id": "3103-channel",
      "name": "Phụng Tiên - Liêu Trai Chí Dị Chi Dâm",
      "description": "Lưu Xích Thủy người huyện Bình Lạc , còn nhỏ đã thông minh đẹp trai, mười lăm tuổi đã vào học trường huyện. Cha mẹ mất sớm đâm ra chơi bời bỏ học. Nhà không dư dật mà ưa...",
      "image": null,
      "label": null,
      "display": "text-only",
      "type": "text",
      "enable_detail": true,
      "related": {
        "url": "https://truyenx.link/truyensextv/channels/related/3103",
        "request_headers": []
      },
      "share": {
        "url": "https://truyenx.link/truyensextv/channels/share/phung-tien-lieu-trai-chi-di-chi-dam"
      },
      "remote_data": {
        "url": "https://truyenx.link/truyensextv/channels/phung-tien-lieu-trai-chi-di-chi-dam"
      }
    },
    {
      "id": "3102-channel",
      "name": "2 người địt, 3 người sướng",
      "description": "Sau 1 lần some và 1 lần đi riêng với bx thì một năm sau bạn some lại xuất hiện ở cửa nhà tôi, nhìn thấy bạn some tôi không tin vào mắt mình, sau màn chào hỏi bạn some hỏi bx đâu...",
      "image": null,
      "label": null,
      "display": "text-only",
      "type": "text",
      "enable_detail": true,
      "related": {
        "url": "https://truyenx.link/truyensextv/channels/related/3102",
        "request_headers": []
      },
      "share": {
        "url": "https://truyenx.link/truyensextv/channels/share/2-nguoi-dit-3-nguoi-suong"
      },
      "remote_data": {
        "url": "https://truyenx.link/truyensextv/channels/2-nguoi-dit-3-nguoi-suong"
      }
    },
    {
      "id": "3101-channel",
      "name": "Tống tình cô giáo Thu Thuỷ",
      "description": "Thu Thuỷ là giáo viên, chồng Thuỷ công tác ở một ngân hàng lớn nên khá bận rộn. Tuy bận rộn vậy nhưng chồng Thuỷ đêm nào cũng bắt vợ bú cặc để địt tiếp, một đêm cũng...",
      "image": null,
      "label": null,
      "display": "text-only",
      "type": "text",
      "enable_detail": true,
      "related": {
        "url": "https://truyenx.link/truyensextv/channels/related/3101",
        "request_headers": []
      },
      "share": {
        "url": "https://truyenx.link/truyensextv/channels/share/tong-tinh-co-giao-thu-thuy"
      },
      "remote_data": {
        "url": "https://truyenx.link/truyensextv/channels/tong-tinh-co-giao-thu-thuy"
      }
    },
    {
      "id": "3099-channel",
      "name": "Thế giới tối tăm",
      "description": "Bắt đầu Trên con đường làng heo hút giữa trời trưa nắng, một thiếu niên trong bộ đồng phục học sinh đeo balo đen đi xe đạp đang trên đường về nhà. Thiếu niên tên Tuấn, một...",
      "image": null,
      "label": null,
      "display": "text-only",
      "type": "text",
      "enable_detail": true,
      "related": {
        "url": "https://truyenx.link/truyensextv/channels/related/3099",
        "request_headers": []
      },
      "share": {
        "url": "https://truyenx.link/truyensextv/channels/share/the-gioi-toi-tam"
      },
      "remote_data": {
        "url": "https://truyenx.link/truyensextv/channels/the-gioi-toi-tam"
      }
    },
    {
      "id": "3100-channel",
      "name": "Bố chồng ngủ với con dâu",
      "description": "Vào tháng 5 năm 1995, Chí Đặng, 27 tuổi, sống ở ngoại ô thành phố, được giới thiệu kết hôn với Hồng Phấn, một cô gái 19 tuổi ở làng bên. Hồng Phấn là một người phụ nữ...",
      "image": null,
      "label": null,
      "display": "text-only",
      "type": "text",
      "enable_detail": true,
      "related": {
        "url": "https://truyenx.link/truyensextv/channels/related/3100",
        "request_headers": []
      },
      "share": {
        "url": "https://truyenx.link/truyensextv/channels/share/bo-chong-ngu-voi-con-dau"
      },
      "remote_data": {
        "url": "https://truyenx.link/truyensextv/channels/bo-chong-ngu-voi-con-dau"
      }
    }
  ],
  "load_more": {
    "pageInfo": {
      "current_page": 56,
      "last_page": 140,
      "per_page": 30,
      "total": 4188
    },
    "paging": {
      "page_key": "page",
      "size_key": "size"
    },
    "remote_data": {
      "url": "https://truyenx.link/truyensextv/channels"
    }
  }
}