{"grid_number":1,"channels":[{"id":"2918-channel","name":"Tâm sự của trinh nữ thích thủ dâm","description":"Mới đầu năm mình đã nứng lồn rồi, vì mình còn trinh nên mình chỉ day day le thôi. Mình thấy day le phê vãi, một tay cầm điện thoại xem phim sex nghe tiếng rên rỉ, tiếng thở dốc...","image":null,"label":null,"display":"text-only","type":"text","enable_detail":true,"related":{"url":"https://truyenx.link/truyensextv/channels/related/2918","request_headers":[]},"share":{"url":"https://truyenx.link/truyensextv/channels/share/tam-su-cua-trinh-nu-thich-thu-dam"},"remote_data":{"url":"https://truyenx.link/truyensextv/channels/tam-su-cua-trinh-nu-thich-thu-dam"}},{"id":"2917-channel","name":"Năm cuối cấp 3","description":"Lớp 12A2 Ê tao nghe bảo cô chủ nhiệm mình năm nay trẻ măng à. Cả ba là bạn thân của nhau. Năm nay là năm cuối cùng của tụi nó ở ngôi trường cấp 3 này. Ngày hôm sau... Ê thằng...","image":null,"label":null,"display":"text-only","type":"text","enable_detail":true,"related":{"url":"https://truyenx.link/truyensextv/channels/related/2917","request_headers":[]},"share":{"url":"https://truyenx.link/truyensextv/channels/share/nam-cuoi-cap-3"},"remote_data":{"url":"https://truyenx.link/truyensextv/channels/nam-cuoi-cap-3"}},{"id":"2916-channel","name":"Ba cho con đụ mẹ","description":"Tôi vẫn nhớ như in buổi tối hôm đó. Như thường lệ thì sau khi ăn cơm tối xong tôi thường hay về phòng riêng của mình để học bài hay coi TV. Nhưng tối hôm đó khi ăn cơm ba mẹ...","image":null,"label":null,"display":"text-only","type":"text","enable_detail":true,"related":{"url":"https://truyenx.link/truyensextv/channels/related/2916","request_headers":[]},"share":{"url":"https://truyenx.link/truyensextv/channels/share/ba-cho-con-du-me"},"remote_data":{"url":"https://truyenx.link/truyensextv/channels/ba-cho-con-du-me"}},{"id":"2915-channel","name":"Con bạn bỏ chồng","description":"Mình có 1 đứa bạn thuộc tuýp người mồm 5 miệng mười, mồm lúc nào cũng bô bô ăn to nói lắm, nhưng không phải kiểu bố đời mẹ thiên hạ chuyên chửi người, nó còn là người...","image":null,"label":null,"display":"text-only","type":"text","enable_detail":true,"related":{"url":"https://truyenx.link/truyensextv/channels/related/2915","request_headers":[]},"share":{"url":"https://truyenx.link/truyensextv/channels/share/con-ban-bo-chong"},"remote_data":{"url":"https://truyenx.link/truyensextv/channels/con-ban-bo-chong"}},{"id":"2914-channel","name":"Tình dục mạo hiểm","description":"Mẹ kế dâm đãng “Ngạn Tuấn, buổi tối về nhà ăn cơm không?” Trần Dao đang quét tước trong nhà vệ sinh, thấy con riêng chuẩn bị ra cửa, liền buông cây chổi xuống đi...","image":null,"label":null,"display":"text-only","type":"text","enable_detail":true,"related":{"url":"https://truyenx.link/truyensextv/channels/related/2914","request_headers":[]},"share":{"url":"https://truyenx.link/truyensextv/channels/share/tinh-duc-mao-hiem"},"remote_data":{"url":"https://truyenx.link/truyensextv/channels/tinh-duc-mao-hiem"}},{"id":"2913-channel","name":"Trường làng","description":"Trong phòng vệ sinh Làng Việt Thanh một ngôi làng nhỏ thuộc vùng sâu vùng xa, là khu vực nằm cách xa thành phố nên điều kiện kinh tế khó khăn, mọi thứ đều thiếu thốn. Chỉ có duy...","image":null,"label":null,"display":"text-only","type":"text","enable_detail":true,"related":{"url":"https://truyenx.link/truyensextv/channels/related/2913","request_headers":[]},"share":{"url":"https://truyenx.link/truyensextv/channels/share/truong-lang"},"remote_data":{"url":"https://truyenx.link/truyensextv/channels/truong-lang"}},{"id":"2912-channel","name":"Địt cô họ ngày Tết","description":"Tôi là một người mang dòng máu đam mê NTR và lén lút. Bản thân cũng trải qua dăm ba mối tình nhưng cả thèm chóng chán, đc dăm bữa nửa năm tôi lại chia tay. Cuộc sống tình dục tôi...","image":null,"label":null,"display":"text-only","type":"text","enable_detail":true,"related":{"url":"https://truyenx.link/truyensextv/channels/related/2912","request_headers":[]},"share":{"url":"https://truyenx.link/truyensextv/channels/share/dit-co-ho-ngay-tet"},"remote_data":{"url":"https://truyenx.link/truyensextv/channels/dit-co-ho-ngay-tet"}},{"id":"2911-channel","name":"Cô nàng cuồng dâm","description":"Tôi là Yến, 23 tuổi, là người trẻ tuổi nhưng thành đạt trong mắt mọi người. Đó là vì tôi có nhà, có xe, có công việc ổn định và lương cao. Tôi chỉ thiếu một người đàn...","image":null,"label":null,"display":"text-only","type":"text","enable_detail":true,"related":{"url":"https://truyenx.link/truyensextv/channels/related/2911","request_headers":[]},"share":{"url":"https://truyenx.link/truyensextv/channels/share/co-nang-cuong-dam"},"remote_data":{"url":"https://truyenx.link/truyensextv/channels/co-nang-cuong-dam"}},{"id":"2910-channel","name":"Cho con trai đụ","description":"Câu chuyện bắt đầu khoảng hơn một năm trước. Tôi, một người đàn bà có chồng, 46 tuổi, có một con trai 26 tuổi. Tôi có nhan sắc đẹp và một thân hình hấp dẫn vì năng tập...","image":null,"label":null,"display":"text-only","type":"text","enable_detail":true,"related":{"url":"https://truyenx.link/truyensextv/channels/related/2910","request_headers":[]},"share":{"url":"https://truyenx.link/truyensextv/channels/share/cho-con-trai-du"},"remote_data":{"url":"https://truyenx.link/truyensextv/channels/cho-con-trai-du"}},{"id":"2909-channel","name":"Địt nhau tuổi ô mai","description":"Ư... Ư... Ư... Em sướng quá chồng ơi, nữa nữa đi chồng. Chồng chơi vợ nhẹ thôi không thằng Dũng nó nghe thấy. Thằng Dũng đang đứng ở ngoài cửa sổ, nó đang xem bố mẹ nó địt...","image":null,"label":null,"display":"text-only","type":"text","enable_detail":true,"related":{"url":"https://truyenx.link/truyensextv/channels/related/2909","request_headers":[]},"share":{"url":"https://truyenx.link/truyensextv/channels/share/dit-nhau-tuoi-o-mai"},"remote_data":{"url":"https://truyenx.link/truyensextv/channels/dit-nhau-tuoi-o-mai"}},{"id":"2908-channel","name":"Loạn giao cung đình","description":"Nếu nhìn từ bên ngoài tẩm cung của hoàng hậu, ta sẽ thấy khung cảnh thật trang nghiêm nhưng thực hư chỉ có cung nữ và thái giám canh gác biết bên trong hỗn loạn cỡ nào. Trên...","image":null,"label":null,"display":"text-only","type":"text","enable_detail":true,"related":{"url":"https://truyenx.link/truyensextv/channels/related/2908","request_headers":[]},"share":{"url":"https://truyenx.link/truyensextv/channels/share/loan-giao-cung-dinh"},"remote_data":{"url":"https://truyenx.link/truyensextv/channels/loan-giao-cung-dinh"}},{"id":"2907-channel","name":"Ba chồng cưỡng dâm con dâu","description":"Đinh đinh đinh!! Tiếng di động ngoài phòng khách vang lên... Mục Tiếu Lan đang trong phòng bếp bận rộn làm bữa tối... “Tiểu Mặc con cầm điện thoại vào cho mẹ!” Vừa từ...","image":null,"label":null,"display":"text-only","type":"text","enable_detail":true,"related":{"url":"https://truyenx.link/truyensextv/channels/related/2907","request_headers":[]},"share":{"url":"https://truyenx.link/truyensextv/channels/share/ba-chong-cuong-dam-con-dau"},"remote_data":{"url":"https://truyenx.link/truyensextv/channels/ba-chong-cuong-dam-con-dau"}},{"id":"2906-channel","name":"Em họ tội nghiệp của tôi","description":"Câu chuyện này là về một người em họ tôi. Tên em là Như em sinh năm 2k8. Vào năm em học lớp 6. Em được gặp và có quen biết với 1 trong những thằng giang hồ ở trường tôi. Lúc...","image":null,"label":null,"display":"text-only","type":"text","enable_detail":true,"related":{"url":"https://truyenx.link/truyensextv/channels/related/2906","request_headers":[]},"share":{"url":"https://truyenx.link/truyensextv/channels/share/em-ho-toi-nghiep-cua-toi"},"remote_data":{"url":"https://truyenx.link/truyensextv/channels/em-ho-toi-nghiep-cua-toi"}},{"id":"2905-channel","name":"Điện thoại quyền năng","description":"Sáng sớm như thường lệ, Trinh đứng dậy đánh răng rửa mặt, nhìn gương mặt V line của mình trong gương, hai mắt si mê. Trinh vừa sinh nhật mười tám tuổi hôm qua, với dáng người...","image":null,"label":null,"display":"text-only","type":"text","enable_detail":true,"related":{"url":"https://truyenx.link/truyensextv/channels/related/2905","request_headers":[]},"share":{"url":"https://truyenx.link/truyensextv/channels/share/dien-thoai-quyen-nang"},"remote_data":{"url":"https://truyenx.link/truyensextv/channels/dien-thoai-quyen-nang"}},{"id":"2904-channel","name":"Em nữ sinh dâm đãng","description":"Nguyễn Như Phượng năm nay mười bảy tuổi, đang học lớp mười hai, tính cách trầm tính, trong lớp rất ít bạn bè, gương mặt xinh đẹp, dáng người thon gọn do thường xuyên tập...","image":null,"label":null,"display":"text-only","type":"text","enable_detail":true,"related":{"url":"https://truyenx.link/truyensextv/channels/related/2904","request_headers":[]},"share":{"url":"https://truyenx.link/truyensextv/channels/share/em-nu-sinh-dam-dang"},"remote_data":{"url":"https://truyenx.link/truyensextv/channels/em-nu-sinh-dam-dang"}},{"id":"2903-channel","name":"Thị trấn của dục vọng","description":"Xe buýt số 20 cao lớn tráng lệ chậm rãi đến gần trạm, cửa xe mở ra, một người đàn ông đi giày tây bắt đầu kéo khóa quần lấy ra một bọc to lớn giữa háng. Người bán vé...","image":null,"label":null,"display":"text-only","type":"text","enable_detail":true,"related":{"url":"https://truyenx.link/truyensextv/channels/related/2903","request_headers":[]},"share":{"url":"https://truyenx.link/truyensextv/channels/share/thi-tran-cua-duc-vong"},"remote_data":{"url":"https://truyenx.link/truyensextv/channels/thi-tran-cua-duc-vong"}},{"id":"2902-channel","name":"Nữ nhân Tô gia","description":"Đặc điểm của nữ nhân Tô gia Tô Huyên năm nay 26 tuổi, là giám đốc một công ty truyền thông quảng cáo có chút danh tiếng, diện mạo nhỏ nhà bích ngọc, mặc cho ai nhìn, đều cảm...","image":null,"label":null,"display":"text-only","type":"text","enable_detail":true,"related":{"url":"https://truyenx.link/truyensextv/channels/related/2902","request_headers":[]},"share":{"url":"https://truyenx.link/truyensextv/channels/share/nu-nhan-to-gia"},"remote_data":{"url":"https://truyenx.link/truyensextv/channels/nu-nhan-to-gia"}},{"id":"2901-channel","name":"Được hiếp dâm","description":"My thật sự đang rất buồn, yêu nhau 2 năm bị cắm sừng sao mà vui nổi. Tối đó, My mặc chiếc đầm ngủ màu đen định bụng là khoác thêm áo ngoài thì sẽ không ai nhận ra mình không...","image":null,"label":null,"display":"text-only","type":"text","enable_detail":true,"related":{"url":"https://truyenx.link/truyensextv/channels/related/2901","request_headers":[]},"share":{"url":"https://truyenx.link/truyensextv/channels/share/duoc-hiep-dam"},"remote_data":{"url":"https://truyenx.link/truyensextv/channels/duoc-hiep-dam"}},{"id":"2900-channel","name":"Tâm sự của dâm nữ nứng lồn","description":"Ngày đầu tiên tui biết nứng lồn là gì cũng chính là ngày tôi sa đọa vào sự nứng lồn không lối thoát. Vẫn nhớ hôm ấy trời nóng quá nên thả rông không mặc áo lót với quần...","image":null,"label":null,"display":"text-only","type":"text","enable_detail":true,"related":{"url":"https://truyenx.link/truyensextv/channels/related/2900","request_headers":[]},"share":{"url":"https://truyenx.link/truyensextv/channels/share/tam-su-cua-dam-nu-nung-lon"},"remote_data":{"url":"https://truyenx.link/truyensextv/channels/tam-su-cua-dam-nu-nung-lon"}},{"id":"2899-channel","name":"Dì Lan","description":"Tại ngôi biệt thự sang trọng nào đó tại thành phố Hà Nội... Hừ tôi tin anh... Tôi giao toàn bộ tiền cho anh đầu tư rồi giờ anh biến chúng thành cái gì đây, loại ngu dốt như anh...","image":null,"label":null,"display":"text-only","type":"text","enable_detail":true,"related":{"url":"https://truyenx.link/truyensextv/channels/related/2899","request_headers":[]},"share":{"url":"https://truyenx.link/truyensextv/channels/share/di-lan"},"remote_data":{"url":"https://truyenx.link/truyensextv/channels/di-lan"}},{"id":"2898-channel","name":"Mối tình giữa vợ với anh xe ôm","description":"Khởi Nguồn Tôi với vợ tui đang đi dạo trên công viên của thành phố vào một ngày đẹp trời, chúng tôi thấy có khoảng 3 đứa trẻ con đang nô đùa trượt PaTIN cùng nhau thật là...","image":null,"label":null,"display":"text-only","type":"text","enable_detail":true,"related":{"url":"https://truyenx.link/truyensextv/channels/related/2898","request_headers":[]},"share":{"url":"https://truyenx.link/truyensextv/channels/share/moi-tinh-giua-vo-voi-anh-xe-om"},"remote_data":{"url":"https://truyenx.link/truyensextv/channels/moi-tinh-giua-vo-voi-anh-xe-om"}},{"id":"2897-channel","name":"Kế hoạch chén gái cơ quan","description":"Cho em Ly ngủ say Lang thang trên Google cả ngày trời thì tôi cũng tìm được một nơi bán thuốc mê. Thấy thằng bán hàng nói rằng chỉ cần nhỏ 5 giọt vào một cốc nước, uống một...","image":null,"label":null,"display":"text-only","type":"text","enable_detail":true,"related":{"url":"https://truyenx.link/truyensextv/channels/related/2897","request_headers":[]},"share":{"url":"https://truyenx.link/truyensextv/channels/share/ke-hoach-chen-gai-co-quan"},"remote_data":{"url":"https://truyenx.link/truyensextv/channels/ke-hoach-chen-gai-co-quan"}},{"id":"2896-channel","name":"Hoan lạc thánh giáo","description":"Xin giới thiệu sơ qua gia đình của Hoàng. Hoàng năm nay được 13 tuổi, sinh năm 1996, đang học lớp 7 trường phổ thông chuyên Quốc Tế, tên đầy đủ là Trần Minh Hoàng, ba nó tên...","image":null,"label":null,"display":"text-only","type":"text","enable_detail":true,"related":{"url":"https://truyenx.link/truyensextv/channels/related/2896","request_headers":[]},"share":{"url":"https://truyenx.link/truyensextv/channels/share/hoan-lac-thanh-giao"},"remote_data":{"url":"https://truyenx.link/truyensextv/channels/hoan-lac-thanh-giao"}},{"id":"2895-channel","name":"Vợ là người mẫu ảnh","description":"Chào mọi người, giới thiệu sơ lược về gia đình tôi. Tôi là Quốc Thiên, năm nay 28 tuổi là trưởng phòng truyền thông của 2 công ty quần áo H&T. Vợ tôi là Thủy Tiên, 24 tuổi...","image":null,"label":null,"display":"text-only","type":"text","enable_detail":true,"related":{"url":"https://truyenx.link/truyensextv/channels/related/2895","request_headers":[]},"share":{"url":"https://truyenx.link/truyensextv/channels/share/vo-la-nguoi-mau-anh"},"remote_data":{"url":"https://truyenx.link/truyensextv/channels/vo-la-nguoi-mau-anh"}},{"id":"2894-channel","name":"Ông hàng xóm tốt bụng","description":"Bố Hữu Tuấn Lên Thăm Phải nói rằng Hữu Tuấn cực kỳ...","image":null,"label":null,"display":"text-only","type":"text","enable_detail":true,"related":{"url":"https://truyenx.link/truyensextv/channels/related/2894","request_headers":[]},"share":{"url":"https://truyenx.link/truyensextv/channels/share/ong-hang-xom-tot-bung"},"remote_data":{"url":"https://truyenx.link/truyensextv/channels/ong-hang-xom-tot-bung"}},{"id":"2893-channel","name":"Chuyện của Loan","description":"Ngày Loan hai mươi, đã rời xa gia đình, xuống Thành phố của một tỉnh nhỏ để lập nghiệp, bơ vơ nơi Phố thị đông người, xa lạ lạc lõng giữa chốn thị thành, nhiều khi Loan...","image":null,"label":null,"display":"text-only","type":"text","enable_detail":true,"related":{"url":"https://truyenx.link/truyensextv/channels/related/2893","request_headers":[]},"share":{"url":"https://truyenx.link/truyensextv/channels/share/chuyen-cua-loan"},"remote_data":{"url":"https://truyenx.link/truyensextv/channels/chuyen-cua-loan"}},{"id":"2892-channel","name":"Cô hiệu phó khổ dâm","description":"Hồi lớp 11 tôi hay lên phòng giám hiệu vì hay quậy phá, cô hiệu phó hay bắt tôi kiểm điểm tên Thảo. Cô ngoài 40 nhưng dáng người vẫn rất hấp dẫn, mặt cô không xinh nhưng nhìn...","image":null,"label":null,"display":"text-only","type":"text","enable_detail":true,"related":{"url":"https://truyenx.link/truyensextv/channels/related/2892","request_headers":[]},"share":{"url":"https://truyenx.link/truyensextv/channels/share/co-hieu-pho-kho-dam"},"remote_data":{"url":"https://truyenx.link/truyensextv/channels/co-hieu-pho-kho-dam"}},{"id":"2884-channel","name":"Cô bạn gái X và chuyến xe về quê!","description":"Ta kêu T, tên không tiện nói thật ra, sinh năm 2000, có một cô bạn gái nhỏ hơn một tuổi. Chúng ta lẫn nhau quen biết trong khi đi học việc làm, khi đó ta cũng tầm 20 thôi, nhưng được...","image":null,"label":null,"display":"text-only","type":"text","enable_detail":true,"related":{"url":"https://truyenx.link/truyensextv/channels/related/2884","request_headers":[]},"share":{"url":"https://truyenx.link/truyensextv/channels/share/co-ban-gai-x-va-chuyen-xe-ve-que"},"remote_data":{"url":"https://truyenx.link/truyensextv/channels/co-ban-gai-x-va-chuyen-xe-ve-que"}},{"id":"2891-channel","name":"Một lần duy nhất","description":"Tôi không thể nhớ lần đầu tiên tôi tìm thấy nội dung khiêu dâm trên internet là khi nào. Tôi đã từng cương cứng và cảm giác khi vuốt ve con cặc mang lại cho tôi. Kể từ đó tôi...","image":null,"label":null,"display":"text-only","type":"text","enable_detail":true,"related":{"url":"https://truyenx.link/truyensextv/channels/related/2891","request_headers":[]},"share":{"url":"https://truyenx.link/truyensextv/channels/share/mot-lan-duy-nhat"},"remote_data":{"url":"https://truyenx.link/truyensextv/channels/mot-lan-duy-nhat"}},{"id":"2890-channel","name":"Trường học kinh dị","description":"Xin chào, mình là Hà, học sinh lớp 12 trường Nguyễn Quyết. Lớp Tôi có thành tích tệ nhất, nói một cách đơn giản, lớp tôi bị coi thường vì cấp độ thấp. Luôn bị coi thường...","image":null,"label":null,"display":"text-only","type":"text","enable_detail":true,"related":{"url":"https://truyenx.link/truyensextv/channels/related/2890","request_headers":[]},"share":{"url":"https://truyenx.link/truyensextv/channels/share/truong-hoc-kinh-di"},"remote_data":{"url":"https://truyenx.link/truyensextv/channels/truong-hoc-kinh-di"}}],"load_more":{"pageInfo":{"current_page":63,"last_page":140,"per_page":30,"total":4188},"paging":{"page_key":"page","size_key":"size"},"remote_data":{"url":"https://truyenx.link/truyensextv/channels"}}}