{"grid_number":1,"channels":[{"id":"1488-channel","name":"Học sinh cấp 3","description":"Cấp 3, có thể nói đây chính là bước ngoặt lớn nhất của cuộc đời mỗi người. Nơi đây chính là nơi mà mỗi người chúng ta có các kỷ niệm của riêng mình. Đối với tôi thì...","image":null,"label":null,"display":"text-only","type":"text","enable_detail":true,"related":{"url":"https://truyenx.link/truyensextv/channels/related/1488","request_headers":[]},"share":{"url":"https://truyenx.link/truyensextv/channels/share/hoc-sinh-cap-3"},"remote_data":{"url":"https://truyenx.link/truyensextv/channels/hoc-sinh-cap-3"}},{"id":"1487-channel","name":"Những mảnh tình trôi","description":"Thương nhớ ai mưa chiều về giăng lối Người yêu xưa nay đã cách xa rồi Còn trong tôi bao nhung nhớ tả tơi Mưa kỷ niệm mưa thầm rơi trong đời. Ở cái tuổi 18 ai cũng mộng mơ, cũng...","image":null,"label":null,"display":"text-only","type":"text","enable_detail":true,"related":{"url":"https://truyenx.link/truyensextv/channels/related/1487","request_headers":[]},"share":{"url":"https://truyenx.link/truyensextv/channels/share/nhung-manh-tinh-troi"},"remote_data":{"url":"https://truyenx.link/truyensextv/channels/nhung-manh-tinh-troi"}},{"id":"1486-channel","name":"Thảo","description":"Sau một cuộc mây mưa, chồng cô đã chìm vào giấc ngủ còn cô mắt vẫn thao láo nhìn vào khoảng không sáng mờ ảo từ chiếc đèn ngủ nhỏ treo trên tường. Với tay lấy cái điện...","image":null,"label":null,"display":"text-only","type":"text","enable_detail":true,"related":{"url":"https://truyenx.link/truyensextv/channels/related/1486","request_headers":[]},"share":{"url":"https://truyenx.link/truyensextv/channels/share/thao"},"remote_data":{"url":"https://truyenx.link/truyensextv/channels/thao"}},{"id":"1485-channel","name":"Viên thuốc tàng hình","description":"Với một thằng con trai 18 tuổi thì hình ảnh những cô gái trẻ ăn mặc sexy làm tôi mê mẩn và khao khát lắm. Làm thế nào để được trườn mình trên những cơ thể quyến rũ ấy là...","image":null,"label":null,"display":"text-only","type":"text","enable_detail":true,"related":{"url":"https://truyenx.link/truyensextv/channels/related/1485","request_headers":[]},"share":{"url":"https://truyenx.link/truyensextv/channels/share/vien-thuoc-tang-hinh"},"remote_data":{"url":"https://truyenx.link/truyensextv/channels/vien-thuoc-tang-hinh"}},{"id":"1484-channel","name":"Loạn luân với bác gái ruột","description":"Tôi tên là Q sinh sống tại Quận 4, TP. HCM. Năm nay em 25 tuổi. Cách đây khoảng 11 năm tôi vô tình đã loạn luân với bác ruột của mình, bác ấy năm nay đã 53 tuổi. Bác tên M sinh sống...","image":null,"label":null,"display":"text-only","type":"text","enable_detail":true,"related":{"url":"https://truyenx.link/truyensextv/channels/related/1484","request_headers":[]},"share":{"url":"https://truyenx.link/truyensextv/channels/share/loan-luan-voi-bac-gai-ruot"},"remote_data":{"url":"https://truyenx.link/truyensextv/channels/loan-luan-voi-bac-gai-ruot"}},{"id":"1483-channel","name":"Sờ bướm nhỏ cùng bàn","description":"Chào mọi người, mình xin kể câu chuyện có thật về mình và nhỏ bạn. Mình tên M, mình có nhỏ bạn cũng không hẳn là thân. Mình học thuộc cũng dạng top lớp chọn. Lớp 6 mình...","image":null,"label":null,"display":"text-only","type":"text","enable_detail":true,"related":{"url":"https://truyenx.link/truyensextv/channels/related/1483","request_headers":[]},"share":{"url":"https://truyenx.link/truyensextv/channels/share/so-buom-nho-cung-ban"},"remote_data":{"url":"https://truyenx.link/truyensextv/channels/so-buom-nho-cung-ban"}},{"id":"1482-channel","name":"Đụ nhau bên Mỹ","description":"Mỗi ngày chạy bộ qua đây đều gặp thằng con trai chơi trước sân, riết rồi nàng quen hắn. Thùy tên nàng, trên dưới ba mươi tuổi, ra đại học, có chồng, không con, thích thể dục...","image":null,"label":null,"display":"text-only","type":"text","enable_detail":true,"related":{"url":"https://truyenx.link/truyensextv/channels/related/1482","request_headers":[]},"share":{"url":"https://truyenx.link/truyensextv/channels/share/du-nhau-ben-my"},"remote_data":{"url":"https://truyenx.link/truyensextv/channels/du-nhau-ben-my"}},{"id":"1481-channel","name":"Người đàn bà nhiều chồng","description":"Tối hôm đó, chồng tôi mượn được từ ai đó một DVD đem về nhà với tựa phim là « Attention, une femme peut en cacher une autre ». Tôi xem xong mà bàng hoàng, rúng động. Trong phim, Alice là...","image":null,"label":null,"display":"text-only","type":"text","enable_detail":true,"related":{"url":"https://truyenx.link/truyensextv/channels/related/1481","request_headers":[]},"share":{"url":"https://truyenx.link/truyensextv/channels/share/nguoi-dan-ba-nhieu-chong"},"remote_data":{"url":"https://truyenx.link/truyensextv/channels/nguoi-dan-ba-nhieu-chong"}},{"id":"1480-channel","name":"Cháu - thím","description":"Tôi là Mạnh, năm nay 23 tuổi, hiện đang là sinh viên 1 trường ĐH. Sinh ra và lớn lên ở 1 vùng quê. Bên nội tôi đông con, có tất cả 8 người con. Bố tôi là thứ 3, khi tôi được sinh...","image":null,"label":null,"display":"text-only","type":"text","enable_detail":true,"related":{"url":"https://truyenx.link/truyensextv/channels/related/1480","request_headers":[]},"share":{"url":"https://truyenx.link/truyensextv/channels/share/chau-thim"},"remote_data":{"url":"https://truyenx.link/truyensextv/channels/chau-thim"}},{"id":"1479-channel","name":"Cô vợ tuyệt vời","description":"Cô là một nhân viên công ty truyền thông, cô làm trong mảng marketing nên thường ngày cô rất quan tâm chú ý nhang sắc và trang phục rất chỉnh chu, sang trọng trong đi làm hay trong các...","image":null,"label":null,"display":"text-only","type":"text","enable_detail":true,"related":{"url":"https://truyenx.link/truyensextv/channels/related/1479","request_headers":[]},"share":{"url":"https://truyenx.link/truyensextv/channels/share/co-vo-tuyet-voi"},"remote_data":{"url":"https://truyenx.link/truyensextv/channels/co-vo-tuyet-voi"}},{"id":"1478-channel","name":"Đỡ đói","description":"Trời mưa làm cho đêm càng thêm quạnh quẽ, tôi ngồi ôm chiếc máy vi tính và vào các trang web đen, tôi có thú vui thích nhìn những hình ảnh trần truồng quấn lấy nhau, khoa học gọi...","image":null,"label":null,"display":"text-only","type":"text","enable_detail":true,"related":{"url":"https://truyenx.link/truyensextv/channels/related/1478","request_headers":[]},"share":{"url":"https://truyenx.link/truyensextv/channels/share/do-doi"},"remote_data":{"url":"https://truyenx.link/truyensextv/channels/do-doi"}},{"id":"1477-channel","name":"Phá trinh cave","description":"Hồi năm 2011, có mấy cu em thu tiền dịch vụ ở Hà Nội. Tối rảnh không có trò gì chơi mình hay lang thang ra bãi chúng nó ngồi. Vừa chém gió hết ngày, vừa tìm cơ hội xem có lồng tín...","image":null,"label":null,"display":"text-only","type":"text","enable_detail":true,"related":{"url":"https://truyenx.link/truyensextv/channels/related/1477","request_headers":[]},"share":{"url":"https://truyenx.link/truyensextv/channels/share/pha-trinh-cave"},"remote_data":{"url":"https://truyenx.link/truyensextv/channels/pha-trinh-cave"}},{"id":"1476-channel","name":"Chấp nhận cho chồng bạn hiếp dâm","description":"Tôi là Linh, đã lấy chồng được 5 tháng. Cuộc sống của tôi được sắp đặt từ bé. Sinh ra trong gia đình khá giả, tôi lại xinh đẹp nên được cưng chiều hết mức. Do tính tình...","image":null,"label":null,"display":"text-only","type":"text","enable_detail":true,"related":{"url":"https://truyenx.link/truyensextv/channels/related/1476","request_headers":[]},"share":{"url":"https://truyenx.link/truyensextv/channels/share/chap-nhan-cho-chong-ban-hiep-dam"},"remote_data":{"url":"https://truyenx.link/truyensextv/channels/chap-nhan-cho-chong-ban-hiep-dam"}},{"id":"1475-channel","name":"Ngân Sương - Ngọc Cúc","description":"Ngân Sương uể oải thức dậy sau một đêm dài, khẽ đưa đôi chân dài thon thả ra khỏi chăn, một thân thể mềm mại với những đường cong tuyệt mỹ, bộ ngực đầy đặn căng...","image":null,"label":null,"display":"text-only","type":"text","enable_detail":true,"related":{"url":"https://truyenx.link/truyensextv/channels/related/1475","request_headers":[]},"share":{"url":"https://truyenx.link/truyensextv/channels/share/ngan-suong-ngoc-cuc"},"remote_data":{"url":"https://truyenx.link/truyensextv/channels/ngan-suong-ngoc-cuc"}},{"id":"1474-channel","name":"Trò chơi của dì ruột","description":"Gia đình tôi cực kỳ ấm êm. Tôi là con trai duy nhất trong nhà, cao to, mặt mũi giống bố tôi nhiều hơn là giống mẹ, cũng gọi là sáng sủa. Bố tôi là người lịch thiệp giao tiếp...","image":null,"label":null,"display":"text-only","type":"text","enable_detail":true,"related":{"url":"https://truyenx.link/truyensextv/channels/related/1474","request_headers":[]},"share":{"url":"https://truyenx.link/truyensextv/channels/share/tro-choi-cua-di-ruot"},"remote_data":{"url":"https://truyenx.link/truyensextv/channels/tro-choi-cua-di-ruot"}},{"id":"1473-channel","name":"Lan vợ tôi","description":"Đang làm việc thì có điện thoại di động, nhìn số thì hoá ra là Hoa, cô bạn thân của vợ chồng chúng tôi gọi. Nghe máy thì hoá ra cô ta rủ tôi chiều nay hết giờ qua cơ quan cô ta...","image":null,"label":null,"display":"text-only","type":"text","enable_detail":true,"related":{"url":"https://truyenx.link/truyensextv/channels/related/1473","request_headers":[]},"share":{"url":"https://truyenx.link/truyensextv/channels/share/lan-vo-toi"},"remote_data":{"url":"https://truyenx.link/truyensextv/channels/lan-vo-toi"}},{"id":"1472-channel","name":"Mút nhầm chim bạn chồng","description":"Hôm nay buổi tối trời mát mẻ, vợ chồng tôi đi ăn tiệc tại nhà anh An. Chồng tôi và anh An là hai anh em chí cốt lâu năm, quen nhau từ cái thủa đại học. Sau khi lấy vợ hai người...","image":null,"label":null,"display":"text-only","type":"text","enable_detail":true,"related":{"url":"https://truyenx.link/truyensextv/channels/related/1472","request_headers":[]},"share":{"url":"https://truyenx.link/truyensextv/channels/share/mut-nham-chim-ban-chong"},"remote_data":{"url":"https://truyenx.link/truyensextv/channels/mut-nham-chim-ban-chong"}},{"id":"1471-channel","name":"Chị máy bay tuyệt vời","description":"Hồi những năm 2009, tôi vẫn trong ngành. Vì vị trí công tác nên tôi có quyền được định vị, nghe trộm điện thoại. Truyện xảy ra cũng vì nguyên nhân này. Thời điểm ấy, gia đình...","image":null,"label":null,"display":"text-only","type":"text","enable_detail":true,"related":{"url":"https://truyenx.link/truyensextv/channels/related/1471","request_headers":[]},"share":{"url":"https://truyenx.link/truyensextv/channels/share/chi-may-bay-tuyet-voi"},"remote_data":{"url":"https://truyenx.link/truyensextv/channels/chi-may-bay-tuyet-voi"}},{"id":"1470-channel","name":"Bị hiếp dâm khi đi tìm chị gái","description":"Chị Linh tôi hơn tôi hai tuổi là một cô gái xinh đẹp nết na, trắng trẻo. Còn tôi cũng khá điển trai cao to lực lưỡng. Gia đình tôi trước ở quê nghèo, ba mẹ tôi phải làm lụng...","image":null,"label":null,"display":"text-only","type":"text","enable_detail":true,"related":{"url":"https://truyenx.link/truyensextv/channels/related/1470","request_headers":[]},"share":{"url":"https://truyenx.link/truyensextv/channels/share/bi-hiep-dam-khi-di-tim-chi-gai"},"remote_data":{"url":"https://truyenx.link/truyensextv/channels/bi-hiep-dam-khi-di-tim-chi-gai"}},{"id":"1469-channel","name":"Vợ cho cặc lạ đụ trên tàu","description":"Vào một buổi chiều cuối đông, gió se se lạnh nổi lên từng hồi, trên sân ga, một cặp vợ chồng trẻ đứng co ro nép sát vào nhau như tiếp cho nhau hơi ấm, nhìn hai người thật đẹp...","image":null,"label":null,"display":"text-only","type":"text","enable_detail":true,"related":{"url":"https://truyenx.link/truyensextv/channels/related/1469","request_headers":[]},"share":{"url":"https://truyenx.link/truyensextv/channels/share/vo-cho-cac-la-du-tren-tau"},"remote_data":{"url":"https://truyenx.link/truyensextv/channels/vo-cho-cac-la-du-tren-tau"}},{"id":"1468-channel","name":"Chị giúp việc nhà em","description":"Chuyện xảy ra đã lâu, chừng chục năm về trước... Gia đình em ở quê, không phải dạng giàu có nhưng cũng có công việc nhiều nên có thuê thêm giúp việc. Nhà có người lớn và anh...","image":null,"label":null,"display":"text-only","type":"text","enable_detail":true,"related":{"url":"https://truyenx.link/truyensextv/channels/related/1468","request_headers":[]},"share":{"url":"https://truyenx.link/truyensextv/channels/share/chi-giup-viec-nha-em"},"remote_data":{"url":"https://truyenx.link/truyensextv/channels/chi-giup-viec-nha-em"}},{"id":"1467-channel","name":"Mười năm yêu em","description":"Tôi để ý em khi cùng đi du lịch với công ty. Lúc tắm biển tôi mới biết em trắng nuột như vậy. Em cao 1m63, mặc áo thun ngắn ôm thân và quần short. Chân thon dài nhưng đầy đặn...","image":null,"label":null,"display":"text-only","type":"text","enable_detail":true,"related":{"url":"https://truyenx.link/truyensextv/channels/related/1467","request_headers":[]},"share":{"url":"https://truyenx.link/truyensextv/channels/share/muoi-nam-yeu-em"},"remote_data":{"url":"https://truyenx.link/truyensextv/channels/muoi-nam-yeu-em"}},{"id":"1466-channel","name":"Kế hoạch loạn luân","description":"Hùng hí hoáy đóng cái vali lại, kiểm tra lại mọi thứ lần cuối rồi yên tâm kéo nó ra góc nhà, cu cậu hí hửng ra mặt. Để thưởng cho nó được học sinh giỏi năm lớp 11, ông Toàn...","image":null,"label":null,"display":"text-only","type":"text","enable_detail":true,"related":{"url":"https://truyenx.link/truyensextv/channels/related/1466","request_headers":[]},"share":{"url":"https://truyenx.link/truyensextv/channels/share/ke-hoach-loan-luan"},"remote_data":{"url":"https://truyenx.link/truyensextv/channels/ke-hoach-loan-luan"}},{"id":"1465-channel","name":"Cháy cùng cảm xúc","description":"Những tia nắng ban mai nhè nhẹ len lỏi vào căn phòng, những hạt sương mai còn đọng lại trên những gai xương rồng bỗng trở nên lấp lánh lung linh. Uyên vân mình uể oải trong chiếc...","image":null,"label":null,"display":"text-only","type":"text","enable_detail":true,"related":{"url":"https://truyenx.link/truyensextv/channels/related/1465","request_headers":[]},"share":{"url":"https://truyenx.link/truyensextv/channels/share/chay-cung-cam-xuc"},"remote_data":{"url":"https://truyenx.link/truyensextv/channels/chay-cung-cam-xuc"}},{"id":"1464-channel","name":"Dì bán hàng vắng chồng 7 năm","description":"Tôi là L, 25 tuổi. Chuyện xảy ra lúc tôi học lớp 10. Vì mới lên cấp nên không quen được ai nhiều, xung quanh trường loanh quanh vài 3 quán nước gần trường, thế là tôi và lũ bạn...","image":null,"label":null,"display":"text-only","type":"text","enable_detail":true,"related":{"url":"https://truyenx.link/truyensextv/channels/related/1464","request_headers":[]},"share":{"url":"https://truyenx.link/truyensextv/channels/share/di-ban-hang-vang-chong-7-nam"},"remote_data":{"url":"https://truyenx.link/truyensextv/channels/di-ban-hang-vang-chong-7-nam"}},{"id":"1463-channel","name":"Lần đầu tiên của hai đứa","description":"Gần nhà em ở dưới ngoại tỉnh, nơi em đang làm công chứ không phải nhà ở quê. Em làm cũng ngót hơn 4 năm rồi, nhà em gần ngay chợ sát cạnh là con sông lớn. Ở đây đông người qua...","image":null,"label":null,"display":"text-only","type":"text","enable_detail":true,"related":{"url":"https://truyenx.link/truyensextv/channels/related/1463","request_headers":[]},"share":{"url":"https://truyenx.link/truyensextv/channels/share/lan-dau-tien-cua-hai-dua"},"remote_data":{"url":"https://truyenx.link/truyensextv/channels/lan-dau-tien-cua-hai-dua"}},{"id":"1462-channel","name":"Phá trinh cô giáo","description":"Tuấn là một nam sinh đẹp trai, khỏe mạnh và lanh lợi. Tuy mới 16 tuổi nhưng Tuấn có rất nhiều kinh nghiệm ái ân và tình dục, biết cách thỏa mãn những ham muốn của phái nữ. Các...","image":null,"label":null,"display":"text-only","type":"text","enable_detail":true,"related":{"url":"https://truyenx.link/truyensextv/channels/related/1462","request_headers":[]},"share":{"url":"https://truyenx.link/truyensextv/channels/share/pha-trinh-co-giao"},"remote_data":{"url":"https://truyenx.link/truyensextv/channels/pha-trinh-co-giao"}},{"id":"1461-channel","name":"Hiếp dâm bạn thân của chị ruột","description":"Gia đình tôi là gia đình khá giả, bố mẹ của tôi là công chức nhà nước. Điều kiện đầy đủ, tôi là một cậu bé sinh ra cũng khá thông minh và khá hiểu đời mặt mũi giống bố...","image":null,"label":null,"display":"text-only","type":"text","enable_detail":true,"related":{"url":"https://truyenx.link/truyensextv/channels/related/1461","request_headers":[]},"share":{"url":"https://truyenx.link/truyensextv/channels/share/hiep-dam-ban-than-cua-chi-ruot"},"remote_data":{"url":"https://truyenx.link/truyensextv/channels/hiep-dam-ban-than-cua-chi-ruot"}},{"id":"1460-channel","name":"Cặc lạ đụ vợ sướng","description":"“Sau này cưới em về làm vợ rồi, anh hứa phải luôn làm cho em hạnh phúc và sung sướng nha”. Vào ngày này 6 tháng trước, vào buổi tối tôi cưới cô, cô ấy đã nói với tôi...","image":null,"label":null,"display":"text-only","type":"text","enable_detail":true,"related":{"url":"https://truyenx.link/truyensextv/channels/related/1460","request_headers":[]},"share":{"url":"https://truyenx.link/truyensextv/channels/share/cac-la-du-vo-suong"},"remote_data":{"url":"https://truyenx.link/truyensextv/channels/cac-la-du-vo-suong"}},{"id":"1459-channel","name":"Chuyện về em gái cùng quê","description":"Hồi năm 2014 đi học Cao đẳng ở Hà Nội, ở lớp mình thuộc dạng nhóm nào cũng chơi. Kiểu đi học lớp chia nhiều nhóm chơi với nhau. Mà mình không thích kiểu chơi nhóm lắm. Nên nhóm...","image":null,"label":null,"display":"text-only","type":"text","enable_detail":true,"related":{"url":"https://truyenx.link/truyensextv/channels/related/1459","request_headers":[]},"share":{"url":"https://truyenx.link/truyensextv/channels/share/chuyen-ve-em-gai-cung-que"},"remote_data":{"url":"https://truyenx.link/truyensextv/channels/chuyen-ve-em-gai-cung-que"}}],"load_more":{"pageInfo":{"current_page":91,"last_page":140,"per_page":30,"total":4188},"paging":{"page_key":"page","size_key":"size"},"remote_data":{"url":"https://truyenx.link/truyensextv/channels"}}}