{
  "grid_number": 1,
  "channels": [
    {
      "id": "168-channel",
      "name": "Chiến tranh",
      "description": "Hà Nội tháng chạp lạnh căm căm, nhưng Hà Nội run rẩy không phải vì cơn gió bấc mà vì những trận mưa bom càng ngày càng dữ dội. Người Hà Nội sống vội vã, cuồng loạn tận...",
      "image": null,
      "label": null,
      "display": "text-only",
      "type": "text",
      "enable_detail": true,
      "related": {
        "url": "https://truyenx.link/truyensextv/channels/related/168",
        "request_headers": []
      },
      "share": {
        "url": "https://truyenx.link/truyensextv/channels/share/chien-tranh"
      },
      "remote_data": {
        "url": "https://truyenx.link/truyensextv/channels/chien-tranh"
      }
    },
    {
      "id": "167-channel",
      "name": "Chiếc áo lót",
      "description": "Bước lang thang, không bến bờ, không mục đích. Một động lực vô hình nào đó dẫn dắt Tâm đến nơi đây. Trưa mùa Thu lành lạnh, nắng nhàn nhạt không đủ xoá tan màu không gian tê...",
      "image": null,
      "label": null,
      "display": "text-only",
      "type": "text",
      "enable_detail": true,
      "related": {
        "url": "https://truyenx.link/truyensextv/channels/related/167",
        "request_headers": []
      },
      "share": {
        "url": "https://truyenx.link/truyensextv/channels/share/chiec-ao-lot"
      },
      "remote_data": {
        "url": "https://truyenx.link/truyensextv/channels/chiec-ao-lot"
      }
    },
    {
      "id": "166-channel",
      "name": "Bắt cóc chị vợ",
      "description": "Đến năm nay tôi vừa tròn 30 tuổi và đã có gia đình với một đứa con. Gia đình tôi êm ấm trên mọi phương diện. Nhờ có một công việc khá tốt trong một công ty lớn nên đồng...",
      "image": null,
      "label": null,
      "display": "text-only",
      "type": "text",
      "enable_detail": true,
      "related": {
        "url": "https://truyenx.link/truyensextv/channels/related/166",
        "request_headers": []
      },
      "share": {
        "url": "https://truyenx.link/truyensextv/channels/share/bat-coc-chi-vo"
      },
      "remote_data": {
        "url": "https://truyenx.link/truyensextv/channels/bat-coc-chi-vo"
      }
    },
    {
      "id": "165-channel",
      "name": "Đụ tay ba",
      "description": "Từ ngày gia đình anh Ba tôi dọn tới Florida. Hè vừa rồi là lần đầu tiên vợ chồng tôi đến nghỉ hè ở nhà anh chị. Vùng Miami người Việt không nhiều lắm, nên ngoài các thắng...",
      "image": null,
      "label": null,
      "display": "text-only",
      "type": "text",
      "enable_detail": true,
      "related": {
        "url": "https://truyenx.link/truyensextv/channels/related/165",
        "request_headers": []
      },
      "share": {
        "url": "https://truyenx.link/truyensextv/channels/share/du-tay-ba"
      },
      "remote_data": {
        "url": "https://truyenx.link/truyensextv/channels/du-tay-ba"
      }
    },
    {
      "id": "164-channel",
      "name": "Trâm",
      "description": "Trâm là cháu ngoại của bác Tư, một người bạn thân của ba tôi. Tuy Trâm bằng tuổi tôi nhưng bác Tư bắt nó phải kêu tôi bằng cậu. Hai chúng tôi chơi rất thân với nhau, cùng lớn...",
      "image": null,
      "label": null,
      "display": "text-only",
      "type": "text",
      "enable_detail": true,
      "related": {
        "url": "https://truyenx.link/truyensextv/channels/related/164",
        "request_headers": []
      },
      "share": {
        "url": "https://truyenx.link/truyensextv/channels/share/tram"
      },
      "remote_data": {
        "url": "https://truyenx.link/truyensextv/channels/tram"
      }
    },
    {
      "id": "163-channel",
      "name": "Phá trinh con gái",
      "description": "Vào một ngày đẹp trời, Tâm dậy sớm để tập thể dục. Thực ra thì nàng đã có sẵn 1 thân hình cân đối và phải nói không chê vào đâu được, nhưng nàng quyết định tập để...",
      "image": null,
      "label": null,
      "display": "text-only",
      "type": "text",
      "enable_detail": true,
      "related": {
        "url": "https://truyenx.link/truyensextv/channels/related/163",
        "request_headers": []
      },
      "share": {
        "url": "https://truyenx.link/truyensextv/channels/share/pha-trinh-con-gai"
      },
      "remote_data": {
        "url": "https://truyenx.link/truyensextv/channels/pha-trinh-con-gai"
      }
    },
    {
      "id": "162-channel",
      "name": "Truyện người lớn hay nhất",
      "description": "Vợ chồng tôi qua Mỹ từ năm 1975, quen nhau thì đã lâu lắm rồi nhưng mới lấy nhau hơn mười năm nay thôi. Chúng tôi sống theo cuộc sống tự do, phóng khoáng của Mỹ đã quen, thích gì...",
      "image": null,
      "label": null,
      "display": "text-only",
      "type": "text",
      "enable_detail": true,
      "related": {
        "url": "https://truyenx.link/truyensextv/channels/related/162",
        "request_headers": []
      },
      "share": {
        "url": "https://truyenx.link/truyensextv/channels/share/truyen-nguoi-lon-hay-nhat"
      },
      "remote_data": {
        "url": "https://truyenx.link/truyensextv/channels/truyen-nguoi-lon-hay-nhat"
      }
    },
    {
      "id": "161-channel",
      "name": "Cây gạo thôn Đông",
      "description": "Đỗ Sinh là học trò, quê ở Phủ Lưu, Hà Nam, chàng lên kinh dự thi kỳ thi năm nay, gia đình chàng khá giả nên cha mẹ chàng cấp cho chàng một số tiền kha khá và cho phép chàng lên kinh...",
      "image": null,
      "label": null,
      "display": "text-only",
      "type": "text",
      "enable_detail": true,
      "related": {
        "url": "https://truyenx.link/truyensextv/channels/related/161",
        "request_headers": []
      },
      "share": {
        "url": "https://truyenx.link/truyensextv/channels/share/cay-gao-thon-dong"
      },
      "remote_data": {
        "url": "https://truyenx.link/truyensextv/channels/cay-gao-thon-dong"
      }
    },
    {
      "id": "160-channel",
      "name": "Cậu Hai của tôi",
      "description": "Tôi gọi là cậu nhưng thật ra cậu Hai cũng không có liên hệ gia đình gì với tôi hết. Cậu Hai là bạn thân của ba má tôi từ trước khi tôi ra đời, không biết tại sau tôi gọi là...",
      "image": null,
      "label": null,
      "display": "text-only",
      "type": "text",
      "enable_detail": true,
      "related": {
        "url": "https://truyenx.link/truyensextv/channels/related/160",
        "request_headers": []
      },
      "share": {
        "url": "https://truyenx.link/truyensextv/channels/share/cau-hai-cua-toi"
      },
      "remote_data": {
        "url": "https://truyenx.link/truyensextv/channels/cau-hai-cua-toi"
      }
    },
    {
      "id": "159-channel",
      "name": "Đêm mùa đông",
      "description": "Phong nằm dài trên Sofa, phía trên là Dung, vợ chàng mân mê dương vật. Nàng sục nhè nhẹ, những đường gân hằn theo đầu khấc lớn dần cho lớp da quy đầu tụt ra ngoài, nhờ rửa ráy...",
      "image": null,
      "label": null,
      "display": "text-only",
      "type": "text",
      "enable_detail": true,
      "related": {
        "url": "https://truyenx.link/truyensextv/channels/related/159",
        "request_headers": []
      },
      "share": {
        "url": "https://truyenx.link/truyensextv/channels/share/dem-mua-dong"
      },
      "remote_data": {
        "url": "https://truyenx.link/truyensextv/channels/dem-mua-dong"
      }
    },
    {
      "id": "158-channel",
      "name": "Hương đồng gió nội",
      "description": "Cậu ấm Sang là con trai áp út của ông Hường. Cậu ra đời tại một thành phố, nhưng vì hoàn cảnh chiến tranh, cậu được gửi về tạm trú với một người chú tại quê, lúc vừa...",
      "image": null,
      "label": null,
      "display": "text-only",
      "type": "text",
      "enable_detail": true,
      "related": {
        "url": "https://truyenx.link/truyensextv/channels/related/158",
        "request_headers": []
      },
      "share": {
        "url": "https://truyenx.link/truyensextv/channels/share/huong-dong-gio-noi"
      },
      "remote_data": {
        "url": "https://truyenx.link/truyensextv/channels/huong-dong-gio-noi"
      }
    },
    {
      "id": "157-channel",
      "name": "Đêm cắm trại",
      "description": "Một ngày tháng tư mát mẻ ở Đà Lạt. Gã dẫn đứa con gái riêng của vợ là Oanh, 17 tuổi cùng bạn trai của nó là Lân đi cắm trại qua đêm. Oanh và Lân đã cặp kê nhau chắc cỡ 3...",
      "image": null,
      "label": null,
      "display": "text-only",
      "type": "text",
      "enable_detail": true,
      "related": {
        "url": "https://truyenx.link/truyensextv/channels/related/157",
        "request_headers": []
      },
      "share": {
        "url": "https://truyenx.link/truyensextv/channels/share/dem-cam-trai"
      },
      "remote_data": {
        "url": "https://truyenx.link/truyensextv/channels/dem-cam-trai"
      }
    },
    {
      "id": "156-channel",
      "name": "Chị họ xa",
      "description": "Mỹ Dung là hàng xóm nhà tôi. Tính ra thì nó là chị họ của tôi, vì ông nội nó là anh ruột của ông nội tôi. Nhà nó có ba chị em gái, nó là chị cả. Nó 18 tuổi, hơn tôi một tuổi...",
      "image": null,
      "label": null,
      "display": "text-only",
      "type": "text",
      "enable_detail": true,
      "related": {
        "url": "https://truyenx.link/truyensextv/channels/related/156",
        "request_headers": []
      },
      "share": {
        "url": "https://truyenx.link/truyensextv/channels/share/chi-ho-xa"
      },
      "remote_data": {
        "url": "https://truyenx.link/truyensextv/channels/chi-ho-xa"
      }
    },
    {
      "id": "155-channel",
      "name": "Mất trinh ở Cà Mau",
      "description": "Chuyện này cũng đã xảy ra lâu lắm rồi, ngay từ mùa hè năm tôi vừa học xong lớp 12. Năm đó tôi tròn 18 tuổi, lứa tuổi mới lớn biết bao mộng mơ và tò mò. Tôi được mệnh danh...",
      "image": null,
      "label": null,
      "display": "text-only",
      "type": "text",
      "enable_detail": true,
      "related": {
        "url": "https://truyenx.link/truyensextv/channels/related/155",
        "request_headers": []
      },
      "share": {
        "url": "https://truyenx.link/truyensextv/channels/share/mat-trinh-o-ca-mau"
      },
      "remote_data": {
        "url": "https://truyenx.link/truyensextv/channels/mat-trinh-o-ca-mau"
      }
    },
    {
      "id": "154-channel",
      "name": "Xúc cảm đầu đời",
      "description": "Chào toàn thể những anh em đồng dâm. Những câu chuyện tình cảm, những lần làm tình đầy thăng hoa, những người tình luôn luôn là những kỉ niệm. Tôi là 1 người rất thích uống...",
      "image": null,
      "label": null,
      "display": "text-only",
      "type": "text",
      "enable_detail": true,
      "related": {
        "url": "https://truyenx.link/truyensextv/channels/related/154",
        "request_headers": []
      },
      "share": {
        "url": "https://truyenx.link/truyensextv/channels/share/xuc-cam-dau-doi"
      },
      "remote_data": {
        "url": "https://truyenx.link/truyensextv/channels/xuc-cam-dau-doi"
      }
    },
    {
      "id": "153-channel",
      "name": "Tình cũ khó phai",
      "description": "Về quê thăm mẹ, Tuấn được biết chồng Dung đã mất cách vài tháng. Vậy là Dung mới ở tuổi ba mươi tư đã goá chồng, chắc nàng buồn lắm. Dung là bạn gái đầu đời của Tuấn...",
      "image": null,
      "label": null,
      "display": "text-only",
      "type": "text",
      "enable_detail": true,
      "related": {
        "url": "https://truyenx.link/truyensextv/channels/related/153",
        "request_headers": []
      },
      "share": {
        "url": "https://truyenx.link/truyensextv/channels/share/tinh-cu-kho-phai"
      },
      "remote_data": {
        "url": "https://truyenx.link/truyensextv/channels/tinh-cu-kho-phai"
      }
    },
    {
      "id": "152-channel",
      "name": "Lần đầu tiên",
      "description": "Ngồi ôn lại những kỹ niệm của những ngày xa xưa, Linh thấy vui vui, sao cái thuở ban đầu ấy ngô nghê quá nhỉ, dể thương quá nhỉ, cái thuở mà Linh chưa biết cái gì là yêu...",
      "image": null,
      "label": null,
      "display": "text-only",
      "type": "text",
      "enable_detail": true,
      "related": {
        "url": "https://truyenx.link/truyensextv/channels/related/152",
        "request_headers": []
      },
      "share": {
        "url": "https://truyenx.link/truyensextv/channels/share/lan-dau-tien"
      },
      "remote_data": {
        "url": "https://truyenx.link/truyensextv/channels/lan-dau-tien"
      }
    },
    {
      "id": "151-channel",
      "name": "Gái quê bán trinh",
      "description": "Lâm bước vào căn nhà lá bên bờ một con rạch. Anh đảo mắt một vòng, căn nhà im vắng. Bỗng một giọng đàn bà vọng ra từ trong bếp : Ai đó ? Ra ngay, ra ngay. Rồi một người đàn...",
      "image": null,
      "label": null,
      "display": "text-only",
      "type": "text",
      "enable_detail": true,
      "related": {
        "url": "https://truyenx.link/truyensextv/channels/related/151",
        "request_headers": []
      },
      "share": {
        "url": "https://truyenx.link/truyensextv/channels/share/gai-que-ban-trinh"
      },
      "remote_data": {
        "url": "https://truyenx.link/truyensextv/channels/gai-que-ban-trinh"
      }
    },
    {
      "id": "150-channel",
      "name": "Tập thể dục buổi sáng",
      "description": "Long cao hơn mét tám, da ngăm đen, thân thể cường tráng, thể thao. Là một người trí thức, hoạt bát lại ưa hoạt động nên dáng dấp Long rất trẻ trung. Chàng thích đi thám thính các...",
      "image": null,
      "label": null,
      "display": "text-only",
      "type": "text",
      "enable_detail": true,
      "related": {
        "url": "https://truyenx.link/truyensextv/channels/related/150",
        "request_headers": []
      },
      "share": {
        "url": "https://truyenx.link/truyensextv/channels/share/tap-the-duc-buoi-sang"
      },
      "remote_data": {
        "url": "https://truyenx.link/truyensextv/channels/tap-the-duc-buoi-sang"
      }
    },
    {
      "id": "149-channel",
      "name": "Lan man vớ vẩn",
      "description": "Tôi quen chị tình cờ trong một đám cưới người quen. Người đàn bà có dáng kẻ cả, tuy tuổi tác cỡ tôi. Chồng chị là một gã đàn ông nhỏ con so với vợ đang đứng xớ rớ một...",
      "image": null,
      "label": null,
      "display": "text-only",
      "type": "text",
      "enable_detail": true,
      "related": {
        "url": "https://truyenx.link/truyensextv/channels/related/149",
        "request_headers": []
      },
      "share": {
        "url": "https://truyenx.link/truyensextv/channels/share/lan-man-vo-van"
      },
      "remote_data": {
        "url": "https://truyenx.link/truyensextv/channels/lan-man-vo-van"
      }
    },
    {
      "id": "148-channel",
      "name": "Bức ảnh khỏa thân",
      "description": "Em sẽ tìm cho anh một con bồ đẹp tuyệt vời. Anh chịu không? Mày lảm nhảm gì đấy thằng khỉ? Ối dào, Anh vứt quách ba cái cây lăng nhăng kia đi. Thị trường tranh hiện giờ...",
      "image": null,
      "label": null,
      "display": "text-only",
      "type": "text",
      "enable_detail": true,
      "related": {
        "url": "https://truyenx.link/truyensextv/channels/related/148",
        "request_headers": []
      },
      "share": {
        "url": "https://truyenx.link/truyensextv/channels/share/buc-anh-khoa-than"
      },
      "remote_data": {
        "url": "https://truyenx.link/truyensextv/channels/buc-anh-khoa-than"
      }
    },
    {
      "id": "147-channel",
      "name": "Some với vợ bạn",
      "description": "Phong và Lâm là hai người bạn thân, chơi với nhau từ thuở nhỏ, học cùng lớp với nhau từ tiểu học cho đến hết Trung học phổ thông. Phong là người vui vẻ, ngổ ngáo, chẳng sợ...",
      "image": null,
      "label": null,
      "display": "text-only",
      "type": "text",
      "enable_detail": true,
      "related": {
        "url": "https://truyenx.link/truyensextv/channels/related/147",
        "request_headers": []
      },
      "share": {
        "url": "https://truyenx.link/truyensextv/channels/share/some-voi-vo-ban"
      },
      "remote_data": {
        "url": "https://truyenx.link/truyensextv/channels/some-voi-vo-ban"
      }
    },
    {
      "id": "146-channel",
      "name": "Bốn chị em làm điếm",
      "description": "Quỳnh một tay vén áo lên, một tay tuột quần xuống trước cặp mắt hau háu của vị khách. Bên ngoài om sòm tiếng của dân nhậu tâng bốc nhau. Quán này do bốn chị em Quỳnh dựng lên...",
      "image": null,
      "label": null,
      "display": "text-only",
      "type": "text",
      "enable_detail": true,
      "related": {
        "url": "https://truyenx.link/truyensextv/channels/related/146",
        "request_headers": []
      },
      "share": {
        "url": "https://truyenx.link/truyensextv/channels/share/bon-chi-em-lam-diem"
      },
      "remote_data": {
        "url": "https://truyenx.link/truyensextv/channels/bon-chi-em-lam-diem"
      }
    },
    {
      "id": "145-channel",
      "name": "Phá trinh vợ bé",
      "description": "Mụ đàn bà với bộ mặt nhăn như khỉ ăn ớt cầm roi đánh xối xả vào cô bé, miệng không ngừng chửi rủa: Mày muốn cướp chồng bà à, mới tí tuổi đầu mà đã đi mồi chài đàn...",
      "image": null,
      "label": null,
      "display": "text-only",
      "type": "text",
      "enable_detail": true,
      "related": {
        "url": "https://truyenx.link/truyensextv/channels/related/145",
        "request_headers": []
      },
      "share": {
        "url": "https://truyenx.link/truyensextv/channels/share/pha-trinh-vo-be"
      },
      "remote_data": {
        "url": "https://truyenx.link/truyensextv/channels/pha-trinh-vo-be"
      }
    },
    {
      "id": "144-channel",
      "name": "Bà vợ bệnh hoạn",
      "description": "Tôi, một người gần 40 tuổi, đang làm cho một công ty tư nhân, lương lậu khá, trong công ty tôi rất thân với một cậu đồng nghiệp. Mặc dù tôi có vợ nhưng cũng thường lén đi chơi...",
      "image": null,
      "label": null,
      "display": "text-only",
      "type": "text",
      "enable_detail": true,
      "related": {
        "url": "https://truyenx.link/truyensextv/channels/related/144",
        "request_headers": []
      },
      "share": {
        "url": "https://truyenx.link/truyensextv/channels/share/ba-vo-benh-hoan"
      },
      "remote_data": {
        "url": "https://truyenx.link/truyensextv/channels/ba-vo-benh-hoan"
      }
    },
    {
      "id": "143-channel",
      "name": "Cách làm thỏa mãn các nàng",
      "description": "Bạn có bao giờ mát-xa cho người yêu chưa, nếu bạn muốn nàng được thỏa mãn cực độ thì sau đây tôi xin được chia sẻ với các bạn một bài viết của Nhật Bản nói về cách mát...",
      "image": null,
      "label": null,
      "display": "text-only",
      "type": "text",
      "enable_detail": true,
      "related": {
        "url": "https://truyenx.link/truyensextv/channels/related/143",
        "request_headers": []
      },
      "share": {
        "url": "https://truyenx.link/truyensextv/channels/share/cach-lam-thoa-man-cac-nang"
      },
      "remote_data": {
        "url": "https://truyenx.link/truyensextv/channels/cach-lam-thoa-man-cac-nang"
      }
    },
    {
      "id": "142-channel",
      "name": "Đụ đứa con nuôi",
      "description": "Bé Thương cũng chẳng biết nó là con ai, nó lớn lên ở Viện Mồ Côi. Những người thân của Thương là những Dì Phước, hằng ngày tắm rửa thay đồ, cho nó ăn và dạy nó học. Đến...",
      "image": null,
      "label": null,
      "display": "text-only",
      "type": "text",
      "enable_detail": true,
      "related": {
        "url": "https://truyenx.link/truyensextv/channels/related/142",
        "request_headers": []
      },
      "share": {
        "url": "https://truyenx.link/truyensextv/channels/share/du-dua-con-nuoi"
      },
      "remote_data": {
        "url": "https://truyenx.link/truyensextv/channels/du-dua-con-nuoi"
      }
    },
    {
      "id": "141-channel",
      "name": "Con gái tuổi dậy thì",
      "description": "Cái nóng của tối nay bắt đầu làm tôi khó chịu, tôi đã tắm hai lần rồi mà vẫn chưa thấy mát. Ngày mai là thứ Hai, là bắt đầu một tuần của kỳ thi cuối kỳ. Mấy hôm nay tôi...",
      "image": null,
      "label": null,
      "display": "text-only",
      "type": "text",
      "enable_detail": true,
      "related": {
        "url": "https://truyenx.link/truyensextv/channels/related/141",
        "request_headers": []
      },
      "share": {
        "url": "https://truyenx.link/truyensextv/channels/share/con-gai-tuoi-day-thi"
      },
      "remote_data": {
        "url": "https://truyenx.link/truyensextv/channels/con-gai-tuoi-day-thi"
      }
    },
    {
      "id": "140-channel",
      "name": "Làm tình với gái béo",
      "description": "Tôi thích những người đàn bà có thân hình mập mạp. Không hiểu sao đầu óc tôi lúc nào cũng chỉ nghĩ tới nhưng người đàn bà có thân hình như vậy. Nhất là nghĩ tới bà mẹ kế...",
      "image": null,
      "label": null,
      "display": "text-only",
      "type": "text",
      "enable_detail": true,
      "related": {
        "url": "https://truyenx.link/truyensextv/channels/related/140",
        "request_headers": []
      },
      "share": {
        "url": "https://truyenx.link/truyensextv/channels/share/lam-tinh-voi-gai-beo"
      },
      "remote_data": {
        "url": "https://truyenx.link/truyensextv/channels/lam-tinh-voi-gai-beo"
      }
    },
    {
      "id": "139-channel",
      "name": "Cô gái ưa bạo dâm",
      "description": "Đã lâu lắm rồi không vào lại Sài Gòn, thành phố mang tên bác đã thay đổi một cách chóng mặt, kể cả con người cũng thay đổi luôn.... Em đi mua đồ chút, hai anh ngồi chơi nha. Nhớ...",
      "image": null,
      "label": null,
      "display": "text-only",
      "type": "text",
      "enable_detail": true,
      "related": {
        "url": "https://truyenx.link/truyensextv/channels/related/139",
        "request_headers": []
      },
      "share": {
        "url": "https://truyenx.link/truyensextv/channels/share/co-gai-ua-bao-dam"
      },
      "remote_data": {
        "url": "https://truyenx.link/truyensextv/channels/co-gai-ua-bao-dam"
      }
    }
  ],
  "load_more": {
    "pageInfo": {
      "current_page": 135,
      "last_page": 140,
      "per_page": 30,
      "total": 4188
    },
    "paging": {
      "page_key": "page",
      "size_key": "size"
    },
    "remote_data": {
      "url": "https://truyenx.link/truyensextv/channels"
    }
  }
}