{
  "grid_number": 1,
  "channels": [
    {
      "id": "1608-channel",
      "name": "Anh thợ sửa gas may mắn",
      "description": "Trong thời gian làm việc cho công ty Gas, phải nói rằng chưa bao giờ tôi lại yêu thích công việc của mình như ngày trời mưa hôm đó. Tôi làm việc trong ban sửa chữa khẩn cấp, có...",
      "image": null,
      "label": null,
      "display": "text-only",
      "type": "text",
      "enable_detail": true,
      "related": {
        "url": "https://truyenx.link/truyensextv/channels/related/1608",
        "request_headers": []
      },
      "share": {
        "url": "https://truyenx.link/truyensextv/channels/share/anh-tho-sua-gas-may-man"
      },
      "remote_data": {
        "url": "https://truyenx.link/truyensextv/channels/anh-tho-sua-gas-may-man"
      }
    },
    {
      "id": "1607-channel",
      "name": "Gái một con",
      "description": "Thế là sau 5 năm mỏi tay mòn gối với cái ghế đại học, tôi cũng đã thoát khỏi cái cảnh sáng ôm cặp đi, chiều lết xác về đầy ngao ngán. Cũng may là ra trường đúng thời hạn...",
      "image": null,
      "label": null,
      "display": "text-only",
      "type": "text",
      "enable_detail": true,
      "related": {
        "url": "https://truyenx.link/truyensextv/channels/related/1607",
        "request_headers": []
      },
      "share": {
        "url": "https://truyenx.link/truyensextv/channels/share/gai-mot-con"
      },
      "remote_data": {
        "url": "https://truyenx.link/truyensextv/channels/gai-mot-con"
      }
    },
    {
      "id": "1606-channel",
      "name": "Cave xóm trọ",
      "description": "Cả gia đình Hoàng mừng rỡ khi cậu nhận được giấy báo trúng tuyển đại học Sư phạm. Vốn chỉ là một gia đình công nhân nghèo ở tận trên hòa Bình, không có điều kiện cho con...",
      "image": null,
      "label": null,
      "display": "text-only",
      "type": "text",
      "enable_detail": true,
      "related": {
        "url": "https://truyenx.link/truyensextv/channels/related/1606",
        "request_headers": []
      },
      "share": {
        "url": "https://truyenx.link/truyensextv/channels/share/cave-xom-tro"
      },
      "remote_data": {
        "url": "https://truyenx.link/truyensextv/channels/cave-xom-tro"
      }
    },
    {
      "id": "1605-channel",
      "name": "Cô Thư ký dâm dục",
      "description": "Thanh Phương vốn là người Hà Nội gốc. Cô có vóc dáng cao và nước da trắng mịn của con gái Hà Thành. Cô không đẹp một cách sắc sảo mà có vẻ đẹp mượt mà đằm thắm đầy...",
      "image": null,
      "label": null,
      "display": "text-only",
      "type": "text",
      "enable_detail": true,
      "related": {
        "url": "https://truyenx.link/truyensextv/channels/related/1605",
        "request_headers": []
      },
      "share": {
        "url": "https://truyenx.link/truyensextv/channels/share/co-thu-ky-dam-duc"
      },
      "remote_data": {
        "url": "https://truyenx.link/truyensextv/channels/co-thu-ky-dam-duc"
      }
    },
    {
      "id": "1604-channel",
      "name": "Nhật ký loạn luân",
      "description": "Như bao đứa trẻ khác ở nông thôn, tuổi thơ tôi cũng gắn liền với con sông, cánh diều... Ngày ngày tôi và cùng em gái ra bãi đất trống cạnh bờ sông thả diều, con sông quê tôi bé...",
      "image": null,
      "label": null,
      "display": "text-only",
      "type": "text",
      "enable_detail": true,
      "related": {
        "url": "https://truyenx.link/truyensextv/channels/related/1604",
        "request_headers": []
      },
      "share": {
        "url": "https://truyenx.link/truyensextv/channels/share/nhat-ky-loan-luan"
      },
      "remote_data": {
        "url": "https://truyenx.link/truyensextv/channels/nhat-ky-loan-luan"
      }
    },
    {
      "id": "1603-channel",
      "name": "Loạn luân với Mai Ly",
      "description": "Chào các bạn đọc và các đồng dâm, mình xin kể lại một câu chuyện có thật của mình. Mình tên là Nô, năm nay 24 tuổi và đang làm công nhân. Mình có một sở thích rất biến thái...",
      "image": null,
      "label": null,
      "display": "text-only",
      "type": "text",
      "enable_detail": true,
      "related": {
        "url": "https://truyenx.link/truyensextv/channels/related/1603",
        "request_headers": []
      },
      "share": {
        "url": "https://truyenx.link/truyensextv/channels/share/loan-luan-voi-mai-ly"
      },
      "remote_data": {
        "url": "https://truyenx.link/truyensextv/channels/loan-luan-voi-mai-ly"
      }
    },
    {
      "id": "1602-channel",
      "name": "Thùy Chi",
      "description": "Tới rồi... Tới rồi... Suỵt... Im... Đám con trai ngồi trên lang cang tầng trệt, lén lút xì xào, chợt im bặt. Cả đám ngồi thẳng, bất động chờ một tà áo dài trắng thướt tha...",
      "image": null,
      "label": null,
      "display": "text-only",
      "type": "text",
      "enable_detail": true,
      "related": {
        "url": "https://truyenx.link/truyensextv/channels/related/1602",
        "request_headers": []
      },
      "share": {
        "url": "https://truyenx.link/truyensextv/channels/share/thuy-chi"
      },
      "remote_data": {
        "url": "https://truyenx.link/truyensextv/channels/thuy-chi"
      }
    },
    {
      "id": "1601-channel",
      "name": "Cô giáo Nga",
      "description": "Nga đang đi lên lớp để bắt đầu buổi dạy của mình thì gặp Lâm đi ngược chiều. Cậu ta nở một nụ cười rất tình cảm với nàng rồi nói: May quá gặp chị ở đây. Em đang...",
      "image": null,
      "label": null,
      "display": "text-only",
      "type": "text",
      "enable_detail": true,
      "related": {
        "url": "https://truyenx.link/truyensextv/channels/related/1601",
        "request_headers": []
      },
      "share": {
        "url": "https://truyenx.link/truyensextv/channels/share/co-giao-nga"
      },
      "remote_data": {
        "url": "https://truyenx.link/truyensextv/channels/co-giao-nga"
      }
    },
    {
      "id": "1600-channel",
      "name": "Cho vợ địt với thằng khác",
      "description": "Tôi là Phong, năm nay tôi đã 48 tuổi. Nói chút về bản thân và gia đình tôi. Tôi và vợ tôi là một cặp vợ chồng giàu có ở tp Đà Lạt này nhờ làm cái ghi số đề. Trước kia tôi...",
      "image": null,
      "label": null,
      "display": "text-only",
      "type": "text",
      "enable_detail": true,
      "related": {
        "url": "https://truyenx.link/truyensextv/channels/related/1600",
        "request_headers": []
      },
      "share": {
        "url": "https://truyenx.link/truyensextv/channels/share/cho-vo-dit-voi-thang-khac"
      },
      "remote_data": {
        "url": "https://truyenx.link/truyensextv/channels/cho-vo-dit-voi-thang-khac"
      }
    },
    {
      "id": "1599-channel",
      "name": "Chuyện tình nơi công sở",
      "description": "Long... Dạ, má kêu con? Có đứa con trai nào 26 tuổi mà vẫn giống mày không Long? Ý má là sao? Ý má muốn hỏi có thằng con trai nào 26 tuổi đẹp trai cỡ con hay nhiều gái theo cỡ con thì...",
      "image": null,
      "label": null,
      "display": "text-only",
      "type": "text",
      "enable_detail": true,
      "related": {
        "url": "https://truyenx.link/truyensextv/channels/related/1599",
        "request_headers": []
      },
      "share": {
        "url": "https://truyenx.link/truyensextv/channels/share/chuyen-tinh-noi-cong-so"
      },
      "remote_data": {
        "url": "https://truyenx.link/truyensextv/channels/chuyen-tinh-noi-cong-so"
      }
    },
    {
      "id": "1598-channel",
      "name": "Chơi đĩ ở Thảo Cầm Viên",
      "description": "Ê, đi chơi đĩ không thằng kia, mày làm gì đứng mơ mơ màng màng thế? Mày nói đùa à. Tự nhiên bảo đi chơi đĩ. Ừ, chơi đĩ đó, bộ chưa từng nghe ai nói “chơi đĩ” sao...",
      "image": null,
      "label": null,
      "display": "text-only",
      "type": "text",
      "enable_detail": true,
      "related": {
        "url": "https://truyenx.link/truyensextv/channels/related/1598",
        "request_headers": []
      },
      "share": {
        "url": "https://truyenx.link/truyensextv/channels/share/choi-di-o-thao-cam-vien"
      },
      "remote_data": {
        "url": "https://truyenx.link/truyensextv/channels/choi-di-o-thao-cam-vien"
      }
    },
    {
      "id": "1597-channel",
      "name": "Con em họ dâm đãng",
      "description": "Xin chào anh em trong trang truyensextv2.cc, mình năm nay 25T, cái tuổi đang xây dựng sự nghiệp, không dám tự nhận mình từng trải, nhưng có vài nốt “thăng” mình muốn chia sẻ với...",
      "image": null,
      "label": null,
      "display": "text-only",
      "type": "text",
      "enable_detail": true,
      "related": {
        "url": "https://truyenx.link/truyensextv/channels/related/1597",
        "request_headers": []
      },
      "share": {
        "url": "https://truyenx.link/truyensextv/channels/share/con-em-ho-dam-dang"
      },
      "remote_data": {
        "url": "https://truyenx.link/truyensextv/channels/con-em-ho-dam-dang"
      }
    },
    {
      "id": "1596-channel",
      "name": "Địt tùm lum",
      "description": "Tôi sinh ra và lớn lên ở một nông thôn cách thành phố Vinh khoảng 60km về phía bắc. Bố mẹ tôi rất yêu thương tôi, tạo mọi điều kiện cho tôi được học tập. Vì thế nên tôi...",
      "image": null,
      "label": null,
      "display": "text-only",
      "type": "text",
      "enable_detail": true,
      "related": {
        "url": "https://truyenx.link/truyensextv/channels/related/1596",
        "request_headers": []
      },
      "share": {
        "url": "https://truyenx.link/truyensextv/channels/share/dit-tum-lum"
      },
      "remote_data": {
        "url": "https://truyenx.link/truyensextv/channels/dit-tum-lum"
      }
    },
    {
      "id": "1595-channel",
      "name": "Hồi ký của Yến Oanh",
      "description": "Kính gửi các ACE truyensextv2.cc, tôi tên là Yến Oanh . Năm nay tôi 17t, tuổi đời tôi dù còn rất trẻ nhưng lại trải qua một khoảng thời gian “đen tối”, nó mang đầy những...",
      "image": null,
      "label": null,
      "display": "text-only",
      "type": "text",
      "enable_detail": true,
      "related": {
        "url": "https://truyenx.link/truyensextv/channels/related/1595",
        "request_headers": []
      },
      "share": {
        "url": "https://truyenx.link/truyensextv/channels/share/hoi-ky-cua-yen-oanh"
      },
      "remote_data": {
        "url": "https://truyenx.link/truyensextv/channels/hoi-ky-cua-yen-oanh"
      }
    },
    {
      "id": "1594-channel",
      "name": "Móc lồn chị gái",
      "description": "Chị ơi, em đi học đây. Uh, học xong về sớm nha em, chị nấu cơm chờ đó, về trễ là chết với chị. Toàn dạ một tiếng rồi xách balo đi. Năm nay Toàn là SV năm 3 ĐH Kinh Tế, chuyên...",
      "image": null,
      "label": null,
      "display": "text-only",
      "type": "text",
      "enable_detail": true,
      "related": {
        "url": "https://truyenx.link/truyensextv/channels/related/1594",
        "request_headers": []
      },
      "share": {
        "url": "https://truyenx.link/truyensextv/channels/share/moc-lon-chi-gai"
      },
      "remote_data": {
        "url": "https://truyenx.link/truyensextv/channels/moc-lon-chi-gai"
      }
    },
    {
      "id": "1593-channel",
      "name": "Con nhà giàu",
      "description": "Duy hít mạnh một hơi thật sâu, cảm giác mệt mỏi đến mức gần như là bủn rủn hết cả chân tay chợt ập đến. Giật mình giơ tay liếc nhanh qua chiếc đồng hồ, Duy chợt nhận ra...",
      "image": null,
      "label": null,
      "display": "text-only",
      "type": "text",
      "enable_detail": true,
      "related": {
        "url": "https://truyenx.link/truyensextv/channels/related/1593",
        "request_headers": []
      },
      "share": {
        "url": "https://truyenx.link/truyensextv/channels/share/con-nha-giau"
      },
      "remote_data": {
        "url": "https://truyenx.link/truyensextv/channels/con-nha-giau"
      }
    },
    {
      "id": "1592-channel",
      "name": "Mẹ con cô giáo Thúy",
      "description": "Lên lớp mười, vào cái trường chuyên của thành phố tôi cũng thấy bỡ ngỡ lắm. Trước thì học cái trường huyện gần nhà thì toàn dân trong huyện trong xã ra cái vào cái là gặp...",
      "image": null,
      "label": null,
      "display": "text-only",
      "type": "text",
      "enable_detail": true,
      "related": {
        "url": "https://truyenx.link/truyensextv/channels/related/1592",
        "request_headers": []
      },
      "share": {
        "url": "https://truyenx.link/truyensextv/channels/share/me-con-co-giao-thuy"
      },
      "remote_data": {
        "url": "https://truyenx.link/truyensextv/channels/me-con-co-giao-thuy"
      }
    },
    {
      "id": "1591-channel",
      "name": "Đụ hai mẹ con dâm đãng",
      "description": "Hắn đứng nép trong bụi lau sậy cao khỏi đầu người, cẩn trọng nhìn khắp nơi. Hắn vừa trốn khỏi trại tù nên rất lo, nếu bị chộp lại chắc chắn sẽ không cơ may nào thoát...",
      "image": null,
      "label": null,
      "display": "text-only",
      "type": "text",
      "enable_detail": true,
      "related": {
        "url": "https://truyenx.link/truyensextv/channels/related/1591",
        "request_headers": []
      },
      "share": {
        "url": "https://truyenx.link/truyensextv/channels/share/du-hai-me-con-dam-dang"
      },
      "remote_data": {
        "url": "https://truyenx.link/truyensextv/channels/du-hai-me-con-dam-dang"
      }
    },
    {
      "id": "1590-channel",
      "name": "Thầy giáo phá trinh học sinh",
      "description": "Tôi là Cường sinh ra và lớn lên ở ngoại thành Hà Nội. Tôi từ nhỏ đã rất yêu nghề thầy giáo rồi. Vì nhìn thấy mấy ông thầy đứng trên bảng rất là oai phong. Nói gì học sinh...",
      "image": null,
      "label": null,
      "display": "text-only",
      "type": "text",
      "enable_detail": true,
      "related": {
        "url": "https://truyenx.link/truyensextv/channels/related/1590",
        "request_headers": []
      },
      "share": {
        "url": "https://truyenx.link/truyensextv/channels/share/thay-giao-pha-trinh-hoc-sinh"
      },
      "remote_data": {
        "url": "https://truyenx.link/truyensextv/channels/thay-giao-pha-trinh-hoc-sinh"
      }
    },
    {
      "id": "1589-channel",
      "name": "Hiếp dâm em người mẫu",
      "description": "Tôi yêu thầm trộm nhớ cô người mẫu thời trang nổi tiếng có tên là Kim Uyên này từ lâu lắm rồi, ngày đầu tiên xem trình diễn thời trang ở Hà Nội, khi thấy nàng trên sân khấu...",
      "image": null,
      "label": null,
      "display": "text-only",
      "type": "text",
      "enable_detail": true,
      "related": {
        "url": "https://truyenx.link/truyensextv/channels/related/1589",
        "request_headers": []
      },
      "share": {
        "url": "https://truyenx.link/truyensextv/channels/share/hiep-dam-em-nguoi-mau"
      },
      "remote_data": {
        "url": "https://truyenx.link/truyensextv/channels/hiep-dam-em-nguoi-mau"
      }
    },
    {
      "id": "1588-channel",
      "name": "Khu trọ",
      "description": "Đó là một khu trọ chỉ có 3 phòng. Phòng đầu tiên là 3 chàng sinh viên, đó là những người bạn từ thuở thiếu thời cùng ở quê lên Đà Nẵng học tập, là một căn phòng mà lúc...",
      "image": null,
      "label": null,
      "display": "text-only",
      "type": "text",
      "enable_detail": true,
      "related": {
        "url": "https://truyenx.link/truyensextv/channels/related/1588",
        "request_headers": []
      },
      "share": {
        "url": "https://truyenx.link/truyensextv/channels/share/khu-tro"
      },
      "remote_data": {
        "url": "https://truyenx.link/truyensextv/channels/khu-tro"
      }
    },
    {
      "id": "1587-channel",
      "name": "Tình trẻ của mẹ",
      "description": "Câu chuyện được kể lại bắt đầu cách đây mấy năm, khi đó tôi 14 tuổi. Gia đình tôi sống ở một huyện miền Tây. Ba tôi là giảng viên tiếng Anh, nhiều năm nay ông lên thành phố...",
      "image": null,
      "label": null,
      "display": "text-only",
      "type": "text",
      "enable_detail": true,
      "related": {
        "url": "https://truyenx.link/truyensextv/channels/related/1587",
        "request_headers": []
      },
      "share": {
        "url": "https://truyenx.link/truyensextv/channels/share/tinh-tre-cua-me"
      },
      "remote_data": {
        "url": "https://truyenx.link/truyensextv/channels/tinh-tre-cua-me"
      }
    },
    {
      "id": "1586-channel",
      "name": "Bạn vợ",
      "description": "Tôi sinh ra và lớn lên ở Sài Gòn, cuộc sống bình thường như bao thằng đàn ông khác. Năm 28 tuổi thì lấy vợ. Vợ tôi không xinh đẹp nhưng rất có duyên và đặc biệt rất chiều...",
      "image": null,
      "label": null,
      "display": "text-only",
      "type": "text",
      "enable_detail": true,
      "related": {
        "url": "https://truyenx.link/truyensextv/channels/related/1586",
        "request_headers": []
      },
      "share": {
        "url": "https://truyenx.link/truyensextv/channels/share/ban-vo"
      },
      "remote_data": {
        "url": "https://truyenx.link/truyensextv/channels/ban-vo"
      }
    },
    {
      "id": "1585-channel",
      "name": "Chú và cháu",
      "description": "Nó cứ cúi đầu lăn xả vào háng tôi, lè lưỡi dài ra và quét thật kỹ như thèm thuồng. Nó liếm háng rồi liếm hòn dái rồi ngậm trọn cu tôi mà mút lấy mút để. Vì thời gian có...",
      "image": null,
      "label": null,
      "display": "text-only",
      "type": "text",
      "enable_detail": true,
      "related": {
        "url": "https://truyenx.link/truyensextv/channels/related/1585",
        "request_headers": []
      },
      "share": {
        "url": "https://truyenx.link/truyensextv/channels/share/chu-va-chau"
      },
      "remote_data": {
        "url": "https://truyenx.link/truyensextv/channels/chu-va-chau"
      }
    },
    {
      "id": "1584-channel",
      "name": "Nô lệ ái tình",
      "description": "Tôi được sinh ra trong một gia đình phong kiến, ba mẹ tôi luôn ngăn cấm những tác hại xấu đến tôi. Tôi không thể tìm hiểu được những gì thầm kín từ ba mẹ, cũng không có cách...",
      "image": null,
      "label": null,
      "display": "text-only",
      "type": "text",
      "enable_detail": true,
      "related": {
        "url": "https://truyenx.link/truyensextv/channels/related/1584",
        "request_headers": []
      },
      "share": {
        "url": "https://truyenx.link/truyensextv/channels/share/no-le-ai-tinh"
      },
      "remote_data": {
        "url": "https://truyenx.link/truyensextv/channels/no-le-ai-tinh"
      }
    },
    {
      "id": "1583-channel",
      "name": "Mợ Linh của tôi",
      "description": "Tôi tên là C, 16 tuổi, tôi có một người mợ tên Linh khoảng 25 tuổi, đã có một con nên ngực rất nở và mông khá to, đúng là gái một con trông mòn con mắt. Vì nhà mợ khá gần nhà...",
      "image": null,
      "label": null,
      "display": "text-only",
      "type": "text",
      "enable_detail": true,
      "related": {
        "url": "https://truyenx.link/truyensextv/channels/related/1583",
        "request_headers": []
      },
      "share": {
        "url": "https://truyenx.link/truyensextv/channels/share/mo-linh-cua-toi"
      },
      "remote_data": {
        "url": "https://truyenx.link/truyensextv/channels/mo-linh-cua-toi"
      }
    },
    {
      "id": "1582-channel",
      "name": "Cao thủ kiếm hiệp - Quyển 2",
      "description": "Lúc ánh nắng ban mai chiếu rọi vào trong nhà, thì Tống Thanh Thư thoáng cái mở mắt, nhúc nhích thân thể, lập tức biểu lộ cực kỳ cổ quái: “Hoan Hỉ Thiện Pháp đích xác là là...",
      "image": null,
      "label": null,
      "display": "text-only",
      "type": "text",
      "enable_detail": true,
      "related": {
        "url": "https://truyenx.link/truyensextv/channels/related/1582",
        "request_headers": []
      },
      "share": {
        "url": "https://truyenx.link/truyensextv/channels/share/cao-thu-kiem-hiep-quyen-2"
      },
      "remote_data": {
        "url": "https://truyenx.link/truyensextv/channels/cao-thu-kiem-hiep-quyen-2"
      }
    },
    {
      "id": "1581-channel",
      "name": "Hoa xương rồng",
      "description": "Ngày xửa ngày xưa, cách đây hai mươi nhăm năm về trước, trong một đêm tân hôn giữa người vợ trẻ Tố Quyên và chồng của mình Quốc Đạt. Đám cưới vừa diễn ra sáng nay là một...",
      "image": null,
      "label": null,
      "display": "text-only",
      "type": "text",
      "enable_detail": true,
      "related": {
        "url": "https://truyenx.link/truyensextv/channels/related/1581",
        "request_headers": []
      },
      "share": {
        "url": "https://truyenx.link/truyensextv/channels/share/hoa-xuong-rong"
      },
      "remote_data": {
        "url": "https://truyenx.link/truyensextv/channels/hoa-xuong-rong"
      }
    },
    {
      "id": "1580-channel",
      "name": "Vùng quê hẻo lánh",
      "description": "Một gia đình nhỏ ở vùng quê hẻo lánh, người chồng tên Thái làm thợ xây vất vả, người vợ tên Hương may quần áo tại nhà. Ở với nhau có 3 người con, người con trai đầu tên...",
      "image": null,
      "label": null,
      "display": "text-only",
      "type": "text",
      "enable_detail": true,
      "related": {
        "url": "https://truyenx.link/truyensextv/channels/related/1580",
        "request_headers": []
      },
      "share": {
        "url": "https://truyenx.link/truyensextv/channels/share/vung-que-heo-lanh"
      },
      "remote_data": {
        "url": "https://truyenx.link/truyensextv/channels/vung-que-heo-lanh"
      }
    },
    {
      "id": "1579-channel",
      "name": "Lần đầu của em Linh",
      "description": "Nằm trên giường, nhỏ Linh không tài nào ngủ được. Tất cả mọi thứ cứ hiện lên trong óc nhỏ không sót tì gì. Không biết vì sao cái tay của nhỏ lại đưa lên se se hai cái đầu...",
      "image": null,
      "label": null,
      "display": "text-only",
      "type": "text",
      "enable_detail": true,
      "related": {
        "url": "https://truyenx.link/truyensextv/channels/related/1579",
        "request_headers": []
      },
      "share": {
        "url": "https://truyenx.link/truyensextv/channels/share/lan-dau-cua-em-linh"
      },
      "remote_data": {
        "url": "https://truyenx.link/truyensextv/channels/lan-dau-cua-em-linh"
      }
    }
  ],
  "load_more": {
    "pageInfo": {
      "current_page": 87,
      "last_page": 140,
      "per_page": 30,
      "total": 4188
    },
    "paging": {
      "page_key": "page",
      "size_key": "size"
    },
    "remote_data": {
      "url": "https://truyenx.link/truyensextv/channels"
    }
  }
}