{
  "grid_number": 1,
  "channels": [
    {
      "id": "768-channel",
      "name": "Củ khoai vô dụng",
      "description": "Phải nói rằng ngày hôm đó... là ngày mà cuộc đời tôi bước sang 1 bước ngoặt lớn! Ngày mà tôi bước chân ra xã hội, đi kiếm những đồng tiền... Cuộc sống ở vùng quê miền...",
      "image": null,
      "label": null,
      "display": "text-only",
      "type": "text",
      "enable_detail": true,
      "related": {
        "url": "https://truyenx.link/truyensextv/channels/related/768",
        "request_headers": []
      },
      "share": {
        "url": "https://truyenx.link/truyensextv/channels/share/cu-khoai-vo-dung"
      },
      "remote_data": {
        "url": "https://truyenx.link/truyensextv/channels/cu-khoai-vo-dung"
      }
    },
    {
      "id": "767-channel",
      "name": "Kỷ niệm trên bãi biển",
      "description": "Cách đây cũng khá lâu hình như là năm 2005, năm đó còn đang học lớp 12, thi tốt nghiệp xong thì cả lớp tổ chức chuyến đi sang Cát Bà, nhìn cái biển Hạ Long mãi cũng phát chán muốn...",
      "image": null,
      "label": null,
      "display": "text-only",
      "type": "text",
      "enable_detail": true,
      "related": {
        "url": "https://truyenx.link/truyensextv/channels/related/767",
        "request_headers": []
      },
      "share": {
        "url": "https://truyenx.link/truyensextv/channels/share/ky-niem-tren-bai-bien"
      },
      "remote_data": {
        "url": "https://truyenx.link/truyensextv/channels/ky-niem-tren-bai-bien"
      }
    },
    {
      "id": "766-channel",
      "name": "Làm tình dưới mưa",
      "description": "Cho dù việc học hành của tôi không đến nơi đến trốn nhưng dù sao đổi lại tôi đã có những người bạn thực sự! Tôi có 1 người bạn rất thân, học cùng nhau từ lớp 6 đến...",
      "image": null,
      "label": null,
      "display": "text-only",
      "type": "text",
      "enable_detail": true,
      "related": {
        "url": "https://truyenx.link/truyensextv/channels/related/766",
        "request_headers": []
      },
      "share": {
        "url": "https://truyenx.link/truyensextv/channels/share/lam-tinh-duoi-mua"
      },
      "remote_data": {
        "url": "https://truyenx.link/truyensextv/channels/lam-tinh-duoi-mua"
      }
    },
    {
      "id": "765-channel",
      "name": "Con trai chủ nhà",
      "description": "Tính đến thời điểm này thì tôi đến thuê nhà anh cũng được hơn 1 năm. Anh cũng có tí đẹp trai, nhưng không được cao lắm, nói chuyện thì nhạt toẹt không cả bằng nước ốc. Hơn...",
      "image": null,
      "label": null,
      "display": "text-only",
      "type": "text",
      "enable_detail": true,
      "related": {
        "url": "https://truyenx.link/truyensextv/channels/related/765",
        "request_headers": []
      },
      "share": {
        "url": "https://truyenx.link/truyensextv/channels/share/con-trai-chu-nha"
      },
      "remote_data": {
        "url": "https://truyenx.link/truyensextv/channels/con-trai-chu-nha"
      }
    },
    {
      "id": "764-channel",
      "name": "Phá trinh em con chú",
      "description": "Nhà nó ở mãi vùng núi Tuyên Quang, nhà mình thì ở Hà Nội. Nó là đứa em họ gần nhưng do địa lí mà thành ra xa, lần gần nhất mình gặp nó trước đây là khi lên đám cưới anh cả...",
      "image": null,
      "label": null,
      "display": "text-only",
      "type": "text",
      "enable_detail": true,
      "related": {
        "url": "https://truyenx.link/truyensextv/channels/related/764",
        "request_headers": []
      },
      "share": {
        "url": "https://truyenx.link/truyensextv/channels/share/pha-trinh-em-con-chu"
      },
      "remote_data": {
        "url": "https://truyenx.link/truyensextv/channels/pha-trinh-em-con-chu"
      }
    },
    {
      "id": "763-channel",
      "name": "Đụ vợ ông anh bên vợ",
      "description": "Tôi đã lập gia đình và ở gần nhà tôi có nhà ông anh bên vợ, 2 gia đình cũng thân thiết hay đi lại qua nhau, cũng hay ăn nhà bên đó. 1 hôm xe bị hỏng thế là tạt qua nhà ông đó ăn...",
      "image": null,
      "label": null,
      "display": "text-only",
      "type": "text",
      "enable_detail": true,
      "related": {
        "url": "https://truyenx.link/truyensextv/channels/related/763",
        "request_headers": []
      },
      "share": {
        "url": "https://truyenx.link/truyensextv/channels/share/du-vo-ong-anh-ben-vo"
      },
      "remote_data": {
        "url": "https://truyenx.link/truyensextv/channels/du-vo-ong-anh-ben-vo"
      }
    },
    {
      "id": "762-channel",
      "name": "Bảo vệ phá trinh cô giáo",
      "description": "Vân là giáo viên dạy anh văn cho trường chuyên với mức lương khá cao. Tại đây cô đã gặp người đàn ông đã làm cô thành phụ nữ và thay đổi cả cuộc đời cô, hắn ta tên Nam...",
      "image": null,
      "label": null,
      "display": "text-only",
      "type": "text",
      "enable_detail": true,
      "related": {
        "url": "https://truyenx.link/truyensextv/channels/related/762",
        "request_headers": []
      },
      "share": {
        "url": "https://truyenx.link/truyensextv/channels/share/bao-ve-pha-trinh-co-giao"
      },
      "remote_data": {
        "url": "https://truyenx.link/truyensextv/channels/bao-ve-pha-trinh-co-giao"
      }
    },
    {
      "id": "761-channel",
      "name": "Em Dung thủ dâm",
      "description": "Dung kéo phăng cái áo thun ra, vất vào máy giặt. Tiếp đến nàng cởi khuy quần, nhún hông, hai tay đẩy cho nó tuột dần xuống, nàng dẫm một chân lên ống quần bên phải, rồi nhấc...",
      "image": null,
      "label": null,
      "display": "text-only",
      "type": "text",
      "enable_detail": true,
      "related": {
        "url": "https://truyenx.link/truyensextv/channels/related/761",
        "request_headers": []
      },
      "share": {
        "url": "https://truyenx.link/truyensextv/channels/share/em-dung-thu-dam"
      },
      "remote_data": {
        "url": "https://truyenx.link/truyensextv/channels/em-dung-thu-dam"
      }
    },
    {
      "id": "760-channel",
      "name": "Tình đầu chưa nguôi",
      "description": "Chào các bạn, vào truyensextv2.cc đã đọc nhiều truyện hôm nay tôi cũng xin mạo muội kể câu chuyện của mình, có tựa đề “Tình đầu chưa nguôi”. Chuyện hơi dài và lan man do...",
      "image": null,
      "label": null,
      "display": "text-only",
      "type": "text",
      "enable_detail": true,
      "related": {
        "url": "https://truyenx.link/truyensextv/channels/related/760",
        "request_headers": []
      },
      "share": {
        "url": "https://truyenx.link/truyensextv/channels/share/tinh-dau-chua-nguoi"
      },
      "remote_data": {
        "url": "https://truyenx.link/truyensextv/channels/tinh-dau-chua-nguoi"
      }
    },
    {
      "id": "759-channel",
      "name": "Ngoại tình",
      "description": "Vì muốn cuộc sống sau này tốt hơn nên 2 vợ chồng tôi bàn tính gởi con nhỏ ở nhà để xuất ngoại kiếm tiền. Nga vợ tôi năm nay 25 tuổi, nét đẹp mặn mà của gái 1 con khiến...",
      "image": null,
      "label": null,
      "display": "text-only",
      "type": "text",
      "enable_detail": true,
      "related": {
        "url": "https://truyenx.link/truyensextv/channels/related/759",
        "request_headers": []
      },
      "share": {
        "url": "https://truyenx.link/truyensextv/channels/share/ngoai-tinh"
      },
      "remote_data": {
        "url": "https://truyenx.link/truyensextv/channels/ngoai-tinh"
      }
    },
    {
      "id": "758-channel",
      "name": "Địt trong phòng thay đồ",
      "description": "Làm tình thì nơi đông người và cảm giác bị phát hiện là sướng nhất, hồi xưa mình có quen 1 em ở Bùi Đình Túy. Em này làm ở shop áo quần jocket chuyên bán đồ phụ tùng cho nam...",
      "image": null,
      "label": null,
      "display": "text-only",
      "type": "text",
      "enable_detail": true,
      "related": {
        "url": "https://truyenx.link/truyensextv/channels/related/758",
        "request_headers": []
      },
      "share": {
        "url": "https://truyenx.link/truyensextv/channels/share/dit-trong-phong-thay-do"
      },
      "remote_data": {
        "url": "https://truyenx.link/truyensextv/channels/dit-trong-phong-thay-do"
      }
    },
    {
      "id": "757-channel",
      "name": "Tuổi trẻ điên cuồng và rồ dại",
      "description": "Tuổi trẻ điên cuồng và rồ dại, là khoảng thời gian con người ta giàu nhiệt huyết nhất, khát khao thể hiện cái tôi của mình nhất. Chị là đồng nghiệp của tôi, hơn tôi 3 tuổi...",
      "image": null,
      "label": null,
      "display": "text-only",
      "type": "text",
      "enable_detail": true,
      "related": {
        "url": "https://truyenx.link/truyensextv/channels/related/757",
        "request_headers": []
      },
      "share": {
        "url": "https://truyenx.link/truyensextv/channels/share/tuoi-tre-dien-cuong-va-ro-dai"
      },
      "remote_data": {
        "url": "https://truyenx.link/truyensextv/channels/tuoi-tre-dien-cuong-va-ro-dai"
      }
    },
    {
      "id": "756-channel",
      "name": "Thung lũng vàng",
      "description": "Lời tác giả: Tôi tình cờ gặp Sơn trong một chuyến đi viết bài ở một tỉnh cao nguyên. Tôi làm việc hai ngày ở một nông trường trồng cà phê, cao su. Theo báo cáo của Ban lãnh...",
      "image": null,
      "label": null,
      "display": "text-only",
      "type": "text",
      "enable_detail": true,
      "related": {
        "url": "https://truyenx.link/truyensextv/channels/related/756",
        "request_headers": []
      },
      "share": {
        "url": "https://truyenx.link/truyensextv/channels/share/thung-lung-vang"
      },
      "remote_data": {
        "url": "https://truyenx.link/truyensextv/channels/thung-lung-vang"
      }
    },
    {
      "id": "755-channel",
      "name": "Hụt hẫng",
      "description": "Hè lớp 8, một buổi tối, đang ngủ thì tôi chợt tỉnh giấc vì thấy có gì đó là lạ. Tôi thấy dưới quần ươn ướt, đưa tay sờ nhơn nhớt. Ồ vậy là tôi đã mộng tinh, tôi đã...",
      "image": null,
      "label": null,
      "display": "text-only",
      "type": "text",
      "enable_detail": true,
      "related": {
        "url": "https://truyenx.link/truyensextv/channels/related/755",
        "request_headers": []
      },
      "share": {
        "url": "https://truyenx.link/truyensextv/channels/share/hut-hang"
      },
      "remote_data": {
        "url": "https://truyenx.link/truyensextv/channels/hut-hang"
      }
    },
    {
      "id": "754-channel",
      "name": "Máy bay tình cảm",
      "description": "Tôi đã từng lái máy bay một vài lần, hầu hết trong số máy bay của tôi đã có chồng con, nghề nghiệp đàng hoàng, với tôi đó chỉ là sex, còn với các người tình của tôi đó là...",
      "image": null,
      "label": null,
      "display": "text-only",
      "type": "text",
      "enable_detail": true,
      "related": {
        "url": "https://truyenx.link/truyensextv/channels/related/754",
        "request_headers": []
      },
      "share": {
        "url": "https://truyenx.link/truyensextv/channels/share/may-bay-tinh-cam"
      },
      "remote_data": {
        "url": "https://truyenx.link/truyensextv/channels/may-bay-tinh-cam"
      }
    },
    {
      "id": "753-channel",
      "name": "Làm tình những ngày rét buốt",
      "description": "Mấy hôm nay không khí lạnh tràn về, cả miền Bắc chìm trong rét đậm rét hại, ở nhà nằm trong chăn mà chim cứ xun xoăn hết cả... Anh em nào ngoài Hà Nội những ngày này thì biết...",
      "image": null,
      "label": null,
      "display": "text-only",
      "type": "text",
      "enable_detail": true,
      "related": {
        "url": "https://truyenx.link/truyensextv/channels/related/753",
        "request_headers": []
      },
      "share": {
        "url": "https://truyenx.link/truyensextv/channels/share/lam-tinh-nhung-ngay-ret-buot"
      },
      "remote_data": {
        "url": "https://truyenx.link/truyensextv/channels/lam-tinh-nhung-ngay-ret-buot"
      }
    },
    {
      "id": "752-channel",
      "name": "Kỷ niệm ở Bangkok",
      "description": "Đó là 1 chuyến đi thật nhiều kỉ niệm. Trong bàn tay ấm áp quen thuộc băng qua những con đường xa lạ, đông đúc, trong tâm trạng háo hức khám phá… quả thật là những trải nghiệm...",
      "image": null,
      "label": null,
      "display": "text-only",
      "type": "text",
      "enable_detail": true,
      "related": {
        "url": "https://truyenx.link/truyensextv/channels/related/752",
        "request_headers": []
      },
      "share": {
        "url": "https://truyenx.link/truyensextv/channels/share/ky-niem-o-bangkok"
      },
      "remote_data": {
        "url": "https://truyenx.link/truyensextv/channels/ky-niem-o-bangkok"
      }
    },
    {
      "id": "751-channel",
      "name": "Đụ chị họ bên vợ",
      "description": "Chị Phương là vợ của ông anh họ của vợ tôi. Chị lớn hơn tôi vài tuổi, người bình thường nhưng chị có điểm đặc biết là đôi mắt rất đa tình, đôi môi lúc nào cũng ươn...",
      "image": null,
      "label": null,
      "display": "text-only",
      "type": "text",
      "enable_detail": true,
      "related": {
        "url": "https://truyenx.link/truyensextv/channels/related/751",
        "request_headers": []
      },
      "share": {
        "url": "https://truyenx.link/truyensextv/channels/share/du-chi-ho-ben-vo"
      },
      "remote_data": {
        "url": "https://truyenx.link/truyensextv/channels/du-chi-ho-ben-vo"
      }
    },
    {
      "id": "750-channel",
      "name": "Bạn Chat",
      "description": "Chuyện xảy ra vài năm rồi, từ những ngày đầu đặt chân lên xứ lạ. Thời đó Yahoo còn là công cụ thời thượng của giao lưu kết hợp, nói gọn là giao hợp. Mình quen nhỏ cũng...",
      "image": null,
      "label": null,
      "display": "text-only",
      "type": "text",
      "enable_detail": true,
      "related": {
        "url": "https://truyenx.link/truyensextv/channels/related/750",
        "request_headers": []
      },
      "share": {
        "url": "https://truyenx.link/truyensextv/channels/share/ban-chat"
      },
      "remote_data": {
        "url": "https://truyenx.link/truyensextv/channels/ban-chat"
      }
    },
    {
      "id": "749-channel",
      "name": "Làm đàn bà thật tuyệt",
      "description": "Ngày gặp anh là một buổi chiều buồn nhẹ gió. Người đàn ông chững chạc và thận trọng trong mọi lời nói. Nhưng đôi mắt đó xa xăm đầy tâm sự. Anh đang thất tình! Chẳng hiểu...",
      "image": null,
      "label": null,
      "display": "text-only",
      "type": "text",
      "enable_detail": true,
      "related": {
        "url": "https://truyenx.link/truyensextv/channels/related/749",
        "request_headers": []
      },
      "share": {
        "url": "https://truyenx.link/truyensextv/channels/share/lam-dan-ba-that-tuyet"
      },
      "remote_data": {
        "url": "https://truyenx.link/truyensextv/channels/lam-dan-ba-that-tuyet"
      }
    },
    {
      "id": "748-channel",
      "name": "Thiếu nữ nứng lồn thèm đụ",
      "description": "Huyền thức dậy thấy trong mình nóng ran và thật khó chịu. Dạo này không biết lý do gì mà nàng luôn trong trạng thái này, trong người bức bối, nóng nực, căng đét, ngứa ngáy làm...",
      "image": null,
      "label": null,
      "display": "text-only",
      "type": "text",
      "enable_detail": true,
      "related": {
        "url": "https://truyenx.link/truyensextv/channels/related/748",
        "request_headers": []
      },
      "share": {
        "url": "https://truyenx.link/truyensextv/channels/share/thieu-nu-nung-lon-them-du"
      },
      "remote_data": {
        "url": "https://truyenx.link/truyensextv/channels/thieu-nu-nung-lon-them-du"
      }
    },
    {
      "id": "747-channel",
      "name": "Cô vợ khát tình",
      "description": "Cái nệm trên giường ngủ cứ rung lên bật bật phát ra những tiếng kêu cót két, Thanh Hà vợ tôi đang nằm ngửa dạng háng để thằng Hùng nhấp xuống nhịp nhàng, tấm lưng trần của...",
      "image": null,
      "label": null,
      "display": "text-only",
      "type": "text",
      "enable_detail": true,
      "related": {
        "url": "https://truyenx.link/truyensextv/channels/related/747",
        "request_headers": []
      },
      "share": {
        "url": "https://truyenx.link/truyensextv/channels/share/co-vo-khat-tinh"
      },
      "remote_data": {
        "url": "https://truyenx.link/truyensextv/channels/co-vo-khat-tinh"
      }
    },
    {
      "id": "746-channel",
      "name": "Lần đầu vợ nuốt tinh",
      "description": "Xin chào anh em trong web Truyệnsex.Tv câu truyện mình sắp kể vừa mới chỉ diễn ra đêm qua. Mình quê Tây Bắc, nơi có hoa ban trắng nở khắp đồi núi. Mình thì đi làm dưới TP.Hạ Long...",
      "image": null,
      "label": null,
      "display": "text-only",
      "type": "text",
      "enable_detail": true,
      "related": {
        "url": "https://truyenx.link/truyensextv/channels/related/746",
        "request_headers": []
      },
      "share": {
        "url": "https://truyenx.link/truyensextv/channels/share/lan-dau-vo-nuot-tinh"
      },
      "remote_data": {
        "url": "https://truyenx.link/truyensextv/channels/lan-dau-vo-nuot-tinh"
      }
    },
    {
      "id": "745-channel",
      "name": "Những phi vụ lén lút",
      "description": "Mặc dù mấy đứa bạn nam cùng trang lứa đã biết lợi dụng đêm tối, và đông đúc khi học phụ đạo ban đêm lúc vào bãi giữ xe để “lợi dụng” từ lúc lớp 9...",
      "image": null,
      "label": null,
      "display": "text-only",
      "type": "text",
      "enable_detail": true,
      "related": {
        "url": "https://truyenx.link/truyensextv/channels/related/745",
        "request_headers": []
      },
      "share": {
        "url": "https://truyenx.link/truyensextv/channels/share/nhung-phi-vu-len-lut"
      },
      "remote_data": {
        "url": "https://truyenx.link/truyensextv/channels/nhung-phi-vu-len-lut"
      }
    },
    {
      "id": "744-channel",
      "name": "Lên đỉnh khi nuốt tinh",
      "description": "Bạn gái cũ ngày xưa của tôi rất đặc biệt, nàng chỉ thích đàn ông yếu sinh lý. Trước kia tôi cứ nghĩ đàn ông yếu sinh lý chắc khổ, không chiều được vợ, khi yêu nàng rồi...",
      "image": null,
      "label": null,
      "display": "text-only",
      "type": "text",
      "enable_detail": true,
      "related": {
        "url": "https://truyenx.link/truyensextv/channels/related/744",
        "request_headers": []
      },
      "share": {
        "url": "https://truyenx.link/truyensextv/channels/share/len-dinh-khi-nuot-tinh"
      },
      "remote_data": {
        "url": "https://truyenx.link/truyensextv/channels/len-dinh-khi-nuot-tinh"
      }
    },
    {
      "id": "743-channel",
      "name": "Bạn gái và bạn của bạn gái",
      "description": "Cách đây 2 năm, tôi quen một cô gái có khuôn mặt rất đẹp và thánh thiện. Cũng tán tỉnh qua chat chit, gọi điện, cà phê, coi bộ nàng cũng kết tôi rồi, nhưng tôi vẫn chưa hề nói...",
      "image": null,
      "label": null,
      "display": "text-only",
      "type": "text",
      "enable_detail": true,
      "related": {
        "url": "https://truyenx.link/truyensextv/channels/related/743",
        "request_headers": []
      },
      "share": {
        "url": "https://truyenx.link/truyensextv/channels/share/ban-gai-va-ban-cua-ban-gai"
      },
      "remote_data": {
        "url": "https://truyenx.link/truyensextv/channels/ban-gai-va-ban-cua-ban-gai"
      }
    },
    {
      "id": "742-channel",
      "name": "Tình yêu ngọn nến",
      "description": "Với em, giờ này có thể tôi chỉ là dĩ vãng đã qua. Với tôi, em là niềm hạnh phúc ngắn ngủi. ... Bạn đang đọc truyện sex tại web: truyensextv2.cc Quen em trong 1 bữa tiếp xúc gặp gỡ...",
      "image": null,
      "label": null,
      "display": "text-only",
      "type": "text",
      "enable_detail": true,
      "related": {
        "url": "https://truyenx.link/truyensextv/channels/related/742",
        "request_headers": []
      },
      "share": {
        "url": "https://truyenx.link/truyensextv/channels/share/tinh-yeu-ngon-nen"
      },
      "remote_data": {
        "url": "https://truyenx.link/truyensextv/channels/tinh-yeu-ngon-nen"
      }
    },
    {
      "id": "741-channel",
      "name": "Học cách chiều chồng",
      "description": "Chồng tôi đi công tác xa nhà gần 1 tháng rồi chưa về. Còn tôi là người đàn bà đã ngoài 30. Nhan sắc tuy không còn đẹp như hồi trẻ nhưng vẫn mặn mà. Là một người phụ nữ gả...",
      "image": null,
      "label": null,
      "display": "text-only",
      "type": "text",
      "enable_detail": true,
      "related": {
        "url": "https://truyenx.link/truyensextv/channels/related/741",
        "request_headers": []
      },
      "share": {
        "url": "https://truyenx.link/truyensextv/channels/share/hoc-cach-chieu-chong"
      },
      "remote_data": {
        "url": "https://truyenx.link/truyensextv/channels/hoc-cach-chieu-chong"
      }
    },
    {
      "id": "740-channel",
      "name": "Em gái thích nuốt tinh",
      "description": "Nàng đã tốt nghiệp đại học nhưng mặt như baby, ai cũng nghĩ nàng còn học cấp 3, cưa cẩm nàng 1 thời gian qua chat, gặp nhau uống cà phê 2 lần thì rủ nàng về nhà chơi, coi như an...",
      "image": null,
      "label": null,
      "display": "text-only",
      "type": "text",
      "enable_detail": true,
      "related": {
        "url": "https://truyenx.link/truyensextv/channels/related/740",
        "request_headers": []
      },
      "share": {
        "url": "https://truyenx.link/truyensextv/channels/share/em-gai-thich-nuot-tinh"
      },
      "remote_data": {
        "url": "https://truyenx.link/truyensextv/channels/em-gai-thich-nuot-tinh"
      }
    },
    {
      "id": "739-channel",
      "name": "Lần Karaoke sung sướng nhất",
      "description": "Tình hình là hôm bữa em với gấu cùng 4 thằng bạn đi nhậu... Uống vài chai thì cả đám đi karaoke... Hôm đó gấu mặc váy, áo ống... Vào phòng karaoke, mấy thằng bạn thì karaoke vô...",
      "image": null,
      "label": null,
      "display": "text-only",
      "type": "text",
      "enable_detail": true,
      "related": {
        "url": "https://truyenx.link/truyensextv/channels/related/739",
        "request_headers": []
      },
      "share": {
        "url": "https://truyenx.link/truyensextv/channels/share/lan-karaoke-sung-suong-nhat"
      },
      "remote_data": {
        "url": "https://truyenx.link/truyensextv/channels/lan-karaoke-sung-suong-nhat"
      }
    }
  ],
  "load_more": {
    "pageInfo": {
      "current_page": 115,
      "last_page": 140,
      "per_page": 30,
      "total": 4188
    },
    "paging": {
      "page_key": "page",
      "size_key": "size"
    },
    "remote_data": {
      "url": "https://truyenx.link/truyensextv/channels"
    }
  }
}