{"grid_number":1,"channels":[{"id":"2889-channel","name":"Em gái mưa","description":"Một đêm say Tôi gặp được Ngân khi tôi đang học lớp 11. Ngân nhỏ hơn tôi 1 tuổi. Và là khóa dưới của tôi. Lúc ấy Ngân được xem là hoa khôi khối 10 của trường vì vẻ ngoài...","image":null,"label":null,"display":"text-only","type":"text","enable_detail":true,"related":{"url":"https://truyenx.link/truyensextv/channels/related/2889","request_headers":[]},"share":{"url":"https://truyenx.link/truyensextv/channels/share/em-gai-mua"},"remote_data":{"url":"https://truyenx.link/truyensextv/channels/em-gai-mua"}},{"id":"2888-channel","name":"Cô con dâu gợi tình của ba chồng","description":"Năm nay tôi 50 tuổi, từ khi con tôi kết hôn trở về sau thì tôi rất nhàn rỗi ở nhà. Mà cái gọi là nhàn rỗi này thật ra chỉ là giả dối mà thôi. Mà mục đích thực sự của tôi...","image":null,"label":null,"display":"text-only","type":"text","enable_detail":true,"related":{"url":"https://truyenx.link/truyensextv/channels/related/2888","request_headers":[]},"share":{"url":"https://truyenx.link/truyensextv/channels/share/co-con-dau-goi-tinh-cua-ba-chong"},"remote_data":{"url":"https://truyenx.link/truyensextv/channels/co-con-dau-goi-tinh-cua-ba-chong"}},{"id":"2887-channel","name":"Các mỹ nữ Tây Uyển","description":"Luồng hơi lạnh nhè nhẹ phả ra từ máy điều hòa không làm giảm đi chút nào sự oi bức của Doãn Xuyên. Tiết trời mùa hè khiến nam nhân trưởng thành rất dễ dàng xuất hiện tâm...","image":null,"label":null,"display":"text-only","type":"text","enable_detail":true,"related":{"url":"https://truyenx.link/truyensextv/channels/related/2887","request_headers":[]},"share":{"url":"https://truyenx.link/truyensextv/channels/share/cac-my-nu-tay-uyen"},"remote_data":{"url":"https://truyenx.link/truyensextv/channels/cac-my-nu-tay-uyen"}},{"id":"2886-channel","name":"Bốn thế hệ là vợ của tôi","description":"Cuộc giao hoan đầu đời Năm tôi 13 tuổi thì ông ngoại tôi mất. Hình ảnh ông vẫn luôn hiện hữu trong mắt tôi. Một ông già 86 tuổi quắc thước, da dẻ hồng hào, râu tóc bạc...","image":null,"label":null,"display":"text-only","type":"text","enable_detail":true,"related":{"url":"https://truyenx.link/truyensextv/channels/related/2886","request_headers":[]},"share":{"url":"https://truyenx.link/truyensextv/channels/share/bon-the-he-la-vo-cua-toi"},"remote_data":{"url":"https://truyenx.link/truyensextv/channels/bon-the-he-la-vo-cua-toi"}},{"id":"2885-channel","name":"Âm mưu loạn luân","description":"Gia đình tôi chỉ có 3 người cha mẹ và tôi, cuộc sống của gia đình tôi tới thời điểm này tôi cảm thấy rất mãn nguyện nhưng cũng có những điều không hoàn chỉnh, số phận nào...","image":null,"label":null,"display":"text-only","type":"text","enable_detail":true,"related":{"url":"https://truyenx.link/truyensextv/channels/related/2885","request_headers":[]},"share":{"url":"https://truyenx.link/truyensextv/channels/share/am-muu-loan-luan"},"remote_data":{"url":"https://truyenx.link/truyensextv/channels/am-muu-loan-luan"}},{"id":"2883-channel","name":"Ngoại tình với vợ của chú","description":"Xin giới thiệu 1 chút về bản thân, tôi sinh năm 96, tuổi con chuột, chả biết anh em con chuột tính khí như thế nào nhưng tôi là 1 người khá nhút nhát nhưng dâm ngầm. Cao trên m7 chút...","image":null,"label":null,"display":"text-only","type":"text","enable_detail":true,"related":{"url":"https://truyenx.link/truyensextv/channels/related/2883","request_headers":[]},"share":{"url":"https://truyenx.link/truyensextv/channels/share/ngoai-tinh-voi-vo-cua-chu"},"remote_data":{"url":"https://truyenx.link/truyensextv/channels/ngoai-tinh-voi-vo-cua-chu"}},{"id":"2882-channel","name":"Vợ chồng già dâm dê","description":"Vợ chồng ông bà Dũng và Lan lúc vào tuổi sồn sồn họ lại thích coi phim sex để tìm cảm hứng cho tình dục. Theo chuyên gia tình dục thì người cao tuổi vẫn có tình dục rất tốt...","image":null,"label":null,"display":"text-only","type":"text","enable_detail":true,"related":{"url":"https://truyenx.link/truyensextv/channels/related/2882","request_headers":[]},"share":{"url":"https://truyenx.link/truyensextv/channels/share/vo-chong-gia-dam-de"},"remote_data":{"url":"https://truyenx.link/truyensextv/channels/vo-chong-gia-dam-de"}},{"id":"2881-channel","name":"Mang thai vẫn bị bố địt","description":"Tôi đã mang thai năm tháng, hôm nay về quê thăm bố tôi, bước xuống từ trên xe buýt công cộng, thời tiết mùa hè ở quê tôi thật ngột ngạt và oi bức, mới bước đi được vài...","image":null,"label":null,"display":"text-only","type":"text","enable_detail":true,"related":{"url":"https://truyenx.link/truyensextv/channels/related/2881","request_headers":[]},"share":{"url":"https://truyenx.link/truyensextv/channels/share/mang-thai-van-bi-bo-dit"},"remote_data":{"url":"https://truyenx.link/truyensextv/channels/mang-thai-van-bi-bo-dit"}},{"id":"2880-channel","name":"Tà áo nơi biên cương","description":"Đã gần 10 giờ đêm, sáng mai phải lên đường sớm nhưng Khoa không thể nào chợp mắt được, đôi mắt anh vẫn thao thao nhìn vào ánh đèn ngủ dọi thứ ánh sáng mờ mờ trên tường...","image":null,"label":null,"display":"text-only","type":"text","enable_detail":true,"related":{"url":"https://truyenx.link/truyensextv/channels/related/2880","request_headers":[]},"share":{"url":"https://truyenx.link/truyensextv/channels/share/ta-ao-noi-bien-cuong"},"remote_data":{"url":"https://truyenx.link/truyensextv/channels/ta-ao-noi-bien-cuong"}},{"id":"2879-channel","name":"Bị người yêu cũ bạo dâm tập thể","description":"Kết thúc một buổi chiều như bao ngày. Hùng vội sắp xếp đồ đạc đề ghé qua cơ quan đón Thịnh. Do công việc hành chính nên cặp đôi luôn có thể sắp xếp công việc khá đúng...","image":null,"label":null,"display":"text-only","type":"text","enable_detail":true,"related":{"url":"https://truyenx.link/truyensextv/channels/related/2879","request_headers":[]},"share":{"url":"https://truyenx.link/truyensextv/channels/share/bi-nguoi-yeu-cu-bao-dam-tap-the"},"remote_data":{"url":"https://truyenx.link/truyensextv/channels/bi-nguoi-yeu-cu-bao-dam-tap-the"}},{"id":"2878-channel","name":"Tâm sự của một checker","description":"Tôi vốn con nhà cơ bản, ông bà bố mẹ đều là đảng viên, công chức. Nhà tôi ở 3 thế hệ, ngoài bố mẹ tôi và tôi còn có gia đình ông chú ruột và ông bà nội. Mọi thứ diễn ra...","image":null,"label":null,"display":"text-only","type":"text","enable_detail":true,"related":{"url":"https://truyenx.link/truyensextv/channels/related/2878","request_headers":[]},"share":{"url":"https://truyenx.link/truyensextv/channels/share/tam-su-cua-mot-checker"},"remote_data":{"url":"https://truyenx.link/truyensextv/channels/tam-su-cua-mot-checker"}},{"id":"2877-channel","name":"Xã nhỏ hoan lạc","description":"Tuy mặt trời đã lên đỉnh với tiết trời vào thu nơi xã nhỏ này nó vẫn chưa đến mức oi bức. Nơi đây thời tiết vào thu mang không khí mát dịu khiến con người ta có cảm giác...","image":null,"label":null,"display":"text-only","type":"text","enable_detail":true,"related":{"url":"https://truyenx.link/truyensextv/channels/related/2877","request_headers":[]},"share":{"url":"https://truyenx.link/truyensextv/channels/share/xa-nho-hoan-lac"},"remote_data":{"url":"https://truyenx.link/truyensextv/channels/xa-nho-hoan-lac"}},{"id":"2876-channel","name":"Khi bọt bóng vỡ tan","description":"Bóng lưng cô đơn Anh Nguyễn Đức Huy, anh hãy trình bày một lần nữa quá trình dẫn đến phạm tội của mình. Anh có mối quan hệ thế nào với cô Huỳnh Ngọc Vân Y? Anh Nguyễn Đức...","image":null,"label":null,"display":"text-only","type":"text","enable_detail":true,"related":{"url":"https://truyenx.link/truyensextv/channels/related/2876","request_headers":[]},"share":{"url":"https://truyenx.link/truyensextv/channels/share/khi-bot-bong-vo-tan"},"remote_data":{"url":"https://truyenx.link/truyensextv/channels/khi-bot-bong-vo-tan"}},{"id":"2875-channel","name":"Cho vợ địt với trai trong quán Karaoke","description":"Ngày hôm đó vợ chồng mình hẹn nhau với 1 cặp đang yêu nhau, và cặp đó gọi thêm 1 bạn some của bạn đó theo, tổng sỉ số hôm đó là 5 người. Cả vợ mình và bạn nữ kia đều có...","image":null,"label":null,"display":"text-only","type":"text","enable_detail":true,"related":{"url":"https://truyenx.link/truyensextv/channels/related/2875","request_headers":[]},"share":{"url":"https://truyenx.link/truyensextv/channels/share/cho-vo-dit-voi-trai-trong-quan-karaoke"},"remote_data":{"url":"https://truyenx.link/truyensextv/channels/cho-vo-dit-voi-trai-trong-quan-karaoke"}},{"id":"2874-channel","name":"Trong Loạn Thế","description":"Anh em nhà họ Dương “Quỳnh Nhi à, làm người yêu của tớ nhé!” Trước một cổng trường cấp ba khang trang, tên học sinh nam quỳ gối một chân dưới mặt đất, áo trắng...","image":null,"label":null,"display":"text-only","type":"text","enable_detail":true,"related":{"url":"https://truyenx.link/truyensextv/channels/related/2874","request_headers":[]},"share":{"url":"https://truyenx.link/truyensextv/channels/share/trong-loan-the"},"remote_data":{"url":"https://truyenx.link/truyensextv/channels/trong-loan-the"}},{"id":"2873-channel","name":"Hiếp dâm con gái của dì","description":"Tôi tên là T, năm nay 21 tuổi, cao 1m79. Tướng tá cũng gọi là ok, gương mặt cũng điển trai, công việc ổn định. Trước hết tôi muốn nói đây là câu chuyện có thật, tin hay không thì...","image":null,"label":null,"display":"text-only","type":"text","enable_detail":true,"related":{"url":"https://truyenx.link/truyensextv/channels/related/2873","request_headers":[]},"share":{"url":"https://truyenx.link/truyensextv/channels/share/hiep-dam-con-gai-cua-di"},"remote_data":{"url":"https://truyenx.link/truyensextv/channels/hiep-dam-con-gai-cua-di"}},{"id":"2872-channel","name":"Tình muộn","description":"Trời chiều tháng 5 nắng xuyên quai, thời tiết oi bức không một gợn gió hay bóng mây. Gian phòng bê tông, song sắt bịt bùng hơn 100 mét vuông lúc nhúc thân ảnh. Gần 50 con người nhồi...","image":null,"label":null,"display":"text-only","type":"text","enable_detail":true,"related":{"url":"https://truyenx.link/truyensextv/channels/related/2872","request_headers":[]},"share":{"url":"https://truyenx.link/truyensextv/channels/share/tinh-muon"},"remote_data":{"url":"https://truyenx.link/truyensextv/channels/tinh-muon"}},{"id":"2871-channel","name":"Cho vợ ngủ với trai lạ","description":"Tùng ngồi trên giường, toàn thân hắn đang căng cứng, hơi thở gấp gáp. Hắn nhìn chằm chằm vào cánh cửa nhà tắm. Trong đó, vợ hắn Thu Huyền đang tắm rửa. Bóng nàng in mờ trên...","image":null,"label":null,"display":"text-only","type":"text","enable_detail":true,"related":{"url":"https://truyenx.link/truyensextv/channels/related/2871","request_headers":[]},"share":{"url":"https://truyenx.link/truyensextv/channels/share/cho-vo-ngu-voi-trai-la"},"remote_data":{"url":"https://truyenx.link/truyensextv/channels/cho-vo-ngu-voi-trai-la"}},{"id":"2870-channel","name":"Sờ lồn cô giáo trên xe khách","description":"Xe tải bon bon trên đường quốc lộ hướng thẳng ra ngoài kia, tầng tôi nằm còn dư chỗ và có một bác lớn tuổi nằm bên phía kia, đến Đồng Nào xe dừng đón khách...","image":null,"label":null,"display":"text-only","type":"text","enable_detail":true,"related":{"url":"https://truyenx.link/truyensextv/channels/related/2870","request_headers":[]},"share":{"url":"https://truyenx.link/truyensextv/channels/share/so-lon-co-giao-tren-xe-khach"},"remote_data":{"url":"https://truyenx.link/truyensextv/channels/so-lon-co-giao-tren-xe-khach"}},{"id":"2869-channel","name":"Trang Trang","description":"Logo 3 cánh sao đặc trưng thương hiệu Mercedes của chiếc GLE 450 4Matic dòng SUV rung lắc trên con đường Bến Bình Đông gồ ghề. Trung càm ràm: “Lắm ổ gà thế không biết!”...","image":null,"label":null,"display":"text-only","type":"text","enable_detail":true,"related":{"url":"https://truyenx.link/truyensextv/channels/related/2869","request_headers":[]},"share":{"url":"https://truyenx.link/truyensextv/channels/share/trang-trang"},"remote_data":{"url":"https://truyenx.link/truyensextv/channels/trang-trang"}},{"id":"2868-channel","name":"Chiếc quần bỏ quên","description":"Công ty em quy định một tuần mặc đồng phục áo dài vào Thứ 2 đầu tuần, áo màu trắng quần màu đen cùng màu với logo công ty vừa để thể hiện sự sang trọng, lịch sự vừa mang...","image":null,"label":null,"display":"text-only","type":"text","enable_detail":true,"related":{"url":"https://truyenx.link/truyensextv/channels/related/2868","request_headers":[]},"share":{"url":"https://truyenx.link/truyensextv/channels/share/chiec-quan-bo-quen"},"remote_data":{"url":"https://truyenx.link/truyensextv/channels/chiec-quan-bo-quen"}},{"id":"2867-channel","name":"Xem vợ và con trai loạn luân","description":"Phần Tôi cưng chiều con trai mình vô cùng, vợ tôi cũng vậy, anh ấy muốn gì cũng được, giống như một hoàng đế nhỏ vậy. Tôi không khỏi lo lắng con trai mình nuông chiều thành hư...","image":null,"label":null,"display":"text-only","type":"text","enable_detail":true,"related":{"url":"https://truyenx.link/truyensextv/channels/related/2867","request_headers":[]},"share":{"url":"https://truyenx.link/truyensextv/channels/share/xem-vo-va-con-trai-loan-luan"},"remote_data":{"url":"https://truyenx.link/truyensextv/channels/xem-vo-va-con-trai-loan-luan"}},{"id":"2866-channel","name":"Đồng hồ thần kỳ","description":"Minh là một học sinh lớp 9, học cũng khá tốt, bản tính nhút nhát, rất sợ ba mẹ, nhưng ẩn chứa trong mình là một con quỷ dâm dục đáng sợ. Từ nhỏ Minh đã rất dâm, cũng có thể...","image":null,"label":null,"display":"text-only","type":"text","enable_detail":true,"related":{"url":"https://truyenx.link/truyensextv/channels/related/2866","request_headers":[]},"share":{"url":"https://truyenx.link/truyensextv/channels/share/dong-ho-than-ky"},"remote_data":{"url":"https://truyenx.link/truyensextv/channels/dong-ho-than-ky"}},{"id":"2865-channel","name":"Địt cả hai mẹ con chị vợ","description":"Lúc vợ có bầu, bị nghén khá nhiều nên không tiện đi làm, 2 vợ chồng mới quyết định xin nghỉ về nhà mẹ vợ để dưỡng thai. Nói thêm về vợ chồng mình, mình 36t, vợ 30t, làm...","image":null,"label":null,"display":"text-only","type":"text","enable_detail":true,"related":{"url":"https://truyenx.link/truyensextv/channels/related/2865","request_headers":[]},"share":{"url":"https://truyenx.link/truyensextv/channels/share/dit-ca-hai-me-con-chi-vo"},"remote_data":{"url":"https://truyenx.link/truyensextv/channels/dit-ca-hai-me-con-chi-vo"}},{"id":"2864-channel","name":"Xuyên qua hiện tại","description":"Xuyên Qua Lê Huy là một chàng trai 20 tuổi đẹp trai nhưng độc thân đang theo học tại một trường đại học nào đó. Hai mươi năm chưa một lần được nắm tay bạn gái và con chim thì...","image":null,"label":null,"display":"text-only","type":"text","enable_detail":true,"related":{"url":"https://truyenx.link/truyensextv/channels/related/2864","request_headers":[]},"share":{"url":"https://truyenx.link/truyensextv/channels/share/xuyen-qua-hien-tai"},"remote_data":{"url":"https://truyenx.link/truyensextv/channels/xuyen-qua-hien-tai"}},{"id":"2863-channel","name":"Tôi đã đụ mẹ","description":"Sau thời gian dài suy nghĩ có nên kể ra hay không thì nay em quyết định chia sẻ với anh em câu chuyện của riêng bản thân em, do em chuẩn bị cưới vợ nên muốn kể ra cho nhẹ lòng và...","image":null,"label":null,"display":"text-only","type":"text","enable_detail":true,"related":{"url":"https://truyenx.link/truyensextv/channels/related/2863","request_headers":[]},"share":{"url":"https://truyenx.link/truyensextv/channels/share/toi-da-du-me"},"remote_data":{"url":"https://truyenx.link/truyensextv/channels/toi-da-du-me"}},{"id":"2862-channel","name":"Con gái cô lao công","description":"Sau nhiều năm lăn lộn làm việc cực lực ở nơi thành phố xô bồ thì tôi đã đủ tiền để mua cho mình một căn nhà riêng. Tôi năm nay 28 tuổi. Và vẫn còn độc thân. Với tính chất...","image":null,"label":null,"display":"text-only","type":"text","enable_detail":true,"related":{"url":"https://truyenx.link/truyensextv/channels/related/2862","request_headers":[]},"share":{"url":"https://truyenx.link/truyensextv/channels/share/con-gai-co-lao-cong"},"remote_data":{"url":"https://truyenx.link/truyensextv/channels/con-gai-co-lao-cong"}},{"id":"2861-channel","name":"Kỷ niệm sex buồn cười","description":"Một kỷ niệm khác giờ nhớ lại mình vẫn thấy buồn cười. Tầm đó khoảng năm 2002, người yêu mình mới tốt nghiệp đại học và xin về quê làm việc bỏ mình bơ vơ một mình trên...","image":null,"label":null,"display":"text-only","type":"text","enable_detail":true,"related":{"url":"https://truyenx.link/truyensextv/channels/related/2861","request_headers":[]},"share":{"url":"https://truyenx.link/truyensextv/channels/share/ky-niem-sex-buon-cuoi"},"remote_data":{"url":"https://truyenx.link/truyensextv/channels/ky-niem-sex-buon-cuoi"}},{"id":"2860-channel","name":"Tình nghiện","description":"Hôm nay là sinh nhật lần thứ 22 của Trần Trừng. Đoàn múa Kháp Phùng không biểu diễn, Cả nhóm dưới sự dẫn đầu của đội trưởng Lâm tỷ đi đến Liễu Kiều Thanh, câu lạc bộ...","image":null,"label":null,"display":"text-only","type":"text","enable_detail":true,"related":{"url":"https://truyenx.link/truyensextv/channels/related/2860","request_headers":[]},"share":{"url":"https://truyenx.link/truyensextv/channels/share/tinh-nghien"},"remote_data":{"url":"https://truyenx.link/truyensextv/channels/tinh-nghien"}},{"id":"2859-channel","name":"Những cuộc tình dang dở","description":"Vũ một thằng con trai 20 tuổi, đang học tại 1 trường đại học khá nổi tiếng... Gia thế nhà Vũ chẳng lấy gì làm nghèo khó cả, Bố là chủ tịch tập đoàn xây dựng to vật vã...","image":null,"label":null,"display":"text-only","type":"text","enable_detail":true,"related":{"url":"https://truyenx.link/truyensextv/channels/related/2859","request_headers":[]},"share":{"url":"https://truyenx.link/truyensextv/channels/share/nhung-cuoc-tinh-dang-do"},"remote_data":{"url":"https://truyenx.link/truyensextv/channels/nhung-cuoc-tinh-dang-do"}}],"load_more":{"pageInfo":{"current_page":64,"last_page":140,"per_page":30,"total":4188},"paging":{"page_key":"page","size_key":"size"},"remote_data":{"url":"https://truyenx.link/truyensextv/channels"}}}