{
  "grid_number": 1,
  "channels": [
    {
      "id": "3429-channel",
      "name": "Chịch em sinh viên trong xóm trọ",
      "description": "Lâu lâu không vào truyensextv2.cc, mình ké 1 chuyện cũng cách đây 2 3 tháng rồi. Chuyện là mình nhảy việc, công việc mới lại ở gần trường học thời sinh viên, thế là quay về xóm...",
      "image": null,
      "label": null,
      "display": "text-only",
      "type": "text",
      "enable_detail": true,
      "related": {
        "url": "https://truyenx.link/truyensextv/channels/related/3429",
        "request_headers": []
      },
      "share": {
        "url": "https://truyenx.link/truyensextv/channels/share/chich-em-sinh-vien-trong-xom-tro"
      },
      "remote_data": {
        "url": "https://truyenx.link/truyensextv/channels/chich-em-sinh-vien-trong-xom-tro"
      }
    },
    {
      "id": "3428-channel",
      "name": "Thần giáo",
      "description": "Thuở Ấu Thơ... Vào thế kỷ thứ 17, nước Đại Việt được chia làm hai phần, đàng Trong và Đàng Ngoài. Đàng ngoài thuộc Chúa Trịnh, đàng Trong thuộc Chúa Nguyễn. Hai bên chiến tranh...",
      "image": null,
      "label": null,
      "display": "text-only",
      "type": "text",
      "enable_detail": true,
      "related": {
        "url": "https://truyenx.link/truyensextv/channels/related/3428",
        "request_headers": []
      },
      "share": {
        "url": "https://truyenx.link/truyensextv/channels/share/than-giao"
      },
      "remote_data": {
        "url": "https://truyenx.link/truyensextv/channels/than-giao"
      }
    },
    {
      "id": "3427-channel",
      "name": "Cô bạn thân khác giới",
      "description": "Cô bạn này thì không thật xinh nhưng khá duyên và đảm đang nên cũng được rất nhiều người theo đuổi nhưng lạ là không thật sự yêu ai mà chỉ có thể gọi là hay đi chơi với 1...",
      "image": null,
      "label": null,
      "display": "text-only",
      "type": "text",
      "enable_detail": true,
      "related": {
        "url": "https://truyenx.link/truyensextv/channels/related/3427",
        "request_headers": []
      },
      "share": {
        "url": "https://truyenx.link/truyensextv/channels/share/co-ban-than-khac-gioi"
      },
      "remote_data": {
        "url": "https://truyenx.link/truyensextv/channels/co-ban-than-khac-gioi"
      }
    },
    {
      "id": "3426-channel",
      "name": "Đào tạo dâm nữ",
      "description": "Sáng nay ngắm hoa nở, ngoài kia gió xuân về Dưới ánh chiều tà lấp lánh, một căn biệt thự rực rỡ, hoa cỏ trổ bông, tạo nên cảnh tượng thơ mộng đẹp đẽ cả sắc cả hương...",
      "image": null,
      "label": null,
      "display": "text-only",
      "type": "text",
      "enable_detail": true,
      "related": {
        "url": "https://truyenx.link/truyensextv/channels/related/3426",
        "request_headers": []
      },
      "share": {
        "url": "https://truyenx.link/truyensextv/channels/share/dao-tao-dam-nu"
      },
      "remote_data": {
        "url": "https://truyenx.link/truyensextv/channels/dao-tao-dam-nu"
      }
    },
    {
      "id": "3425-channel",
      "name": "Tình đầu và Tình cuối",
      "description": "Là sinh viên năm III ĐHBK, với số tiền trợ cấp ít ỏi của gia đình. Tôi vật lộn với mọi công việc để có thêm tiền trang trải, từ phụ hồ cho đến bưng bê rửa chén bát cho...",
      "image": null,
      "label": null,
      "display": "text-only",
      "type": "text",
      "enable_detail": true,
      "related": {
        "url": "https://truyenx.link/truyensextv/channels/related/3425",
        "request_headers": []
      },
      "share": {
        "url": "https://truyenx.link/truyensextv/channels/share/tinh-dau-va-tinh-cuoi"
      },
      "remote_data": {
        "url": "https://truyenx.link/truyensextv/channels/tinh-dau-va-tinh-cuoi"
      }
    },
    {
      "id": "3424-channel",
      "name": "Mầm sống một cuộc tình",
      "description": "Mỗi lần anh nằm trên bụng để tôi được ôm anh trong vòng tay là khi tôi được xâu chuỗi tình yêu của chúng tôi thành một vòng hạt tròn căng, trơn tru của niềm hạnh phúc. Cảm ơn...",
      "image": null,
      "label": null,
      "display": "text-only",
      "type": "text",
      "enable_detail": true,
      "related": {
        "url": "https://truyenx.link/truyensextv/channels/related/3424",
        "request_headers": []
      },
      "share": {
        "url": "https://truyenx.link/truyensextv/channels/share/mam-song-mot-cuoc-tinh"
      },
      "remote_data": {
        "url": "https://truyenx.link/truyensextv/channels/mam-song-mot-cuoc-tinh"
      }
    },
    {
      "id": "3423-channel",
      "name": "Lạc vào Đảo Nữ Thần",
      "description": "Ah... ah... Chị àh, liếm nữa, ah... ah liếm nữa... em sướng... Một nơi nào đó, một nơi sự thật xinh đẹp. Hai cô gái đang tự sướng cho nhau. Ah... sướng quá chị ơi... chị ơi... em...",
      "image": null,
      "label": null,
      "display": "text-only",
      "type": "text",
      "enable_detail": true,
      "related": {
        "url": "https://truyenx.link/truyensextv/channels/related/3423",
        "request_headers": []
      },
      "share": {
        "url": "https://truyenx.link/truyensextv/channels/share/lac-vao-dao-nu-than"
      },
      "remote_data": {
        "url": "https://truyenx.link/truyensextv/channels/lac-vao-dao-nu-than"
      }
    },
    {
      "id": "3422-channel",
      "name": "Gia đình nhà cô Lan",
      "description": "Vào buổi sáng, Lan nhàn nhã thức dậy, mở đôi mắt buồn ngủ và thấy rằng đã sáu giờ ba mươi. Xong cô sang phòng con trai, với đôi tay mảnh khảnh, cô nhẹ nhàng đẩy đứa con trai...",
      "image": null,
      "label": null,
      "display": "text-only",
      "type": "text",
      "enable_detail": true,
      "related": {
        "url": "https://truyenx.link/truyensextv/channels/related/3422",
        "request_headers": []
      },
      "share": {
        "url": "https://truyenx.link/truyensextv/channels/share/gia-dinh-nha-co-lan"
      },
      "remote_data": {
        "url": "https://truyenx.link/truyensextv/channels/gia-dinh-nha-co-lan"
      }
    },
    {
      "id": "3421-channel",
      "name": "Chị gái Hải Phòng",
      "description": "Năm 2018 mình làm việc ở Hải Phòng, gần văn phòng có chị gái sn81 trước làm đa cấp, lão chồng tính hay ghen nên bắt về mở quán ăn sáng gần nhà. Lão chồng nhìn bặm trợn xăm trổ...",
      "image": null,
      "label": null,
      "display": "text-only",
      "type": "text",
      "enable_detail": true,
      "related": {
        "url": "https://truyenx.link/truyensextv/channels/related/3421",
        "request_headers": []
      },
      "share": {
        "url": "https://truyenx.link/truyensextv/channels/share/chi-gai-hai-phong"
      },
      "remote_data": {
        "url": "https://truyenx.link/truyensextv/channels/chi-gai-hai-phong"
      }
    },
    {
      "id": "3420-channel",
      "name": "Nghiện thị dâm",
      "description": "Một đứa con gái nghiện thị dâm như em, thi thoảng cũng phô dâm lại may mắn hay bắt gặp những cảnh phô dâm hết sức nứng lồn... Trước tiên, mọi người nên biết được phô dâm...",
      "image": null,
      "label": null,
      "display": "text-only",
      "type": "text",
      "enable_detail": true,
      "related": {
        "url": "https://truyenx.link/truyensextv/channels/related/3420",
        "request_headers": []
      },
      "share": {
        "url": "https://truyenx.link/truyensextv/channels/share/nghien-thi-dam"
      },
      "remote_data": {
        "url": "https://truyenx.link/truyensextv/channels/nghien-thi-dam"
      }
    },
    {
      "id": "3419-channel",
      "name": "Hai cô người yêu trong cùng một phòng trọ",
      "description": "2004 em quen một đứa ở làng đại học TD. Cũng như bao cặp đôi khác, yêu nhau rồi đụ nhau bất kể . Khổ nỗi thời đó nửa không có tiền, nửa máu me nên đôi lúc hai đứa làm luôn...",
      "image": null,
      "label": null,
      "display": "text-only",
      "type": "text",
      "enable_detail": true,
      "related": {
        "url": "https://truyenx.link/truyensextv/channels/related/3419",
        "request_headers": []
      },
      "share": {
        "url": "https://truyenx.link/truyensextv/channels/share/hai-co-nguoi-yeu-trong-cung-mot-phong-tro"
      },
      "remote_data": {
        "url": "https://truyenx.link/truyensextv/channels/hai-co-nguoi-yeu-trong-cung-mot-phong-tro"
      }
    },
    {
      "id": "3418-channel",
      "name": "Bác Nhung",
      "description": "Thân chào các Bạn! Mình thì rất hay đọc các mẩu chuyện có nội dung loạn luân rất nhiều lần. Lần này mình xin kể cho các bạn nghe một câu chuyện thật 100% và nó xảy ra với mình...",
      "image": null,
      "label": null,
      "display": "text-only",
      "type": "text",
      "enable_detail": true,
      "related": {
        "url": "https://truyenx.link/truyensextv/channels/related/3418",
        "request_headers": []
      },
      "share": {
        "url": "https://truyenx.link/truyensextv/channels/share/bac-nhung"
      },
      "remote_data": {
        "url": "https://truyenx.link/truyensextv/channels/bac-nhung"
      }
    },
    {
      "id": "3417-channel",
      "name": "Bị bạo dâm",
      "description": "Tôi có con bạn tên Tâm nó làm điều dưỡng trong một bệnh viện lớn có tiếng ở Tỉnh. Chồng của nó làm công an, cũng là vị trí trưởng phòng ban ở huyện. Chơi thân với nó cũng...",
      "image": null,
      "label": null,
      "display": "text-only",
      "type": "text",
      "enable_detail": true,
      "related": {
        "url": "https://truyenx.link/truyensextv/channels/related/3417",
        "request_headers": []
      },
      "share": {
        "url": "https://truyenx.link/truyensextv/channels/share/bi-bao-dam"
      },
      "remote_data": {
        "url": "https://truyenx.link/truyensextv/channels/bi-bao-dam"
      }
    },
    {
      "id": "3416-channel",
      "name": "Lan Ngựa",
      "description": "Mặt trời sắp sửa lặn, cả thành phố đã đồng loạt sáng đèn như để chuẩn bị cho một đêm cuối tuần thật rộn rịp. Lan đứng trước tấm gương lớn, hết xoay bên phải xong...",
      "image": null,
      "label": null,
      "display": "text-only",
      "type": "text",
      "enable_detail": true,
      "related": {
        "url": "https://truyenx.link/truyensextv/channels/related/3416",
        "request_headers": []
      },
      "share": {
        "url": "https://truyenx.link/truyensextv/channels/share/lan-ngua"
      },
      "remote_data": {
        "url": "https://truyenx.link/truyensextv/channels/lan-ngua"
      }
    },
    {
      "id": "3415-channel",
      "name": "Địt chị chủ nhà",
      "description": "Hồi tôi làm bên Đông Anh, thuê nhà bà chị trong thôn NC làm văn phòng, anh em ăn ở và làm việc tại đây luôn. Nhà chị dọn sang căn cấp 4 cũ bên cạnh để ở, còn nhà mới cho thuê...",
      "image": null,
      "label": null,
      "display": "text-only",
      "type": "text",
      "enable_detail": true,
      "related": {
        "url": "https://truyenx.link/truyensextv/channels/related/3415",
        "request_headers": []
      },
      "share": {
        "url": "https://truyenx.link/truyensextv/channels/share/dit-chi-chu-nha"
      },
      "remote_data": {
        "url": "https://truyenx.link/truyensextv/channels/dit-chi-chu-nha"
      }
    },
    {
      "id": "3414-channel",
      "name": "Chuyện tình với đồng nghiệp",
      "description": "Năm ấy tôi 23 tuổi, tốt nghiệp Đại học Bách khoa, ra trường là có việc đúng chuyên ngành ngay, một niềm mơ ước với phần đông sinh viên thời đó. Khi ấy Công ty về tận...",
      "image": null,
      "label": null,
      "display": "text-only",
      "type": "text",
      "enable_detail": true,
      "related": {
        "url": "https://truyenx.link/truyensextv/channels/related/3414",
        "request_headers": []
      },
      "share": {
        "url": "https://truyenx.link/truyensextv/channels/share/chuyen-tinh-voi-dong-nghiep"
      },
      "remote_data": {
        "url": "https://truyenx.link/truyensextv/channels/chuyen-tinh-voi-dong-nghiep"
      }
    },
    {
      "id": "3413-channel",
      "name": "Cách biệt tuổi tác",
      "description": "Hạnh ngồi nhìn hoàng hôn đang tỏa xuống chân trời biển mà lòng thấy hoang mang vô vàng. Nàng nhớ lại những gì mà chị nàng vừa trao đổi với nàng hồi nẩy... Hạnh đã gần 40...",
      "image": null,
      "label": null,
      "display": "text-only",
      "type": "text",
      "enable_detail": true,
      "related": {
        "url": "https://truyenx.link/truyensextv/channels/related/3413",
        "request_headers": []
      },
      "share": {
        "url": "https://truyenx.link/truyensextv/channels/share/cach-biet-tuoi-tac"
      },
      "remote_data": {
        "url": "https://truyenx.link/truyensextv/channels/cach-biet-tuoi-tac"
      }
    },
    {
      "id": "3411-channel",
      "name": "Con đường quan lộ",
      "description": "TRÊN XE KHÁCH Trên chuyến xe đò đi tới xã Hòa Bình, Lương Thần mở to mắt hết cỡ say sưa nhìn ra ngoài cửa sổ. Mặc dù một đêm không chợp mắt nhưng hắn không có vẻ gì là mệt...",
      "image": null,
      "label": null,
      "display": "text-only",
      "type": "text",
      "enable_detail": true,
      "related": {
        "url": "https://truyenx.link/truyensextv/channels/related/3411",
        "request_headers": []
      },
      "share": {
        "url": "https://truyenx.link/truyensextv/channels/share/con-duong-quan-lo"
      },
      "remote_data": {
        "url": "https://truyenx.link/truyensextv/channels/con-duong-quan-lo"
      }
    },
    {
      "id": "3412-channel",
      "name": "Con gái đẻ con cho bố",
      "description": "Con gái vị thành niên bị bố phá trinh Ở cái xóm này không ai là không biết ông Tuấn. Ông ta nổi tiếng không phải vì tài hoa xuất chúng mà là vì sự quậy phá, tính cách nóng nảy...",
      "image": null,
      "label": null,
      "display": "text-only",
      "type": "text",
      "enable_detail": true,
      "related": {
        "url": "https://truyenx.link/truyensextv/channels/related/3412",
        "request_headers": []
      },
      "share": {
        "url": "https://truyenx.link/truyensextv/channels/share/con-gai-de-con-cho-bo"
      },
      "remote_data": {
        "url": "https://truyenx.link/truyensextv/channels/con-gai-de-con-cho-bo"
      }
    },
    {
      "id": "3410-channel",
      "name": "Lão dê già và những em sugarbaby dâm đãng",
      "description": "Lão Hoàng quan hệ với hai cô em 20 tuổi vú 95 và 90 Chát... mông Thủy trắng mịn mà to tròn nhỉ chắc cũng phải 92, to hơn cái Lan nhỉ... Lão Hoàng cười đầy dâm đãng, đang chơi doggy...",
      "image": null,
      "label": null,
      "display": "text-only",
      "type": "text",
      "enable_detail": true,
      "related": {
        "url": "https://truyenx.link/truyensextv/channels/related/3410",
        "request_headers": []
      },
      "share": {
        "url": "https://truyenx.link/truyensextv/channels/share/lao-de-gia-va-nhung-em-sugarbaby-dam-dang"
      },
      "remote_data": {
        "url": "https://truyenx.link/truyensextv/channels/lao-de-gia-va-nhung-em-sugarbaby-dam-dang"
      }
    },
    {
      "id": "3409-channel",
      "name": "Lớp học làm tình",
      "description": "Nhóm chúng tôi gồm có 5 đứa cùng học chung một lớp 11A4. Đầu tiên là tôi, tên Long, kế đến là Ngọc, Tâm, Tú, Trác. Chúng tôi thường hay tập trung ở nhà Trác. Đó là một căn...",
      "image": null,
      "label": null,
      "display": "text-only",
      "type": "text",
      "enable_detail": true,
      "related": {
        "url": "https://truyenx.link/truyensextv/channels/related/3409",
        "request_headers": []
      },
      "share": {
        "url": "https://truyenx.link/truyensextv/channels/share/lop-hoc-lam-tinh"
      },
      "remote_data": {
        "url": "https://truyenx.link/truyensextv/channels/lop-hoc-lam-tinh"
      }
    },
    {
      "id": "3408-channel",
      "name": "Người vợ bị bỏ rơi",
      "description": "Trong căn nhà im lặng, tiếng đồng hồ nhấp nháy mỗi giây, như là một kỷ niệm về thời gian đang trôi qua không dừng lại. Trong căn phòng khép kín, ánh sáng mờ nhạt từ bên ngoài...",
      "image": null,
      "label": null,
      "display": "text-only",
      "type": "text",
      "enable_detail": true,
      "related": {
        "url": "https://truyenx.link/truyensextv/channels/related/3408",
        "request_headers": []
      },
      "share": {
        "url": "https://truyenx.link/truyensextv/channels/share/nguoi-vo-bi-bo-roi"
      },
      "remote_data": {
        "url": "https://truyenx.link/truyensextv/channels/nguoi-vo-bi-bo-roi"
      }
    },
    {
      "id": "3407-channel",
      "name": "Truyện cô giáo Thu",
      "description": "Thái bình, ngày 23 tháng 3 năm 2013. Mùa xuân của Việt Nam, tất cả mọi vật hòa mình vào không khi vui tươi rộn rã của mùa xuân, hào vào không khí vui nhộn ấy, Thu một cô giáo viên...",
      "image": null,
      "label": null,
      "display": "text-only",
      "type": "text",
      "enable_detail": true,
      "related": {
        "url": "https://truyenx.link/truyensextv/channels/related/3407",
        "request_headers": []
      },
      "share": {
        "url": "https://truyenx.link/truyensextv/channels/share/truyen-co-giao-thu"
      },
      "remote_data": {
        "url": "https://truyenx.link/truyensextv/channels/truyen-co-giao-thu"
      }
    },
    {
      "id": "3406-channel",
      "name": "Thèm muốn tội lỗi",
      "description": "Trời ơi cái thằng này, mấy giờ rồi mà còn chưa dậy đi học? Ngân đi lên cầu thang vào phòng thằng con trai vừa lẩm bẩm. Ruỳnh Ruỳnh... Dậy đi học đi Tùng ơiiii!! Mẹ để bánh...",
      "image": null,
      "label": null,
      "display": "text-only",
      "type": "text",
      "enable_detail": true,
      "related": {
        "url": "https://truyenx.link/truyensextv/channels/related/3406",
        "request_headers": []
      },
      "share": {
        "url": "https://truyenx.link/truyensextv/channels/share/them-muon-toi-loi"
      },
      "remote_data": {
        "url": "https://truyenx.link/truyensextv/channels/them-muon-toi-loi"
      }
    },
    {
      "id": "3405-channel",
      "name": "Cho ba đụ vợ mình",
      "description": "Tôi tên Vương Quốc Trung, 30 tuổi, có một người vợ xinh đẹp, một đứa con trai 3 tuổi cực đáng yêu. Mẹ tôi qua đời vì bệnh ung thư năm tôi 26 tuổi lúc đó tôi còn chưa kết...",
      "image": null,
      "label": null,
      "display": "text-only",
      "type": "text",
      "enable_detail": true,
      "related": {
        "url": "https://truyenx.link/truyensextv/channels/related/3405",
        "request_headers": []
      },
      "share": {
        "url": "https://truyenx.link/truyensextv/channels/share/cho-ba-du-vo-minh"
      },
      "remote_data": {
        "url": "https://truyenx.link/truyensextv/channels/cho-ba-du-vo-minh"
      }
    },
    {
      "id": "3404-channel",
      "name": "Ký ức ngọt ngào",
      "description": "Từng giọt cà phê đen nhánh nhỏ tí tách xuống cái lớp sữa trắng ngà dưới cái tách cà phê. Ngồi mơ màng nhìn cơn mưa rào đang xối xả xuống mặt đường. Suy nghĩ vẩn vơ với...",
      "image": null,
      "label": null,
      "display": "text-only",
      "type": "text",
      "enable_detail": true,
      "related": {
        "url": "https://truyenx.link/truyensextv/channels/related/3404",
        "request_headers": []
      },
      "share": {
        "url": "https://truyenx.link/truyensextv/channels/share/ky-uc-ngot-ngao"
      },
      "remote_data": {
        "url": "https://truyenx.link/truyensextv/channels/ky-uc-ngot-ngao"
      }
    },
    {
      "id": "3403-channel",
      "name": "Dì họ",
      "description": "Dì này là em họ của mẹ em, hơn mẹ em 1 tuổi, vì dì lấy chồng ở gần nhà em với do 2 gia đình gần gũi nhau nên ông bà ngoại em coi dì như con ruột, em coi như dì ruột của em. Dì...",
      "image": null,
      "label": null,
      "display": "text-only",
      "type": "text",
      "enable_detail": true,
      "related": {
        "url": "https://truyenx.link/truyensextv/channels/related/3403",
        "request_headers": []
      },
      "share": {
        "url": "https://truyenx.link/truyensextv/channels/share/di-ho"
      },
      "remote_data": {
        "url": "https://truyenx.link/truyensextv/channels/di-ho"
      }
    },
    {
      "id": "3402-channel",
      "name": "Bà trẻ",
      "description": "Em dậy thì rất sớm, 11t khoảng hè lớp 5 lên lớp 6 là em đã dậy thì, có giấc mơ ướt, đổi giọng, mọc lông ciu, phát triển đủ hết và đi học lớp 6 em thuộc dạng lớn nhất...",
      "image": null,
      "label": null,
      "display": "text-only",
      "type": "text",
      "enable_detail": true,
      "related": {
        "url": "https://truyenx.link/truyensextv/channels/related/3402",
        "request_headers": []
      },
      "share": {
        "url": "https://truyenx.link/truyensextv/channels/share/ba-tre"
      },
      "remote_data": {
        "url": "https://truyenx.link/truyensextv/channels/ba-tre"
      }
    },
    {
      "id": "3401-channel",
      "name": "Vẻ đẹp Thúy Kiều",
      "description": "Chuyện cách đây vài năm về trước. Sau khi vượt qua đợt thi tuyển sinh, tôi đã đậu vào ngôi trường được cho là lấy điểm cao nhất. Tuy không phải trường chuyên, nhưng đây là...",
      "image": null,
      "label": null,
      "display": "text-only",
      "type": "text",
      "enable_detail": true,
      "related": {
        "url": "https://truyenx.link/truyensextv/channels/related/3401",
        "request_headers": []
      },
      "share": {
        "url": "https://truyenx.link/truyensextv/channels/share/ve-dep-thuy-kieu"
      },
      "remote_data": {
        "url": "https://truyenx.link/truyensextv/channels/ve-dep-thuy-kieu"
      }
    },
    {
      "id": "3400-channel",
      "name": "Câu chuyện gia đình",
      "description": "Dẫn sói về nhà Ủa?! Thiện, nhớ tao không mày? Nghe thấy có ai đó gọi tên mình, tôi ngước mặt lên nhìn và chợt giật nảy như thể có một dòng điện đang chạy dọc sống lưng...",
      "image": null,
      "label": null,
      "display": "text-only",
      "type": "text",
      "enable_detail": true,
      "related": {
        "url": "https://truyenx.link/truyensextv/channels/related/3400",
        "request_headers": []
      },
      "share": {
        "url": "https://truyenx.link/truyensextv/channels/share/cau-chuyen-gia-dinh"
      },
      "remote_data": {
        "url": "https://truyenx.link/truyensextv/channels/cau-chuyen-gia-dinh"
      }
    }
  ],
  "load_more": {
    "pageInfo": {
      "current_page": 46,
      "last_page": 140,
      "per_page": 30,
      "total": 4188
    },
    "paging": {
      "page_key": "page",
      "size_key": "size"
    },
    "remote_data": {
      "url": "https://truyenx.link/truyensextv/channels"
    }
  }
}