{
  "grid_number": 1,
  "channels": [
    {
      "id": "2305-channel",
      "name": "Tôi - người chị dâu thèm khát",
      "description": "Tôi là người con gái 27 tuổi đã có chồng con, như những bao gia đình nhỏ khác chúng tôi sống đầy yêu thương. Chúng tôi thì ở chung với ba mẹ, còn nhỏ em tôi thì có chồng trên...",
      "image": null,
      "label": null,
      "display": "text-only",
      "type": "text",
      "enable_detail": true,
      "related": {
        "url": "https://truyenx.link/truyensextv/channels/related/2305",
        "request_headers": []
      },
      "share": {
        "url": "https://truyenx.link/truyensextv/channels/share/toi-nguoi-chi-dau-them-khat"
      },
      "remote_data": {
        "url": "https://truyenx.link/truyensextv/channels/toi-nguoi-chi-dau-them-khat"
      }
    },
    {
      "id": "2304-channel",
      "name": "Đụ thầy giáo bạo dâm",
      "description": "2 tháng trước trường tôi vừa có đợt thay giáo viên mới, lúc mới gặp thì tôi đã chú ý đến anh. Thầy An là giáo viên từ Sài Gòn về, anh ta dạy lớp tôi môn là Sử với Sinh. Mà...",
      "image": null,
      "label": null,
      "display": "text-only",
      "type": "text",
      "enable_detail": true,
      "related": {
        "url": "https://truyenx.link/truyensextv/channels/related/2304",
        "request_headers": []
      },
      "share": {
        "url": "https://truyenx.link/truyensextv/channels/share/du-thay-giao-bao-dam"
      },
      "remote_data": {
        "url": "https://truyenx.link/truyensextv/channels/du-thay-giao-bao-dam"
      }
    },
    {
      "id": "2303-channel",
      "name": "Mợ! Anh yêu em",
      "description": "Câu chuyện của tôi xảy ra cách đây 5 năm, lúc đó tôi 17 tuổi. Vào cái tuổi đẹp nhất của cuộc đời, tôi đã có những ngày tháng không thể quên với chính người mợ của mình...",
      "image": null,
      "label": null,
      "display": "text-only",
      "type": "text",
      "enable_detail": true,
      "related": {
        "url": "https://truyenx.link/truyensextv/channels/related/2303",
        "request_headers": []
      },
      "share": {
        "url": "https://truyenx.link/truyensextv/channels/share/mo-anh-yeu-em"
      },
      "remote_data": {
        "url": "https://truyenx.link/truyensextv/channels/mo-anh-yeu-em"
      }
    },
    {
      "id": "2302-channel",
      "name": "Ác quỷ báo thù",
      "description": "Mẹ ơi... Bố ơi... Đừng bỏ con mà... Đừng ngủ nữa mà... Nhà mình cháy rồi bố ơi, mẹ ơi nóng lắm... Hai người đừng đùa con nữa mà... Đừng mà... Tiếng gào khóc thảm thiết...",
      "image": null,
      "label": null,
      "display": "text-only",
      "type": "text",
      "enable_detail": true,
      "related": {
        "url": "https://truyenx.link/truyensextv/channels/related/2302",
        "request_headers": []
      },
      "share": {
        "url": "https://truyenx.link/truyensextv/channels/share/ac-quy-bao-thu"
      },
      "remote_data": {
        "url": "https://truyenx.link/truyensextv/channels/ac-quy-bao-thu"
      }
    },
    {
      "id": "2301-channel",
      "name": "Từ chat sex tới con đĩ miễn phí",
      "description": "Chuyện là thời buổi dịch bệnh, nên ở nhà cũng nhàm chán. Mình là nam, 2k, đã có người yêu rồi nhưng khổ là dịch cách ly nên không đi đâu hay chịch xoạc gì được. Thế là qua...",
      "image": null,
      "label": null,
      "display": "text-only",
      "type": "text",
      "enable_detail": true,
      "related": {
        "url": "https://truyenx.link/truyensextv/channels/related/2301",
        "request_headers": []
      },
      "share": {
        "url": "https://truyenx.link/truyensextv/channels/share/tu-chat-sex-toi-con-di-mien-phi"
      },
      "remote_data": {
        "url": "https://truyenx.link/truyensextv/channels/tu-chat-sex-toi-con-di-mien-phi"
      }
    },
    {
      "id": "2300-channel",
      "name": "Nam sinh 12 và hành trình đi săn",
      "description": "Vô tình nhặt được bí kíp Tôi tên Dũng là học sinh lớp 12, vẻ ngoài tạm được, cuộc sống xoay quanh game và học hành. Trong lớp tôi đc cái là người vui vẻ hòa đồng và cũng là...",
      "image": null,
      "label": null,
      "display": "text-only",
      "type": "text",
      "enable_detail": true,
      "related": {
        "url": "https://truyenx.link/truyensextv/channels/related/2300",
        "request_headers": []
      },
      "share": {
        "url": "https://truyenx.link/truyensextv/channels/share/nam-sinh-12-va-hanh-trinh-di-san"
      },
      "remote_data": {
        "url": "https://truyenx.link/truyensextv/channels/nam-sinh-12-va-hanh-trinh-di-san"
      }
    },
    {
      "id": "2299-channel",
      "name": "Mùa dịch covid",
      "description": "Dịch bệnh này chắc có nhiều bạn đọc bị mắc kẹt lại không về quê được nhỉ? Mình cũng đang bị kẹt lại không thể về nhà được. Mình hiện tại đang là sinh viên năm cuối...",
      "image": null,
      "label": null,
      "display": "text-only",
      "type": "text",
      "enable_detail": true,
      "related": {
        "url": "https://truyenx.link/truyensextv/channels/related/2299",
        "request_headers": []
      },
      "share": {
        "url": "https://truyenx.link/truyensextv/channels/share/mua-dich-covid"
      },
      "remote_data": {
        "url": "https://truyenx.link/truyensextv/channels/mua-dich-covid"
      }
    },
    {
      "id": "2298-channel",
      "name": "Em nữ tù",
      "description": "Tôi 1 học viên của trường cảnh sát. Sau khi tốt nghiệp do không có điều kiện để lo về công tác gần nhà nên bị đẩy đi đến 1 trại tạm giam ở vùng quê hẻo lánh... Sau khi về...",
      "image": null,
      "label": null,
      "display": "text-only",
      "type": "text",
      "enable_detail": true,
      "related": {
        "url": "https://truyenx.link/truyensextv/channels/related/2298",
        "request_headers": []
      },
      "share": {
        "url": "https://truyenx.link/truyensextv/channels/share/em-nu-tu"
      },
      "remote_data": {
        "url": "https://truyenx.link/truyensextv/channels/em-nu-tu"
      }
    },
    {
      "id": "2297-channel",
      "name": "Con riêng của vợ",
      "description": "Tôi 30 tuổi, lấy vợ đã có một đời chồng và con gái. Con gái nàng tên Thu 14 tuổi, trẻ mà dâm đãng vô độ. Đây là toàn bộ câu chuyện có thật của tôi và con riêng của vợ. Lần...",
      "image": null,
      "label": null,
      "display": "text-only",
      "type": "text",
      "enable_detail": true,
      "related": {
        "url": "https://truyenx.link/truyensextv/channels/related/2297",
        "request_headers": []
      },
      "share": {
        "url": "https://truyenx.link/truyensextv/channels/share/con-rieng-cua-vo"
      },
      "remote_data": {
        "url": "https://truyenx.link/truyensextv/channels/con-rieng-cua-vo"
      }
    },
    {
      "id": "2296-channel",
      "name": "Mẹ thích làm tình",
      "description": "Mẹ tôi tuy năm nay đã ngoài 50, nhưng nhờ những bài tập yoga với tập luyện gym nên nhìn mẹ trông không khác gì gái 30. Nước da trắng hồng, vú mẹ rất to nhưng mẹ rất thích thả...",
      "image": null,
      "label": null,
      "display": "text-only",
      "type": "text",
      "enable_detail": true,
      "related": {
        "url": "https://truyenx.link/truyensextv/channels/related/2296",
        "request_headers": []
      },
      "share": {
        "url": "https://truyenx.link/truyensextv/channels/share/me-thich-lam-tinh"
      },
      "remote_data": {
        "url": "https://truyenx.link/truyensextv/channels/me-thich-lam-tinh"
      }
    },
    {
      "id": "2295-channel",
      "name": "Chuyện chàng sinh viên",
      "description": "Khi cầm trên tay tấm giấy báo đậu đại học kiến trúc, thằng Lâm mừng muốn rơi nước mắt, nó chạy từ trường về nhà mà miệng không ngừng la lớn, nó muốn mọi người đều...",
      "image": null,
      "label": null,
      "display": "text-only",
      "type": "text",
      "enable_detail": true,
      "related": {
        "url": "https://truyenx.link/truyensextv/channels/related/2295",
        "request_headers": []
      },
      "share": {
        "url": "https://truyenx.link/truyensextv/channels/share/chuyen-chang-sinh-vien"
      },
      "remote_data": {
        "url": "https://truyenx.link/truyensextv/channels/chuyen-chang-sinh-vien"
      }
    },
    {
      "id": "2294-channel",
      "name": "Kể về mẹ ruột",
      "description": "Câu chuyện này xảy ra năm 2017, khi ấy bố tôi vừa mất được gần tuần. Mẹ tôi khi ấy mới 37 tuổi, rất đau buồn khi bố tôi mất. Tôi đã đưa mẹ đi khám bác sĩ tâm lý thì chỉ...",
      "image": null,
      "label": null,
      "display": "text-only",
      "type": "text",
      "enable_detail": true,
      "related": {
        "url": "https://truyenx.link/truyensextv/channels/related/2294",
        "request_headers": []
      },
      "share": {
        "url": "https://truyenx.link/truyensextv/channels/share/ke-ve-me-ruot"
      },
      "remote_data": {
        "url": "https://truyenx.link/truyensextv/channels/ke-ve-me-ruot"
      }
    },
    {
      "id": "2293-channel",
      "name": "Tình dục & tuổi trẻ của tôi",
      "description": "Tôi xin được kể ở đây cuộc sống tình dục của tôi từ lúc 15 tuổi cho đến khi xong Đại Học. Có thể có đọc giả sẽ phê phán tôi là đồi trụy, là vô tâm, chỉ biết nghĩ...",
      "image": null,
      "label": null,
      "display": "text-only",
      "type": "text",
      "enable_detail": true,
      "related": {
        "url": "https://truyenx.link/truyensextv/channels/related/2293",
        "request_headers": []
      },
      "share": {
        "url": "https://truyenx.link/truyensextv/channels/share/tinh-duc-and-tuoi-tre-cua-toi"
      },
      "remote_data": {
        "url": "https://truyenx.link/truyensextv/channels/tinh-duc-and-tuoi-tre-cua-toi"
      }
    },
    {
      "id": "2292-channel",
      "name": "Thế Lực Triệu Hoán Vô Hạn",
      "description": "Một không gian, tối tăm, lạnh lẽo, cô đơn, nếu có người ở nơi này sẽ cảm giác muốn tự sát để trốn tránh sự cô đơn, thế nhưng một đốm sáng, một bào thai, một con người...",
      "image": null,
      "label": null,
      "display": "text-only",
      "type": "text",
      "enable_detail": true,
      "related": {
        "url": "https://truyenx.link/truyensextv/channels/related/2292",
        "request_headers": []
      },
      "share": {
        "url": "https://truyenx.link/truyensextv/channels/share/the-luc-trieu-hoan-vo-han"
      },
      "remote_data": {
        "url": "https://truyenx.link/truyensextv/channels/the-luc-trieu-hoan-vo-han"
      }
    },
    {
      "id": "2291-channel",
      "name": "Kỷ niệm hồi lớp 8",
      "description": "Hồi đó mình học lớp 8, nhà mình cấp 4, trước nhà có bóng điện của xóm, cửa nhà kiểu song gỗ, kính nên ánh sáng chiếu thẳng vào nhà, bố mẹ ngủ ở nhà ngoài, mình ngủ trong...",
      "image": null,
      "label": null,
      "display": "text-only",
      "type": "text",
      "enable_detail": true,
      "related": {
        "url": "https://truyenx.link/truyensextv/channels/related/2291",
        "request_headers": []
      },
      "share": {
        "url": "https://truyenx.link/truyensextv/channels/share/ky-niem-hoi-lop-8"
      },
      "remote_data": {
        "url": "https://truyenx.link/truyensextv/channels/ky-niem-hoi-lop-8"
      }
    },
    {
      "id": "2290-channel",
      "name": "Đụ chị Hai chăn vịt",
      "description": "Chuyện là sau khi tôi được báo tin đỗ đại học, tôi rất rảnh rỗi nên có theo chị Hai ra đồng chăn vịt. Định ở lại với chị cho vui thì chị đuổi về, bảo...",
      "image": null,
      "label": null,
      "display": "text-only",
      "type": "text",
      "enable_detail": true,
      "related": {
        "url": "https://truyenx.link/truyensextv/channels/related/2290",
        "request_headers": []
      },
      "share": {
        "url": "https://truyenx.link/truyensextv/channels/share/du-chi-hai-chan-vit"
      },
      "remote_data": {
        "url": "https://truyenx.link/truyensextv/channels/du-chi-hai-chan-vit"
      }
    },
    {
      "id": "2289-channel",
      "name": "Tù vượt biên",
      "description": "Sau cuộc thẩm vấn, khoảng hơn 1 tiếng, Tuấn bị công an chấp pháp kết án tù 12 tháng về tội vượt biên và được chuyển sang đội 1, đội tù đi lao động. Đội 1 có khoảng trên...",
      "image": null,
      "label": null,
      "display": "text-only",
      "type": "text",
      "enable_detail": true,
      "related": {
        "url": "https://truyenx.link/truyensextv/channels/related/2289",
        "request_headers": []
      },
      "share": {
        "url": "https://truyenx.link/truyensextv/channels/share/tu-vuot-bien"
      },
      "remote_data": {
        "url": "https://truyenx.link/truyensextv/channels/tu-vuot-bien"
      }
    },
    {
      "id": "2288-channel",
      "name": "Như một giấc mơ 2",
      "description": "Nguyên ôm nhẹ vai người con gái. Cô gái ngả người về phía chàng. Mái tóc đen dài mượt mà ôm trọn gương mặt trái xoan trắng hồng. Vầng trán nhỏ, mũi dọc dừa và đôi môi hồng...",
      "image": null,
      "label": null,
      "display": "text-only",
      "type": "text",
      "enable_detail": true,
      "related": {
        "url": "https://truyenx.link/truyensextv/channels/related/2288",
        "request_headers": []
      },
      "share": {
        "url": "https://truyenx.link/truyensextv/channels/share/nhu-mot-giac-mo-2"
      },
      "remote_data": {
        "url": "https://truyenx.link/truyensextv/channels/nhu-mot-giac-mo-2"
      }
    },
    {
      "id": "2287-channel",
      "name": "Bé nhi, anh hai và ba",
      "description": "Tôi là Nhi, một cô bé 16 tuổi dâm đãng. Tôi có một vóc dáng nhiều người mong ước, ngực tôi 98, eo tôi 54, mông tôi 104. Và tôi có một làn da trắng hồng. Tôi còn có một cặp mông...",
      "image": null,
      "label": null,
      "display": "text-only",
      "type": "text",
      "enable_detail": true,
      "related": {
        "url": "https://truyenx.link/truyensextv/channels/related/2287",
        "request_headers": []
      },
      "share": {
        "url": "https://truyenx.link/truyensextv/channels/share/be-nhi-anh-hai-va-ba"
      },
      "remote_data": {
        "url": "https://truyenx.link/truyensextv/channels/be-nhi-anh-hai-va-ba"
      }
    },
    {
      "id": "2286-channel",
      "name": "Thương người năm ấy",
      "description": "Năm lớp 8, ở cái tuổi 13, 14 có lẽ tôi đã có cảm giác với người khác giới. Chỉ là thích thôi vì cái cảm xúc non nớt đó chưa thể nào gọi là yêu được. Hoặc là lúc đó tôi...",
      "image": null,
      "label": null,
      "display": "text-only",
      "type": "text",
      "enable_detail": true,
      "related": {
        "url": "https://truyenx.link/truyensextv/channels/related/2286",
        "request_headers": []
      },
      "share": {
        "url": "https://truyenx.link/truyensextv/channels/share/thuong-nguoi-nam-ay"
      },
      "remote_data": {
        "url": "https://truyenx.link/truyensextv/channels/thuong-nguoi-nam-ay"
      }
    },
    {
      "id": "2285-channel",
      "name": "Kế hoạch đụ mự của cậu nhóc 18cm",
      "description": "Tôi năm nay mới chỉ 18 tuổi vẫn còn là một cậu học sinh cấp 3. Truyện kể rằng mỗi lần kỳ nghỉ hè đến thì tôi lại được về quê chơi với mự và cậu của tôi... Và chuyện...",
      "image": null,
      "label": null,
      "display": "text-only",
      "type": "text",
      "enable_detail": true,
      "related": {
        "url": "https://truyenx.link/truyensextv/channels/related/2285",
        "request_headers": []
      },
      "share": {
        "url": "https://truyenx.link/truyensextv/channels/share/ke-hoach-du-mu-cua-cau-nhoc-18cm"
      },
      "remote_data": {
        "url": "https://truyenx.link/truyensextv/channels/ke-hoach-du-mu-cua-cau-nhoc-18cm"
      }
    },
    {
      "id": "2284-channel",
      "name": "Như là giấc mơ",
      "description": "Tới đây chị bế Dung đưa tay ra, thằng bé lẫm chẫm đi tới, Dung ngồi xổm xuống đưa hai tay về phía trước, hai đầu gối banh rộng cái khe lồn chẻ ở giữa thấy lờ mờ sau cái...",
      "image": null,
      "label": null,
      "display": "text-only",
      "type": "text",
      "enable_detail": true,
      "related": {
        "url": "https://truyenx.link/truyensextv/channels/related/2284",
        "request_headers": []
      },
      "share": {
        "url": "https://truyenx.link/truyensextv/channels/share/nhu-la-giac-mo"
      },
      "remote_data": {
        "url": "https://truyenx.link/truyensextv/channels/nhu-la-giac-mo"
      }
    },
    {
      "id": "2283-channel",
      "name": "Một buổi họp lớp",
      "description": "Nhìn tấm thiệp mời trên bàn, thời gian điểm điểm rõ ràng: Thân mời tham dự buổi họp lớp khóa XXX. Sau khi đọc kỹ, tôi mỉm cười quyết định tham gia. Tôi liên hệ với ban tổ...",
      "image": null,
      "label": null,
      "display": "text-only",
      "type": "text",
      "enable_detail": true,
      "related": {
        "url": "https://truyenx.link/truyensextv/channels/related/2283",
        "request_headers": []
      },
      "share": {
        "url": "https://truyenx.link/truyensextv/channels/share/mot-buoi-hop-lop"
      },
      "remote_data": {
        "url": "https://truyenx.link/truyensextv/channels/mot-buoi-hop-lop"
      }
    },
    {
      "id": "2282-channel",
      "name": "Hồi ký sát nhân",
      "description": "Tôi tên Bích, tôi đã bị tòa tuyên án với mức hình phạt xử bắn. Vì tôi đã giết chết ông ngoại ruột của mình 1 cách dã man. Những ngày cuối cùng trong xà lim tôi đã viết lại...",
      "image": null,
      "label": null,
      "display": "text-only",
      "type": "text",
      "enable_detail": true,
      "related": {
        "url": "https://truyenx.link/truyensextv/channels/related/2282",
        "request_headers": []
      },
      "share": {
        "url": "https://truyenx.link/truyensextv/channels/share/hoi-ky-sat-nhan"
      },
      "remote_data": {
        "url": "https://truyenx.link/truyensextv/channels/hoi-ky-sat-nhan"
      }
    },
    {
      "id": "2281-channel",
      "name": "Hoan Lạc hệ thống",
      "description": "Trong một căn biệt thự cao cấp quận 2 đang phát ra những âm thanh dâm dục của cuộc giao hoan tập thể của một hội nhóm kín đam mê tình dục, bên trong già trẻ lớn bé đều có từ...",
      "image": null,
      "label": null,
      "display": "text-only",
      "type": "text",
      "enable_detail": true,
      "related": {
        "url": "https://truyenx.link/truyensextv/channels/related/2281",
        "request_headers": []
      },
      "share": {
        "url": "https://truyenx.link/truyensextv/channels/share/hoan-lac-he-thong"
      },
      "remote_data": {
        "url": "https://truyenx.link/truyensextv/channels/hoan-lac-he-thong"
      }
    },
    {
      "id": "2280-channel",
      "name": "Những người con gái của tôi",
      "description": "Tôi là một chàng trai sinh năm 1997 tại 1 vùng quê biển nghèo. Tuổi thơ của tôi trôi qua khá bình yên nhưng rồi trong 1 lần khi tôi 10 tuổi, vô tình tôi tìm thấy mấy tập phim sex trong...",
      "image": null,
      "label": null,
      "display": "text-only",
      "type": "text",
      "enable_detail": true,
      "related": {
        "url": "https://truyenx.link/truyensextv/channels/related/2280",
        "request_headers": []
      },
      "share": {
        "url": "https://truyenx.link/truyensextv/channels/share/nhung-nguoi-con-gai-cua-toi"
      },
      "remote_data": {
        "url": "https://truyenx.link/truyensextv/channels/nhung-nguoi-con-gai-cua-toi"
      }
    },
    {
      "id": "2279-channel",
      "name": "Hằng hồi xuân",
      "description": "Gia đình hạnh phúc Ư ư... sướng anh... ơi... Aaaa. Hưng gồng người phun mạnh tinh trùng vào âm hộ vợ mình. Hôm nay anh có hứng sau buổi ăn nhậu với anh em cơ quan nên vừa về đến...",
      "image": null,
      "label": null,
      "display": "text-only",
      "type": "text",
      "enable_detail": true,
      "related": {
        "url": "https://truyenx.link/truyensextv/channels/related/2279",
        "request_headers": []
      },
      "share": {
        "url": "https://truyenx.link/truyensextv/channels/share/hang-hoi-xuan"
      },
      "remote_data": {
        "url": "https://truyenx.link/truyensextv/channels/hang-hoi-xuan"
      }
    },
    {
      "id": "2278-channel",
      "name": "Chị hai của tôi",
      "description": "Năm đó tôi 12 tuổi, cái tuổi không đủ lớn để cảm nhận hết tình cảm thiêng liêng của gia đình, nhưng tôi biết chắc một điều, tất cả mọi người trong gia đình đều rất...",
      "image": null,
      "label": null,
      "display": "text-only",
      "type": "text",
      "enable_detail": true,
      "related": {
        "url": "https://truyenx.link/truyensextv/channels/related/2278",
        "request_headers": []
      },
      "share": {
        "url": "https://truyenx.link/truyensextv/channels/share/chi-hai-cua-toi"
      },
      "remote_data": {
        "url": "https://truyenx.link/truyensextv/channels/chi-hai-cua-toi"
      }
    },
    {
      "id": "2277-channel",
      "name": "Địt nát lồn em Giang",
      "description": "“Anh ơi, bé nứng...” Giọng Giang vang lên giữa căn phòng. Long nhìn Giang với ánh mắt thèm thuồng. Phải nói, Giang có một cơ thể hoàn hảo, khuôn ngực căng tràn, tròn trịa...",
      "image": null,
      "label": null,
      "display": "text-only",
      "type": "text",
      "enable_detail": true,
      "related": {
        "url": "https://truyenx.link/truyensextv/channels/related/2277",
        "request_headers": []
      },
      "share": {
        "url": "https://truyenx.link/truyensextv/channels/share/dit-nat-lon-em-giang"
      },
      "remote_data": {
        "url": "https://truyenx.link/truyensextv/channels/dit-nat-lon-em-giang"
      }
    },
    {
      "id": "2276-channel",
      "name": "Đụ mẹ vợ và dì vợ",
      "description": "Tôi có một câu chuyện muốn chia sẻ cho anh em trên truyensextv2.cc đây. Tôi đã lấy vợ và sống chung với gia đình nhà vợ cho tiện. Nhà vợ tôi ở quê nên sống ở căn nhà ba gian, có...",
      "image": null,
      "label": null,
      "display": "text-only",
      "type": "text",
      "enable_detail": true,
      "related": {
        "url": "https://truyenx.link/truyensextv/channels/related/2276",
        "request_headers": []
      },
      "share": {
        "url": "https://truyenx.link/truyensextv/channels/share/du-me-vo-va-di-vo"
      },
      "remote_data": {
        "url": "https://truyenx.link/truyensextv/channels/du-me-vo-va-di-vo"
      }
    }
  ],
  "load_more": {
    "pageInfo": {
      "current_page": 15,
      "last_page": 140,
      "per_page": 30,
      "total": 4188
    },
    "paging": {
      "page_key": "page",
      "size_key": "size"
    },
    "remote_data": {
      "url": "https://truyenx.link/truyensextv/channels"
    }
  }
}