{
  "grid_number": 1,
  "channels": [
    {
      "id": "2095-channel",
      "name": "Người chồng bệnh hoạn",
      "description": "Tôi lập gia đình với người vợ nhỏ hơn tôi 8 tuổi, năm nay nàng 26 tuổi, tính tình hiền hậu dịu dàng, gương mặt dễ thương chứ không đẹp, nhưng bù lại thân hình nàng rất ư là...",
      "image": null,
      "label": null,
      "display": "text-only",
      "type": "text",
      "enable_detail": true,
      "related": {
        "url": "https://truyenx.link/truyensextv/channels/related/2095",
        "request_headers": []
      },
      "share": {
        "url": "https://truyenx.link/truyensextv/channels/share/nguoi-chong-benh-hoan"
      },
      "remote_data": {
        "url": "https://truyenx.link/truyensextv/channels/nguoi-chong-benh-hoan"
      }
    },
    {
      "id": "2094-channel",
      "name": "Mẹ ơi, dạy con về sex được không",
      "description": "Tôi năm nay ngoài 20, tên Tuấn, công việc ổn định, tôi cao 1m75 với cái dương vật 18cm của tôi không có bạn gái nên cũng hơi kỳ. Mẹ tôi năm nay tuy ngoài 40, làm công việc nội trợ...",
      "image": null,
      "label": null,
      "display": "text-only",
      "type": "text",
      "enable_detail": true,
      "related": {
        "url": "https://truyenx.link/truyensextv/channels/related/2094",
        "request_headers": []
      },
      "share": {
        "url": "https://truyenx.link/truyensextv/channels/share/me-oi-day-con-ve-sex-duoc-khong"
      },
      "remote_data": {
        "url": "https://truyenx.link/truyensextv/channels/me-oi-day-con-ve-sex-duoc-khong"
      }
    },
    {
      "id": "2093-channel",
      "name": "Truyện sex Dì Hương",
      "description": "Năm ấy tôi 17 tuổi, nhà tôi ở huyện Chợ Mới, tỉnh An Giang. Tốt nghiệp cấp 3, má tôi cương quyết bắt...",
      "image": null,
      "label": null,
      "display": "text-only",
      "type": "text",
      "enable_detail": true,
      "related": {
        "url": "https://truyenx.link/truyensextv/channels/related/2093",
        "request_headers": []
      },
      "share": {
        "url": "https://truyenx.link/truyensextv/channels/share/truyen-sex-di-huong"
      },
      "remote_data": {
        "url": "https://truyenx.link/truyensextv/channels/truyen-sex-di-huong"
      }
    },
    {
      "id": "2092-channel",
      "name": "Thần Nak",
      "description": "Sự khởi đầu Rầm!!! Rầm!!! Rầm!!! Tiếng sét đánh chói tay khiến Phúc Dương chợt tỉnh: Mẹ nó đang ngủ ngon. Thôi trễ rồi về đi, không ông già nhà mày đến đóng cái tiệm tao...",
      "image": null,
      "label": null,
      "display": "text-only",
      "type": "text",
      "enable_detail": true,
      "related": {
        "url": "https://truyenx.link/truyensextv/channels/related/2092",
        "request_headers": []
      },
      "share": {
        "url": "https://truyenx.link/truyensextv/channels/share/than-nak"
      },
      "remote_data": {
        "url": "https://truyenx.link/truyensextv/channels/than-nak"
      }
    },
    {
      "id": "2091-channel",
      "name": "Rạp chiếu phim",
      "description": "T lui vào phòng nghỉ dành cho nhân viên, ngả người nằm xuống tấm đệm được ghép từ những miếng đệm kê cao dành cho trẻ em khi xem phim ở rạp. Hơn một năm làm việc ở rạp...",
      "image": null,
      "label": null,
      "display": "text-only",
      "type": "text",
      "enable_detail": true,
      "related": {
        "url": "https://truyenx.link/truyensextv/channels/related/2091",
        "request_headers": []
      },
      "share": {
        "url": "https://truyenx.link/truyensextv/channels/share/rap-chieu-phim"
      },
      "remote_data": {
        "url": "https://truyenx.link/truyensextv/channels/rap-chieu-phim"
      }
    },
    {
      "id": "2090-channel",
      "name": "Cô hàng xóm dâm đãng",
      "description": "Câu chuyện xảy ra vào đầu những năm 2000... Trời vào hạ, từng cơn gió đông nam hây hẩy mát lạnh từ con sông cách nhà hai ba cây số thổi vào làm tôi thích thú vô cùng. Nằm thiu thiu...",
      "image": null,
      "label": null,
      "display": "text-only",
      "type": "text",
      "enable_detail": true,
      "related": {
        "url": "https://truyenx.link/truyensextv/channels/related/2090",
        "request_headers": []
      },
      "share": {
        "url": "https://truyenx.link/truyensextv/channels/share/co-hang-xom-dam-dang"
      },
      "remote_data": {
        "url": "https://truyenx.link/truyensextv/channels/co-hang-xom-dam-dang"
      }
    },
    {
      "id": "2089-channel",
      "name": "Mẹ ơi! Con yêu mẹ",
      "description": "Mẹ tôi tên Thuý Ngọc, 45 tuổi, nước da trắng, ngực rất to không xệ, dáng người rất chuẩn, mông lúc nào nhìn rất là gợi dục. Mẹ tôi làm giáo viên, hầu như bà rất quan tâm tới...",
      "image": null,
      "label": null,
      "display": "text-only",
      "type": "text",
      "enable_detail": true,
      "related": {
        "url": "https://truyenx.link/truyensextv/channels/related/2089",
        "request_headers": []
      },
      "share": {
        "url": "https://truyenx.link/truyensextv/channels/share/me-oi-con-yeu-me"
      },
      "remote_data": {
        "url": "https://truyenx.link/truyensextv/channels/me-oi-con-yeu-me"
      }
    },
    {
      "id": "2088-channel",
      "name": "Làm chồng của mẹ tôi",
      "description": "Tôi năm nay 20 tuổi, một thằng con trai chỉ biết đến công việc và chẳng quan tâm gì đến bạn gái gì cả. Mẹ tôi tên Huyền Trang năm nay tuy ngoài 40, nước da trắng hồng, số đo 3...",
      "image": null,
      "label": null,
      "display": "text-only",
      "type": "text",
      "enable_detail": true,
      "related": {
        "url": "https://truyenx.link/truyensextv/channels/related/2088",
        "request_headers": []
      },
      "share": {
        "url": "https://truyenx.link/truyensextv/channels/share/lam-chong-cua-me-toi"
      },
      "remote_data": {
        "url": "https://truyenx.link/truyensextv/channels/lam-chong-cua-me-toi"
      }
    },
    {
      "id": "2087-channel",
      "name": "Bạn thân khác giới",
      "description": "Các bạn có tin vào bốn chữ “Bạn thân khác giới” không? Riêng tôi thì không bởi vì bạn gái hiện tại của tôi từ bốn chữ đó mà ra. Không làm mất thời gian của mọi...",
      "image": null,
      "label": null,
      "display": "text-only",
      "type": "text",
      "enable_detail": true,
      "related": {
        "url": "https://truyenx.link/truyensextv/channels/related/2087",
        "request_headers": []
      },
      "share": {
        "url": "https://truyenx.link/truyensextv/channels/share/ban-than-khac-gioi"
      },
      "remote_data": {
        "url": "https://truyenx.link/truyensextv/channels/ban-than-khac-gioi"
      }
    },
    {
      "id": "2086-channel",
      "name": "Dì Hương",
      "description": "Dì Hương cắn chặt răng cố giữ lại tiếng rên rỉ chực chờ từ cuống họng, hai chân nàng đang bị banh ra thật rộng, ở phía trên Toàn chồng nàng đang hì hục nắc, con cặc của...",
      "image": null,
      "label": null,
      "display": "text-only",
      "type": "text",
      "enable_detail": true,
      "related": {
        "url": "https://truyenx.link/truyensextv/channels/related/2086",
        "request_headers": []
      },
      "share": {
        "url": "https://truyenx.link/truyensextv/channels/share/di-huong"
      },
      "remote_data": {
        "url": "https://truyenx.link/truyensextv/channels/di-huong"
      }
    },
    {
      "id": "2085-channel",
      "name": "Em Quỳnh",
      "description": "Năm đó, tôi là một sinh viên nghèo của trường Đại Học Cần Thơ. Mặc dù nhà nghèo nhưng tôi rất siêng năng và thật thà, nên tôi được một ông giáo sư nhận tôi về để có chỗ...",
      "image": null,
      "label": null,
      "display": "text-only",
      "type": "text",
      "enable_detail": true,
      "related": {
        "url": "https://truyenx.link/truyensextv/channels/related/2085",
        "request_headers": []
      },
      "share": {
        "url": "https://truyenx.link/truyensextv/channels/share/em-quynh"
      },
      "remote_data": {
        "url": "https://truyenx.link/truyensextv/channels/em-quynh"
      }
    },
    {
      "id": "2084-channel",
      "name": "Sói săn mồi - Quyển 4",
      "description": "Trung Hoa một ngọn núi cao... “Đại nhân, dịch bệnh đang lây lan đúng như dự tính của ngài!” Một giọng nói già nua phá vỡ không khí tĩnh lặng của màn đêm, có mặt trên...",
      "image": null,
      "label": null,
      "display": "text-only",
      "type": "text",
      "enable_detail": true,
      "related": {
        "url": "https://truyenx.link/truyensextv/channels/related/2084",
        "request_headers": []
      },
      "share": {
        "url": "https://truyenx.link/truyensextv/channels/share/soi-san-moi-quyen-4"
      },
      "remote_data": {
        "url": "https://truyenx.link/truyensextv/channels/soi-san-moi-quyen-4"
      }
    },
    {
      "id": "2083-channel",
      "name": "Làm tình với cô giáo dạy lí",
      "description": "Năm tôi học lớp 11, khi đi một thằng như tôi không biết gì về tình dục cả. Tôi chỉ biết qua lời kể của đám bạn đồng trang lứa. Khi đó tôi học ở trường cấp 3. Mọi hoài...",
      "image": null,
      "label": null,
      "display": "text-only",
      "type": "text",
      "enable_detail": true,
      "related": {
        "url": "https://truyenx.link/truyensextv/channels/related/2083",
        "request_headers": []
      },
      "share": {
        "url": "https://truyenx.link/truyensextv/channels/share/lam-tinh-voi-co-giao-day-li"
      },
      "remote_data": {
        "url": "https://truyenx.link/truyensextv/channels/lam-tinh-voi-co-giao-day-li"
      }
    },
    {
      "id": "2082-channel",
      "name": "Bà ngoại dâm đãng của tôi",
      "description": "Về quê Câu chuyện của tôi đã xảy ra cách đây vài năm, khi đó tôi 16 tuổi cái tuổi đang dậy thì bắt đầu tìm hiểu về giới tính. Gia đình tôi sống ở Sài Gòn 1 thành phố luôn...",
      "image": null,
      "label": null,
      "display": "text-only",
      "type": "text",
      "enable_detail": true,
      "related": {
        "url": "https://truyenx.link/truyensextv/channels/related/2082",
        "request_headers": []
      },
      "share": {
        "url": "https://truyenx.link/truyensextv/channels/share/ba-ngoai-dam-dang-cua-toi"
      },
      "remote_data": {
        "url": "https://truyenx.link/truyensextv/channels/ba-ngoai-dam-dang-cua-toi"
      }
    },
    {
      "id": "2081-channel",
      "name": "Lừa tình nữ sinh",
      "description": "Mười tám tuổi, hắn bắt đầu trổ mã. Thân hình trước kia dong dỏng cao, bây giờ trở nên nở nang khỏe mạnh. Lồng ngực căng phồng sau làn áo và hai ống tay áo thun bó vào hai cánh...",
      "image": null,
      "label": null,
      "display": "text-only",
      "type": "text",
      "enable_detail": true,
      "related": {
        "url": "https://truyenx.link/truyensextv/channels/related/2081",
        "request_headers": []
      },
      "share": {
        "url": "https://truyenx.link/truyensextv/channels/share/lua-tinh-nu-sinh"
      },
      "remote_data": {
        "url": "https://truyenx.link/truyensextv/channels/lua-tinh-nu-sinh"
      }
    },
    {
      "id": "2080-channel",
      "name": "Cuộc ngoại tình ở trung tâm anh văn",
      "description": "Loan: 30 tuổi, có chồng và 1 con, nghề nghiệp giáo viên, chủ của trung tâm anh văn cho trẻ tiểu học. Tiến: 23 tuổi, là sinh viên vừa tốt nghiệp ngành ngôn ngữ anh. Loan vừa mới mở...",
      "image": null,
      "label": null,
      "display": "text-only",
      "type": "text",
      "enable_detail": true,
      "related": {
        "url": "https://truyenx.link/truyensextv/channels/related/2080",
        "request_headers": []
      },
      "share": {
        "url": "https://truyenx.link/truyensextv/channels/share/cuoc-ngoai-tinh-o-trung-tam-anh-van"
      },
      "remote_data": {
        "url": "https://truyenx.link/truyensextv/channels/cuoc-ngoai-tinh-o-trung-tam-anh-van"
      }
    },
    {
      "id": "2079-channel",
      "name": "Con dâu ngoan",
      "description": "Ông Thắng ngồi nhìn chị Quỳnh quét sân mà hai mắt cứ đảo như rang lạc, cứ liếc hết ngực rồi lại đến mông của con dâu. Chị Quỳnh cũng chẳng để ý, cứ loay hoay dọn dẹp...",
      "image": null,
      "label": null,
      "display": "text-only",
      "type": "text",
      "enable_detail": true,
      "related": {
        "url": "https://truyenx.link/truyensextv/channels/related/2079",
        "request_headers": []
      },
      "share": {
        "url": "https://truyenx.link/truyensextv/channels/share/con-dau-ngoan"
      },
      "remote_data": {
        "url": "https://truyenx.link/truyensextv/channels/con-dau-ngoan"
      }
    },
    {
      "id": "2078-channel",
      "name": "Một đêm khoái lạc",
      "description": "Chuyện là mình có thằng bạn thân tên Minh, năm nay mình hai mươi lăm mới đi làm. Còn thằng bạn cũng làm cùng công ty. Số là thằng này xấu xấu mà có con vợ xinh vãi đái, ẻm cao...",
      "image": null,
      "label": null,
      "display": "text-only",
      "type": "text",
      "enable_detail": true,
      "related": {
        "url": "https://truyenx.link/truyensextv/channels/related/2078",
        "request_headers": []
      },
      "share": {
        "url": "https://truyenx.link/truyensextv/channels/share/mot-dem-khoai-lac"
      },
      "remote_data": {
        "url": "https://truyenx.link/truyensextv/channels/mot-dem-khoai-lac"
      }
    },
    {
      "id": "2077-channel",
      "name": "Mãi mãi yêu em - Quyển 2",
      "description": "Sau 4 năm học đại học, mình rút ra kinh nghiệm. Học ở đâu hay học thể nào thì học, hay chả học đại học cũng được. Cứ làm những gì bạn thích và cố gắng hết sức mình thì...",
      "image": null,
      "label": null,
      "display": "text-only",
      "type": "text",
      "enable_detail": true,
      "related": {
        "url": "https://truyenx.link/truyensextv/channels/related/2077",
        "request_headers": []
      },
      "share": {
        "url": "https://truyenx.link/truyensextv/channels/share/mai-mai-yeu-em-quyen-2"
      },
      "remote_data": {
        "url": "https://truyenx.link/truyensextv/channels/mai-mai-yeu-em-quyen-2"
      }
    },
    {
      "id": "2076-channel",
      "name": "Trại giam địa ngục",
      "description": "Khánh cầm trong tay bản danh sách các tù nhân mới để chờ tiếp nhận một đợt chuyển tù đến trại giam của hắn sáng nay. Không khí nóng bức đến ngột ngạt, trời miền Khánh giữa...",
      "image": null,
      "label": null,
      "display": "text-only",
      "type": "text",
      "enable_detail": true,
      "related": {
        "url": "https://truyenx.link/truyensextv/channels/related/2076",
        "request_headers": []
      },
      "share": {
        "url": "https://truyenx.link/truyensextv/channels/share/trai-giam-dia-nguc"
      },
      "remote_data": {
        "url": "https://truyenx.link/truyensextv/channels/trai-giam-dia-nguc"
      }
    },
    {
      "id": "2075-channel",
      "name": "Ký ức tuổi thơ",
      "description": "Năm 1990, lúc đó tôi 10 tuổi. Nhà tôi, cậu 4, cậu 5 ở gần nhau, mẹ tôi là con thứ 3. Trinh là con út của cậu 4, năm đó chừng 8 tuổi. Vào một buổi chiều tối, tôi và lũ nhóc trong...",
      "image": null,
      "label": null,
      "display": "text-only",
      "type": "text",
      "enable_detail": true,
      "related": {
        "url": "https://truyenx.link/truyensextv/channels/related/2075",
        "request_headers": []
      },
      "share": {
        "url": "https://truyenx.link/truyensextv/channels/share/ky-uc-tuoi-tho"
      },
      "remote_data": {
        "url": "https://truyenx.link/truyensextv/channels/ky-uc-tuoi-tho"
      }
    },
    {
      "id": "2074-channel",
      "name": "Bắt cóc cô giáo",
      "description": "Ở trường của tôi, hễ nói tới nhóm “quậy” là ai cũng biết đến. Nhóm nổi tiếng vì những màn ăn chơi không ai bằng, vì đa số chúng tôi là con nhà giàu. Ăn chơi lúc nào...",
      "image": null,
      "label": null,
      "display": "text-only",
      "type": "text",
      "enable_detail": true,
      "related": {
        "url": "https://truyenx.link/truyensextv/channels/related/2074",
        "request_headers": []
      },
      "share": {
        "url": "https://truyenx.link/truyensextv/channels/share/bat-coc-co-giao"
      },
      "remote_data": {
        "url": "https://truyenx.link/truyensextv/channels/bat-coc-co-giao"
      }
    },
    {
      "id": "2073-channel",
      "name": "Nhật ký cuối cấp",
      "description": "6 giờ tối, tập thể lớp tôi cùng các cô giáo qua quán cafe... làm một trận ra trò để mừng ngày mà ai trong đời học sinh cũng mong muốn mang những món quà, những bó quà tặng tri ân...",
      "image": null,
      "label": null,
      "display": "text-only",
      "type": "text",
      "enable_detail": true,
      "related": {
        "url": "https://truyenx.link/truyensextv/channels/related/2073",
        "request_headers": []
      },
      "share": {
        "url": "https://truyenx.link/truyensextv/channels/share/nhat-ky-cuoi-cap"
      },
      "remote_data": {
        "url": "https://truyenx.link/truyensextv/channels/nhat-ky-cuoi-cap"
      }
    },
    {
      "id": "2072-channel",
      "name": "Đụ mấy em máy bay đang nứng lồn",
      "description": "A Kiệt, nhanh lên đi, xe tới cửa rồi! Mẫu thân đứng ở đầu cầu thang, thúc giục ta. Đến đây! Ta kéo hành lý xuống cầu thang, không quên liếc nàng một cái. Mẫu thân rất trẻ...",
      "image": null,
      "label": null,
      "display": "text-only",
      "type": "text",
      "enable_detail": true,
      "related": {
        "url": "https://truyenx.link/truyensextv/channels/related/2072",
        "request_headers": []
      },
      "share": {
        "url": "https://truyenx.link/truyensextv/channels/share/du-may-em-may-bay-dang-nung-lon"
      },
      "remote_data": {
        "url": "https://truyenx.link/truyensextv/channels/du-may-em-may-bay-dang-nung-lon"
      }
    },
    {
      "id": "2071-channel",
      "name": "Vụng trộm với cô em họ",
      "description": "Tôi là K, năm nay tôi 25 tuổi. Tôi có một người vợ khá xinh đẹp tên là Duyên. Hai vợ chồng tôi cưới nhau hơn một năm rồi nhưng vẫn chưa có con. Quê của cả hai chúng tôi ở Tiền...",
      "image": null,
      "label": null,
      "display": "text-only",
      "type": "text",
      "enable_detail": true,
      "related": {
        "url": "https://truyenx.link/truyensextv/channels/related/2071",
        "request_headers": []
      },
      "share": {
        "url": "https://truyenx.link/truyensextv/channels/share/vung-trom-voi-co-em-ho"
      },
      "remote_data": {
        "url": "https://truyenx.link/truyensextv/channels/vung-trom-voi-co-em-ho"
      }
    },
    {
      "id": "2070-channel",
      "name": "Hành trình loạn luân",
      "description": "Tôi tên Long, cuộc đời tôi nếm trải đủ hỷ nộ ái ố. Đau buồn, vui mừng, phẫn uất và “sướng”, mọi cung bậc cảm xúc đều tìm đến bầu bạn với tôi. Cuộc sống...",
      "image": null,
      "label": null,
      "display": "text-only",
      "type": "text",
      "enable_detail": true,
      "related": {
        "url": "https://truyenx.link/truyensextv/channels/related/2070",
        "request_headers": []
      },
      "share": {
        "url": "https://truyenx.link/truyensextv/channels/share/hanh-trinh-loan-luan"
      },
      "remote_data": {
        "url": "https://truyenx.link/truyensextv/channels/hanh-trinh-loan-luan"
      }
    },
    {
      "id": "2069-channel",
      "name": "Xuyên qua võ hiệp Việt Nam Ma Tôn",
      "description": "“Đây là đâu?” Vừa tỉnh lại, đầu đau như búa bổ, nhìn thấy cảnh tượng chung quanh đều thay đổi, sắc mặt hắn không khỏi đại biến thốt lên. Cẩn thận hồi ức...",
      "image": null,
      "label": null,
      "display": "text-only",
      "type": "text",
      "enable_detail": true,
      "related": {
        "url": "https://truyenx.link/truyensextv/channels/related/2069",
        "request_headers": []
      },
      "share": {
        "url": "https://truyenx.link/truyensextv/channels/share/xuyen-qua-vo-hiep-viet-nam-ma-ton"
      },
      "remote_data": {
        "url": "https://truyenx.link/truyensextv/channels/xuyen-qua-vo-hiep-viet-nam-ma-ton"
      }
    },
    {
      "id": "2067-channel",
      "name": "Sa ngã",
      "description": "Sa ngã I Sa ngã là khi lý trí bị ham muốn tình dục lấn áp. Bà Lê là một người phụ nữ rất nghiêm khắc và lạnh lùng. Bà điều khiển công ty của mình với một bàn tay sắt. Các...",
      "image": null,
      "label": null,
      "display": "text-only",
      "type": "text",
      "enable_detail": true,
      "related": {
        "url": "https://truyenx.link/truyensextv/channels/related/2067",
        "request_headers": []
      },
      "share": {
        "url": "https://truyenx.link/truyensextv/channels/share/sa-nga"
      },
      "remote_data": {
        "url": "https://truyenx.link/truyensextv/channels/sa-nga"
      }
    },
    {
      "id": "2068-channel",
      "name": "Con đường bá chủ - Quyển 3",
      "description": "Nhìn thấy thân ảnh khổng lồ đang nằm lăn lộn phía dưới, khóe môi Lạc Nam nhếch lên... Cửa Hàng May Mắn đang trong quá trình thăng cấp, sau khi hắn mua hai loại Huyết Mạch kia, mớ...",
      "image": null,
      "label": null,
      "display": "text-only",
      "type": "text",
      "enable_detail": true,
      "related": {
        "url": "https://truyenx.link/truyensextv/channels/related/2068",
        "request_headers": []
      },
      "share": {
        "url": "https://truyenx.link/truyensextv/channels/share/con-duong-ba-chu-quyen-3"
      },
      "remote_data": {
        "url": "https://truyenx.link/truyensextv/channels/con-duong-ba-chu-quyen-3"
      }
    },
    {
      "id": "2066-channel",
      "name": "Hối hận vì lấy vợ sớm",
      "description": "Em năm nay vừa tròn 23 tuổi, mới lấy vợ chưa được một năm. Vợ em thì xinh đẹp, dễ thương, con nhà có học, vòng 1 2 3 thì chuẩn như Lê Duẩn, nhỏ hơn em 1 tuổi. Trước khi lấy...",
      "image": null,
      "label": null,
      "display": "text-only",
      "type": "text",
      "enable_detail": true,
      "related": {
        "url": "https://truyenx.link/truyensextv/channels/related/2066",
        "request_headers": []
      },
      "share": {
        "url": "https://truyenx.link/truyensextv/channels/share/hoi-han-vi-lay-vo-som"
      },
      "remote_data": {
        "url": "https://truyenx.link/truyensextv/channels/hoi-han-vi-lay-vo-som"
      }
    }
  ],
  "load_more": {
    "pageInfo": {
      "current_page": 22,
      "last_page": 140,
      "per_page": 30,
      "total": 4188
    },
    "paging": {
      "page_key": "page",
      "size_key": "size"
    },
    "remote_data": {
      "url": "https://truyenx.link/truyensextv/channels"
    }
  }
}