{"grid_number":1,"channels":[{"id":"2155-channel","name":"Cao thủ kiếm hiệp - Quyển 4","description":"Tống Thanh Thư đi trên đường cái Yến Kinh thành, vì không muốn bị người nhận ra, hắn lại đeo lên tấm mặt nạ ngân sắc, nhìn thấy cảnh sắc quen thuộc, trong lòng có một loại...","image":null,"label":null,"display":"text-only","type":"text","enable_detail":true,"related":{"url":"https://truyenx.link/truyensextv/channels/related/2155","request_headers":[]},"share":{"url":"https://truyenx.link/truyensextv/channels/share/cao-thu-kiem-hiep-quyen-4"},"remote_data":{"url":"https://truyenx.link/truyensextv/channels/cao-thu-kiem-hiep-quyen-4"}},{"id":"2154-channel","name":"‘Tình nhân’ của ông chủ","description":"An là một anh chàng hầu hạ cho một ông chủ giàu có. Vốn anh đã làm ở đây được 7 năm ở đây nên ông chủ rất tin tưởng. Ông chủ rất giàu có nên trả An rất nhiều tiền. Và...","image":null,"label":null,"display":"text-only","type":"text","enable_detail":true,"related":{"url":"https://truyenx.link/truyensextv/channels/related/2154","request_headers":[]},"share":{"url":"https://truyenx.link/truyensextv/channels/share/tinh-nhan-cua-ong-chu"},"remote_data":{"url":"https://truyenx.link/truyensextv/channels/tinh-nhan-cua-ong-chu"}},{"id":"2153-channel","name":"Cô giáo môn văn 2","description":"Ánh nắng chói chang của buổi sáng chớm hè chiếu qua khe cửa, rọi thẳng vào khuôn mặt trắng mịn, tuyệt mỹ mang đầy vẻ mặn mà, quyến rũ mà cánh đàn ông từ thằng giai 15 cu mới...","image":null,"label":null,"display":"text-only","type":"text","enable_detail":true,"related":{"url":"https://truyenx.link/truyensextv/channels/related/2153","request_headers":[]},"share":{"url":"https://truyenx.link/truyensextv/channels/share/co-giao-mon-van-2"},"remote_data":{"url":"https://truyenx.link/truyensextv/channels/co-giao-mon-van-2"}},{"id":"2152-channel","name":"Ở với chị họ","description":"Tôi năm nay 17 tuổi, hôm nay nghỉ hè nên chị họ gọi tôi lên chơi mấy hôm. Phòng chị tôi thuê trong 1 con ngõ nhỏ. Vì được nghỉ hè nên bạn chị tôi đã về quê, còn mỗi chị họ...","image":null,"label":null,"display":"text-only","type":"text","enable_detail":true,"related":{"url":"https://truyenx.link/truyensextv/channels/related/2152","request_headers":[]},"share":{"url":"https://truyenx.link/truyensextv/channels/share/o-voi-chi-ho"},"remote_data":{"url":"https://truyenx.link/truyensextv/channels/o-voi-chi-ho"}},{"id":"2151-channel","name":"Lạnh","description":"Buổi tối, hồ bơi trong nhà thắp đèn lờ mờ, ả ngâm chân xuống mặt hồ, trên người khoác áo choàng len hờ hững. Ả đang đợi nhân tình. Ả ngâm nga bài nhạc trẻ trong lúc lướt...","image":null,"label":null,"display":"text-only","type":"text","enable_detail":true,"related":{"url":"https://truyenx.link/truyensextv/channels/related/2151","request_headers":[]},"share":{"url":"https://truyenx.link/truyensextv/channels/share/lanh"},"remote_data":{"url":"https://truyenx.link/truyensextv/channels/lanh"}},{"id":"2149-channel","name":"Hai người cô đơn","description":"Trong nhà tắm, Ngọc trần chuồng xoay đi xoay lại ngắm mình trước gương, ánh mắt toát lên vẻ hài lòng. Cô cao tầm m6, mình hạc xương mai, gương mặt thanh tú với đôi môi mỏng...","image":null,"label":null,"display":"text-only","type":"text","enable_detail":true,"related":{"url":"https://truyenx.link/truyensextv/channels/related/2149","request_headers":[]},"share":{"url":"https://truyenx.link/truyensextv/channels/share/hai-nguoi-co-don"},"remote_data":{"url":"https://truyenx.link/truyensextv/channels/hai-nguoi-co-don"}},{"id":"2150-channel","name":"Bà cô dâm đãng","description":"Ba tôi làm lớn nên người chịu ơn ông cũng nhiều. Năm tôi được 15 tuổi có một bà gọi là bà cô nhưng thực ra là vợ của đàn em ba tôi, chồng bà bị tù vì bị nghi hối lộ, bà...","image":null,"label":null,"display":"text-only","type":"text","enable_detail":true,"related":{"url":"https://truyenx.link/truyensextv/channels/related/2150","request_headers":[]},"share":{"url":"https://truyenx.link/truyensextv/channels/share/ba-co-dam-dang"},"remote_data":{"url":"https://truyenx.link/truyensextv/channels/ba-co-dam-dang"}},{"id":"2148-channel","name":"Gặp lại tình đầu","description":"Đã lâu rồi tôi chưa nghe lại giọng nói của Kim Oanh tình đầu của tôi, nàng phone cho tôi vì nàng mới chia tay với người yêu, cần người tâm sự. Giọng nàng vẫn còn hồn nhiên bé...","image":null,"label":null,"display":"text-only","type":"text","enable_detail":true,"related":{"url":"https://truyenx.link/truyensextv/channels/related/2148","request_headers":[]},"share":{"url":"https://truyenx.link/truyensextv/channels/share/gap-lai-tinh-dau"},"remote_data":{"url":"https://truyenx.link/truyensextv/channels/gap-lai-tinh-dau"}},{"id":"2147-channel","name":"Em là của anh","description":"Mọi người có nhớ mình mất trinh là từ khi nào không? Chứ tôi thì bị cho vào đời và trở thành đàn bà khá sớm. 15 tuổi tôi đã có bạn trai là anh bạn học cùng lớp, ngồi cùng...","image":null,"label":null,"display":"text-only","type":"text","enable_detail":true,"related":{"url":"https://truyenx.link/truyensextv/channels/related/2147","request_headers":[]},"share":{"url":"https://truyenx.link/truyensextv/channels/share/em-la-cua-anh"},"remote_data":{"url":"https://truyenx.link/truyensextv/channels/em-la-cua-anh"}},{"id":"2146-channel","name":"Hồi ức","description":"Có thể nói duyên số nên tôi được gặp em . Em theo chồng từ Hà Nội vào Sài Gòn làm việc, sau này được biết chồng em là trưởng phòng một viện nghiên cứu thuộc bộ nông...","image":null,"label":null,"display":"text-only","type":"text","enable_detail":true,"related":{"url":"https://truyenx.link/truyensextv/channels/related/2146","request_headers":[]},"share":{"url":"https://truyenx.link/truyensextv/channels/share/hoi-uc"},"remote_data":{"url":"https://truyenx.link/truyensextv/channels/hoi-uc"}},{"id":"2145-channel","name":"Cô Trang hàng xóm","description":"Bên cạnh nhà tôi có một gia đình chuyển tới đây hồi năm ngoái. Người chồng tên Vũ, làm cho một công ty tư nhân, còn người vợ tên Trang, giáo viên một trường THPT gần nhà tôi...","image":null,"label":null,"display":"text-only","type":"text","enable_detail":true,"related":{"url":"https://truyenx.link/truyensextv/channels/related/2145","request_headers":[]},"share":{"url":"https://truyenx.link/truyensextv/channels/share/co-trang-hang-xom"},"remote_data":{"url":"https://truyenx.link/truyensextv/channels/co-trang-hang-xom"}},{"id":"2144-channel","name":"Đi MHX mà tôi có người yêu","description":"Em là một cô sinh viên Y khoa, dưới tôi 2 khóa. Em cao 1m60, thân hình cân đối và đặc biệt là em có khuôn mặt và một nụ cười cực kỳ dễ thương. Lần đầu tôi gặp em là trong...","image":null,"label":null,"display":"text-only","type":"text","enable_detail":true,"related":{"url":"https://truyenx.link/truyensextv/channels/related/2144","request_headers":[]},"share":{"url":"https://truyenx.link/truyensextv/channels/share/di-mhx-ma-toi-co-nguoi-yeu"},"remote_data":{"url":"https://truyenx.link/truyensextv/channels/di-mhx-ma-toi-co-nguoi-yeu"}},{"id":"2143-channel","name":"Chịch em vợ","description":"Tôi năm nay đã 30 tuổi và đã có một gia đình êm ấm. Tôi có một cô vợ xinh đẹp, có hai đứa con kháu khỉnh. Nói chung tôi chẳng có gì để buồn. Nhưng khoảng thời gian 1 tháng vợ...","image":null,"label":null,"display":"text-only","type":"text","enable_detail":true,"related":{"url":"https://truyenx.link/truyensextv/channels/related/2143","request_headers":[]},"share":{"url":"https://truyenx.link/truyensextv/channels/share/chich-em-vo"},"remote_data":{"url":"https://truyenx.link/truyensextv/channels/chich-em-vo"}},{"id":"2142-channel","name":"Cơn mưa đầu mùa","description":"Chuyện xảy ra vào những năm 85 của thế kỷ trước tại một vùng quê nghèo vùng Bắc Bộ nước ta. Tôi ngồi dưới hiên nhà dõi mắt nhìn lên bầu trời đêm, trong đầu cứ quanh quẩn...","image":null,"label":null,"display":"text-only","type":"text","enable_detail":true,"related":{"url":"https://truyenx.link/truyensextv/channels/related/2142","request_headers":[]},"share":{"url":"https://truyenx.link/truyensextv/channels/share/con-mua-dau-mua"},"remote_data":{"url":"https://truyenx.link/truyensextv/channels/con-mua-dau-mua"}},{"id":"2141-channel","name":"Thần đụ","description":"Tôi tên là Nam 16 tuổi, học sinh cá biệt của trường X. Tôi chỉ vừa mới bước vào trường và phát hiện ra gái ở đây rất xinh, từ các cô nàng trong lớp, cùng khối đến các chị...","image":null,"label":null,"display":"text-only","type":"text","enable_detail":true,"related":{"url":"https://truyenx.link/truyensextv/channels/related/2141","request_headers":[]},"share":{"url":"https://truyenx.link/truyensextv/channels/share/than-du"},"remote_data":{"url":"https://truyenx.link/truyensextv/channels/than-du"}},{"id":"2140-channel","name":"Tấm thân bất động","description":"Long một trưởng phòng của một công ty nhỏ. Anh là người đẹp trai, cao to. Anh có vợ cực kỳ xinh đẹp. Nhà giàu có. Cuộc sống của anh đúng như câu “tiểu viên mãn”. Ngày...","image":null,"label":null,"display":"text-only","type":"text","enable_detail":true,"related":{"url":"https://truyenx.link/truyensextv/channels/related/2140","request_headers":[]},"share":{"url":"https://truyenx.link/truyensextv/channels/share/tam-than-bat-dong"},"remote_data":{"url":"https://truyenx.link/truyensextv/channels/tam-than-bat-dong"}},{"id":"2139-channel","name":"Huyền Trân","description":"Giữa cái nóng oi bức ở Cần Thơ dường như khiến bao nhiêu người khó chịu, chỉ muốn ở nhà không thèm ra đường vì cái nóng oi bức này. Nói sơ qua Trân, năm nay nàng 17 tuổi còn...","image":null,"label":null,"display":"text-only","type":"text","enable_detail":true,"related":{"url":"https://truyenx.link/truyensextv/channels/related/2139","request_headers":[]},"share":{"url":"https://truyenx.link/truyensextv/channels/share/huyen-tran"},"remote_data":{"url":"https://truyenx.link/truyensextv/channels/huyen-tran"}},{"id":"2138-channel","name":"Đàn bà trung niên","description":"Ba vợ Hoàng là một người đàn ông cực kỳ gia trưởng, đôi lúc Hoàng cũng cảm thấy khó chịu và bất bình khi thấy cách đối xử khắt khe của ông với vợ ông, cô Hồng. Nhưng Trang...","image":null,"label":null,"display":"text-only","type":"text","enable_detail":true,"related":{"url":"https://truyenx.link/truyensextv/channels/related/2138","request_headers":[]},"share":{"url":"https://truyenx.link/truyensextv/channels/share/dan-ba-trung-nien"},"remote_data":{"url":"https://truyenx.link/truyensextv/channels/dan-ba-trung-nien"}},{"id":"2137-channel","name":"Hình xăm Người đàn bà ác quỷ","description":"Câu chuyện bắt đầu từ giữa năm 2009... Hai thằng bạn thân cùng là học sinh cá biệt của trường, vì trốn học, chơi game, đi chơi với gái, karaoke, đua xe, chém nhau vì gái, quậy phá...","image":null,"label":null,"display":"text-only","type":"text","enable_detail":true,"related":{"url":"https://truyenx.link/truyensextv/channels/related/2137","request_headers":[]},"share":{"url":"https://truyenx.link/truyensextv/channels/share/hinh-xam-nguoi-dan-ba-ac-quy"},"remote_data":{"url":"https://truyenx.link/truyensextv/channels/hinh-xam-nguoi-dan-ba-ac-quy"}},{"id":"2136-channel","name":"Em Vân dâm đãng","description":"Thằng bạn nối khố với mình tính tình ngay thẳng, trung thực, thẳng thắn, thật thà, dũng cảm, yêu cấp trên mến cấp dưới, yêu thương đồng loại... vv... vv... Vậy nhưng hơn ba...","image":null,"label":null,"display":"text-only","type":"text","enable_detail":true,"related":{"url":"https://truyenx.link/truyensextv/channels/related/2136","request_headers":[]},"share":{"url":"https://truyenx.link/truyensextv/channels/share/em-van-dam-dang"},"remote_data":{"url":"https://truyenx.link/truyensextv/channels/em-van-dam-dang"}},{"id":"2135-channel","name":"Nguyệt","description":"Vươn vai nhìn đồng hồ, đã đến giờ đón con gái, tôi save lại những công việc trên máy tính và tắt máy đứng dậy. Khoác cái áo khoác vào người, lấy cái balo ở trên tủ sau bàn...","image":null,"label":null,"display":"text-only","type":"text","enable_detail":true,"related":{"url":"https://truyenx.link/truyensextv/channels/related/2135","request_headers":[]},"share":{"url":"https://truyenx.link/truyensextv/channels/share/nguyet"},"remote_data":{"url":"https://truyenx.link/truyensextv/channels/nguyet"}},{"id":"2134-channel","name":"Cô gia sư dạy tiếng Nhật","description":"Mình xin bắt đầu câu chuyện từ hồi mình học xong cấp 3. Cấp 3 thì cũng có nhiều chuyện hay muốn kể, nhưng kể cái thì lộ ngay. Mình là 1 thanh niên 9x sinh ra và lớn lên ở Hải...","image":null,"label":null,"display":"text-only","type":"text","enable_detail":true,"related":{"url":"https://truyenx.link/truyensextv/channels/related/2134","request_headers":[]},"share":{"url":"https://truyenx.link/truyensextv/channels/share/co-gia-su-day-tieng-nhat"},"remote_data":{"url":"https://truyenx.link/truyensextv/channels/co-gia-su-day-tieng-nhat"}},{"id":"2133-channel","name":"Mùa anh đào năm ấy","description":"Nằm ngửa mặt trên chiếc đệm mút cứng, mở mắt ra nhìn mây bay qua tấm kính lợp mái, thả một hơi thuốc thư giãn rồi cài phần đầu lọc vào cái gạt tàn trên nền nhà, ông Tuấn...","image":null,"label":null,"display":"text-only","type":"text","enable_detail":true,"related":{"url":"https://truyenx.link/truyensextv/channels/related/2133","request_headers":[]},"share":{"url":"https://truyenx.link/truyensextv/channels/share/mua-anh-dao-nam-ay"},"remote_data":{"url":"https://truyenx.link/truyensextv/channels/mua-anh-dao-nam-ay"}},{"id":"2132-channel","name":"Ngoại tình với đồng nghiệp","description":"Chẳng biết Hương đã yêu Hải từ lúc nào mà sao nàng cứ nhớ Hải đến như vậy mỗi khi ngồi một mình. Cuộc sống gia đình Hương vẫn như bao gia đình khác, vẫn êm ấm và hạnh...","image":null,"label":null,"display":"text-only","type":"text","enable_detail":true,"related":{"url":"https://truyenx.link/truyensextv/channels/related/2132","request_headers":[]},"share":{"url":"https://truyenx.link/truyensextv/channels/share/ngoai-tinh-voi-dong-nghiep"},"remote_data":{"url":"https://truyenx.link/truyensextv/channels/ngoai-tinh-voi-dong-nghiep"}},{"id":"2131-channel","name":"Thục Oanh","description":"Mày hôm nay sao như đàn bà vậy, mấy quả ngon thế mà toàn ném ra ngoài. Tôi bực tức càu nhàu với thằng Hiếu, mở cái túi thể tháo lấy cái ví đưa nó hai củ, rút cái khăn bông...","image":null,"label":null,"display":"text-only","type":"text","enable_detail":true,"related":{"url":"https://truyenx.link/truyensextv/channels/related/2131","request_headers":[]},"share":{"url":"https://truyenx.link/truyensextv/channels/share/thuc-oanh"},"remote_data":{"url":"https://truyenx.link/truyensextv/channels/thuc-oanh"}},{"id":"2130-channel","name":"Ông bảo vệ","description":"Ông Tư ngồi phì phà nhả khói trông ra cổng, điếu thuốc cháy dở trên bàn tay chai sạm và thô ráp của mình. Chắc cũng sắp đến giờ sếp đến công ty làm việc rồi. Hầu như mọi...","image":null,"label":null,"display":"text-only","type":"text","enable_detail":true,"related":{"url":"https://truyenx.link/truyensextv/channels/related/2130","request_headers":[]},"share":{"url":"https://truyenx.link/truyensextv/channels/share/ong-bao-ve"},"remote_data":{"url":"https://truyenx.link/truyensextv/channels/ong-bao-ve"}},{"id":"2129-channel","name":"Những bà Việt Kiều dâm đãng","description":"Ngày nào Thy, người đàn bà có nhan sắc cũng ghé ngang tiệm Wawa để mua cà phê buổi sáng, dù trong hãng có cà phê free nhưng chị thích cà phê Wawa hơn. Ở Mỹ, tiệm Wawa quen thuộc với...","image":null,"label":null,"display":"text-only","type":"text","enable_detail":true,"related":{"url":"https://truyenx.link/truyensextv/channels/related/2129","request_headers":[]},"share":{"url":"https://truyenx.link/truyensextv/channels/share/nhung-ba-viet-kieu-dam-dang"},"remote_data":{"url":"https://truyenx.link/truyensextv/channels/nhung-ba-viet-kieu-dam-dang"}},{"id":"2128-channel","name":"Hồi ức: Ngày đó ta bên nhau","description":"Đây là chuyện xảy ra với tôi cách đây cũng đã lâu, tôi cố gắng nhớ lại thật chi tiết rồi kể lại. Văn của tôi không được tốt, viết theo những gì mà tôi nhớ lại, mong các...","image":null,"label":null,"display":"text-only","type":"text","enable_detail":true,"related":{"url":"https://truyenx.link/truyensextv/channels/related/2128","request_headers":[]},"share":{"url":"https://truyenx.link/truyensextv/channels/share/hoi-uc-ngay-do-ta-ben-nhau"},"remote_data":{"url":"https://truyenx.link/truyensextv/channels/hoi-uc-ngay-do-ta-ben-nhau"}},{"id":"2127-channel","name":"Làm vợ","description":"Mẹ tôi tuy năm nay ngoài 40, công việc ổn định của nghề văn phòng nên bà rất biết cách giữ dáng mình. Có bận rộn bao nhiêu mẹ vẫn thương yêu tôi giống như con trai chỉ thuộc...","image":null,"label":null,"display":"text-only","type":"text","enable_detail":true,"related":{"url":"https://truyenx.link/truyensextv/channels/related/2127","request_headers":[]},"share":{"url":"https://truyenx.link/truyensextv/channels/share/lam-vo"},"remote_data":{"url":"https://truyenx.link/truyensextv/channels/lam-vo"}},{"id":"2126-channel","name":"Cô giáo cuồng dâm","description":"“Điiing Đooong...” Tiếng chuông cửa vang lên làm Thùy giật mình, nàng quấn vội chiếc khăn tắm rồi bước ra mở cửa, người bấm chuông là Long bạn thân của Thùy trong suốt 4...","image":null,"label":null,"display":"text-only","type":"text","enable_detail":true,"related":{"url":"https://truyenx.link/truyensextv/channels/related/2126","request_headers":[]},"share":{"url":"https://truyenx.link/truyensextv/channels/share/co-giao-cuong-dam"},"remote_data":{"url":"https://truyenx.link/truyensextv/channels/co-giao-cuong-dam"}}],"load_more":{"pageInfo":{"current_page":20,"last_page":140,"per_page":30,"total":4188},"paging":{"page_key":"page","size_key":"size"},"remote_data":{"url":"https://truyenx.link/truyensextv/channels"}}}