{"grid_number":1,"channels":[{"id":"948-channel","name":"Loạn luân ông và cháu","description":"Tân ngồi trên ghế nhâm nhi tách cà phê, thi thoảng lại ngó ra phía cổng mong ngóng. Hôm nay gia đình con trai ông bay từ trong nam ra ăn tết, đây là lần đầu tiên cả nhà đoàn tụ sau 5...","image":null,"label":null,"display":"text-only","type":"text","enable_detail":true,"related":{"url":"https://truyenx.link/truyensextv/channels/related/948","request_headers":[]},"share":{"url":"https://truyenx.link/truyensextv/channels/share/loan-luan-ong-va-chau"},"remote_data":{"url":"https://truyenx.link/truyensextv/channels/loan-luan-ong-va-chau"}},{"id":"947-channel","name":"Ngọn đèn dầu","description":"Trời nhá nhem tối, đâu đó văng vẳng tiếng chó sủa xen lẫn ếch nhái kêu nhộn nhịp. Lụa ngồi ở đầu hòe, cầm cái lược gỗ chải tóc cho con Mận, thi thoảng lại đưa tay xua xua...","image":null,"label":null,"display":"text-only","type":"text","enable_detail":true,"related":{"url":"https://truyenx.link/truyensextv/channels/related/947","request_headers":[]},"share":{"url":"https://truyenx.link/truyensextv/channels/share/ngon-den-dau"},"remote_data":{"url":"https://truyenx.link/truyensextv/channels/ngon-den-dau"}},{"id":"946-channel","name":"Đụ chị Hiệp hàng xóm","description":"Câu chuyện tôi sắp kể ra đây là một câu chuyện sex có thật, tại nơi tôi ở có một bà chị hàng xóm tuy đã có chồng và hai con nhưng thân thể của chị lúc nào cũng làm tôi nứng...","image":null,"label":null,"display":"text-only","type":"text","enable_detail":true,"related":{"url":"https://truyenx.link/truyensextv/channels/related/946","request_headers":[]},"share":{"url":"https://truyenx.link/truyensextv/channels/share/du-chi-hiep-hang-xom"},"remote_data":{"url":"https://truyenx.link/truyensextv/channels/du-chi-hiep-hang-xom"}},{"id":"945-channel","name":"Bú vú chị gia sư","description":"Em kể các bác nghe truyện thời em học lớp 11, nhà em có thuê gia sư về dạy cho em, là gia sư nữ, chị ấy là sinh viên 1 trường danh giá ở Hà Nội, do đích thân người quen của mẹ em...","image":null,"label":null,"display":"text-only","type":"text","enable_detail":true,"related":{"url":"https://truyenx.link/truyensextv/channels/related/945","request_headers":[]},"share":{"url":"https://truyenx.link/truyensextv/channels/share/bu-vu-chi-gia-su"},"remote_data":{"url":"https://truyenx.link/truyensextv/channels/bu-vu-chi-gia-su"}},{"id":"944-channel","name":"Hạnh phúc của một cô gái","description":"Tôi tự tin vì mình khá xinh đẹp, hơn hẳn những đứa bạn và đồng nghiệp cùng trang lứa, vòng ngực của tôi to hơn chúng bạn ngay từ tuổi dậy thì, mông thì nẩy nở không kém gì...","image":null,"label":null,"display":"text-only","type":"text","enable_detail":true,"related":{"url":"https://truyenx.link/truyensextv/channels/related/944","request_headers":[]},"share":{"url":"https://truyenx.link/truyensextv/channels/share/hanh-phuc-cua-mot-co-gai"},"remote_data":{"url":"https://truyenx.link/truyensextv/channels/hanh-phuc-cua-mot-co-gai"}},{"id":"943-channel","name":"Hiếp dâm mợ út","description":"Tôi là một thằng nhóc mới lớn, chập chững vào đời ở cái tuổi ham hố mọi thứ, tuổi 17. À nói chung sự việc cũng chẳng hấp dẫn mấy đâu nếu không đọc kỹ hehe. Sáng sớm...","image":null,"label":null,"display":"text-only","type":"text","enable_detail":true,"related":{"url":"https://truyenx.link/truyensextv/channels/related/943","request_headers":[]},"share":{"url":"https://truyenx.link/truyensextv/channels/share/hiep-dam-mo-ut"},"remote_data":{"url":"https://truyenx.link/truyensextv/channels/hiep-dam-mo-ut"}},{"id":"942-channel","name":"Cha và con gái","description":"Trang ơi, tắm xong chưa con? Một lát nữa ạ. Ba vào kì lưng cho con nhé. Không cần đâu ba. Cường đẩy cửa phòng tắm bước vào, Trang vội lấy tay che ngực quay đi, gắt gỏng: Con đã...","image":null,"label":null,"display":"text-only","type":"text","enable_detail":true,"related":{"url":"https://truyenx.link/truyensextv/channels/related/942","request_headers":[]},"share":{"url":"https://truyenx.link/truyensextv/channels/share/cha-va-con-gai"},"remote_data":{"url":"https://truyenx.link/truyensextv/channels/cha-va-con-gai"}},{"id":"941-channel","name":"Bị chị hàng xóm cắn chim","description":"Truyện cũng khá lâu rồi nhưng làm mình còn nhớ mãi. Ngày mình 5 hay 6 tuổi gì đó, gần nhà mình có chỉ hàng xóm hơn mình 9 10 tuổi gì đó mình không nhớ lám, chị rất hay chơi với...","image":null,"label":null,"display":"text-only","type":"text","enable_detail":true,"related":{"url":"https://truyenx.link/truyensextv/channels/related/941","request_headers":[]},"share":{"url":"https://truyenx.link/truyensextv/channels/share/bi-chi-hang-xom-can-chim"},"remote_data":{"url":"https://truyenx.link/truyensextv/channels/bi-chi-hang-xom-can-chim"}},{"id":"940-channel","name":"Địt em sinh viên Y","description":"Mình cũng có chuyện này, cũng lâu rồi. Hồi đó đi học thêm anh văn buổi tối ở cao đẳng sư phạm có quen một em sinh viên năm 3. Em đó ở quê lên thuê phòng chung cư ở trọ với một...","image":null,"label":null,"display":"text-only","type":"text","enable_detail":true,"related":{"url":"https://truyenx.link/truyensextv/channels/related/940","request_headers":[]},"share":{"url":"https://truyenx.link/truyensextv/channels/share/dit-em-sinh-vien-y"},"remote_data":{"url":"https://truyenx.link/truyensextv/channels/dit-em-sinh-vien-y"}},{"id":"939-channel","name":"Threesome lén lút","description":"Sau tết nguyên đán 2016 khoảng 2 tuần mình được nghỉ do công ty hết hàng, mình tranh thủ đi chơi, tiện thể đi thăm cô người yêu cũ . Buổi tối đó mình và bạn...","image":null,"label":null,"display":"text-only","type":"text","enable_detail":true,"related":{"url":"https://truyenx.link/truyensextv/channels/related/939","request_headers":[]},"share":{"url":"https://truyenx.link/truyensextv/channels/share/threesome-len-lut"},"remote_data":{"url":"https://truyenx.link/truyensextv/channels/threesome-len-lut"}},{"id":"938-channel","name":"Tuổi 17","description":"Năm mẹ được 17 tuổi thì quen biết cha. Mặc dù lúc đó cha rất nghèo, lại lớn lên trong cô nhi viện nhưng hai người vẫn rất yêu nhau. Mặc những lời...","image":null,"label":null,"display":"text-only","type":"text","enable_detail":true,"related":{"url":"https://truyenx.link/truyensextv/channels/related/938","request_headers":[]},"share":{"url":"https://truyenx.link/truyensextv/channels/share/tuoi-17"},"remote_data":{"url":"https://truyenx.link/truyensextv/channels/tuoi-17"}},{"id":"937-channel","name":"Ám ảnh loạn luân","description":"Mười mấy năm trước, tầm khoảng năm 2000 lúc đó mình tốt nghiệp một trường trung cấp, cũng đi làm cho 1 công ty tư nhân. Buổi tối rảnh rỗi và cũng muốn nâng cao trình độ nên...","image":null,"label":null,"display":"text-only","type":"text","enable_detail":true,"related":{"url":"https://truyenx.link/truyensextv/channels/related/937","request_headers":[]},"share":{"url":"https://truyenx.link/truyensextv/channels/share/am-anh-loan-luan"},"remote_data":{"url":"https://truyenx.link/truyensextv/channels/am-anh-loan-luan"}},{"id":"936-channel","name":"Lần đầu tiên được ngửi mùi trái cấm","description":"Em là gái. Cũng muốn kể đôi chút về chuyện của mình với anh em trên truyensextv2.cc. Là gái hơi “ngoan ngoan”, nói thế vì thật ra nếu nhìn ngoài thì đúng kiểu “con người...","image":null,"label":null,"display":"text-only","type":"text","enable_detail":true,"related":{"url":"https://truyenx.link/truyensextv/channels/related/936","request_headers":[]},"share":{"url":"https://truyenx.link/truyensextv/channels/share/lan-dau-tien-duoc-ngui-mui-trai-cam"},"remote_data":{"url":"https://truyenx.link/truyensextv/channels/lan-dau-tien-duoc-ngui-mui-trai-cam"}},{"id":"935-channel","name":"Đụ chị vợ trong nhà vệ sinh","description":"Câu chuyện thế này. Vợ mình 27 làm ngân hàng, nhà vợ có 5 anh chị em, đông vãi. Vợ là con thứ 4, trên vợ có 2 chị gái, 1 chị đi xuất khẩu bên Đài Loan gì đó, thỉnh thoảng vợ...","image":null,"label":null,"display":"text-only","type":"text","enable_detail":true,"related":{"url":"https://truyenx.link/truyensextv/channels/related/935","request_headers":[]},"share":{"url":"https://truyenx.link/truyensextv/channels/share/du-chi-vo-trong-nha-ve-sinh"},"remote_data":{"url":"https://truyenx.link/truyensextv/channels/du-chi-vo-trong-nha-ve-sinh"}},{"id":"934-channel","name":"Ngoại tình với bạn chồng","description":"Tôi ra sức đạp thật nhanh để về nhà vì đói bụng. Năm nay vừa tròn 18 tuổi nên tối nào tôi cũng phải mò đến các lò luyện thi vì chỉ còn vài tháng nữa là kỳ thi đại học...","image":null,"label":null,"display":"text-only","type":"text","enable_detail":true,"related":{"url":"https://truyenx.link/truyensextv/channels/related/934","request_headers":[]},"share":{"url":"https://truyenx.link/truyensextv/channels/share/ngoai-tinh-voi-ban-chong"},"remote_data":{"url":"https://truyenx.link/truyensextv/channels/ngoai-tinh-voi-ban-chong"}},{"id":"933-channel","name":"Em gái Kiên Giang","description":"Có 1 lần đi công tác ở Kiên Giang. Quen được em gái ở đó. Lúc đầu gặp rồi ăn uống, sau đó đi công viên chơi. Lợi dụng cảnh tối mình massage nhẹ cho em ấy rồi ôm và hôn. Sau...","image":null,"label":null,"display":"text-only","type":"text","enable_detail":true,"related":{"url":"https://truyenx.link/truyensextv/channels/related/933","request_headers":[]},"share":{"url":"https://truyenx.link/truyensextv/channels/share/em-gai-kien-giang"},"remote_data":{"url":"https://truyenx.link/truyensextv/channels/em-gai-kien-giang"}},{"id":"932-channel","name":"Va chạm ở shop quần áo","description":"Chuyện là mới tuần trước mình đi shop mua quần áo, shop này bán cả đồ nam lẫn nữ rất đẹp. Một bên là đồ nam, 1 bên là đồ nữ, lối đi ở giữa. Mình vào shop loay hoay lựa...","image":null,"label":null,"display":"text-only","type":"text","enable_detail":true,"related":{"url":"https://truyenx.link/truyensextv/channels/related/932","request_headers":[]},"share":{"url":"https://truyenx.link/truyensextv/channels/share/va-cham-o-shop-quan-ao"},"remote_data":{"url":"https://truyenx.link/truyensextv/channels/va-cham-o-shop-quan-ao"}},{"id":"931-channel","name":"Tống tình","description":"Tôi năm nay 28 tuổi là 1 kỹ sư xây dựng, còn Dung vợ tôi 24 tuổi đang là thông dịch viên cho 1 công ty nước ngoài. Hiện tại tôi thật sự hạnh phúc và hài lòng với những gì mình...","image":null,"label":null,"display":"text-only","type":"text","enable_detail":true,"related":{"url":"https://truyenx.link/truyensextv/channels/related/931","request_headers":[]},"share":{"url":"https://truyenx.link/truyensextv/channels/share/tong-tinh"},"remote_data":{"url":"https://truyenx.link/truyensextv/channels/tong-tinh"}},{"id":"930-channel","name":"Địt vợ bạn nhậu","description":"Mình xin kể câu chuyện này, số là mình có chơi với một ông anh cũng rất thân, bọn mình cũng hay uống rượu với nhau, một hôm ông ấy rủ ra nhà uống rượu với ông ấy. Mình và...","image":null,"label":null,"display":"text-only","type":"text","enable_detail":true,"related":{"url":"https://truyenx.link/truyensextv/channels/related/930","request_headers":[]},"share":{"url":"https://truyenx.link/truyensextv/channels/share/dit-vo-ban-nhau"},"remote_data":{"url":"https://truyenx.link/truyensextv/channels/dit-vo-ban-nhau"}},{"id":"929-channel","name":"Hai thế hệ","description":"Mình lấy vợ ở Đà Lạt, hồi mới cưới vợ cũng đi đi về về chủ yếu là vợ nhớ nhà, cho về thăm ba mẹ ruột. Có lần hứng quá nữa đêm đè vợ ra chịch mà ngặt nỗi nhà vợ...","image":null,"label":null,"display":"text-only","type":"text","enable_detail":true,"related":{"url":"https://truyenx.link/truyensextv/channels/related/929","request_headers":[]},"share":{"url":"https://truyenx.link/truyensextv/channels/share/hai-the-he"},"remote_data":{"url":"https://truyenx.link/truyensextv/channels/hai-the-he"}},{"id":"928-channel","name":"Sờ mó trên chuyến xe khách","description":"4 nên đi xe khách về quê. Bữa đó ngồi cạnh một chị, nhìn tướng tá cũng ổn. Xe thì đông nên lên xe là ngồi sát vào nhau. Ban đầu cũng ngồi bình thường thôi. Mình mặc áo phông...","image":null,"label":null,"display":"text-only","type":"text","enable_detail":true,"related":{"url":"https://truyenx.link/truyensextv/channels/related/928","request_headers":[]},"share":{"url":"https://truyenx.link/truyensextv/channels/share/so-mo-tren-chuyen-xe-khach"},"remote_data":{"url":"https://truyenx.link/truyensextv/channels/so-mo-tren-chuyen-xe-khach"}},{"id":"927-channel","name":"Con vợ yêu quá hư của tôi","description":"Hai đứa tôi quen nhau từ hồi cấp 2, nhưng mãi đến năm lớp 12 tụi tôi mới yêu nhau. Vợ tôi chỉ cao 1m50 nhưng dáng người tương đối chuẩn, dễ thương vô cùng. Em rất hiền nhưng...","image":null,"label":null,"display":"text-only","type":"text","enable_detail":true,"related":{"url":"https://truyenx.link/truyensextv/channels/related/927","request_headers":[]},"share":{"url":"https://truyenx.link/truyensextv/channels/share/con-vo-yeu-qua-hu-cua-toi"},"remote_data":{"url":"https://truyenx.link/truyensextv/channels/con-vo-yeu-qua-hu-cua-toi"}},{"id":"926-channel","name":"Làm tình với khách hàng","description":"Thảo Linh có vẻ hơi ngạc nhiên khi gặp ông Khách đã hẹn nàng hôm nay. Làm việc trong công ty địa ốc Hải Dũng này đã hơn hai năm rồi, ít khi nào Thảo Linh thấy loại khách trẻ như...","image":null,"label":null,"display":"text-only","type":"text","enable_detail":true,"related":{"url":"https://truyenx.link/truyensextv/channels/related/926","request_headers":[]},"share":{"url":"https://truyenx.link/truyensextv/channels/share/lam-tinh-voi-khach-hang"},"remote_data":{"url":"https://truyenx.link/truyensextv/channels/lam-tinh-voi-khach-hang"}},{"id":"925-channel","name":"Làm tình ở nhà văn hóa","description":"Thấy nhiều anh em kể chuyện sex ở truyensextv2.cc nên hôm nay mình cũng góp vui hai kỉ niệm của mình với bà xã. Tối mùng 4 Tết năm vừa rồi hai vợ chồng đi nhậu cùng mấy anh em ở...","image":null,"label":null,"display":"text-only","type":"text","enable_detail":true,"related":{"url":"https://truyenx.link/truyensextv/channels/related/925","request_headers":[]},"share":{"url":"https://truyenx.link/truyensextv/channels/share/lam-tinh-o-nha-van-hoa"},"remote_data":{"url":"https://truyenx.link/truyensextv/channels/lam-tinh-o-nha-van-hoa"}},{"id":"924-channel","name":"Tôi và người yêu cũ","description":"Tôi và em sinh ra và lớn lên trên vùng đất miền trung đầy nắng gió. Hai đứa chung lớp từng cấp 3, hồi ấy sao bọn tôi ngây ngô đến vậy, mặc dù thích nhau và đã ở cái tuổi...","image":null,"label":null,"display":"text-only","type":"text","enable_detail":true,"related":{"url":"https://truyenx.link/truyensextv/channels/related/924","request_headers":[]},"share":{"url":"https://truyenx.link/truyensextv/channels/share/toi-va-nguoi-yeu-cu"},"remote_data":{"url":"https://truyenx.link/truyensextv/channels/toi-va-nguoi-yeu-cu"}},{"id":"923-channel","name":"Tiểu Vân bé bỏng","description":"Long đi học thêm buổi tối để lấy bằng cao học quản trị kinh doanh. Cô bé cũng còn mấy lớp nữa thì xong master, về Biostat hay gì đó. Hai người học chung lớp về cách research. Ngồi...","image":null,"label":null,"display":"text-only","type":"text","enable_detail":true,"related":{"url":"https://truyenx.link/truyensextv/channels/related/923","request_headers":[]},"share":{"url":"https://truyenx.link/truyensextv/channels/share/tieu-van-be-bong"},"remote_data":{"url":"https://truyenx.link/truyensextv/channels/tieu-van-be-bong"}},{"id":"922-channel","name":"Bà chị dâu","description":"Căn nhà chị dâu bỗng nhộn nhịp vào một ngày mùa thu của tháng 10 năm 93. Tôi cùng với ba má và một đứa em trai định cư qua Mỹ... Anh tôi tên Tuấn và vợ anh ấy tên Thúy ra sân bay...","image":null,"label":null,"display":"text-only","type":"text","enable_detail":true,"related":{"url":"https://truyenx.link/truyensextv/channels/related/922","request_headers":[]},"share":{"url":"https://truyenx.link/truyensextv/channels/share/ba-chi-dau"},"remote_data":{"url":"https://truyenx.link/truyensextv/channels/ba-chi-dau"}},{"id":"921-channel","name":"Cô Liên hàng xóm","description":"Thanh có thói quen cứ chiều tối, anh lại lên quán nước đầu ngõ để tụ tập nhâm nhi chén trà, đưa đẩy câu chuyện với mấy người hàng xóm. Tối đó đang nhâm nhi chén trà đưa...","image":null,"label":null,"display":"text-only","type":"text","enable_detail":true,"related":{"url":"https://truyenx.link/truyensextv/channels/related/921","request_headers":[]},"share":{"url":"https://truyenx.link/truyensextv/channels/share/co-lien-hang-xom"},"remote_data":{"url":"https://truyenx.link/truyensextv/channels/co-lien-hang-xom"}},{"id":"920-channel","name":"Bạn của bạn gái say rượu","description":"Chuyện này cũng cách đây mấy năm rồi. Em thì đã đi làm, còn gấu và cô bạn thân tên T thì học và trọ bên Hà Đông. Cô bé T này người cao ráo, xinh và còn có răng khểnh nữa. Em...","image":null,"label":null,"display":"text-only","type":"text","enable_detail":true,"related":{"url":"https://truyenx.link/truyensextv/channels/related/920","request_headers":[]},"share":{"url":"https://truyenx.link/truyensextv/channels/share/ban-cua-ban-gai-say-ruou"},"remote_data":{"url":"https://truyenx.link/truyensextv/channels/ban-cua-ban-gai-say-ruou"}},{"id":"919-channel","name":"Cô chủ nhà trọ - Ngoại truyện","description":"Những ngày đầu tiên sau đám cưới cũng không có gì đặc biệt, tôi và Nhi luôn vui vẻ, hạnh phúc. Ở quê tôi hồi ấy không có khái niệm ” tuần trăng mật”, hai đứa chỉ...","image":null,"label":null,"display":"text-only","type":"text","enable_detail":true,"related":{"url":"https://truyenx.link/truyensextv/channels/related/919","request_headers":[]},"share":{"url":"https://truyenx.link/truyensextv/channels/share/co-chu-nha-tro-ngoai-truyen"},"remote_data":{"url":"https://truyenx.link/truyensextv/channels/co-chu-nha-tro-ngoai-truyen"}}],"load_more":{"pageInfo":{"current_page":109,"last_page":140,"per_page":30,"total":4188},"paging":{"page_key":"page","size_key":"size"},"remote_data":{"url":"https://truyenx.link/truyensextv/channels"}}}