{"grid_number":1,"channels":[{"id":"288-channel","name":"Chuyện tình buồn","description":"XXXX – Ngày nhập học Ông già hói giống y Japp Stam, kéo cái kính trễ xuống nhìn tập hồ sơ...","image":null,"label":null,"display":"text-only","type":"text","enable_detail":true,"related":{"url":"https://truyenx.link/truyensextv/channels/related/288","request_headers":[]},"share":{"url":"https://truyenx.link/truyensextv/channels/share/chuyen-tinh-buon"},"remote_data":{"url":"https://truyenx.link/truyensextv/channels/chuyen-tinh-buon"}},{"id":"287-channel","name":"Bố chồng đụ con dâu","description":"Á á...ự..ự.. mạnh lên anh ơi, địt nát lồn em đi anh ơi.. chơi nát cái lồn của em đi anh ơi... Một cảnh tượng nhục dục đập vào mắt ông An khi bước qua phòng của con trai ông...","image":null,"label":null,"display":"text-only","type":"text","enable_detail":true,"related":{"url":"https://truyenx.link/truyensextv/channels/related/287","request_headers":[]},"share":{"url":"https://truyenx.link/truyensextv/channels/share/bo-chong-du-con-dau"},"remote_data":{"url":"https://truyenx.link/truyensextv/channels/bo-chong-du-con-dau"}},{"id":"286-channel","name":"Chị Huyền tạp hóa","description":"Câu chuyện này là 1 câu chuyện có thật của tôi. Năm nay tôi 19 tuổi, ở cái tuổi này tôi bắt đầu tò mò giới tính, chỉ cần thấy phụ nữ hở hang vú mông đồ sộ là cái đầu...","image":null,"label":null,"display":"text-only","type":"text","enable_detail":true,"related":{"url":"https://truyenx.link/truyensextv/channels/related/286","request_headers":[]},"share":{"url":"https://truyenx.link/truyensextv/channels/share/chi-huyen-tap-hoa"},"remote_data":{"url":"https://truyenx.link/truyensextv/channels/chi-huyen-tap-hoa"}},{"id":"285-channel","name":"Người vợ hiện tại của tôi","description":"Trong công ty nó làm lại có đứa thích nó... Hương Người huế mà giọng nào cũng nói được... Nó cũng chẳng biết con bé thích nó là vì cái gì... Và Đó cũng là một trong những ẩn...","image":null,"label":null,"display":"text-only","type":"text","enable_detail":true,"related":{"url":"https://truyenx.link/truyensextv/channels/related/285","request_headers":[]},"share":{"url":"https://truyenx.link/truyensextv/channels/share/nguoi-vo-hien-tai-cua-toi"},"remote_data":{"url":"https://truyenx.link/truyensextv/channels/nguoi-vo-hien-tai-cua-toi"}},{"id":"284-channel","name":"Mẹ vợ dâm đãng","description":"Chào mọi người, đây là chuyện thật của tôi. Bớt dài dòng tôi không kể lúc cưới vợ và từ lúc thích mẹ vợ nhé. Mình sẽ kể luôn lần tiến tới cái lồn của mẹ vợ. Hôm...","image":null,"label":null,"display":"text-only","type":"text","enable_detail":true,"related":{"url":"https://truyenx.link/truyensextv/channels/related/284","request_headers":[]},"share":{"url":"https://truyenx.link/truyensextv/channels/share/me-vo-dam-dang"},"remote_data":{"url":"https://truyenx.link/truyensextv/channels/me-vo-dam-dang"}},{"id":"283-channel","name":"Chinh phục gái đẹp - Chương 1","description":"Những ngọn đèn trong thôn dần dần được tắt đi, toàn bộ thôn Bang Tử Dục dần dần yên lặng trong bóng đêm, từ phía sau ngọn núi màn sương bắt đầu dầy lên, Đinh Nhị Cẩu...","image":null,"label":null,"display":"text-only","type":"text","enable_detail":true,"related":{"url":"https://truyenx.link/truyensextv/channels/related/283","request_headers":[]},"share":{"url":"https://truyenx.link/truyensextv/channels/share/chinh-phuc-gai-dep-chuong-1"},"remote_data":{"url":"https://truyenx.link/truyensextv/channels/chinh-phuc-gai-dep-chuong-1"}},{"id":"282-channel","name":"Phá trinh chị họ","description":"Thảo là một người con gái xinh đẹp, tuy còn là 1 nữ sinh lớp 11 đã là người tình trong mộng của rất nhiều chàng trai trong trường, cô là con gái của một đại gia. Tuy nhiên, lối...","image":null,"label":null,"display":"text-only","type":"text","enable_detail":true,"related":{"url":"https://truyenx.link/truyensextv/channels/related/282","request_headers":[]},"share":{"url":"https://truyenx.link/truyensextv/channels/share/pha-trinh-chi-ho"},"remote_data":{"url":"https://truyenx.link/truyensextv/channels/pha-trinh-chi-ho"}},{"id":"281-channel","name":"Người cô bên vợ","description":"Hôn tạm biệt bà xã, cúi xuống nựng con rồi mình xách hành lý ra xe. 10 năm rồi, trong tay mình đã có tất cả, tất cả những gì mà mình ngày xưa vẫn luôn hằng ao ước. Nhớ lại...","image":null,"label":null,"display":"text-only","type":"text","enable_detail":true,"related":{"url":"https://truyenx.link/truyensextv/channels/related/281","request_headers":[]},"share":{"url":"https://truyenx.link/truyensextv/channels/share/nguoi-co-ben-vo"},"remote_data":{"url":"https://truyenx.link/truyensextv/channels/nguoi-co-ben-vo"}},{"id":"280-channel","name":"Cô em họ của tôi","description":"Em tuy là em họ của tôi nhưng lại lớn hơn tôi hai tuổi. Hồi em mới vào đây, tôi chỉ là thằng sinh viên năm nhất. Nhà tôi nhận nuôi em để em đi học nghề để sau này...","image":null,"label":null,"display":"text-only","type":"text","enable_detail":true,"related":{"url":"https://truyenx.link/truyensextv/channels/related/280","request_headers":[]},"share":{"url":"https://truyenx.link/truyensextv/channels/share/co-em-ho-cua-toi"},"remote_data":{"url":"https://truyenx.link/truyensextv/channels/co-em-ho-cua-toi"}},{"id":"279-channel","name":"Lần đầu tôi gặp em","description":"Do cả chiều tối hôm qua tôi vẫn còn đang phê, giờ mới đủ tỉnh tảo nên tôi xin kể câu chuyện tôi vừa trải qua để hầu chuyện mấy bác. Chẳng là chiều hôm kia tôi có lên Hà...","image":null,"label":null,"display":"text-only","type":"text","enable_detail":true,"related":{"url":"https://truyenx.link/truyensextv/channels/related/279","request_headers":[]},"share":{"url":"https://truyenx.link/truyensextv/channels/share/lan-dau-toi-gap-em"},"remote_data":{"url":"https://truyenx.link/truyensextv/channels/lan-dau-toi-gap-em"}},{"id":"278-channel","name":"Ngọc La Sát","description":"Đêm... Bắc Kinh. Trước cửa lớn của tiêu cục Chấn Viễn, đèn lồng đỏ treo cao, pháo nổ rền vang. Một đội kèn trống đang tấu lên những khúc ca vui mừng. Trong khoảng sân rộng...","image":null,"label":null,"display":"text-only","type":"text","enable_detail":true,"related":{"url":"https://truyenx.link/truyensextv/channels/related/278","request_headers":[]},"share":{"url":"https://truyenx.link/truyensextv/channels/share/ngoc-la-sat"},"remote_data":{"url":"https://truyenx.link/truyensextv/channels/ngoc-la-sat"}},{"id":"277-channel","name":"Tình dục tuổi học trò","description":"Chuyện em sắp kể với các bác có thể các bác đã gặp ở đâu đó rồi, nếu bác nào gặp rồi thì ắt hẳn cũng biết chuyện này phê kinh khủng, hơn cả thủ dâm nữa vì vừa sợ...","image":null,"label":null,"display":"text-only","type":"text","enable_detail":true,"related":{"url":"https://truyenx.link/truyensextv/channels/related/277","request_headers":[]},"share":{"url":"https://truyenx.link/truyensextv/channels/share/tinh-duc-tuoi-hoc-tro"},"remote_data":{"url":"https://truyenx.link/truyensextv/channels/tinh-duc-tuoi-hoc-tro"}},{"id":"276-channel","name":"Đụ mẹ ruột","description":"Rảnh rỗi lên truyensextv2.cc đọc truyện nứng chim quá. Mạo muội chia sẻ đôi điều. Mẹ đẻ mình khi 18 tuổi. Và đến khi mình 18, đã bắt gặp bố mẹ địt nhau, nhìn mẹ tắm, lông...","image":null,"label":null,"display":"text-only","type":"text","enable_detail":true,"related":{"url":"https://truyenx.link/truyensextv/channels/related/276","request_headers":[]},"share":{"url":"https://truyenx.link/truyensextv/channels/share/du-me-ruot"},"remote_data":{"url":"https://truyenx.link/truyensextv/channels/du-me-ruot"}},{"id":"275-channel","name":"Loạn luân với chị gái ruột","description":"Lời đầu tiên cho phép mình được dấu đi thông tin quê quán cũng như gia đình nha. Chuyện này của mình và chị gái ruột. Hồi đó nhà mình nghèo lắm, ba mẹ thì đi làm rẫy, làm...","image":null,"label":null,"display":"text-only","type":"text","enable_detail":true,"related":{"url":"https://truyenx.link/truyensextv/channels/related/275","request_headers":[]},"share":{"url":"https://truyenx.link/truyensextv/channels/share/loan-luan-voi-chi-gai-ruot"},"remote_data":{"url":"https://truyenx.link/truyensextv/channels/loan-luan-voi-chi-gai-ruot"}},{"id":"274-channel","name":"Người tình cực dâm","description":"Tôi năm nay 16 tuổi, đúng vào dịp nghỉ hè đang chán, bằng chơi điện tử. Trò tôi hay chơi là game Avatar, trò này ít nhức đầu mà lại xả được stress. Vào được một...","image":null,"label":null,"display":"text-only","type":"text","enable_detail":true,"related":{"url":"https://truyenx.link/truyensextv/channels/related/274","request_headers":[]},"share":{"url":"https://truyenx.link/truyensextv/channels/share/nguoi-tinh-cuc-dam"},"remote_data":{"url":"https://truyenx.link/truyensextv/channels/nguoi-tinh-cuc-dam"}},{"id":"273-channel","name":"Đụ tập thể cave ở phòng trọ","description":"Thú thực là mình có sở thích lạ lắm các bạn ah, số là sinh viên năm 2, khát tình lắm mà không được thỏa mãn ấy mà. Rồi một hôm tích được 400k định đi làm 1 phát xả tinh...","image":null,"label":null,"display":"text-only","type":"text","enable_detail":true,"related":{"url":"https://truyenx.link/truyensextv/channels/related/273","request_headers":[]},"share":{"url":"https://truyenx.link/truyensextv/channels/share/du-tap-the-cave-o-phong-tro"},"remote_data":{"url":"https://truyenx.link/truyensextv/channels/du-tap-the-cave-o-phong-tro"}},{"id":"272-channel","name":"Đụ chị dâu xinh đẹp","description":"Chào các bạn trong truyensextv2.cc Thấy các bạn kể chuyện của bản thân làm tôi cũng thấy hứng, muốn kể để bớt đi phần nào hối hận, tội lỗi, dù văn không hay nhưng chân thật...","image":null,"label":null,"display":"text-only","type":"text","enable_detail":true,"related":{"url":"https://truyenx.link/truyensextv/channels/related/272","request_headers":[]},"share":{"url":"https://truyenx.link/truyensextv/channels/share/du-chi-dau-xinh-dep"},"remote_data":{"url":"https://truyenx.link/truyensextv/channels/du-chi-dau-xinh-dep"}},{"id":"271-channel","name":"Những cuộc tình loạn luân","description":"Lâm đang ngồi dựa lưng vào tường tận hưởng, hai tay vò tóc mẹ vợ đang hì hục bú cu hắn một cách say sưa. Sau hai hôm ngủ bệnh viện trông Phương, vợ Lâm đẻ, mọi việc đã ổn...","image":null,"label":null,"display":"text-only","type":"text","enable_detail":true,"related":{"url":"https://truyenx.link/truyensextv/channels/related/271","request_headers":[]},"share":{"url":"https://truyenx.link/truyensextv/channels/share/nhung-cuoc-tinh-loan-luan"},"remote_data":{"url":"https://truyenx.link/truyensextv/channels/nhung-cuoc-tinh-loan-luan"}},{"id":"270-channel","name":"Chịch em sinh viên sư phạm","description":"Hà Nội hôm đó chớm lạnh, đợt gió mùa đầu tiên tràn về, đường phố bỗng dưng có 1 màu sắc khác... sắc màu mùa Đông! Trời trở rét luôn mang lại những cảm giác thú vị, thèm...","image":null,"label":null,"display":"text-only","type":"text","enable_detail":true,"related":{"url":"https://truyenx.link/truyensextv/channels/related/270","request_headers":[]},"share":{"url":"https://truyenx.link/truyensextv/channels/share/chich-em-sinh-vien-su-pham"},"remote_data":{"url":"https://truyenx.link/truyensextv/channels/chich-em-sinh-vien-su-pham"}},{"id":"269-channel","name":"Xem trộm gái dâm tắm","description":"Xin chào các các anh em trong truyensextv2.cc, hôm nay mình xin kể 1 câu chuyện có thật 100%. Câu chuyện đã xảy ra với mình cách đây vài năm. Truyện không có đoạn chịch chọt nên không...","image":null,"label":null,"display":"text-only","type":"text","enable_detail":true,"related":{"url":"https://truyenx.link/truyensextv/channels/related/269","request_headers":[]},"share":{"url":"https://truyenx.link/truyensextv/channels/share/xem-trom-gai-dam-tam"},"remote_data":{"url":"https://truyenx.link/truyensextv/channels/xem-trom-gai-dam-tam"}},{"id":"268-channel","name":"Những bà chị dâu và chị họ của tôi","description":"Không biết các bác thế nào chứ mình không hiểu sao cứ toàn suy nghĩ loạn luân, chỉ thích mấy bà chị em họ và vợ của các ông anh họ. Cũng sơ múi được ít nhiều...","image":null,"label":null,"display":"text-only","type":"text","enable_detail":true,"related":{"url":"https://truyenx.link/truyensextv/channels/related/268","request_headers":[]},"share":{"url":"https://truyenx.link/truyensextv/channels/share/nhung-ba-chi-dau-va-chi-ho-cua-toi"},"remote_data":{"url":"https://truyenx.link/truyensextv/channels/nhung-ba-chi-dau-va-chi-ho-cua-toi"}},{"id":"267-channel","name":"Gái dâm rủ về phòng","description":"Lại nhớ đến chuyện hồi đại học. Đợt đấy cũng chơi thân 1 con bé trong lớp, nói chung là trắng và nuột lắm, gái Bắc Giang, vòng nào ra vòng đấy, cao 1m68 nhé, chơi với nhau suốt...","image":null,"label":null,"display":"text-only","type":"text","enable_detail":true,"related":{"url":"https://truyenx.link/truyensextv/channels/related/267","request_headers":[]},"share":{"url":"https://truyenx.link/truyensextv/channels/share/gai-dam-ru-ve-phong"},"remote_data":{"url":"https://truyenx.link/truyensextv/channels/gai-dam-ru-ve-phong"}},{"id":"266-channel","name":"1 lần đụ chị dâu","description":"Tôi xin chia sẻ chuyện thật 100% của chính bản thân mình. Chuyện diễn ra đã lâu lắm rồi, định cho vào dĩ vãng nhưng dạo này bà xã tôi không biết sao không hứng thú chuyện chăn...","image":null,"label":null,"display":"text-only","type":"text","enable_detail":true,"related":{"url":"https://truyenx.link/truyensextv/channels/related/266","request_headers":[]},"share":{"url":"https://truyenx.link/truyensextv/channels/share/1-lan-du-chi-dau"},"remote_data":{"url":"https://truyenx.link/truyensextv/channels/1-lan-du-chi-dau"}},{"id":"265-channel","name":"Con vợ dâm đãng của tôi","description":"Số là vợ chồng em vừa mới trốn con đi Vũng Tàu để đổi gió cuối tuần vừa rồi. Khỏi phải nói vợ chồng em thèm khát nhau thế nào. Vừa đặt chân vào phòng khách sạn vợ em đã...","image":null,"label":null,"display":"text-only","type":"text","enable_detail":true,"related":{"url":"https://truyenx.link/truyensextv/channels/related/265","request_headers":[]},"share":{"url":"https://truyenx.link/truyensextv/channels/share/con-vo-dam-dang-cua-toi"},"remote_data":{"url":"https://truyenx.link/truyensextv/channels/con-vo-dam-dang-cua-toi"}},{"id":"264-channel","name":"Cưỡng dâm bồ của bạn","description":"Chào toàn thể anh em trên truyensextv2.cc , mình cũng chỉ mới biết web này cách đây mấy tháng thôi, đọc cũng nhiều nhưng bây giờ mới dành thời gian để chia sẻ một chút về biến cố...","image":null,"label":null,"display":"text-only","type":"text","enable_detail":true,"related":{"url":"https://truyenx.link/truyensextv/channels/related/264","request_headers":[]},"share":{"url":"https://truyenx.link/truyensextv/channels/share/cuong-dam-bo-cua-ban"},"remote_data":{"url":"https://truyenx.link/truyensextv/channels/cuong-dam-bo-cua-ban"}},{"id":"263-channel","name":"Mùa hoa phượng năm ấy","description":"Chào các bạn, những dòng tôi viết dưới đây không phải là truyện sex, nhưng vì những xúc cảm khi đọc xong truyện Câu chuyện đời tôi, tôi muốn chia sẻ cho anh em trong truyensextv2.cc...","image":null,"label":null,"display":"text-only","type":"text","enable_detail":true,"related":{"url":"https://truyenx.link/truyensextv/channels/related/263","request_headers":[]},"share":{"url":"https://truyenx.link/truyensextv/channels/share/mua-hoa-phuong-nam-ay"},"remote_data":{"url":"https://truyenx.link/truyensextv/channels/mua-hoa-phuong-nam-ay"}},{"id":"262-channel","name":"Vì sao lại thích bóp vú?","description":"Chắc không ít trong các bạn có một chút suy nghĩ: Tại sao khi nam nữ yêu nhau, người con trai lại thích hôn vú, bú vú, bóp vú, xoa vú, nhào nặn vú để sướng từ đâu ra không biết...","image":null,"label":null,"display":"text-only","type":"text","enable_detail":true,"related":{"url":"https://truyenx.link/truyensextv/channels/related/262","request_headers":[]},"share":{"url":"https://truyenx.link/truyensextv/channels/share/vi-sao-lai-thich-bop-vu"},"remote_data":{"url":"https://truyenx.link/truyensextv/channels/vi-sao-lai-thich-bop-vu"}},{"id":"261-channel","name":"Cô gái thích bạo dâm","description":"Bên cạnh nhà Toàn có một cô bé hàng xóm rất là dễ thương, nàng tên là Dung. Dung và Toàn lớn lên cùng nhau, có thể nói là cực kì thân thiết. Dung rất hay sang nhà Toàn chơi, đặc...","image":null,"label":null,"display":"text-only","type":"text","enable_detail":true,"related":{"url":"https://truyenx.link/truyensextv/channels/related/261","request_headers":[]},"share":{"url":"https://truyenx.link/truyensextv/channels/share/co-gai-thich-bao-dam"},"remote_data":{"url":"https://truyenx.link/truyensextv/channels/co-gai-thich-bao-dam"}},{"id":"260-channel","name":"Hai con dâm nữ","description":"Chuyến du lịch Nha Trang năm đó là một chuyến đi nhiều kỷ niệm tuyệt vời đối với Thanh. Vợ chồng Thanh nghe nói có tour đi Nha Trang 4 ngày 3 đêm của một số bạn hàng ở chợ...","image":null,"label":null,"display":"text-only","type":"text","enable_detail":true,"related":{"url":"https://truyenx.link/truyensextv/channels/related/260","request_headers":[]},"share":{"url":"https://truyenx.link/truyensextv/channels/share/hai-con-dam-nu"},"remote_data":{"url":"https://truyenx.link/truyensextv/channels/hai-con-dam-nu"}},{"id":"259-channel","name":"Chị Thủy hàng xóm","description":"Câu chuyện xảy ra cũng lâu rồi, lúc đó tôi mới đang là sinh viên năm thứ 1, học hành vất vả thì ít mà chơi thì nhiều, cuối cùng cũng chờ được đến hè, năm đó chả biết thế...","image":null,"label":null,"display":"text-only","type":"text","enable_detail":true,"related":{"url":"https://truyenx.link/truyensextv/channels/related/259","request_headers":[]},"share":{"url":"https://truyenx.link/truyensextv/channels/share/chi-thuy-hang-xom"},"remote_data":{"url":"https://truyenx.link/truyensextv/channels/chi-thuy-hang-xom"}}],"load_more":{"pageInfo":{"current_page":131,"last_page":140,"per_page":30,"total":4188},"paging":{"page_key":"page","size_key":"size"},"remote_data":{"url":"https://truyenx.link/truyensextv/channels"}}}