{
  "grid_number": 1,
  "channels": [
    {
      "id": "4032-channel",
      "name": "Hoán đổi cơ thể với mẹ người yêu",
      "description": "Dạ thưa mẹ, con đi học nhé. À, tối nay con đi hẹn hò với bạn trai nên không cần phần cơm cho con đâu. Cô con gái có bộ tóc nâu ngắn đến vai cùng đôi mắt đen nhánh và có nốt...",
      "image": null,
      "label": null,
      "display": "text-only",
      "type": "text",
      "enable_detail": true,
      "related": {
        "url": "https://truyenx.link/truyensextv/channels/related/4032",
        "request_headers": []
      },
      "share": {
        "url": "https://truyenx.link/truyensextv/channels/share/hoan-doi-co-the-voi-me-nguoi-yeu"
      },
      "remote_data": {
        "url": "https://truyenx.link/truyensextv/channels/hoan-doi-co-the-voi-me-nguoi-yeu"
      }
    },
    {
      "id": "4031-channel",
      "name": "Vương Trường Sinh - Quyển 2",
      "description": "Vương Minh Nhân về tông “Chúc mừng thất ca, tiến vào Trúc Cơ tầng bốn.” Vương Thanh Thuân cười hàm hậu, chúc mừng. Vương Thanh Sơn mỉm cười, nói: “Mọi người tán...",
      "image": null,
      "label": null,
      "display": "text-only",
      "type": "text",
      "enable_detail": true,
      "related": {
        "url": "https://truyenx.link/truyensextv/channels/related/4031",
        "request_headers": []
      },
      "share": {
        "url": "https://truyenx.link/truyensextv/channels/share/vuong-truong-sinh-quyen-2"
      },
      "remote_data": {
        "url": "https://truyenx.link/truyensextv/channels/vuong-truong-sinh-quyen-2"
      }
    },
    {
      "id": "4029-channel",
      "name": "Thi - Quyển 2",
      "description": "Chúng tôi lặng lẽ trốn ở dưới gầm bàn, sau đó quan sát mọi thứ ở trong phòng. Nhìn thấy Chuối Tây Tinh đang tiến đến gần người rơm trông giống với bộ dạng của Tiểu Mạn...",
      "image": null,
      "label": null,
      "display": "text-only",
      "type": "text",
      "enable_detail": true,
      "related": {
        "url": "https://truyenx.link/truyensextv/channels/related/4029",
        "request_headers": []
      },
      "share": {
        "url": "https://truyenx.link/truyensextv/channels/share/thi-quyen-2"
      },
      "remote_data": {
        "url": "https://truyenx.link/truyensextv/channels/thi-quyen-2"
      }
    },
    {
      "id": "4028-channel",
      "name": "Cuộc đời hoang lạc loạn luân",
      "description": "Khởi Đầu Của Loạn Luân Xin giới thiệu tôi tên là Tiến năm nay 17t nhà tôi có 3 người ngoài tôi còn ba mẹ tôi, ba tôi tên Thăng 42t làm kỹ sư công trình nhưng đã mất được 2 năm...",
      "image": null,
      "label": null,
      "display": "text-only",
      "type": "text",
      "enable_detail": true,
      "related": {
        "url": "https://truyenx.link/truyensextv/channels/related/4028",
        "request_headers": []
      },
      "share": {
        "url": "https://truyenx.link/truyensextv/channels/share/cuoc-doi-hoang-lac-loan-luan"
      },
      "remote_data": {
        "url": "https://truyenx.link/truyensextv/channels/cuoc-doi-hoang-lac-loan-luan"
      }
    },
    {
      "id": "4027-channel",
      "name": "Đêm khiêu vũ",
      "description": "Nhân dịp bố mẹ đi công tác Sài gòn, Hoa bèn nhận lời đi dự đêm khiêu vũ ở nhà thằng Hùng. Chẳng mấy khi được sút xiềng, tha hồ mà bay nhảy. Cô muốn làm người lớn. Nhưng ở...",
      "image": null,
      "label": null,
      "display": "text-only",
      "type": "text",
      "enable_detail": true,
      "related": {
        "url": "https://truyenx.link/truyensextv/channels/related/4027",
        "request_headers": []
      },
      "share": {
        "url": "https://truyenx.link/truyensextv/channels/share/dem-khieu-vu"
      },
      "remote_data": {
        "url": "https://truyenx.link/truyensextv/channels/dem-khieu-vu"
      }
    },
    {
      "id": "4026-channel",
      "name": "Tình yêu hôn nhân lý trí và dục vọng",
      "description": "Gió thu se lạnh thổi qua con hẻm nhỏ, cuốn những chiếc lá bàng vàng rơi lác đác xuống sân nhà, nơi tấm thảm cỏ mỏng đã ngả màu úa vì tiết trời cuối năm. Ánh nắng nhạt nhòa...",
      "image": null,
      "label": null,
      "display": "text-only",
      "type": "text",
      "enable_detail": true,
      "related": {
        "url": "https://truyenx.link/truyensextv/channels/related/4026",
        "request_headers": []
      },
      "share": {
        "url": "https://truyenx.link/truyensextv/channels/share/tinh-yeu-hon-nhan-ly-tri-va-duc-vong"
      },
      "remote_data": {
        "url": "https://truyenx.link/truyensextv/channels/tinh-yeu-hon-nhan-ly-tri-va-duc-vong"
      }
    },
    {
      "id": "4025-channel",
      "name": "Cuộc tình éo le",
      "description": "Cuộc đời tôi có lẽ đã xảy ra thay đổi vào cái hôm định mệnh ấy, lúc 13 tuổi tôi bị chứng kiến cảnh ngoại và mẹ bị cưỡng hiếp. Ngay trước mắt tôi, đầy kinh sợ, nhục...",
      "image": null,
      "label": null,
      "display": "text-only",
      "type": "text",
      "enable_detail": true,
      "related": {
        "url": "https://truyenx.link/truyensextv/channels/related/4025",
        "request_headers": []
      },
      "share": {
        "url": "https://truyenx.link/truyensextv/channels/share/cuoc-tinh-eo-le"
      },
      "remote_data": {
        "url": "https://truyenx.link/truyensextv/channels/cuoc-tinh-eo-le"
      }
    },
    {
      "id": "4024-channel",
      "name": "Con dâu lạnh lùng",
      "description": "Khởi đầu Cling... cling... cling... Một chàng trai độ 28 29 tuổi đang khá bận rộn hối hả với công việc ở công ty, thì chuông điện thoại vang lên. “Alo...” Một giọng nói...",
      "image": null,
      "label": null,
      "display": "text-only",
      "type": "text",
      "enable_detail": true,
      "related": {
        "url": "https://truyenx.link/truyensextv/channels/related/4024",
        "request_headers": []
      },
      "share": {
        "url": "https://truyenx.link/truyensextv/channels/share/con-dau-lanh-lung"
      },
      "remote_data": {
        "url": "https://truyenx.link/truyensextv/channels/con-dau-lanh-lung"
      }
    },
    {
      "id": "4023-channel",
      "name": "Hội dâm",
      "description": "Mặc đồ chú rể, Tú đứng trên lễ đường nhìn xuống bên dưới, nơi cánh cửa của sảnh tiệc. Cùng với lời dẫn của Long MC tiệc cưới hôm nay, ánh đèn trong sảnh tắt ngúm, rồi...",
      "image": null,
      "label": null,
      "display": "text-only",
      "type": "text",
      "enable_detail": true,
      "related": {
        "url": "https://truyenx.link/truyensextv/channels/related/4023",
        "request_headers": []
      },
      "share": {
        "url": "https://truyenx.link/truyensextv/channels/share/hoi-dam"
      },
      "remote_data": {
        "url": "https://truyenx.link/truyensextv/channels/hoi-dam"
      }
    },
    {
      "id": "4022-channel",
      "name": "Mẹ tôi hồi xuân",
      "description": "Trong một gia đình nọ, có 3 người cùng chung sống với nhau lần lượt là ông Phú, 40 tuổi đang làm công việc văn phòng và bà Thủy là vợ ông Phú, 39 tuổi và đang làm công việc nội...",
      "image": null,
      "label": null,
      "display": "text-only",
      "type": "text",
      "enable_detail": true,
      "related": {
        "url": "https://truyenx.link/truyensextv/channels/related/4022",
        "request_headers": []
      },
      "share": {
        "url": "https://truyenx.link/truyensextv/channels/share/me-toi-hoi-xuan"
      },
      "remote_data": {
        "url": "https://truyenx.link/truyensextv/channels/me-toi-hoi-xuan"
      }
    },
    {
      "id": "4021-channel",
      "name": "Căn biệt thự hoan lạc",
      "description": "Một buổi chiều mát mẻ cuối tháng 11, từng cơn gió thổi xào xạc khiến cho những chiếc lá già cỗi rơi chầm chậm hai bên đường, chiếc xe hạng sang hiệu Mercedes đang chầm chậm...",
      "image": null,
      "label": null,
      "display": "text-only",
      "type": "text",
      "enable_detail": true,
      "related": {
        "url": "https://truyenx.link/truyensextv/channels/related/4021",
        "request_headers": []
      },
      "share": {
        "url": "https://truyenx.link/truyensextv/channels/share/can-biet-thu-hoan-lac"
      },
      "remote_data": {
        "url": "https://truyenx.link/truyensextv/channels/can-biet-thu-hoan-lac"
      }
    },
    {
      "id": "4020-channel",
      "name": "Chuyện của Ngọc",
      "description": "Ngọc, vợ Huy, năm nay 30 tuổi, là 1 cô gái vô cùng xinh đẹp và hấp dẫn. Cô hiện có 1 chuỗi tiệm nail bên Mỹ, còn Huy, chồng cô là 1 giám đốc quỹ đầu tư ngân hàng, nên cuộc...",
      "image": null,
      "label": null,
      "display": "text-only",
      "type": "text",
      "enable_detail": true,
      "related": {
        "url": "https://truyenx.link/truyensextv/channels/related/4020",
        "request_headers": []
      },
      "share": {
        "url": "https://truyenx.link/truyensextv/channels/share/chuyen-cua-ngoc"
      },
      "remote_data": {
        "url": "https://truyenx.link/truyensextv/channels/chuyen-cua-ngoc"
      }
    },
    {
      "id": "4019-channel",
      "name": "Trò chơi vợ chồng",
      "description": "Cuộc sống vợ chồng Hơn 30 năm đầu đời, tôi là người phụ nữ ngoan hiền và trong trắng nhưng kể từ lần đó, một vùng trời trong tâm tôi giống như được kìm nén quá lâu đã...",
      "image": null,
      "label": null,
      "display": "text-only",
      "type": "text",
      "enable_detail": true,
      "related": {
        "url": "https://truyenx.link/truyensextv/channels/related/4019",
        "request_headers": []
      },
      "share": {
        "url": "https://truyenx.link/truyensextv/channels/share/tro-choi-vo-chong"
      },
      "remote_data": {
        "url": "https://truyenx.link/truyensextv/channels/tro-choi-vo-chong"
      }
    },
    {
      "id": "4017-channel",
      "name": "Má vợ và Huy",
      "description": "Má vợ của Huy là bà Kim, 1 người phụ nữ ngoài 50 tuổi, chủ doanh nghiệp, góa chồng từ sớm và rất thương con. Bà ở vậy nuôi nấng và chăm sóc đứa con gái duy nhất là Ngọc, vợ...",
      "image": null,
      "label": null,
      "display": "text-only",
      "type": "text",
      "enable_detail": true,
      "related": {
        "url": "https://truyenx.link/truyensextv/channels/related/4017",
        "request_headers": []
      },
      "share": {
        "url": "https://truyenx.link/truyensextv/channels/share/ma-vo-va-huy"
      },
      "remote_data": {
        "url": "https://truyenx.link/truyensextv/channels/ma-vo-va-huy"
      }
    },
    {
      "id": "4018-channel",
      "name": "Huỳnh Như dâm đãng của tôi",
      "description": "Nhà tôi hồi xưa cũng thuộc dạng tiền đè chết người, nhưng một vụ xe tông chết mẹ nó cha tôi, từ đó nhà sa sút, lồn cũng chẳng ai ngó. Cơ mà như dân gian chửi, “rắn trăm...",
      "image": null,
      "label": null,
      "display": "text-only",
      "type": "text",
      "enable_detail": true,
      "related": {
        "url": "https://truyenx.link/truyensextv/channels/related/4018",
        "request_headers": []
      },
      "share": {
        "url": "https://truyenx.link/truyensextv/channels/share/huynh-nhu-dam-dang-cua-toi"
      },
      "remote_data": {
        "url": "https://truyenx.link/truyensextv/channels/huynh-nhu-dam-dang-cua-toi"
      }
    },
    {
      "id": "4016-channel",
      "name": "Vợ bị sếp đụ banh lồn còn tôi threesome với bạn của vợ",
      "description": "Nguyễn Thanh Nhàn, vợ tôi, 28 tuổi, cao 1m60, nặng 55kg, dáng ngon như lửa cháy, cặp vú tròn căng như muốn nổ, mông cong vút như trái đào chín, da trắng mịn màng như kem sữa. Hàng ngày...",
      "image": null,
      "label": null,
      "display": "text-only",
      "type": "text",
      "enable_detail": true,
      "related": {
        "url": "https://truyenx.link/truyensextv/channels/related/4016",
        "request_headers": []
      },
      "share": {
        "url": "https://truyenx.link/truyensextv/channels/share/vo-bi-sep-du-banh-lon-con-toi-threesome-voi-ban-cua-vo"
      },
      "remote_data": {
        "url": "https://truyenx.link/truyensextv/channels/vo-bi-sep-du-banh-lon-con-toi-threesome-voi-ban-cua-vo"
      }
    },
    {
      "id": "4015-channel",
      "name": "Em trai họ",
      "description": "Mình tên A năm nay lớp 11 nhà mình có 1 chị 1 em gái 2 em trai. Hàng xóm nhà mình là chú , nhà chú có 2 trai 1 gái, vì nhà mình với chú sát bên nhau lên thân càng thêm thân. Con trai chú tên T...",
      "image": null,
      "label": null,
      "display": "text-only",
      "type": "text",
      "enable_detail": true,
      "related": {
        "url": "https://truyenx.link/truyensextv/channels/related/4015",
        "request_headers": []
      },
      "share": {
        "url": "https://truyenx.link/truyensextv/channels/share/em-trai-ho"
      },
      "remote_data": {
        "url": "https://truyenx.link/truyensextv/channels/em-trai-ho"
      }
    },
    {
      "id": "4014-channel",
      "name": "Nhà có cô con dâu",
      "description": "Sáng thứ Hai trong biệt thự Sáng thứ Hai ở Hà Nội, trời se lạnh, cái nắng đầu xuân yếu ớt xuyên qua tán cây xanh um trong khu vườn biệt thự rộng thênh thang của gia đình ông...",
      "image": null,
      "label": null,
      "display": "text-only",
      "type": "text",
      "enable_detail": true,
      "related": {
        "url": "https://truyenx.link/truyensextv/channels/related/4014",
        "request_headers": []
      },
      "share": {
        "url": "https://truyenx.link/truyensextv/channels/share/nha-co-co-con-dau"
      },
      "remote_data": {
        "url": "https://truyenx.link/truyensextv/channels/nha-co-co-con-dau"
      }
    },
    {
      "id": "4013-channel",
      "name": "Bà mẹ múp rụp của tôi",
      "description": "Chào các bạn tôi là Việt Anh năm nay học lớp 12 ngoại hình trông cũng tạm được chuyện kể vào năm lớp 11 bố tôi thì mất sớm trên tôi còn 1 chị gái nữa nhưng đã có công việc...",
      "image": null,
      "label": null,
      "display": "text-only",
      "type": "text",
      "enable_detail": true,
      "related": {
        "url": "https://truyenx.link/truyensextv/channels/related/4013",
        "request_headers": []
      },
      "share": {
        "url": "https://truyenx.link/truyensextv/channels/share/ba-me-mup-rup-cua-toi"
      },
      "remote_data": {
        "url": "https://truyenx.link/truyensextv/channels/ba-me-mup-rup-cua-toi"
      }
    },
    {
      "id": "4011-channel",
      "name": "Phức tạp",
      "description": "Cái nắng sài Gòn năm 2021 nó thật khắc nghiệt nóng muốn chảy mỡ... Hoàng là 1 nam thanh niên 23t hiện đang đi làm ở q12... Hôm nay hoàng có ý định qua chỗ mẹ nó làm để thăm mẹ...",
      "image": null,
      "label": null,
      "display": "text-only",
      "type": "text",
      "enable_detail": true,
      "related": {
        "url": "https://truyenx.link/truyensextv/channels/related/4011",
        "request_headers": []
      },
      "share": {
        "url": "https://truyenx.link/truyensextv/channels/share/phuc-tap"
      },
      "remote_data": {
        "url": "https://truyenx.link/truyensextv/channels/phuc-tap"
      }
    },
    {
      "id": "4012-channel",
      "name": "Ký sự dâm dục",
      "description": "Tôi những năm cấp 3 Đó là một buổi trưa nắng nóng, một cái nắng gay gắt của buổi trưa nè. Nói đến trưa hè, người ta nghĩ đến ngay đến những âm thanh khơi gợi sự sinh sôi...",
      "image": null,
      "label": null,
      "display": "text-only",
      "type": "text",
      "enable_detail": true,
      "related": {
        "url": "https://truyenx.link/truyensextv/channels/related/4012",
        "request_headers": []
      },
      "share": {
        "url": "https://truyenx.link/truyensextv/channels/share/ky-su-dam-duc"
      },
      "remote_data": {
        "url": "https://truyenx.link/truyensextv/channels/ky-su-dam-duc"
      }
    },
    {
      "id": "4010-channel",
      "name": "Liếm mè cho lộn",
      "description": "Bất tiện thật đấy, tôi ở căn phòng trên lầu nên mỗi lần đi vệ sinh lại phải chạy xuống tầng, mà các bạn biết đấy, thằng nhóc 16 17 tuổi nào mà có thể đi ngủ sớm như...",
      "image": null,
      "label": null,
      "display": "text-only",
      "type": "text",
      "enable_detail": true,
      "related": {
        "url": "https://truyenx.link/truyensextv/channels/related/4010",
        "request_headers": []
      },
      "share": {
        "url": "https://truyenx.link/truyensextv/channels/share/liem-me-cho-lon"
      },
      "remote_data": {
        "url": "https://truyenx.link/truyensextv/channels/liem-me-cho-lon"
      }
    },
    {
      "id": "4009-channel",
      "name": "Đưa vợ đi bar chơi đồ đổi gió",
      "description": "My ngồi trong văn phòng công ty nước ngoài ở Hà Nội, ánh sáng từ màn hình máy tính chiếu lên khuôn mặt V line xinh đẹp của cô, đôi mắt dâm dâm đưa tình ẩn sau hàng mi cong vút...",
      "image": null,
      "label": null,
      "display": "text-only",
      "type": "text",
      "enable_detail": true,
      "related": {
        "url": "https://truyenx.link/truyensextv/channels/related/4009",
        "request_headers": []
      },
      "share": {
        "url": "https://truyenx.link/truyensextv/channels/share/dua-vo-di-bar-choi-do-doi-gio"
      },
      "remote_data": {
        "url": "https://truyenx.link/truyensextv/channels/dua-vo-di-bar-choi-do-doi-gio"
      }
    },
    {
      "id": "4007-channel",
      "name": "Vợ hàng xóm nứng lồn",
      "description": "Thấy Liên ngồi bắt chéo chân. Hưng biết ngay Liên đang nứng lồn dữ lắm... Hưng ghé tai Liên hỏi nhỏ: Đang nứng lồn dữ lắm đúng hôn? Liên gật đầu. Cởi quần ra đi anh bú lồn...",
      "image": null,
      "label": null,
      "display": "text-only",
      "type": "text",
      "enable_detail": true,
      "related": {
        "url": "https://truyenx.link/truyensextv/channels/related/4007",
        "request_headers": []
      },
      "share": {
        "url": "https://truyenx.link/truyensextv/channels/share/vo-hang-xom-nung-lon"
      },
      "remote_data": {
        "url": "https://truyenx.link/truyensextv/channels/vo-hang-xom-nung-lon"
      }
    },
    {
      "id": "4008-channel",
      "name": "Con đường bá chủ - Quyển 16",
      "description": "Lạc Nam nghe mà giật mình, ánh mắt trở nên cổ quái nhìn lấy Yêu Mị Uyển, thì ra vừa rồi là nàng ra tay giúp mình... chẳng trách nhìn biểu hiện của lão quốc chủ Loạn Đạo Thần...",
      "image": null,
      "label": null,
      "display": "text-only",
      "type": "text",
      "enable_detail": true,
      "related": {
        "url": "https://truyenx.link/truyensextv/channels/related/4008",
        "request_headers": []
      },
      "share": {
        "url": "https://truyenx.link/truyensextv/channels/share/con-duong-ba-chu-quyen-16"
      },
      "remote_data": {
        "url": "https://truyenx.link/truyensextv/channels/con-duong-ba-chu-quyen-16"
      }
    },
    {
      "id": "4006-channel",
      "name": "Cuộc đời của tôi",
      "description": "Tôi, Dũng, 28 tuổi, một gã IT sống đều đặn với những dòng code khô khan trên màn hình laptop, nhưng cơ thể thì rắn chắc nhờ những buổi gym miệt mài mỗi tối cơ bắp nổi rõ...",
      "image": null,
      "label": null,
      "display": "text-only",
      "type": "text",
      "enable_detail": true,
      "related": {
        "url": "https://truyenx.link/truyensextv/channels/related/4006",
        "request_headers": []
      },
      "share": {
        "url": "https://truyenx.link/truyensextv/channels/share/cuoc-doi-cua-toi"
      },
      "remote_data": {
        "url": "https://truyenx.link/truyensextv/channels/cuoc-doi-cua-toi"
      }
    },
    {
      "id": "4005-channel",
      "name": "Mẹ vợ của tôi",
      "description": "Hùng và Lan cãi nhau từ sáng, chỉ vì chuyện vặt Hùng quên đổ rác, Lan nổi cáu tuôn một tràng trách móc sắc như dao, còn Hùng, lòng đã ngập ngụa áp lực từ công việc, gầm lên...",
      "image": null,
      "label": null,
      "display": "text-only",
      "type": "text",
      "enable_detail": true,
      "related": {
        "url": "https://truyenx.link/truyensextv/channels/related/4005",
        "request_headers": []
      },
      "share": {
        "url": "https://truyenx.link/truyensextv/channels/share/me-vo-cua-toi"
      },
      "remote_data": {
        "url": "https://truyenx.link/truyensextv/channels/me-vo-cua-toi"
      }
    },
    {
      "id": "4004-channel",
      "name": "Kể Chuyện Cuckold",
      "description": "Lần Đầu Ghi chú của tác giả: Chào các bạn. Truyện này dựa trên 90% trải nghiệm thực tế của vợ chồng tôi. Mọi tình tiết, cảm xúc, suy nghĩ trong câu chuyện đều xuất phát từ...",
      "image": null,
      "label": null,
      "display": "text-only",
      "type": "text",
      "enable_detail": true,
      "related": {
        "url": "https://truyenx.link/truyensextv/channels/related/4004",
        "request_headers": []
      },
      "share": {
        "url": "https://truyenx.link/truyensextv/channels/share/ke-chuyen-cuckold"
      },
      "remote_data": {
        "url": "https://truyenx.link/truyensextv/channels/ke-chuyen-cuckold"
      }
    },
    {
      "id": "4003-channel",
      "name": "Hương - Hồng - Hoa của đời Năm Phúc",
      "description": "Hôm nay là ngày ông Đam tròn 55 tuổi. Hay còn được mọi người gọi là anh Năm Phúc, vốn dĩ được xóm giềng gọi như vậy là vì suốt cuộc đời ở cái vùng Củ Chi cụ thể là xã...",
      "image": null,
      "label": null,
      "display": "text-only",
      "type": "text",
      "enable_detail": true,
      "related": {
        "url": "https://truyenx.link/truyensextv/channels/related/4003",
        "request_headers": []
      },
      "share": {
        "url": "https://truyenx.link/truyensextv/channels/share/huong-hong-hoa-cua-doi-nam-phuc"
      },
      "remote_data": {
        "url": "https://truyenx.link/truyensextv/channels/huong-hong-hoa-cua-doi-nam-phuc"
      }
    },
    {
      "id": "4002-channel",
      "name": "Một lần cuối đời… tởn đến chết",
      "description": "Bà Mai ngồi lên chiếc xe tay ga, ngoái lại nói với ông Cung, chồng bà: Em sang nhà con, chơi với cháu nội. Chiều về vợ chồng minh đi CLB khiêu vũ, rồi tối đi ăn tiệm, chứ hôm nay...",
      "image": null,
      "label": null,
      "display": "text-only",
      "type": "text",
      "enable_detail": true,
      "related": {
        "url": "https://truyenx.link/truyensextv/channels/related/4002",
        "request_headers": []
      },
      "share": {
        "url": "https://truyenx.link/truyensextv/channels/share/mot-lan-cuoi-doi-ton-den-chet"
      },
      "remote_data": {
        "url": "https://truyenx.link/truyensextv/channels/mot-lan-cuoi-doi-ton-den-chet"
      }
    }
  ],
  "load_more": {
    "pageInfo": {
      "current_page": 26,
      "last_page": 140,
      "per_page": 30,
      "total": 4188
    },
    "paging": {
      "page_key": "page",
      "size_key": "size"
    },
    "remote_data": {
      "url": "https://truyenx.link/truyensextv/channels"
    }
  }
}