{"grid_number":1,"channels":[{"id":"1098-channel","name":"Địt bạn của con gái","description":"Đó là một buổi sáng thứ bảy. Tôi ngủ dậy muộn còn vợ và con gái thì sang nhà ngoại có việc. Hôm nay tôi có nhiệm vụ là xem xét cái bể bơi trong nhà. Đang lúc tôi chuẩn bị làm...","image":null,"label":null,"display":"text-only","type":"text","enable_detail":true,"related":{"url":"https://truyenx.link/truyensextv/channels/related/1098","request_headers":[]},"share":{"url":"https://truyenx.link/truyensextv/channels/share/dit-ban-cua-con-gai"},"remote_data":{"url":"https://truyenx.link/truyensextv/channels/dit-ban-cua-con-gai"}},{"id":"1097-channel","name":"Dụ dỗ con dâu","description":"34. Vú không to nhưng săn chắc, eo nhỏ, hai chân thon dài mịn màng mê người nhưng hấp dẫn nhất chính là gương mặt lẳng lơ xinh đẹp, ánh mắt quyến rũ như muốn hấp dẫn đàn ông...","image":null,"label":null,"display":"text-only","type":"text","enable_detail":true,"related":{"url":"https://truyenx.link/truyensextv/channels/related/1097","request_headers":[]},"share":{"url":"https://truyenx.link/truyensextv/channels/share/du-do-con-dau"},"remote_data":{"url":"https://truyenx.link/truyensextv/channels/du-do-con-dau"}},{"id":"1096-channel","name":"Mỹ Dung đụ với ông nội","description":"Mỹ Dung rón ra rón rén đi vào phòng, không muốn làm ai thức giấc, vì bây giờ là hai giờ đêm. Cô mới từ tiệc sinh nhật đứa bạn về, nhẹ nhàng vào phòng, đóng cửa rồi bật đèn...","image":null,"label":null,"display":"text-only","type":"text","enable_detail":true,"related":{"url":"https://truyenx.link/truyensextv/channels/related/1096","request_headers":[]},"share":{"url":"https://truyenx.link/truyensextv/channels/share/my-dung-du-voi-ong-noi"},"remote_data":{"url":"https://truyenx.link/truyensextv/channels/my-dung-du-voi-ong-noi"}},{"id":"1095-channel","name":"Bị hiếp trên xe bus","description":"An tâm vì chuyến xe bus cuối cùng cũng đến, tôi nhanh chóng leo lên xe. Tối nay tôi đi dự sinh nhật của bạn tổ chức tại một quán bar, chơi đến 11 rưỡi mới chấm dứt. Ra khỏi...","image":null,"label":null,"display":"text-only","type":"text","enable_detail":true,"related":{"url":"https://truyenx.link/truyensextv/channels/related/1095","request_headers":[]},"share":{"url":"https://truyenx.link/truyensextv/channels/share/bi-hiep-tren-xe-bus"},"remote_data":{"url":"https://truyenx.link/truyensextv/channels/bi-hiep-tren-xe-bus"}},{"id":"1094-channel","name":"Địt nhau với dượng","description":"Ba tôi qua đời lúc tôi mới ba tuổi, năm ấy mẹ tôi 24 tuổi, không bao lâu thì cưới một ông chủ cửa hàng thịt. Theo thời gian, tôi bắt đầu bước vào giai đoạn đẹp nhất của...","image":null,"label":null,"display":"text-only","type":"text","enable_detail":true,"related":{"url":"https://truyenx.link/truyensextv/channels/related/1094","request_headers":[]},"share":{"url":"https://truyenx.link/truyensextv/channels/share/dit-nhau-voi-duong"},"remote_data":{"url":"https://truyenx.link/truyensextv/channels/dit-nhau-voi-duong"}},{"id":"1093-channel","name":"Địt nát lồn con gái riêng của vợ","description":"“Cảm giác ra sao khi địt nát lồn đứa con gái của vợ?” Đây là suy nghĩ của Lâm khi Dung con gái của Vân vợ tròn 16. Lâm lấy Vân khi Vân là bà mẹ độc thân với một đứa...","image":null,"label":null,"display":"text-only","type":"text","enable_detail":true,"related":{"url":"https://truyenx.link/truyensextv/channels/related/1093","request_headers":[]},"share":{"url":"https://truyenx.link/truyensextv/channels/share/dit-nat-lon-con-gai-rieng-cua-vo"},"remote_data":{"url":"https://truyenx.link/truyensextv/channels/dit-nat-lon-con-gai-rieng-cua-vo"}},{"id":"1092-channel","name":"Bố chồng tôi","description":"Ngay ngày đầu tiên về nhà chồng, mình đã điên lên vì ông già chồng của mình, số là sau bữa cơm chiều, chồng mình có việc phải đi đâu đó, con ở lên sân thượng để phơi quần...","image":null,"label":null,"display":"text-only","type":"text","enable_detail":true,"related":{"url":"https://truyenx.link/truyensextv/channels/related/1092","request_headers":[]},"share":{"url":"https://truyenx.link/truyensextv/channels/share/bo-chong-toi"},"remote_data":{"url":"https://truyenx.link/truyensextv/channels/bo-chong-toi"}},{"id":"1091-channel","name":"Ham muốn tiềm ẩn","description":"Tối hôm đó, sau bữa ăn như thường lệ, dượng tôi ngồi xem tivi cùng mẹ tôi và tôi, còn cô tôi thì lo rửa chén bát, ngồi xem đến gần hết chương trình thời sự tôi biết dượng...","image":null,"label":null,"display":"text-only","type":"text","enable_detail":true,"related":{"url":"https://truyenx.link/truyensextv/channels/related/1091","request_headers":[]},"share":{"url":"https://truyenx.link/truyensextv/channels/share/ham-muon-tiem-an"},"remote_data":{"url":"https://truyenx.link/truyensextv/channels/ham-muon-tiem-an"}},{"id":"1090-channel","name":"Người mẹ giản dị","description":"Tôi chú ý đến cơ thể của mẹ mình từ khi tôi được 16 tuổi, và thủ phạm là bố tôi. Tôi sống ở một vùng thôn quê xa xôi rất hẻo lánh. Làng quê tôi dù đã có điện, có cả...","image":null,"label":null,"display":"text-only","type":"text","enable_detail":true,"related":{"url":"https://truyenx.link/truyensextv/channels/related/1090","request_headers":[]},"share":{"url":"https://truyenx.link/truyensextv/channels/share/nguoi-me-gian-di"},"remote_data":{"url":"https://truyenx.link/truyensextv/channels/nguoi-me-gian-di"}},{"id":"1089-channel","name":"Nam sinh biến thái","description":"Tôi không có bạn thân, hay đúng hơn là không có bất kỳ mối liên hệ nào với người khác, ngoại trừ bản thân. Tôi năm nay vừa bước chân vào cổng trường đại học. Tôi nghe nói...","image":null,"label":null,"display":"text-only","type":"text","enable_detail":true,"related":{"url":"https://truyenx.link/truyensextv/channels/related/1089","request_headers":[]},"share":{"url":"https://truyenx.link/truyensextv/channels/share/nam-sinh-bien-thai"},"remote_data":{"url":"https://truyenx.link/truyensextv/channels/nam-sinh-bien-thai"}},{"id":"1088-channel","name":"Thích bị cưỡng dâm","description":"Một đêm ngủ như thường lệ, Ly lại bất ngờ bị đè lên. Miệng bị bịt lại, cô không thể thốt thành lời. Phòng tối như mực, mắt cô không thấy thêm được gì ngoài ánh trăng...","image":null,"label":null,"display":"text-only","type":"text","enable_detail":true,"related":{"url":"https://truyenx.link/truyensextv/channels/related/1088","request_headers":[]},"share":{"url":"https://truyenx.link/truyensextv/channels/share/thich-bi-cuong-dam"},"remote_data":{"url":"https://truyenx.link/truyensextv/channels/thich-bi-cuong-dam"}},{"id":"1087-channel","name":"Mộng Trung Thu","description":"Tiết trời thu sớm tới nhanh, mùa Trung Thu đã tới. Sau giờ tan học, một cô gái đưa Tín cái túi vải nhỏ. Cái túi khá nặng, nó chứa khá nhiều thứ rời rạc trong này. “Em làm...","image":null,"label":null,"display":"text-only","type":"text","enable_detail":true,"related":{"url":"https://truyenx.link/truyensextv/channels/related/1087","request_headers":[]},"share":{"url":"https://truyenx.link/truyensextv/channels/share/mong-trung-thu"},"remote_data":{"url":"https://truyenx.link/truyensextv/channels/mong-trung-thu"}},{"id":"1086-channel","name":"Vợ đóng phim sex","description":"Một buổi sáng như bao ngày, cô Ly đang mang đôi giày cao gót trước của nhà mình. Gót chân nhét vừa khít vào quai, cô chào hai người trước mặt mình và mở cửa đi ra. Đã hơn một năm...","image":null,"label":null,"display":"text-only","type":"text","enable_detail":true,"related":{"url":"https://truyenx.link/truyensextv/channels/related/1086","request_headers":[]},"share":{"url":"https://truyenx.link/truyensextv/channels/share/vo-dong-phim-sex"},"remote_data":{"url":"https://truyenx.link/truyensextv/channels/vo-dong-phim-sex"}},{"id":"1085-channel","name":"Tân Tiếu ngạo giang hồ","description":"Giang hồ là gì? Giang hồ là một thế giới không tưởng tượng nổi, người tại giang hồ thân bất do kỷ. Trăm năm trở lại đây, Nhật Nguyệt Thần Giáo vô cùng hưng thịnh, giáo...","image":null,"label":null,"display":"text-only","type":"text","enable_detail":true,"related":{"url":"https://truyenx.link/truyensextv/channels/related/1085","request_headers":[]},"share":{"url":"https://truyenx.link/truyensextv/channels/share/tan-tieu-ngao-giang-ho"},"remote_data":{"url":"https://truyenx.link/truyensextv/channels/tan-tieu-ngao-giang-ho"}},{"id":"1084-channel","name":"Lạc lối","description":"Cơn mưa đổ xuống tầm tã trên đường, làm cho tầm nhìn gần như không nhìn thấy gì. Tôi cố nhìn ra ngoài cửa kính xe. Mẹ tôi ngồi ghế bên cạnh và đang chăm chú nhìn những vũng...","image":null,"label":null,"display":"text-only","type":"text","enable_detail":true,"related":{"url":"https://truyenx.link/truyensextv/channels/related/1084","request_headers":[]},"share":{"url":"https://truyenx.link/truyensextv/channels/share/lac-loi"},"remote_data":{"url":"https://truyenx.link/truyensextv/channels/lac-loi"}},{"id":"1083-channel","name":"Căn phòng 104","description":"Bước ra khỏi sân bay, tôi vội vàng kiếm một chiếc xe đò “tốc hành” để đi về Vũng Tàu. Vừa về tới nhà mẹ tôi ở Vũng Tàu, tôi chỉ kịp thay quần áo, đồ đạc xong...","image":null,"label":null,"display":"text-only","type":"text","enable_detail":true,"related":{"url":"https://truyenx.link/truyensextv/channels/related/1083","request_headers":[]},"share":{"url":"https://truyenx.link/truyensextv/channels/share/can-phong-104"},"remote_data":{"url":"https://truyenx.link/truyensextv/channels/can-phong-104"}},{"id":"1082-channel","name":"Đụ cô Phương dâm đãng","description":"Mình là người có khuynh hướng tình dục khá mạnh. Do ở phố nên nhà cửa san sát nhau vì thế không gian phơi quần áo là không có. Đây là một trong những khó khăn của nhà ở phố...","image":null,"label":null,"display":"text-only","type":"text","enable_detail":true,"related":{"url":"https://truyenx.link/truyensextv/channels/related/1082","request_headers":[]},"share":{"url":"https://truyenx.link/truyensextv/channels/share/du-co-phuong-dam-dang"},"remote_data":{"url":"https://truyenx.link/truyensextv/channels/du-co-phuong-dam-dang"}},{"id":"1081-channel","name":"Thời thế tạo thánh chịch","description":"Thiên Phong 24 tuổi là 1 thằng trẻ trâu mê game, thuộc loại lười vận động và đam mê tình dục. Suốt ngày chỉ ru rú trong phòng chơi game và xem sex thủ dâm. Từ năm 12 tuổi hắn đã...","image":null,"label":null,"display":"text-only","type":"text","enable_detail":true,"related":{"url":"https://truyenx.link/truyensextv/channels/related/1081","request_headers":[]},"share":{"url":"https://truyenx.link/truyensextv/channels/share/thoi-the-tao-thanh-chich"},"remote_data":{"url":"https://truyenx.link/truyensextv/channels/thoi-the-tao-thanh-chich"}},{"id":"1080-channel","name":"Chuyện người đưa thư","description":"Cũng như các bạn, ai trong chúng ta cũng dường như không nhiều cũng ít, có lần chúng ta trải qua một cuộc tình chớp nhoáng nào đó. Một cuộc tình cùng một người đàn bà mà chúng ta...","image":null,"label":null,"display":"text-only","type":"text","enable_detail":true,"related":{"url":"https://truyenx.link/truyensextv/channels/related/1080","request_headers":[]},"share":{"url":"https://truyenx.link/truyensextv/channels/share/chuyen-nguoi-dua-thu"},"remote_data":{"url":"https://truyenx.link/truyensextv/channels/chuyen-nguoi-dua-thu"}},{"id":"1079-channel","name":"Huệ","description":"Huệ đang ngồi chải tóc và ngắm nhìn gương mặt rạng rỡ của mình trước gương. Hôm nay là ngày khai giảng, cũng là ngày đầu tiên nàng bước vào lớp 10. Trường nàng quy định...","image":null,"label":null,"display":"text-only","type":"text","enable_detail":true,"related":{"url":"https://truyenx.link/truyensextv/channels/related/1079","request_headers":[]},"share":{"url":"https://truyenx.link/truyensextv/channels/share/hue"},"remote_data":{"url":"https://truyenx.link/truyensextv/channels/hue"}},{"id":"1078-channel","name":"Đụ nhau trong nhà vệ nữ","description":"Đang trong giờ học môn Văn thì bỗng anh đưa tay xuống dưới thò vào trong cô mà xoa tay còn viết một bức thư đưa cho cô đọc. Em anh muốn. Nứng lắm rồi. Cô đọc xong thì đứng lên...","image":null,"label":null,"display":"text-only","type":"text","enable_detail":true,"related":{"url":"https://truyenx.link/truyensextv/channels/related/1078","request_headers":[]},"share":{"url":"https://truyenx.link/truyensextv/channels/share/du-nhau-trong-nha-ve-nu"},"remote_data":{"url":"https://truyenx.link/truyensextv/channels/du-nhau-trong-nha-ve-nu"}},{"id":"1077-channel","name":"Cha và con cùng giao hợp","description":"Trong một căn phòng lớn, có một đôi nam nữ đang say sưa giao hợp trên giường, khiến cả gian phòng mờ tối ấy nhất thời tràn ngập cảnh xuân, tiếng thở dốc nặng nề và gấp gáp...","image":null,"label":null,"display":"text-only","type":"text","enable_detail":true,"related":{"url":"https://truyenx.link/truyensextv/channels/related/1077","request_headers":[]},"share":{"url":"https://truyenx.link/truyensextv/channels/share/cha-va-con-cung-giao-hop"},"remote_data":{"url":"https://truyenx.link/truyensextv/channels/cha-va-con-cung-giao-hop"}},{"id":"1076-channel","name":"Đời học sinh - Quyển 3","description":"Ngồi gần một quán nước đối diện trường, tôi gọi 2 ly nước mía để xoa dịu cái nóng hừng hực của mùa hè mang lại và cũng để tiện cho việc quán sát ngôi trường rõ hơn. Có...","image":null,"label":null,"display":"text-only","type":"text","enable_detail":true,"related":{"url":"https://truyenx.link/truyensextv/channels/related/1076","request_headers":[]},"share":{"url":"https://truyenx.link/truyensextv/channels/share/doi-hoc-sinh-quyen-3"},"remote_data":{"url":"https://truyenx.link/truyensextv/channels/doi-hoc-sinh-quyen-3"}},{"id":"1075-channel","name":"Gái dịch vụ","description":"Bước xuống xe cố gắng thoát khỏi đám đông xe ôm đang chèo kéo, gã nhanh chóng lên chuyến xe bus chuẩn bị lăn bánh. Khi đã yên vị, gã ngồi nhìn ngắm Hà Nội vừa lên đèn qua ô...","image":null,"label":null,"display":"text-only","type":"text","enable_detail":true,"related":{"url":"https://truyenx.link/truyensextv/channels/related/1075","request_headers":[]},"share":{"url":"https://truyenx.link/truyensextv/channels/share/gai-dich-vu"},"remote_data":{"url":"https://truyenx.link/truyensextv/channels/gai-dich-vu"}},{"id":"1074-channel","name":"Con gái muốn đụ ba","description":"Minh Tuyết là một cô gái 17 tuổi, có thân hình 3 vòng đầy đủ, nó cao khoảng 1m65. Con người cô y như tên trắng như tuyết da mịn màng như da em bé. Tuyết từ lúc sinh ra đã mất mẹ...","image":null,"label":null,"display":"text-only","type":"text","enable_detail":true,"related":{"url":"https://truyenx.link/truyensextv/channels/related/1074","request_headers":[]},"share":{"url":"https://truyenx.link/truyensextv/channels/share/con-gai-muon-du-ba"},"remote_data":{"url":"https://truyenx.link/truyensextv/channels/con-gai-muon-du-ba"}},{"id":"1073-channel","name":"Đụ con em gái","description":"Haizzz... Tiếng ngáp dài của thằng Kiên khi vừa mới thức giấc thể hiện sự mệt mỏi sau một đêm dài. Nó xem sex và quay tay suốt đêm mãi đến 2h sáng mới đi ngủ, nó mới 16 tuổi...","image":null,"label":null,"display":"text-only","type":"text","enable_detail":true,"related":{"url":"https://truyenx.link/truyensextv/channels/related/1073","request_headers":[]},"share":{"url":"https://truyenx.link/truyensextv/channels/share/du-con-em-gai"},"remote_data":{"url":"https://truyenx.link/truyensextv/channels/du-con-em-gai"}},{"id":"1072-channel","name":"Chuyện tình thời sinh viên - Quyển 1","description":"Sau 1 tháng căng thẳng hồi hộp cùng gần 1 tháng sau đó sung sướng thả ga, cuối cùng cũng đến cái ngày tôi kết thúc đời học sinh, khăn gói quả mướp xuống Hà Nội nhập học...","image":null,"label":null,"display":"text-only","type":"text","enable_detail":true,"related":{"url":"https://truyenx.link/truyensextv/channels/related/1072","request_headers":[]},"share":{"url":"https://truyenx.link/truyensextv/channels/share/chuyen-tinh-thoi-sinh-vien-quyen-1"},"remote_data":{"url":"https://truyenx.link/truyensextv/channels/chuyen-tinh-thoi-sinh-vien-quyen-1"}},{"id":"1071-channel","name":"Hết tình còn nghĩa","description":"Sau bữa cơm chiều, mấy người ăn cơm tháng ngồi lại uống trà với ông Long. Bà Hân, vợ ông Long, mặc quần đùi, áo thun ngắn tay cổ rộng, đang lau nền gạch men đen trắng quanh bếp...","image":null,"label":null,"display":"text-only","type":"text","enable_detail":true,"related":{"url":"https://truyenx.link/truyensextv/channels/related/1071","request_headers":[]},"share":{"url":"https://truyenx.link/truyensextv/channels/share/het-tinh-con-nghia"},"remote_data":{"url":"https://truyenx.link/truyensextv/channels/het-tinh-con-nghia"}},{"id":"1070-channel","name":"Cuộc đời thay đổi","description":"Mình tạm thời dừng viết bộ Toàn năng thế giới do một số sự cố nên mình phải hoãn lại, khi nào có thời gian rảnh thì mình sẽ viết tiếp. Còn bộ Cuộc đời thay đổi này là...","image":null,"label":null,"display":"text-only","type":"text","enable_detail":true,"related":{"url":"https://truyenx.link/truyensextv/channels/related/1070","request_headers":[]},"share":{"url":"https://truyenx.link/truyensextv/channels/share/cuoc-doi-thay-doi"},"remote_data":{"url":"https://truyenx.link/truyensextv/channels/cuoc-doi-thay-doi"}},{"id":"1069-channel","name":"Truyện dịch loạn luân hay nhất","description":"Trong thần thoại có kể một câu chuyện về con chim Phượng hoàng, một con chim mạnh mẽ đã xây một cái tổ và ngồi trong đó khi ngọn lửa đang thiêu cháy. Từ đống tro tàn, Phượng...","image":null,"label":null,"display":"text-only","type":"text","enable_detail":true,"related":{"url":"https://truyenx.link/truyensextv/channels/related/1069","request_headers":[]},"share":{"url":"https://truyenx.link/truyensextv/channels/share/truyen-dich-loan-luan-hay-nhat"},"remote_data":{"url":"https://truyenx.link/truyensextv/channels/truyen-dich-loan-luan-hay-nhat"}}],"load_more":{"pageInfo":{"current_page":104,"last_page":140,"per_page":30,"total":4188},"paging":{"page_key":"page","size_key":"size"},"remote_data":{"url":"https://truyenx.link/truyensextv/channels"}}}