{"grid_number":1,"channels":[{"id":"1338-channel","name":"Mùa hè đáng nhớ","description":"Một tuần nay Uyên ở nhà một mình. Nàng là giáo viên dạy tin ở trường trung học. Vừa nghỉ hè được hơn tuần thì Tiến chồng nàng, kỹ sư nông nghiệp phải xuống Viện lúa Đồng...","image":null,"label":null,"display":"text-only","type":"text","enable_detail":true,"related":{"url":"https://truyenx.link/truyensextv/channels/related/1338","request_headers":[]},"share":{"url":"https://truyenx.link/truyensextv/channels/share/mua-he-dang-nho"},"remote_data":{"url":"https://truyenx.link/truyensextv/channels/mua-he-dang-nho"}},{"id":"1337-channel","name":"Cô em dâu","description":"Cô em dâu nhìn thằng anh chồng bằng một đôi mắt ngây dại, vẻ dâm đãng hiện lên rõ mồn một trên từng cái nheo mắt, mỗi mép nhếch cười. Lúm đồng tiền càng làm cho cô em dâu...","image":null,"label":null,"display":"text-only","type":"text","enable_detail":true,"related":{"url":"https://truyenx.link/truyensextv/channels/related/1337","request_headers":[]},"share":{"url":"https://truyenx.link/truyensextv/channels/share/co-em-dau"},"remote_data":{"url":"https://truyenx.link/truyensextv/channels/co-em-dau"}},{"id":"1336-channel","name":"Cưỡng dâm mẹ ruột","description":"Thân thể trần truồng tuyệt mỹ của người mẹ cứ ám ảnh tâm chí Hắn, cả trong giấc ngủ Hắn cũng mơ về nó. Sau đó chẳng biết hắn nghĩ gì mà người ta thấy hắn cứ vùi đầu...","image":null,"label":null,"display":"text-only","type":"text","enable_detail":true,"related":{"url":"https://truyenx.link/truyensextv/channels/related/1336","request_headers":[]},"share":{"url":"https://truyenx.link/truyensextv/channels/share/cuong-dam-me-ruot"},"remote_data":{"url":"https://truyenx.link/truyensextv/channels/cuong-dam-me-ruot"}},{"id":"1335-channel","name":"Khi chồng đi vắng","description":"Tích tắc... Tích tắc... Tích tắc... Những tiếng tích tắc đều đặn của chiếc đồng hồ treo tường cứ đều đặn vọng vào tai Vân, đã gần 1 giờ sáng rồi mà Vân không sao ngủ...","image":null,"label":null,"display":"text-only","type":"text","enable_detail":true,"related":{"url":"https://truyenx.link/truyensextv/channels/related/1335","request_headers":[]},"share":{"url":"https://truyenx.link/truyensextv/channels/share/khi-chong-di-vang"},"remote_data":{"url":"https://truyenx.link/truyensextv/channels/khi-chong-di-vang"}},{"id":"1334-channel","name":"Tột cùng của sự dâm đãng","description":"Tôi chà chà mu lồn rậm rịt đám lông đen mượt um tùm vào mặt ông, lông lồn và bộ râu quai nón lốm đốm bạc cọ xát vào nhau tạo nên những tiếng kêu sột soạt nghe thật thích...","image":null,"label":null,"display":"text-only","type":"text","enable_detail":true,"related":{"url":"https://truyenx.link/truyensextv/channels/related/1334","request_headers":[]},"share":{"url":"https://truyenx.link/truyensextv/channels/share/tot-cung-cua-su-dam-dang"},"remote_data":{"url":"https://truyenx.link/truyensextv/channels/tot-cung-cua-su-dam-dang"}},{"id":"1333-channel","name":"Nhân duyên","description":"Hà Nội, ngày hè 2019. ’10 Năm trôi qua trôi qua. Em như không ra đi, không ra đi mà như người trở lại... ‘ Bao nhiêu năm ở Hà Nội, tôi vẫn chọn những góc phố này, nghe nhưng...","image":null,"label":null,"display":"text-only","type":"text","enable_detail":true,"related":{"url":"https://truyenx.link/truyensextv/channels/related/1333","request_headers":[]},"share":{"url":"https://truyenx.link/truyensextv/channels/share/nhan-duyen"},"remote_data":{"url":"https://truyenx.link/truyensextv/channels/nhan-duyen"}},{"id":"1332-channel","name":"Đụ mẹ vợ nứng lồn","description":"Mẹ vợ tôi ngoài 50 rồi, ở 1 mình trong 1 khu tập thể ở Ba Đình. Lâu nay chưa bao giờ có ý đồ gì với mẹ vợ cả vì cảm thấy bà không phải tuýp người ‘dâm nữ’. Đợt...","image":null,"label":null,"display":"text-only","type":"text","enable_detail":true,"related":{"url":"https://truyenx.link/truyensextv/channels/related/1332","request_headers":[]},"share":{"url":"https://truyenx.link/truyensextv/channels/share/du-me-vo-nung-lon"},"remote_data":{"url":"https://truyenx.link/truyensextv/channels/du-me-vo-nung-lon"}},{"id":"1331-channel","name":"Ngày tựu trường","description":"Ngày đầu đến trường của Mỹ Dung, năm lớp 10. Hôm ấy, cô bé đến trường xem điểm thi và cũng để xem thời khóa biểu cho năm học mới. Trời nắng chang chang, từng tia nắng chói...","image":null,"label":null,"display":"text-only","type":"text","enable_detail":true,"related":{"url":"https://truyenx.link/truyensextv/channels/related/1331","request_headers":[]},"share":{"url":"https://truyenx.link/truyensextv/channels/share/ngay-tuu-truong"},"remote_data":{"url":"https://truyenx.link/truyensextv/channels/ngay-tuu-truong"}},{"id":"1330-channel","name":"Con dâu “chiều” bố chồng","description":"Ông Long làm nghề mộc, vì nghèo quá nên không dám lấy vợ. Mãi đến năm 42 tuổi mới cưới vợ, sinh được duy nhất một cậu con trai, tên là Thanh. Không may vợ ông bị tai nạn giao...","image":null,"label":null,"display":"text-only","type":"text","enable_detail":true,"related":{"url":"https://truyenx.link/truyensextv/channels/related/1330","request_headers":[]},"share":{"url":"https://truyenx.link/truyensextv/channels/share/con-dau-chieu-bo-chong"},"remote_data":{"url":"https://truyenx.link/truyensextv/channels/con-dau-chieu-bo-chong"}},{"id":"1329-channel","name":"Dì Huyền dâm dục","description":"Đám cưới thằng Phát vẫn diễn ra như mọi dự định. Má nó làm đám cưới sớm cho nó với cô bạn gái vì bên nhà gái không muốn để lâu dù tụi nó còn nhỏ. Thằng Phát và bạn...","image":null,"label":null,"display":"text-only","type":"text","enable_detail":true,"related":{"url":"https://truyenx.link/truyensextv/channels/related/1329","request_headers":[]},"share":{"url":"https://truyenx.link/truyensextv/channels/share/di-huyen-dam-duc"},"remote_data":{"url":"https://truyenx.link/truyensextv/channels/di-huyen-dam-duc"}},{"id":"1328-channel","name":"Lần đầu với người yêu khóa dưới","description":"Như tên truyện các bác ạ. Em năm cấp 3 có yêu 1 em khóa dưới. Em thì lúc đó không có gì là đẹp trai. Nhìn ngu ngu lắm mà chả hiểu sao có em khóa dưới để ý. Nhắn tin nói chuyện 1...","image":null,"label":null,"display":"text-only","type":"text","enable_detail":true,"related":{"url":"https://truyenx.link/truyensextv/channels/related/1328","request_headers":[]},"share":{"url":"https://truyenx.link/truyensextv/channels/share/lan-dau-voi-nguoi-yeu-khoa-duoi"},"remote_data":{"url":"https://truyenx.link/truyensextv/channels/lan-dau-voi-nguoi-yeu-khoa-duoi"}},{"id":"1327-channel","name":"Địt em người yêu cũ","description":"Các cụ có câu: ‘Trai thèm lồn lạ, Gái nhớ buồi xưa’ thật là chẳng sai bao giờ. Phận đàn ông chúng sinh ra là để làm hài lòng phụ nữ, nên cuối cùng cũng phải cố hết...","image":null,"label":null,"display":"text-only","type":"text","enable_detail":true,"related":{"url":"https://truyenx.link/truyensextv/channels/related/1327","request_headers":[]},"share":{"url":"https://truyenx.link/truyensextv/channels/share/dit-em-nguoi-yeu-cu"},"remote_data":{"url":"https://truyenx.link/truyensextv/channels/dit-em-nguoi-yeu-cu"}},{"id":"1326-channel","name":"Người yêu cũ cực dâm","description":"Sau một ngày dài mệt mỏi với công việc. Tôi lại ngồi bên ly cafe đen đắng ngắt và làn khói thuốc mơ màng. Tôi có thói quen uống cafe không đường, thích cái vị đắng lan tỏa trong...","image":null,"label":null,"display":"text-only","type":"text","enable_detail":true,"related":{"url":"https://truyenx.link/truyensextv/channels/related/1326","request_headers":[]},"share":{"url":"https://truyenx.link/truyensextv/channels/share/nguoi-yeu-cu-cuc-dam"},"remote_data":{"url":"https://truyenx.link/truyensextv/channels/nguoi-yeu-cu-cuc-dam"}},{"id":"1325-channel","name":"Dâm nữ kể chuyện","description":"Lúc xưa còn ở Vietnam, hồi mới 18, 19 tuổi, em cũng ham tìm tòi khám phá lắm. Ngay sau sinh nhật 17 tuổi, em bị một anh già hơn em 18 tuổi đụ mất trinh. Anh này chuyên gia săn gái trẻ...","image":null,"label":null,"display":"text-only","type":"text","enable_detail":true,"related":{"url":"https://truyenx.link/truyensextv/channels/related/1325","request_headers":[]},"share":{"url":"https://truyenx.link/truyensextv/channels/share/dam-nu-ke-chuyen"},"remote_data":{"url":"https://truyenx.link/truyensextv/channels/dam-nu-ke-chuyen"}},{"id":"1324-channel","name":"Đa Tình","description":"Khi được chuyển công tác về Vĩnh Long thì tôi mừng lắm. Tôi sinh ra ở đó nhưng đến năm 15 tuổi thì gia đình tôi dọn lên Sài Gòn. Tôi học hết Trung Học rồi sau đó tôi vào Đại...","image":null,"label":null,"display":"text-only","type":"text","enable_detail":true,"related":{"url":"https://truyenx.link/truyensextv/channels/related/1324","request_headers":[]},"share":{"url":"https://truyenx.link/truyensextv/channels/share/da-tinh"},"remote_data":{"url":"https://truyenx.link/truyensextv/channels/da-tinh"}},{"id":"1323-channel","name":"Oral sex với chị chủ quán","description":"Đã qua tuổi 50, tiền ít mà thời gian cũng ít, trình đã kém mà xài ĐT cục gạch nên việc chăn rau hay MBTC gần như vô vọng với Già tui... Thế nhưng, để thỏa mãn tính ham hố...","image":null,"label":null,"display":"text-only","type":"text","enable_detail":true,"related":{"url":"https://truyenx.link/truyensextv/channels/related/1323","request_headers":[]},"share":{"url":"https://truyenx.link/truyensextv/channels/share/oral-sex-voi-chi-chu-quan"},"remote_data":{"url":"https://truyenx.link/truyensextv/channels/oral-sex-voi-chi-chu-quan"}},{"id":"1322-channel","name":"Dâm nữ được some","description":"Dâm biến thái, bạo dâm nhẹ nhàng! Tôi đã từng như vậy đã từng biến thái và bạo dâm đến với 2 chàng trai! Mọi người gọi đấy là SOME. Chúng tôi đã quen nhau trong 1 ngày HN mưa...","image":null,"label":null,"display":"text-only","type":"text","enable_detail":true,"related":{"url":"https://truyenx.link/truyensextv/channels/related/1322","request_headers":[]},"share":{"url":"https://truyenx.link/truyensextv/channels/share/dam-nu-duoc-some"},"remote_data":{"url":"https://truyenx.link/truyensextv/channels/dam-nu-duoc-some"}},{"id":"1321-channel","name":"Người chồng thích Cuckold","description":"Ngồi đối diện với bác sĩ Luân là một người đàn ông trạc tuổi ba hai, anh ta có vẻ bối rối ngại ngùng khi có mặt trong phòng khám của bác sĩ tâm sinh lý. Bác sĩ Luân 40 tuổi...","image":null,"label":null,"display":"text-only","type":"text","enable_detail":true,"related":{"url":"https://truyenx.link/truyensextv/channels/related/1321","request_headers":[]},"share":{"url":"https://truyenx.link/truyensextv/channels/share/nguoi-chong-thich-cuckold"},"remote_data":{"url":"https://truyenx.link/truyensextv/channels/nguoi-chong-thich-cuckold"}},{"id":"1320-channel","name":"Biến mẹ thành nô lệ tình dục","description":"Khi đọc nhan đề chắc các bạn nghĩ tôi là thằng khốn nạn khi làm vậy với mẹ tôi nhưng không. Mẹ tôi bây giờ là vợ tôi bà năm nay 45 tuổi và chúng tôi rất hạnh phúc, câu...","image":null,"label":null,"display":"text-only","type":"text","enable_detail":true,"related":{"url":"https://truyenx.link/truyensextv/channels/related/1320","request_headers":[]},"share":{"url":"https://truyenx.link/truyensextv/channels/share/bien-me-thanh-no-le-tinh-duc"},"remote_data":{"url":"https://truyenx.link/truyensextv/channels/bien-me-thanh-no-le-tinh-duc"}},{"id":"1319-channel","name":"Cõi dục","description":"Biến khoảng trống của phần sân trước cửa nhà thành 1 quán cafe nhỏ xinh xắn, Quỳnh Hoa vợ tôi đã bỏ hết tâm huyết vào đó bởi đây vừa là khoản thu nhập vừa là nơi giúp nàng...","image":null,"label":null,"display":"text-only","type":"text","enable_detail":true,"related":{"url":"https://truyenx.link/truyensextv/channels/related/1319","request_headers":[]},"share":{"url":"https://truyenx.link/truyensextv/channels/share/coi-duc"},"remote_data":{"url":"https://truyenx.link/truyensextv/channels/coi-duc"}},{"id":"1318-channel","name":"Địt vợ buổi sáng","description":"Có Bác Nào Thích Địt Vợ Mọi Lúc Mọi Nơi Không??? Sáng sớm mở mắt dậy đã thấy vợ lục đục nấu ăn, ngắn ngáp dài vươn vai mãi mới dậy được thì thấy vợ trèo lên giường...","image":null,"label":null,"display":"text-only","type":"text","enable_detail":true,"related":{"url":"https://truyenx.link/truyensextv/channels/related/1318","request_headers":[]},"share":{"url":"https://truyenx.link/truyensextv/channels/share/dit-vo-buoi-sang"},"remote_data":{"url":"https://truyenx.link/truyensextv/channels/dit-vo-buoi-sang"}},{"id":"1317-channel","name":"Em Tuyết","description":"Em Tuyết là một nữ sinh trong trắng hiền lành. Dĩ nhiên, em chưa hề biết gì về cái mà người ta thường gọi là tình dục. Nhưng bên trong cơ thể của nàng thì lúc nào cũng dường...","image":null,"label":null,"display":"text-only","type":"text","enable_detail":true,"related":{"url":"https://truyenx.link/truyensextv/channels/related/1317","request_headers":[]},"share":{"url":"https://truyenx.link/truyensextv/channels/share/em-tuyet"},"remote_data":{"url":"https://truyenx.link/truyensextv/channels/em-tuyet"}},{"id":"1316-channel","name":"Địt mẹ vợ lên thăm cháu","description":"Tôi năm nay 28 tuổi, là người làm việc trong lĩnh vực mmo hay còn gọi là kiếm tiền trên mạng. Tôi thích một công việc tự do không gò bó nên quyết định theo đuổi con đường này...","image":null,"label":null,"display":"text-only","type":"text","enable_detail":true,"related":{"url":"https://truyenx.link/truyensextv/channels/related/1316","request_headers":[]},"share":{"url":"https://truyenx.link/truyensextv/channels/share/dit-me-vo-len-tham-chau"},"remote_data":{"url":"https://truyenx.link/truyensextv/channels/dit-me-vo-len-tham-chau"}},{"id":"1315-channel","name":"Phận gái long đong","description":"Nắng xế tà mang cái nóng gay gắt vào tận từng khe đất tuếch toác, trời không mưa nhiều nên con đường đất nện ngoằn ngoèo càng nứt nẻ thêm, đầy bụi bặm. Lâu lâu một chiếc...","image":null,"label":null,"display":"text-only","type":"text","enable_detail":true,"related":{"url":"https://truyenx.link/truyensextv/channels/related/1315","request_headers":[]},"share":{"url":"https://truyenx.link/truyensextv/channels/share/phan-gai-long-dong"},"remote_data":{"url":"https://truyenx.link/truyensextv/channels/phan-gai-long-dong"}},{"id":"1314-channel","name":"Người cô dâm đãng","description":"Ông Hùng là một quan chức có máu mặt trong thành phố. Ông vô cùng tự hào với địa vị và danh tiếng của mình hiện có. Tuổi ông đã ngoài 40 với dáng vẻ đầy tự mãn của một...","image":null,"label":null,"display":"text-only","type":"text","enable_detail":true,"related":{"url":"https://truyenx.link/truyensextv/channels/related/1314","request_headers":[]},"share":{"url":"https://truyenx.link/truyensextv/channels/share/nguoi-co-dam-dang"},"remote_data":{"url":"https://truyenx.link/truyensextv/channels/nguoi-co-dam-dang"}},{"id":"1313-channel","name":"Chị hàng xóm gợi tình","description":"Đã ba năm rồi mà giấc mơ của Bình vẫn chưa thực hiện được. Mãi đến bây giờ chàng mới đạt được mục đích. Trâm và Hoàng là hai người hàng xóm ở độ tuổi ngoài ba chục...","image":null,"label":null,"display":"text-only","type":"text","enable_detail":true,"related":{"url":"https://truyenx.link/truyensextv/channels/related/1313","request_headers":[]},"share":{"url":"https://truyenx.link/truyensextv/channels/share/chi-hang-xom-goi-tinh"},"remote_data":{"url":"https://truyenx.link/truyensextv/channels/chi-hang-xom-goi-tinh"}},{"id":"1312-channel","name":"Cho bạn của con trai đụ","description":"Vợ chồng tôi đã không còn lạ gì cảnh con trai chúng tôi mang bạn bè về nhà qua đêm. Con trai tôi, hiện đang là sinh viên năm 2 của một trường đại học và là một đứa e dè, nhút...","image":null,"label":null,"display":"text-only","type":"text","enable_detail":true,"related":{"url":"https://truyenx.link/truyensextv/channels/related/1312","request_headers":[]},"share":{"url":"https://truyenx.link/truyensextv/channels/share/cho-ban-cua-con-trai-du"},"remote_data":{"url":"https://truyenx.link/truyensextv/channels/cho-ban-cua-con-trai-du"}},{"id":"1311-channel","name":"Đụ con gái và vợ của xếp","description":"Tôi vừa đi Việt Nam lo dịch vụ cho hãng tôi, một chuyến đi thật đáng ghi nhớ, coi như là lần đầu mà tôi vừa vui vừa sướng. Vui vì việc hãng tôi xong trước thời hạn, sướng vì...","image":null,"label":null,"display":"text-only","type":"text","enable_detail":true,"related":{"url":"https://truyenx.link/truyensextv/channels/related/1311","request_headers":[]},"share":{"url":"https://truyenx.link/truyensextv/channels/share/du-con-gai-va-vo-cua-xep"},"remote_data":{"url":"https://truyenx.link/truyensextv/channels/du-con-gai-va-vo-cua-xep"}},{"id":"1310-channel","name":"Bố chồng đụ nàng dâu","description":"Sáng sớm mỗi ngày, chồng Tâm đi làm, thói quen Tâm cũng dậy theo chăm lo công việc nhà, có khi đi làm thêm part time. Lúc ở nhà bố chồng nàng dâu luôn có dịp ra vào, trò chuyện cách...","image":null,"label":null,"display":"text-only","type":"text","enable_detail":true,"related":{"url":"https://truyenx.link/truyensextv/channels/related/1310","request_headers":[]},"share":{"url":"https://truyenx.link/truyensextv/channels/share/bo-chong-du-nang-dau"},"remote_data":{"url":"https://truyenx.link/truyensextv/channels/bo-chong-du-nang-dau"}},{"id":"1309-channel","name":"Hỗn Thế Ma Vương","description":"Ầm ầm ầm... Vút vút vút... Tiếng pháo và tiếng cung tên thi nhau gào thét trong không trung. Một bán tiên đang ôm đứa trẻ vừa lọt lòng chạy về phía con sông “Chuyến đi cuối...","image":null,"label":null,"display":"text-only","type":"text","enable_detail":true,"related":{"url":"https://truyenx.link/truyensextv/channels/related/1309","request_headers":[]},"share":{"url":"https://truyenx.link/truyensextv/channels/share/hon-the-ma-vuong"},"remote_data":{"url":"https://truyenx.link/truyensextv/channels/hon-the-ma-vuong"}}],"load_more":{"pageInfo":{"current_page":96,"last_page":140,"per_page":30,"total":4188},"paging":{"page_key":"page","size_key":"size"},"remote_data":{"url":"https://truyenx.link/truyensextv/channels"}}}