{
  "grid_number": 1,
  "channels": [
    {
      "id": "18-channel",
      "name": "Chị Yến",
      "description": "Tiếng lục cục mở cửa làm tôi thức giấc. Chợt nhớ ra bữa nay thứ năm, nhà trường nghỉ nên tôi cố nằm thêm một lúc nữa. Nhìn ánh sáng nhờ nhờ từ ô lưới sát trên cửa hắt...",
      "image": null,
      "label": null,
      "display": "text-only",
      "type": "text",
      "enable_detail": true,
      "related": {
        "url": "https://truyenx.link/truyensextv/channels/related/18",
        "request_headers": []
      },
      "share": {
        "url": "https://truyenx.link/truyensextv/channels/share/chi-yen"
      },
      "remote_data": {
        "url": "https://truyenx.link/truyensextv/channels/chi-yen"
      }
    },
    {
      "id": "17-channel",
      "name": "Mẹ của thằng bạn",
      "description": "Từ hồi thử đụ với bà má vợ, tui trở nên ghiền bả vì nhiều lý do. Bả già mà còn ham chơi tức là dâm lắm đó, nghe bả rên xiết chịu không nổi. Bả có tuổi rồi nên thoải...",
      "image": null,
      "label": null,
      "display": "text-only",
      "type": "text",
      "enable_detail": true,
      "related": {
        "url": "https://truyenx.link/truyensextv/channels/related/17",
        "request_headers": []
      },
      "share": {
        "url": "https://truyenx.link/truyensextv/channels/share/me-cua-thang-ban"
      },
      "remote_data": {
        "url": "https://truyenx.link/truyensextv/channels/me-cua-thang-ban"
      }
    },
    {
      "id": "16-channel",
      "name": "Cô giáo Thảo - Full",
      "description": "Truyện sex Cô giáo Thảo là một trong những tài liệu quý báu về tình dục, được giới trẻ mọi thế hệ truyền tay nhau đọc để tạo những bước tiến trước khi bước vào đời...",
      "image": null,
      "label": null,
      "display": "text-only",
      "type": "text",
      "enable_detail": true,
      "related": {
        "url": "https://truyenx.link/truyensextv/channels/related/16",
        "request_headers": []
      },
      "share": {
        "url": "https://truyenx.link/truyensextv/channels/share/co-giao-thao-full"
      },
      "remote_data": {
        "url": "https://truyenx.link/truyensextv/channels/co-giao-thao-full"
      }
    },
    {
      "id": "15-channel",
      "name": "Đụ chị gái",
      "description": "Thằng Lâm quanh quẩn bám chị nó đang làm bếp, tán tỉnh xin tiền, vì nó cần 200 triệu để đổi cái xe SH mới. Chị à, chỉ cần 200 thôi mà, mua SH về em chở chị đi trông nó mới...",
      "image": null,
      "label": null,
      "display": "text-only",
      "type": "text",
      "enable_detail": true,
      "related": {
        "url": "https://truyenx.link/truyensextv/channels/related/15",
        "request_headers": []
      },
      "share": {
        "url": "https://truyenx.link/truyensextv/channels/share/du-chi-gai"
      },
      "remote_data": {
        "url": "https://truyenx.link/truyensextv/channels/du-chi-gai"
      }
    },
    {
      "id": "14-channel",
      "name": "Ba câu chuyện",
      "description": "Câu chuyện thứ nhất Hồi ấy, yêu nhau từ khi học cấp 3, hơn em 1 lớp và khi mình thi đại học là lúc em bước vào lớp 12. Cách đây cũng 10 năm rồi còn gì. Và hồi đó thì ngây thơ...",
      "image": null,
      "label": null,
      "display": "text-only",
      "type": "text",
      "enable_detail": true,
      "related": {
        "url": "https://truyenx.link/truyensextv/channels/related/14",
        "request_headers": []
      },
      "share": {
        "url": "https://truyenx.link/truyensextv/channels/share/ba-cau-chuyen"
      },
      "remote_data": {
        "url": "https://truyenx.link/truyensextv/channels/ba-cau-chuyen"
      }
    },
    {
      "id": "13-channel",
      "name": "Sinh nhật bạn gái",
      "description": "Đang loay hoay đọc truyện sex ở trang web truyensextv2.cc, thấy nhiều bác viết truyện sex hay quá, bỗng dưng nhớ lại chuyện này nên kể cho các bác nghe luôn. Năm tôi học 11 tôi lần đầu...",
      "image": null,
      "label": null,
      "display": "text-only",
      "type": "text",
      "enable_detail": true,
      "related": {
        "url": "https://truyenx.link/truyensextv/channels/related/13",
        "request_headers": []
      },
      "share": {
        "url": "https://truyenx.link/truyensextv/channels/share/sinh-nhat-ban-gai"
      },
      "remote_data": {
        "url": "https://truyenx.link/truyensextv/channels/sinh-nhat-ban-gai"
      }
    },
    {
      "id": "12-channel",
      "name": "Cô giáo Duyên",
      "description": "Tùng... Tùng... Tùng... Tiếng trống trường vang lên báo hiệu giờ tan học. Ngôi trường Phước Bình 2 chợt bỗng náo nhộn hẳn lên, đâu đó đã nghe tiếng cười đùa của học sinh các...",
      "image": null,
      "label": null,
      "display": "text-only",
      "type": "text",
      "enable_detail": true,
      "related": {
        "url": "https://truyenx.link/truyensextv/channels/related/12",
        "request_headers": []
      },
      "share": {
        "url": "https://truyenx.link/truyensextv/channels/share/co-giao-duyen"
      },
      "remote_data": {
        "url": "https://truyenx.link/truyensextv/channels/co-giao-duyen"
      }
    },
    {
      "id": "11-channel",
      "name": "Phòng trọ nữ sinh",
      "description": "Quỳnh cầm chiếc quần lót bằng vải lụa mỏng đã nhàu nát trong tay run run giở ra để tìm kiếm cái gì đó. Nàng tròn xoe đôi mắt nai đen láy vào một vệt khô màu nhạt chạy dài...",
      "image": null,
      "label": null,
      "display": "text-only",
      "type": "text",
      "enable_detail": true,
      "related": {
        "url": "https://truyenx.link/truyensextv/channels/related/11",
        "request_headers": []
      },
      "share": {
        "url": "https://truyenx.link/truyensextv/channels/share/phong-tro-nu-sinh"
      },
      "remote_data": {
        "url": "https://truyenx.link/truyensextv/channels/phong-tro-nu-sinh"
      }
    },
    {
      "id": "10-channel",
      "name": "Hiếp dâm chị dâu",
      "description": "Dần theo năm tháng, chị dâu của tôi ngày càng hấp dẫn hơn, người chị tròn trịa hơn, làn da trắng mịn, và nhất là các đường cong thân thể chị thì tuyệt vời, nhất là vòng 3...",
      "image": null,
      "label": null,
      "display": "text-only",
      "type": "text",
      "enable_detail": true,
      "related": {
        "url": "https://truyenx.link/truyensextv/channels/related/10",
        "request_headers": []
      },
      "share": {
        "url": "https://truyenx.link/truyensextv/channels/share/hiep-dam-chi-dau"
      },
      "remote_data": {
        "url": "https://truyenx.link/truyensextv/channels/hiep-dam-chi-dau"
      }
    },
    {
      "id": "9-channel",
      "name": "Về quê ngoại",
      "description": "Cuối năm 2008... Sáng thứ bảy, chiếc xe lăn bánh trên đường quốc lộc, chiếc xe mười sáu chỗ ngồi chở gia đình Đồng về Vĩnh Long ăn đám cưới người em họ của Tú. Vợ chồng...",
      "image": null,
      "label": null,
      "display": "text-only",
      "type": "text",
      "enable_detail": true,
      "related": {
        "url": "https://truyenx.link/truyensextv/channels/related/9",
        "request_headers": []
      },
      "share": {
        "url": "https://truyenx.link/truyensextv/channels/share/ve-que-ngoai"
      },
      "remote_data": {
        "url": "https://truyenx.link/truyensextv/channels/ve-que-ngoai"
      }
    },
    {
      "id": "8-channel",
      "name": "Cô Sáu và chiếc quần lảnh mỷ a",
      "description": "Hai vợ chồng cô Sáu, có 1 đứa con trai, năm nay 16 tuổi, Cô đang ở tuổi 33, cô Sáu sinh con lúc cô mới 17 tuổi, chồng cô 40 tuổi làm nghề tài xế cho 1 cơ quan nhà nước, cảnh gia...",
      "image": null,
      "label": null,
      "display": "text-only",
      "type": "text",
      "enable_detail": true,
      "related": {
        "url": "https://truyenx.link/truyensextv/channels/related/8",
        "request_headers": []
      },
      "share": {
        "url": "https://truyenx.link/truyensextv/channels/share/co-sau-va-chiec-quan-lanh-my-a"
      },
      "remote_data": {
        "url": "https://truyenx.link/truyensextv/channels/co-sau-va-chiec-quan-lanh-my-a"
      }
    },
    {
      "id": "7-channel",
      "name": "Vắng chồng",
      "description": "Sáng nay tiễn chồng ra sân bay để đi xuất khẩu lao động, Dung khóc sướt mướt nguyên cả buổi sáng. Thế là Dung và Khánh phải xa nhau đến 3 năm. Biết làm sao được, vì cuộc sống...",
      "image": null,
      "label": null,
      "display": "text-only",
      "type": "text",
      "enable_detail": true,
      "related": {
        "url": "https://truyenx.link/truyensextv/channels/related/7",
        "request_headers": []
      },
      "share": {
        "url": "https://truyenx.link/truyensextv/channels/share/vang-chong"
      },
      "remote_data": {
        "url": "https://truyenx.link/truyensextv/channels/vang-chong"
      }
    },
    {
      "id": "6-channel",
      "name": "Tình dục trong gia đình",
      "description": "Dì tôi tên Trang, một người dì tôi không thể nào quên trong cuộc đời của mình. Dì không chỉ là người cưu mang giúp đỡ tôi mà dì còn là người đã cho tôi biết thế nào là cảm...",
      "image": null,
      "label": null,
      "display": "text-only",
      "type": "text",
      "enable_detail": true,
      "related": {
        "url": "https://truyenx.link/truyensextv/channels/related/6",
        "request_headers": []
      },
      "share": {
        "url": "https://truyenx.link/truyensextv/channels/share/tinh-duc-trong-gia-dinh"
      },
      "remote_data": {
        "url": "https://truyenx.link/truyensextv/channels/tinh-duc-trong-gia-dinh"
      }
    },
    {
      "id": "5-channel",
      "name": "Sinh viên tình nguyện",
      "description": "Tôi tên là Thiện, hiện nay đang là sinh viên năm 5 của khoa phụ sản trường đại học Y Hà Nội. Tôi có một câu chuyện khá thú vị xin kể các bạn cùng nghe. Ngay mùa hè 2005 vừa rồi...",
      "image": null,
      "label": null,
      "display": "text-only",
      "type": "text",
      "enable_detail": true,
      "related": {
        "url": "https://truyenx.link/truyensextv/channels/related/5",
        "request_headers": []
      },
      "share": {
        "url": "https://truyenx.link/truyensextv/channels/share/sinh-vien-tinh-nguyen"
      },
      "remote_data": {
        "url": "https://truyenx.link/truyensextv/channels/sinh-vien-tinh-nguyen"
      }
    },
    {
      "id": "4-channel",
      "name": "Cô giúp việc dâm đãng",
      "description": "Từ bu rô làm việc, ông Hùng lẳng lặng nhìn con Trâm đang tưới mấy chậu kiễng ngoài sân mà trầm tư suy nghỉ. Từ mấy tháng nay, ông rất bận tâm về một vấn đề mà Thảo, vợ...",
      "image": null,
      "label": null,
      "display": "text-only",
      "type": "text",
      "enable_detail": true,
      "related": {
        "url": "https://truyenx.link/truyensextv/channels/related/4",
        "request_headers": []
      },
      "share": {
        "url": "https://truyenx.link/truyensextv/channels/share/co-giup-viec-dam-dang"
      },
      "remote_data": {
        "url": "https://truyenx.link/truyensextv/channels/co-giup-viec-dam-dang"
      }
    },
    {
      "id": "3-channel",
      "name": "Em Dung thích thủ dâm",
      "description": "Đầu những năm 2000... Cả nhà bà Hiền chỉ có hai mẹ con, chồng bà Hiền mất sớm, để lại bà Hiền cùng với đứa con gái tên là Dung. Bà Hiền thì bệnh tật liên miên, và cũng vì...",
      "image": null,
      "label": null,
      "display": "text-only",
      "type": "text",
      "enable_detail": true,
      "related": {
        "url": "https://truyenx.link/truyensextv/channels/related/3",
        "request_headers": []
      },
      "share": {
        "url": "https://truyenx.link/truyensextv/channels/share/em-dung-thich-thu-dam"
      },
      "remote_data": {
        "url": "https://truyenx.link/truyensextv/channels/em-dung-thich-thu-dam"
      }
    },
    {
      "id": "2-channel",
      "name": "Khi con gái nứng lồn",
      "description": "Cái máy báo động cà khổ nào đó của ai gắn 1 trong chiếc xe mắc dịch của căn nhà bên cạnh tự nhiên hú lên inh ỏi trong đêm lúc hai ba giờ sáng làm cho Tâm choàng tỉnh thức. Nàng...",
      "image": null,
      "label": null,
      "display": "text-only",
      "type": "text",
      "enable_detail": true,
      "related": {
        "url": "https://truyenx.link/truyensextv/channels/related/2",
        "request_headers": []
      },
      "share": {
        "url": "https://truyenx.link/truyensextv/channels/share/khi-con-gai-nung-lon"
      },
      "remote_data": {
        "url": "https://truyenx.link/truyensextv/channels/khi-con-gai-nung-lon"
      }
    },
    {
      "id": "1-channel",
      "name": "Bà giám đốc đa tình",
      "description": "Chi thoáng đỏ mặt trước ánh mắt của gã đàn ông to béo đang nằm dạng chân trên chiếc giường lớn nhìn nàng. Gã nhe hàm răng khấp khểnh vàng khè, hoàn toàn tương phản với bộ...",
      "image": null,
      "label": null,
      "display": "text-only",
      "type": "text",
      "enable_detail": true,
      "related": {
        "url": "https://truyenx.link/truyensextv/channels/related/1",
        "request_headers": []
      },
      "share": {
        "url": "https://truyenx.link/truyensextv/channels/share/ba-giam-doc-da-tinh"
      },
      "remote_data": {
        "url": "https://truyenx.link/truyensextv/channels/ba-giam-doc-da-tinh"
      }
    }
  ],
  "load_more": {
    "pageInfo": {
      "current_page": 140,
      "last_page": 140,
      "per_page": 30,
      "total": 4188
    },
    "paging": {
      "page_key": "page",
      "size_key": "size"
    },
    "remote_data": {
      "url": "https://truyenx.link/truyensextv/channels"
    }
  }
}