{
  "grid_number": 1,
  "channels": [
    {
      "id": "498-channel",
      "name": "Gia đình bệnh hoạn",
      "description": "Con Út ngồi chồm hổm, uốn éo hạ thể cho con cặc bự quá khổ thợ mộc của ba nó ngoáy lung tung trong lỗ lồn đang ngứa rần rần. Miệng nó xuýt xoa, 2 tay nó không ngừng nhồi bóp...",
      "image": null,
      "label": null,
      "display": "text-only",
      "type": "text",
      "enable_detail": true,
      "related": {
        "url": "https://truyenx.link/truyensextv/channels/related/498",
        "request_headers": []
      },
      "share": {
        "url": "https://truyenx.link/truyensextv/channels/share/gia-dinh-benh-hoan"
      },
      "remote_data": {
        "url": "https://truyenx.link/truyensextv/channels/gia-dinh-benh-hoan"
      }
    },
    {
      "id": "497-channel",
      "name": "Con vợ lăng loàn đĩ thõa",
      "description": "Lâm và tôi là bạn thân từ hồi cấp ba cho đến đại học. Hai đứa thuê trọ chung rồi ở cùng nhau. Thời những năm hai nghìn sinh viên thì khá hơi thời thập niên chín mươi của thế...",
      "image": null,
      "label": null,
      "display": "text-only",
      "type": "text",
      "enable_detail": true,
      "related": {
        "url": "https://truyenx.link/truyensextv/channels/related/497",
        "request_headers": []
      },
      "share": {
        "url": "https://truyenx.link/truyensextv/channels/share/con-vo-lang-loan-di-thoa"
      },
      "remote_data": {
        "url": "https://truyenx.link/truyensextv/channels/con-vo-lang-loan-di-thoa"
      }
    },
    {
      "id": "496-channel",
      "name": "Cô vợ hồi xuân",
      "description": "Thịnh đóng cửa phòng lại sau lưng và nghe tiếng vợ nói: “Anh xem các con ngủ hết chưa?”. Nói đoạn Giang leo lên giường đắp chăn lại, nàng vừa mới tắm xong. Thịnh trả lời...",
      "image": null,
      "label": null,
      "display": "text-only",
      "type": "text",
      "enable_detail": true,
      "related": {
        "url": "https://truyenx.link/truyensextv/channels/related/496",
        "request_headers": []
      },
      "share": {
        "url": "https://truyenx.link/truyensextv/channels/share/co-vo-hoi-xuan"
      },
      "remote_data": {
        "url": "https://truyenx.link/truyensextv/channels/co-vo-hoi-xuan"
      }
    },
    {
      "id": "495-channel",
      "name": "Chinh phục gái đẹp - Chương 3",
      "description": "Đinh Nhị Cẩu dắt Lăng Sam đi đến mặt sau bệnh viện trước mặt là tiểu hoa viên trong sân bệnh viện, lúc này không có người nào rồi, còn Lăng Sam cũng là thiếu nữ đang thời...",
      "image": null,
      "label": null,
      "display": "text-only",
      "type": "text",
      "enable_detail": true,
      "related": {
        "url": "https://truyenx.link/truyensextv/channels/related/495",
        "request_headers": []
      },
      "share": {
        "url": "https://truyenx.link/truyensextv/channels/share/chinh-phuc-gai-dep-chuong-3"
      },
      "remote_data": {
        "url": "https://truyenx.link/truyensextv/channels/chinh-phuc-gai-dep-chuong-3"
      }
    },
    {
      "id": "494-channel",
      "name": "Em Quỳnh thèm đụ",
      "description": "23 tuổi... Quỳnh lên xe hoa về nhà chồng. Đám cưới diễn ra hoành tráng đến mức đám bạn bè, lũ hàng xóm đều phải ganh tỵ. Con gái duy nhất của gia đình trung lưu tại 1 xóm lao...",
      "image": null,
      "label": null,
      "display": "text-only",
      "type": "text",
      "enable_detail": true,
      "related": {
        "url": "https://truyenx.link/truyensextv/channels/related/494",
        "request_headers": []
      },
      "share": {
        "url": "https://truyenx.link/truyensextv/channels/share/em-quynh-them-du"
      },
      "remote_data": {
        "url": "https://truyenx.link/truyensextv/channels/em-quynh-them-du"
      }
    },
    {
      "id": "493-channel",
      "name": "Cô học trò của tôi",
      "description": "Tôi gặp em trong những ngày cuối của tháng 12, khi mà mẹ của em tìm đến tôi, nhờ tôi giúp em trong kỳ thi tốp nghiệp THPT quốc gia sắp đến. Kỳ thi thì chỉ còn 6...",
      "image": null,
      "label": null,
      "display": "text-only",
      "type": "text",
      "enable_detail": true,
      "related": {
        "url": "https://truyenx.link/truyensextv/channels/related/493",
        "request_headers": []
      },
      "share": {
        "url": "https://truyenx.link/truyensextv/channels/share/co-hoc-tro-cua-toi"
      },
      "remote_data": {
        "url": "https://truyenx.link/truyensextv/channels/co-hoc-tro-cua-toi"
      }
    },
    {
      "id": "492-channel",
      "name": "Tiểu Mai - Quyển 2",
      "description": "Giữa đám đông bạn bè đang tán chuyện cười đùa ỏm tỏi, chỉ có mỗi tôi là im lặng nhìn bâng quơ cảnh sân trường. Tiểu Mai tay mân mê đoạn tre tôi đưa, thỉnh thoảng nàng...",
      "image": null,
      "label": null,
      "display": "text-only",
      "type": "text",
      "enable_detail": true,
      "related": {
        "url": "https://truyenx.link/truyensextv/channels/related/492",
        "request_headers": []
      },
      "share": {
        "url": "https://truyenx.link/truyensextv/channels/share/tieu-mai-quyen-2"
      },
      "remote_data": {
        "url": "https://truyenx.link/truyensextv/channels/tieu-mai-quyen-2"
      }
    },
    {
      "id": "491-channel",
      "name": "Những cô nàng thích địt",
      "description": "Phóng xe qua cái cổng. Dựng chân chống con xe đạp địa hình rồi khoác cái ba lô lên vai đi vào nhà thằng Hoàng. Thằng Hoàng là thằng bạn thân học với tôi từ hồi hai thằng còn mặc...",
      "image": null,
      "label": null,
      "display": "text-only",
      "type": "text",
      "enable_detail": true,
      "related": {
        "url": "https://truyenx.link/truyensextv/channels/related/491",
        "request_headers": []
      },
      "share": {
        "url": "https://truyenx.link/truyensextv/channels/share/nhung-co-nang-thich-dit"
      },
      "remote_data": {
        "url": "https://truyenx.link/truyensextv/channels/nhung-co-nang-thich-dit"
      }
    },
    {
      "id": "490-channel",
      "name": "Đút cu vào lồn em đi anh",
      "description": "Chúng tôi ra khỏi rạp phim, ngoài trời vài giọt mưa đã rơi tí tách. Khi tôi đưa em về, mưa càng nặng hạt hơn, tôi cố chạy thật nhanh để tránh cơn mưa to sắp kéo tới. Nhưng những...",
      "image": null,
      "label": null,
      "display": "text-only",
      "type": "text",
      "enable_detail": true,
      "related": {
        "url": "https://truyenx.link/truyensextv/channels/related/490",
        "request_headers": []
      },
      "share": {
        "url": "https://truyenx.link/truyensextv/channels/share/dut-cu-vao-lon-em-di-anh"
      },
      "remote_data": {
        "url": "https://truyenx.link/truyensextv/channels/dut-cu-vao-lon-em-di-anh"
      }
    },
    {
      "id": "489-channel",
      "name": "Phá trinh em Thu",
      "description": "Yêu Tuấn ngay từ cái nhìn đầu tiên và ngay ngày đầu tiên Thu vào nhập học năm nhất. Đó là buồi sáng mùa thu, trời không được trong xanh cho lắm, sân trường rụng nhiều những lá...",
      "image": null,
      "label": null,
      "display": "text-only",
      "type": "text",
      "enable_detail": true,
      "related": {
        "url": "https://truyenx.link/truyensextv/channels/related/489",
        "request_headers": []
      },
      "share": {
        "url": "https://truyenx.link/truyensextv/channels/share/pha-trinh-em-thu"
      },
      "remote_data": {
        "url": "https://truyenx.link/truyensextv/channels/pha-trinh-em-thu"
      }
    },
    {
      "id": "488-channel",
      "name": "Tại anh hay tại em?",
      "description": "Em vừa sang tuổi 20, em từng yêu ai và nghĩ rằng sẽ không bao giờ yêu vì trong tâm trí em tình yêu là 1 chuỗi những lo lắng buồn vui phức tạp. Em sống hồn nhiên vô tư như bao thiếu...",
      "image": null,
      "label": null,
      "display": "text-only",
      "type": "text",
      "enable_detail": true,
      "related": {
        "url": "https://truyenx.link/truyensextv/channels/related/488",
        "request_headers": []
      },
      "share": {
        "url": "https://truyenx.link/truyensextv/channels/share/tai-anh-hay-tai-em"
      },
      "remote_data": {
        "url": "https://truyenx.link/truyensextv/channels/tai-anh-hay-tai-em"
      }
    },
    {
      "id": "487-channel",
      "name": "Như một giấc mơ",
      "description": "Chuyến xe buýt hôm nay quá đông, người đứng kẻ ngồi kín hết cả xe. Khó khăn lắm Khánh mới tìm cho mình 1 chỗ đứng yên ổn. Sáng nào cũng vậy hắn đón xe đi từ nhà lên trường...",
      "image": null,
      "label": null,
      "display": "text-only",
      "type": "text",
      "enable_detail": true,
      "related": {
        "url": "https://truyenx.link/truyensextv/channels/related/487",
        "request_headers": []
      },
      "share": {
        "url": "https://truyenx.link/truyensextv/channels/share/nhu-mot-giac-mo"
      },
      "remote_data": {
        "url": "https://truyenx.link/truyensextv/channels/nhu-mot-giac-mo"
      }
    },
    {
      "id": "486-channel",
      "name": "Anh họ Việt Kiều",
      "description": "Sinh ra và lớn lên nơi vùng nông thôn, tôi quen với cuộc sống bình dị hằng ngày theo cha ra ruộng gieo mạ, thỉnh thoảng theo mẹ vào vườn lượm trái cây. Cứ thế ngày qua ngày tôi vui...",
      "image": null,
      "label": null,
      "display": "text-only",
      "type": "text",
      "enable_detail": true,
      "related": {
        "url": "https://truyenx.link/truyensextv/channels/related/486",
        "request_headers": []
      },
      "share": {
        "url": "https://truyenx.link/truyensextv/channels/share/anh-ho-viet-kieu"
      },
      "remote_data": {
        "url": "https://truyenx.link/truyensextv/channels/anh-ho-viet-kieu"
      }
    },
    {
      "id": "485-channel",
      "name": "3 người con gái tôi yêu",
      "description": "Dì Ng... Gọi là dì cho vui miệng chứ dì nhỏ hơn tôi 2 tuổi. Gọi là dì vì mẹ của dì là em ruột của bà ngoại tôi, không biết đã qua cái ngưỡng 3 đời chưa nữa. Từ lâu, bà T...",
      "image": null,
      "label": null,
      "display": "text-only",
      "type": "text",
      "enable_detail": true,
      "related": {
        "url": "https://truyenx.link/truyensextv/channels/related/485",
        "request_headers": []
      },
      "share": {
        "url": "https://truyenx.link/truyensextv/channels/share/3-nguoi-con-gai-toi-yeu"
      },
      "remote_data": {
        "url": "https://truyenx.link/truyensextv/channels/3-nguoi-con-gai-toi-yeu"
      }
    },
    {
      "id": "484-channel",
      "name": "Một câu chuyện…",
      "description": "Một câu chuyện... không đầu... không cuối... Hải hơi đưa mắt nhìn qua Hoài ở phía bàn đối diện, trong ánh đèn mờ ảo của cái quán café sang trọng này Hoài càng có vẻ liêu trai...",
      "image": null,
      "label": null,
      "display": "text-only",
      "type": "text",
      "enable_detail": true,
      "related": {
        "url": "https://truyenx.link/truyensextv/channels/related/484",
        "request_headers": []
      },
      "share": {
        "url": "https://truyenx.link/truyensextv/channels/share/mot-cau-chuyen"
      },
      "remote_data": {
        "url": "https://truyenx.link/truyensextv/channels/mot-cau-chuyen"
      }
    },
    {
      "id": "483-channel",
      "name": "Nỗi đau của vợ",
      "description": "Năm nay tôi 27 tuổi, ba mẹ định cư ở mỹ cùng anh hai. Vì công việc và quan trọng hơn hết là vì bạn gái nên tôi ở lại Việt Nam. Tôi và bạn gái bằng tuổi và làm cùng công ty...",
      "image": null,
      "label": null,
      "display": "text-only",
      "type": "text",
      "enable_detail": true,
      "related": {
        "url": "https://truyenx.link/truyensextv/channels/related/483",
        "request_headers": []
      },
      "share": {
        "url": "https://truyenx.link/truyensextv/channels/share/noi-dau-cua-vo"
      },
      "remote_data": {
        "url": "https://truyenx.link/truyensextv/channels/noi-dau-cua-vo"
      }
    },
    {
      "id": "482-channel",
      "name": "Anh hùng tại linh giới",
      "description": "Hắn mở mắt, xoa đầu. Điều hắn nhớ là bị một bang giang hồ hội đồng. Hắn là Lê Trọng Trường. Thất nghiệp, nợ tiền giang hồ đã dẫn tới việc bị dân anh chị gõ cửa dài...",
      "image": null,
      "label": null,
      "display": "text-only",
      "type": "text",
      "enable_detail": true,
      "related": {
        "url": "https://truyenx.link/truyensextv/channels/related/482",
        "request_headers": []
      },
      "share": {
        "url": "https://truyenx.link/truyensextv/channels/share/anh-hung-tai-linh-gioi"
      },
      "remote_data": {
        "url": "https://truyenx.link/truyensextv/channels/anh-hung-tai-linh-gioi"
      }
    },
    {
      "id": "481-channel",
      "name": "Vô hình thần công",
      "description": "Trong khung cảnh về chiều, Âm thiên cốc trở nên tối mịt. Từ dưới Âm cốc nhìn lên bầu trời chỉ thấy một vài tia sáng le lói. Rõ ràng nơi đây cách xa hẳn với thế giới bên...",
      "image": null,
      "label": null,
      "display": "text-only",
      "type": "text",
      "enable_detail": true,
      "related": {
        "url": "https://truyenx.link/truyensextv/channels/related/481",
        "request_headers": []
      },
      "share": {
        "url": "https://truyenx.link/truyensextv/channels/share/vo-hinh-than-cong"
      },
      "remote_data": {
        "url": "https://truyenx.link/truyensextv/channels/vo-hinh-than-cong"
      }
    },
    {
      "id": "480-channel",
      "name": "Đụ máy bay bà già",
      "description": "Thời điểm diễn ra sự kiện đúng năm tôi tròn 23 tuổi, học xong đại học nhưng không ở lại Hà Nội, tôi quyết định đi xa tìm đường làm ăn bởi tôi nghĩ tự lập cách xa gia...",
      "image": null,
      "label": null,
      "display": "text-only",
      "type": "text",
      "enable_detail": true,
      "related": {
        "url": "https://truyenx.link/truyensextv/channels/related/480",
        "request_headers": []
      },
      "share": {
        "url": "https://truyenx.link/truyensextv/channels/share/du-may-bay-ba-gia"
      },
      "remote_data": {
        "url": "https://truyenx.link/truyensextv/channels/du-may-bay-ba-gia"
      }
    },
    {
      "id": "479-channel",
      "name": "Đụ thím",
      "description": "Gia đình tôi sống ở Bắc Giang từ nhỏ, năm tôi lên lớp 6 Bố mẹ tôi sang nước Nga buôn hàng kiếm lời nên gửi tôi sang sống cùng chú thím. Hồi đó chú thím mới có một cô con gái...",
      "image": null,
      "label": null,
      "display": "text-only",
      "type": "text",
      "enable_detail": true,
      "related": {
        "url": "https://truyenx.link/truyensextv/channels/related/479",
        "request_headers": []
      },
      "share": {
        "url": "https://truyenx.link/truyensextv/channels/share/du-thim"
      },
      "remote_data": {
        "url": "https://truyenx.link/truyensextv/channels/du-thim"
      }
    },
    {
      "id": "478-channel",
      "name": "Tiểu Mai - Quyển 1",
      "description": "Phần đầu xin phép các bác cho em lan man chút, từ cái thời em còn nhỏ tụt quần đá banh ấy, thú thật là em mê gái từ lúc ấy rồi chứ chẳng đợi đến cấp 3 hay đại học gì cả...",
      "image": null,
      "label": null,
      "display": "text-only",
      "type": "text",
      "enable_detail": true,
      "related": {
        "url": "https://truyenx.link/truyensextv/channels/related/478",
        "request_headers": []
      },
      "share": {
        "url": "https://truyenx.link/truyensextv/channels/share/tieu-mai-quyen-1"
      },
      "remote_data": {
        "url": "https://truyenx.link/truyensextv/channels/tieu-mai-quyen-1"
      }
    },
    {
      "id": "477-channel",
      "name": "Đụ lỗ đít gái 18",
      "description": "Những ánh nắng chói chang của tiết trời giữa tháng 6 ở buôn mê đang rọi thẳng khắp phố phường thêm cảm giác oi bức, nóng nực và đầy ngột ngạc trên mảnh đất Cao Nguyên này...",
      "image": null,
      "label": null,
      "display": "text-only",
      "type": "text",
      "enable_detail": true,
      "related": {
        "url": "https://truyenx.link/truyensextv/channels/related/477",
        "request_headers": []
      },
      "share": {
        "url": "https://truyenx.link/truyensextv/channels/share/du-lo-dit-gai-18"
      },
      "remote_data": {
        "url": "https://truyenx.link/truyensextv/channels/du-lo-dit-gai-18"
      }
    },
    {
      "id": "476-channel",
      "name": "Vợ địt với đồng nghiệp",
      "description": "Nói thật với các bác, em và vợ em kết hôn cũng được gần 2 năm rồi, tuy vợ em đã 30 tuổi rồi những do dáng người nhỏ nhắn, trẻ lâu nên trông cô ấy cứ như mới ngoài 20 tuổi...",
      "image": null,
      "label": null,
      "display": "text-only",
      "type": "text",
      "enable_detail": true,
      "related": {
        "url": "https://truyenx.link/truyensextv/channels/related/476",
        "request_headers": []
      },
      "share": {
        "url": "https://truyenx.link/truyensextv/channels/share/vo-dit-voi-dong-nghiep"
      },
      "remote_data": {
        "url": "https://truyenx.link/truyensextv/channels/vo-dit-voi-dong-nghiep"
      }
    },
    {
      "id": "475-channel",
      "name": "Ký ức tuổi trẻ - Quyển 2",
      "description": "QUYỂN 2: NHỮNG NĂM THÁNG SINH VIÊN Tôi quyết định học cả hai trường song song chứ không bỏ trường nào cả, ba mẹ sợ học nhiều nên cứ nói mãi cuối cùng không khuyên được đành...",
      "image": null,
      "label": null,
      "display": "text-only",
      "type": "text",
      "enable_detail": true,
      "related": {
        "url": "https://truyenx.link/truyensextv/channels/related/475",
        "request_headers": []
      },
      "share": {
        "url": "https://truyenx.link/truyensextv/channels/share/ky-uc-tuoi-tre-quyen-2"
      },
      "remote_data": {
        "url": "https://truyenx.link/truyensextv/channels/ky-uc-tuoi-tre-quyen-2"
      }
    },
    {
      "id": "474-channel",
      "name": "Buôn người",
      "description": "Hắn tên là Lâm. Hắn sống một cuộc sống bình thường, không ai để ý tới. Thế nên cũng không ai biết được những điều khủng khiếp mà hắn đã và đang gây ra cho nhiều cô...",
      "image": null,
      "label": null,
      "display": "text-only",
      "type": "text",
      "enable_detail": true,
      "related": {
        "url": "https://truyenx.link/truyensextv/channels/related/474",
        "request_headers": []
      },
      "share": {
        "url": "https://truyenx.link/truyensextv/channels/share/buon-nguoi"
      },
      "remote_data": {
        "url": "https://truyenx.link/truyensextv/channels/buon-nguoi"
      }
    },
    {
      "id": "473-channel",
      "name": "Chị đồng nghiệp dâm đãng",
      "description": "Sau khi tốt nghiệp, tôi nhận công tác về 1 công ty abc... để làm việc, lương bổng, chế độ hậu mãi cực tốt. Tôi làm ở văn phòng nên hầu hết các chị em đều tập trung ở phòng...",
      "image": null,
      "label": null,
      "display": "text-only",
      "type": "text",
      "enable_detail": true,
      "related": {
        "url": "https://truyenx.link/truyensextv/channels/related/473",
        "request_headers": []
      },
      "share": {
        "url": "https://truyenx.link/truyensextv/channels/share/chi-dong-nghiep-dam-dang"
      },
      "remote_data": {
        "url": "https://truyenx.link/truyensextv/channels/chi-dong-nghiep-dam-dang"
      }
    },
    {
      "id": "472-channel",
      "name": "Vợ some với bạn của chồng",
      "description": "Vào 1 buổi chiều đẹp trời, vợ chồng tôi đang âu yếm nhau trên ghế sofa và xem phim sex thì bỗng...",
      "image": null,
      "label": null,
      "display": "text-only",
      "type": "text",
      "enable_detail": true,
      "related": {
        "url": "https://truyenx.link/truyensextv/channels/related/472",
        "request_headers": []
      },
      "share": {
        "url": "https://truyenx.link/truyensextv/channels/share/vo-some-voi-ban-cua-chong"
      },
      "remote_data": {
        "url": "https://truyenx.link/truyensextv/channels/vo-some-voi-ban-cua-chong"
      }
    },
    {
      "id": "471-channel",
      "name": "Không thể quên được em",
      "description": "4 tôi vẫn nằm nhà chơi game như bao ngày khác. Tính tôi nó thế...",
      "image": null,
      "label": null,
      "display": "text-only",
      "type": "text",
      "enable_detail": true,
      "related": {
        "url": "https://truyenx.link/truyensextv/channels/related/471",
        "request_headers": []
      },
      "share": {
        "url": "https://truyenx.link/truyensextv/channels/share/khong-the-quen-duoc-em"
      },
      "remote_data": {
        "url": "https://truyenx.link/truyensextv/channels/khong-the-quen-duoc-em"
      }
    },
    {
      "id": "470-channel",
      "name": "Dâm dâm cô nương",
      "description": "Năm nay tôi 18 tuổi, sắp ra trường, còn anh thì ra trường 2 năm trước, chúng tôi quen nhau đã lâu. 2 gia đình cũng biết chuyện cũng không cấm cản gì. Thả lỏng cho chúng tôi quen. Nhà...",
      "image": null,
      "label": null,
      "display": "text-only",
      "type": "text",
      "enable_detail": true,
      "related": {
        "url": "https://truyenx.link/truyensextv/channels/related/470",
        "request_headers": []
      },
      "share": {
        "url": "https://truyenx.link/truyensextv/channels/share/dam-dam-co-nuong"
      },
      "remote_data": {
        "url": "https://truyenx.link/truyensextv/channels/dam-dam-co-nuong"
      }
    },
    {
      "id": "469-channel",
      "name": "Gấu em là thiên thần",
      "description": "Đầu tiên, đôi điều về em ạ. Em sinh 97, hồi đó đang học 11 toán ở 1 trường chuyên, người gốc Bắc cơ mà từ đời ông nội thì bắt đầu chuyển vô Nam. Ngoại hình thì được...",
      "image": null,
      "label": null,
      "display": "text-only",
      "type": "text",
      "enable_detail": true,
      "related": {
        "url": "https://truyenx.link/truyensextv/channels/related/469",
        "request_headers": []
      },
      "share": {
        "url": "https://truyenx.link/truyensextv/channels/share/gau-em-la-thien-than"
      },
      "remote_data": {
        "url": "https://truyenx.link/truyensextv/channels/gau-em-la-thien-than"
      }
    }
  ],
  "load_more": {
    "pageInfo": {
      "current_page": 124,
      "last_page": 140,
      "per_page": 30,
      "total": 4188
    },
    "paging": {
      "page_key": "page",
      "size_key": "size"
    },
    "remote_data": {
      "url": "https://truyenx.link/truyensextv/channels"
    }
  }
}