{"grid_number":1,"channels":[{"id":"3520-channel","name":"Cô láng giềng","description":"Lúc đó vào khoảng mười sáu tuổi, tôi được hưởng thú làm tình lần đầu tiên với hai cô bạn gái cùng xóm. Thúy và Phượng là hai chị em ruột, Thúy là chị, lớn hơn tôi hai...","image":null,"label":null,"display":"text-only","type":"text","enable_detail":true,"related":{"url":"https://truyenx.link/truyensextv/channels/related/3520","request_headers":[]},"share":{"url":"https://truyenx.link/truyensextv/channels/share/co-lang-gieng"},"remote_data":{"url":"https://truyenx.link/truyensextv/channels/co-lang-gieng"}},{"id":"3519-channel","name":"Chị tôi và cô thư ký của bố tôi","description":"Ở trong lớp đang buồn bực vì hai điểm kém môn toán và môn lý. Tôi tìm cách trốn 3 tiết cuối về nhà. Ra đến cổng trường tôi còn bị dò hỏi nữa lên khi ra đến quán INTERNET mà...","image":null,"label":null,"display":"text-only","type":"text","enable_detail":true,"related":{"url":"https://truyenx.link/truyensextv/channels/related/3519","request_headers":[]},"share":{"url":"https://truyenx.link/truyensextv/channels/share/chi-toi-va-co-thu-ky-cua-bo-toi"},"remote_data":{"url":"https://truyenx.link/truyensextv/channels/chi-toi-va-co-thu-ky-cua-bo-toi"}},{"id":"3518-channel","name":"Con đĩ","description":"Con đĩ đứng run cầm cập dưới gốc cây lớn nằm sát bên lề của đường Huyền Trân công chúa. Hai hàm răng của nó va và nhau kêu cộp cộp. Mưa, mưa tầm tã, mưa lớn như chẳng bao...","image":null,"label":null,"display":"text-only","type":"text","enable_detail":true,"related":{"url":"https://truyenx.link/truyensextv/channels/related/3518","request_headers":[]},"share":{"url":"https://truyenx.link/truyensextv/channels/share/con-di"},"remote_data":{"url":"https://truyenx.link/truyensextv/channels/con-di"}},{"id":"3517-channel","name":"Chuyện người nữ phạm","description":"Chuyện đó xảy ra lần đầu tiên năm tôi 17 tuổi, với 1 cô bạn cùng lớp, tên là Nga. Sẽ chẳng có gì đáng nói, nếu như tôi là một đứa con trai, nhưng đằng này, cả tôi và Nga...","image":null,"label":null,"display":"text-only","type":"text","enable_detail":true,"related":{"url":"https://truyenx.link/truyensextv/channels/related/3517","request_headers":[]},"share":{"url":"https://truyenx.link/truyensextv/channels/share/chuyen-nguoi-nu-pham"},"remote_data":{"url":"https://truyenx.link/truyensextv/channels/chuyen-nguoi-nu-pham"}},{"id":"3516-channel","name":"Phá trinh em sinh viên năm nhất","description":"Tôi là dân tỉnh lẻ, lần đầu tiên bước chân vào đất miền nam mang theo bao hoài bão, và duy nhất 1 mối tình đầu của ngày chia xa thấm đẫm sự luyến tiếc tuổi học trò... Không...","image":null,"label":null,"display":"text-only","type":"text","enable_detail":true,"related":{"url":"https://truyenx.link/truyensextv/channels/related/3516","request_headers":[]},"share":{"url":"https://truyenx.link/truyensextv/channels/share/pha-trinh-em-sinh-vien-nam-nhat"},"remote_data":{"url":"https://truyenx.link/truyensextv/channels/pha-trinh-em-sinh-vien-nam-nhat"}},{"id":"3515-channel","name":"Chịch chị của bạn gái","description":"Hồi đó mình quen 1 bé ghệ. Nhà bé có 3 chị em gái, chị đầu hơn bé 10t, chị kế hơn 8t. Cả 2 đều lấy chồng hết rồi. Ông ba của bé thì có xưởng đá hoa cương trên q12, ổng ở...","image":null,"label":null,"display":"text-only","type":"text","enable_detail":true,"related":{"url":"https://truyenx.link/truyensextv/channels/related/3515","request_headers":[]},"share":{"url":"https://truyenx.link/truyensextv/channels/share/chich-chi-cua-ban-gai"},"remote_data":{"url":"https://truyenx.link/truyensextv/channels/chich-chi-cua-ban-gai"}},{"id":"3514-channel","name":"Chuyện một gia đình","description":"Ông Dương vừa nút cặp vú tròn lẳn vừa luồn tay cởi nốt chiếc quần lót trên người Thanh. Con bé 16 tuổi nằm trân người chịu đựng, đúng ra cũng không phải là nằm mà là nữa...","image":null,"label":null,"display":"text-only","type":"text","enable_detail":true,"related":{"url":"https://truyenx.link/truyensextv/channels/related/3514","request_headers":[]},"share":{"url":"https://truyenx.link/truyensextv/channels/share/chuyen-mot-gia-dinh"},"remote_data":{"url":"https://truyenx.link/truyensextv/channels/chuyen-mot-gia-dinh"}},{"id":"3513-channel","name":"Gia đình hạnh phúc","description":"Tôi tên Dũng là một thanh niên vừa mới ra trường vẫn đang miệt mài tìm công việc để có khoản tài chính riêng lo cho những hoài bảo. Tuy mới 22 tuổi nhưng Dũng có thân hình cao to...","image":null,"label":null,"display":"text-only","type":"text","enable_detail":true,"related":{"url":"https://truyenx.link/truyensextv/channels/related/3513","request_headers":[]},"share":{"url":"https://truyenx.link/truyensextv/channels/share/gia-dinh-hanh-phuc"},"remote_data":{"url":"https://truyenx.link/truyensextv/channels/gia-dinh-hanh-phuc"}},{"id":"3512-channel","name":"[Truyện sex gay] Anh em kết nghĩa","description":"Tôi tên là Luân, là một thanh niên 21 tuổi quê ở Cần Thơ. Tôi đang học năm thứ tư đại học ở Sài Gòn. Câu chuyện tôi kể cho bạn nghe đây là chuyện đã và đang diễn ra của...","image":null,"label":null,"display":"text-only","type":"text","enable_detail":true,"related":{"url":"https://truyenx.link/truyensextv/channels/related/3512","request_headers":[]},"share":{"url":"https://truyenx.link/truyensextv/channels/share/truyen-sex-gay-anh-em-ket-nghia"},"remote_data":{"url":"https://truyenx.link/truyensextv/channels/truyen-sex-gay-anh-em-ket-nghia"}},{"id":"3511-channel","name":"Cà Mau yêu dấu","description":"Chuyện này đã xảy ra lâu lắm rồi, ngay từ mùa hè năm tôi vừa học xong lớp 12. Năm đó tôi được 18 tuổi, lứa tuổi mới lớn của mộng mơ và tò mò. Tôi được mệnh danh là hoa...","image":null,"label":null,"display":"text-only","type":"text","enable_detail":true,"related":{"url":"https://truyenx.link/truyensextv/channels/related/3511","request_headers":[]},"share":{"url":"https://truyenx.link/truyensextv/channels/share/ca-mau-yeu-dau"},"remote_data":{"url":"https://truyenx.link/truyensextv/channels/ca-mau-yeu-dau"}},{"id":"3510-channel","name":"Cây mận sau nhà","description":"Khi Khu bước vào cái tuổi biết chuyện vợ chồng, ông Bảy Gà định đi lên xóm trên ấp Cá Lóc kiếm cho con trai mình một con vợ. Điều kiện chọn vợ cho con của ông là con gái phải...","image":null,"label":null,"display":"text-only","type":"text","enable_detail":true,"related":{"url":"https://truyenx.link/truyensextv/channels/related/3510","request_headers":[]},"share":{"url":"https://truyenx.link/truyensextv/channels/share/cay-man-sau-nha"},"remote_data":{"url":"https://truyenx.link/truyensextv/channels/cay-man-sau-nha"}},{"id":"3509-channel","name":"Bên dòng sông Trẹm","description":"Không biết dòng sông Trẹm đã có tự bao giờ và cái tên ngồ ngộ do ai đặt ra mà mỗi lần nhắc tới thì nghe nó có vẻ quen thuộc với gia đình tôi cũng như bao dân làng đã từng...","image":null,"label":null,"display":"text-only","type":"text","enable_detail":true,"related":{"url":"https://truyenx.link/truyensextv/channels/related/3509","request_headers":[]},"share":{"url":"https://truyenx.link/truyensextv/channels/share/ben-dong-song-trem"},"remote_data":{"url":"https://truyenx.link/truyensextv/channels/ben-dong-song-trem"}},{"id":"3508-channel","name":"Truyện sex nhà cô giáo Nga","description":"Với bộ mặt cáu bẳn, Dũng hậm hực đi. Bà giáo dạy Địa đáng ghét của nó rõ ràng không ưa nó chút nào, cùng với kết quả đó, thằng Hùng được tận 9 điểm trong khi nó chỉ...","image":null,"label":null,"display":"text-only","type":"text","enable_detail":true,"related":{"url":"https://truyenx.link/truyensextv/channels/related/3508","request_headers":[]},"share":{"url":"https://truyenx.link/truyensextv/channels/share/truyen-sex-nha-co-giao-nga"},"remote_data":{"url":"https://truyenx.link/truyensextv/channels/truyen-sex-nha-co-giao-nga"}},{"id":"3507-channel","name":"Bé gái","description":"Cái nóng của tối nay thật là khó chịu, tôi đã tắm hai lần rồi mà vẫn chưa thấy mát. Ngày mai là thứ Hai, là bắt đầu một tuần của kỳ thi cuối niên khóa. Mấy hôm nay tôi cứ...","image":null,"label":null,"display":"text-only","type":"text","enable_detail":true,"related":{"url":"https://truyenx.link/truyensextv/channels/related/3507","request_headers":[]},"share":{"url":"https://truyenx.link/truyensextv/channels/share/be-gai"},"remote_data":{"url":"https://truyenx.link/truyensextv/channels/be-gai"}},{"id":"3505-channel","name":"Ba năm tình cũ","description":"Tôi quen Lan Anh được ba năm. Ba năm đó quả là ba năm đầy thú vị cho cuộc đời làm sinh viên ở college của tôi. Lan Anh và tôi học cùng nhập học đại học cùng năm và cùng học...","image":null,"label":null,"display":"text-only","type":"text","enable_detail":true,"related":{"url":"https://truyenx.link/truyensextv/channels/related/3505","request_headers":[]},"share":{"url":"https://truyenx.link/truyensextv/channels/share/ba-nam-tinh-cu"},"remote_data":{"url":"https://truyenx.link/truyensextv/channels/ba-nam-tinh-cu"}},{"id":"3506-channel","name":"[Truyện sex gay] Cha và tôi","description":"Năm tôi 15 tuổi lứa tuổi bắt đầu phát dục cặc bắt đầu lớn dần đầu bu đỏ bắt đầu lộ rõ ra, lông cặc và lông dái lăn quăn bắt đầu lún phún, cơ thể tràn đầy tràn...","image":null,"label":null,"display":"text-only","type":"text","enable_detail":true,"related":{"url":"https://truyenx.link/truyensextv/channels/related/3506","request_headers":[]},"share":{"url":"https://truyenx.link/truyensextv/channels/share/truyen-sex-gay-cha-va-toi"},"remote_data":{"url":"https://truyenx.link/truyensextv/channels/truyen-sex-gay-cha-va-toi"}},{"id":"3504-channel","name":"Muốn địt em Liên","description":"Dạo này, sức khỏe hồi phục tốt. Tự nhiên mình lại hay lên cơn nứng cặc! Rất muốn được địt, và xuất tinh vô một cái lồn nào đó cho cả hai sướng điên dại. Cũng là để...","image":null,"label":null,"display":"text-only","type":"text","enable_detail":true,"related":{"url":"https://truyenx.link/truyensextv/channels/related/3504","request_headers":[]},"share":{"url":"https://truyenx.link/truyensextv/channels/share/muon-dit-em-lien"},"remote_data":{"url":"https://truyenx.link/truyensextv/channels/muon-dit-em-lien"}},{"id":"3503-channel","name":"Đứa cháu dâm của Ái Nghi","description":"Thu Hà Nội có lẽ là thời điểm đẹp nhất trong năm, là khoảng thời gian chuyển giao giữa hạ và thu. Đất trời, cỏ cây, thời tiết cũng thay đổi dần theo một chiều hướng nhẹ...","image":null,"label":null,"display":"text-only","type":"text","enable_detail":true,"related":{"url":"https://truyenx.link/truyensextv/channels/related/3503","request_headers":[]},"share":{"url":"https://truyenx.link/truyensextv/channels/share/dua-chau-dam-cua-ai-nghi"},"remote_data":{"url":"https://truyenx.link/truyensextv/channels/dua-chau-dam-cua-ai-nghi"}},{"id":"3502-channel","name":"Mẹ tôi - thợ săn cu","description":"Giới thiệu qua một chút, tôi tên là Long, năm nay tôi đã 23 tuổi. Mẹ tôi tên là Thuỷ, năm nay mẹ đã 46. Nói qua về mẹ, mẹ tôi là một người phụ nữ giỏi giang, xinh đẹp, có tài...","image":null,"label":null,"display":"text-only","type":"text","enable_detail":true,"related":{"url":"https://truyenx.link/truyensextv/channels/related/3502","request_headers":[]},"share":{"url":"https://truyenx.link/truyensextv/channels/share/me-toi-tho-san-cu"},"remote_data":{"url":"https://truyenx.link/truyensextv/channels/me-toi-tho-san-cu"}},{"id":"3501-channel","name":"Các bà chị họ của tôi","description":"Tôi năm nay mới có 17 tuổi. Tháng trước có một kỷ niệm hay chính xác hơn là một sự việc mà tôi không thể nào quên được. Đó là một hôm thứ 7 tôi được về quê chơi. Chuyến...","image":null,"label":null,"display":"text-only","type":"text","enable_detail":true,"related":{"url":"https://truyenx.link/truyensextv/channels/related/3501","request_headers":[]},"share":{"url":"https://truyenx.link/truyensextv/channels/share/cac-ba-chi-ho-cua-toi"},"remote_data":{"url":"https://truyenx.link/truyensextv/channels/cac-ba-chi-ho-cua-toi"}},{"id":"3500-channel","name":"Biến cố cuộc đời","description":"Những năm Trung học cơ sở của tôi không có gì nổi bật, ngoài những chuyện ngây thơ của tuổi trẻ mà 9x đời đầu như tôi chắc ai cũng thế. Những bức thư tình để dưới bàn...","image":null,"label":null,"display":"text-only","type":"text","enable_detail":true,"related":{"url":"https://truyenx.link/truyensextv/channels/related/3500","request_headers":[]},"share":{"url":"https://truyenx.link/truyensextv/channels/share/bien-co-cuoc-doi"},"remote_data":{"url":"https://truyenx.link/truyensextv/channels/bien-co-cuoc-doi"}},{"id":"3499-channel","name":"Stalker","description":"Ngày hôm nay thật sự là một ngày mệt mỏi đối với tôi. Bị ông sếp gian ma ấy mẳng hết cả một buổi vì 1 lý do hết sức nhảm nhí. Lúc này bia rượu chắc là 1 giải pháp hợp...","image":null,"label":null,"display":"text-only","type":"text","enable_detail":true,"related":{"url":"https://truyenx.link/truyensextv/channels/related/3499","request_headers":[]},"share":{"url":"https://truyenx.link/truyensextv/channels/share/stalker"},"remote_data":{"url":"https://truyenx.link/truyensextv/channels/stalker"}},{"id":"3498-channel","name":"Chịch bạn em người yêu cũ","description":"Nhớ có lần mình với người yêu cũ giận nhau, nó cảm nắng thằng nào ấy thế là mình ghen im lặng với nó vài ngày. Nó cũng sợ mình giận hay sao đó mà hôm ấy chủ động nhắn tin...","image":null,"label":null,"display":"text-only","type":"text","enable_detail":true,"related":{"url":"https://truyenx.link/truyensextv/channels/related/3498","request_headers":[]},"share":{"url":"https://truyenx.link/truyensextv/channels/share/chich-ban-em-nguoi-yeu-cu"},"remote_data":{"url":"https://truyenx.link/truyensextv/channels/chich-ban-em-nguoi-yeu-cu"}},{"id":"3497-channel","name":"Bà chủ nhà tốt bụng","description":"Hòa đang cảm giác một sự rung động, bởi vì nó đã chờ từng khoảnh khắc từ khi ông chủ nó có hẹn một chuyến bay chiều nay. Ông chủ luôn luôn đến phòng ngủ của vợ trước khi...","image":null,"label":null,"display":"text-only","type":"text","enable_detail":true,"related":{"url":"https://truyenx.link/truyensextv/channels/related/3497","request_headers":[]},"share":{"url":"https://truyenx.link/truyensextv/channels/share/ba-chu-nha-tot-bung"},"remote_data":{"url":"https://truyenx.link/truyensextv/channels/ba-chu-nha-tot-bung"}},{"id":"3496-channel","name":"Làm thuê","description":"Công nghiệp hóa đang diễn ra khắp đất nước Việt Nam làm thay đổi bộ mặt của rất nhiều thành phố. Tôi là một người con của vùng vỏ. Quanh năm thì có mặt nhem nhuốc với than...","image":null,"label":null,"display":"text-only","type":"text","enable_detail":true,"related":{"url":"https://truyenx.link/truyensextv/channels/related/3496","request_headers":[]},"share":{"url":"https://truyenx.link/truyensextv/channels/share/lam-thue"},"remote_data":{"url":"https://truyenx.link/truyensextv/channels/lam-thue"}},{"id":"3495-channel","name":"Cậu Hai Đức","description":"Bà Hội Đồng Tơ vén quần bước lên cầu ván, ngó ngoáy lại dặn dò bạn ghe là Tư Cò: Nè Tư, mày chờ con ba Mận xuống rinh hết đồ đạc lên rồi cho ghe vô ụ neo cẩn thận. Nhớ...","image":null,"label":null,"display":"text-only","type":"text","enable_detail":true,"related":{"url":"https://truyenx.link/truyensextv/channels/related/3495","request_headers":[]},"share":{"url":"https://truyenx.link/truyensextv/channels/share/cau-hai-duc"},"remote_data":{"url":"https://truyenx.link/truyensextv/channels/cau-hai-duc"}},{"id":"3494-channel","name":"Trùng","description":"Tiểu hài tử, đan điền vấn đề Trong khu rừng rậm rạp có lão già ngồi trên tảng đá như lão tăng nhập định. Xung quanh được phủ kín bởi hằng hà sa số những cổ thụ có màu...","image":null,"label":null,"display":"text-only","type":"text","enable_detail":true,"related":{"url":"https://truyenx.link/truyensextv/channels/related/3494","request_headers":[]},"share":{"url":"https://truyenx.link/truyensextv/channels/share/trung"},"remote_data":{"url":"https://truyenx.link/truyensextv/channels/trung"}},{"id":"3493-channel","name":"Bé gái loli được chú giáo giục giới tính","description":"Tố Tố là một cô bé 12 tuổi và bắt đầu một năm học mới. Tố Tố được mẹ dẫn vào trong một ngôi trường nằm ngay trung tâm thành phố. Cô bé và mẹ bước vào trong văn phòng...","image":null,"label":null,"display":"text-only","type":"text","enable_detail":true,"related":{"url":"https://truyenx.link/truyensextv/channels/related/3493","request_headers":[]},"share":{"url":"https://truyenx.link/truyensextv/channels/share/be-gai-loli-duoc-chu-giao-giuc-gioi-tinh"},"remote_data":{"url":"https://truyenx.link/truyensextv/channels/be-gai-loli-duoc-chu-giao-giuc-gioi-tinh"}},{"id":"3492-channel","name":"Kỷ niệm khó phai","description":"Xin chào anh em... Giới thiệu sơ qua em tên V... Em ở 1 thành phố lớn, em và thằng T chơi với nhau đã lâu... Có 1 đợt ghệ cũ nó ở quê lên chơi... 2 Đứa này thì quen như không quen...","image":null,"label":null,"display":"text-only","type":"text","enable_detail":true,"related":{"url":"https://truyenx.link/truyensextv/channels/related/3492","request_headers":[]},"share":{"url":"https://truyenx.link/truyensextv/channels/share/ky-niem-kho-phai"},"remote_data":{"url":"https://truyenx.link/truyensextv/channels/ky-niem-kho-phai"}},{"id":"3491-channel","name":"Chú chó nhỏ đáng yêu của em","description":"Trong một lớp học, một cô gái đang ngồi suy tư nhìn ra cửa sổ, khuôn mặt cô toát lên vẻ thanh xuân xinh đẹp, đôi mắt to tròn long lanh, chiếc mũi cao và đôi môi đỏ mọng, hai má...","image":null,"label":null,"display":"text-only","type":"text","enable_detail":true,"related":{"url":"https://truyenx.link/truyensextv/channels/related/3491","request_headers":[]},"share":{"url":"https://truyenx.link/truyensextv/channels/share/chu-cho-nho-dang-yeu-cua-em"},"remote_data":{"url":"https://truyenx.link/truyensextv/channels/chu-cho-nho-dang-yeu-cua-em"}}],"load_more":{"pageInfo":{"current_page":43,"last_page":140,"per_page":30,"total":4188},"paging":{"page_key":"page","size_key":"size"},"remote_data":{"url":"https://truyenx.link/truyensextv/channels"}}}