{
  "grid_number": 1,
  "channels": [
    {
      "id": "3039-channel",
      "name": "Người thím là vợ tôi khi lớn lên",
      "description": "Năm nay tôi mới chỉ vừa tròn 19 tuổi và hiện tại đang ở bên Hàn hoàn cảnh gia đình tôi khá buồn bố mẹ ly dị tôi thì sống với mẹ hằng ngày tôi làm phụ việc ở các quán ăn...",
      "image": null,
      "label": null,
      "display": "text-only",
      "type": "text",
      "enable_detail": true,
      "related": {
        "url": "https://truyenx.link/truyensextv/channels/related/3039",
        "request_headers": []
      },
      "share": {
        "url": "https://truyenx.link/truyensextv/channels/share/nguoi-thim-la-vo-toi-khi-lon-len"
      },
      "remote_data": {
        "url": "https://truyenx.link/truyensextv/channels/nguoi-thim-la-vo-toi-khi-lon-len"
      }
    },
    {
      "id": "3037-channel",
      "name": "Vượt qua tất cả",
      "description": "Ngoài trời, mưa rơi ráo riết tạo thành một mảng trắng xóa làm dòng người lúc 19h00 vốn đã tấp nập giờ đã thưa thớt hẳn. Trong một căn nhà 2 tầng trông khá mới, nếu nhớ kỹ...",
      "image": null,
      "label": null,
      "display": "text-only",
      "type": "text",
      "enable_detail": true,
      "related": {
        "url": "https://truyenx.link/truyensextv/channels/related/3037",
        "request_headers": []
      },
      "share": {
        "url": "https://truyenx.link/truyensextv/channels/share/vuot-qua-tat-ca"
      },
      "remote_data": {
        "url": "https://truyenx.link/truyensextv/channels/vuot-qua-tat-ca"
      }
    },
    {
      "id": "3036-channel",
      "name": "Địt chị và em gái con bà mẹ kế",
      "description": "Tôi tên Võ Hạo Thiên. Năm nay 25 tuổi, đang làm chủ vài cửa hàng nhỏ ở TPHCM. Năm 2007 Ba Mẹ tôi ly hôn. Đến năm 2015 ba tôi cưới mẹ sau, bà mẹ kế thì không đẹp nhưng có 2 cô con...",
      "image": null,
      "label": null,
      "display": "text-only",
      "type": "text",
      "enable_detail": true,
      "related": {
        "url": "https://truyenx.link/truyensextv/channels/related/3036",
        "request_headers": []
      },
      "share": {
        "url": "https://truyenx.link/truyensextv/channels/share/dit-chi-va-em-gai-con-ba-me-ke"
      },
      "remote_data": {
        "url": "https://truyenx.link/truyensextv/channels/dit-chi-va-em-gai-con-ba-me-ke"
      }
    },
    {
      "id": "3035-channel",
      "name": "Em Thắm",
      "description": "Đó là một buổi chiều chập choạng tối tôi cùng lũ bạn quay quần lại nhà của một đứa trong nhóm để bày ra nhậu nhẹt, đầu thì cứ uống bình thường hết cả thùng thì tụi nó...",
      "image": null,
      "label": null,
      "display": "text-only",
      "type": "text",
      "enable_detail": true,
      "related": {
        "url": "https://truyenx.link/truyensextv/channels/related/3035",
        "request_headers": []
      },
      "share": {
        "url": "https://truyenx.link/truyensextv/channels/share/em-tham"
      },
      "remote_data": {
        "url": "https://truyenx.link/truyensextv/channels/em-tham"
      }
    },
    {
      "id": "3033-channel",
      "name": "Tội lỗi",
      "description": "Năm nay tôi 26 tuổi, cuộc đời trải qua khá nhiều sóng gió, cái tuổi cần ổn định mọi thứ nhưng với tôi mọi thứ còn mông lung quá... Nhiều khi nhìn lại mình, thấy cuộc đời...",
      "image": null,
      "label": null,
      "display": "text-only",
      "type": "text",
      "enable_detail": true,
      "related": {
        "url": "https://truyenx.link/truyensextv/channels/related/3033",
        "request_headers": []
      },
      "share": {
        "url": "https://truyenx.link/truyensextv/channels/share/toi-loi"
      },
      "remote_data": {
        "url": "https://truyenx.link/truyensextv/channels/toi-loi"
      }
    },
    {
      "id": "3034-channel",
      "name": "Người trong giang hồ",
      "description": "Sài Gòn 1995. “Ahhh... Ahhhh...” “Lồn em bóp chặt quá... Sướng vô cùng... hít hà” Bạch... Bạch... Bạch. Những âm thanh dâm dục vang vọng trong một căn phòng chật hẹp...",
      "image": null,
      "label": null,
      "display": "text-only",
      "type": "text",
      "enable_detail": true,
      "related": {
        "url": "https://truyenx.link/truyensextv/channels/related/3034",
        "request_headers": []
      },
      "share": {
        "url": "https://truyenx.link/truyensextv/channels/share/nguoi-trong-giang-ho"
      },
      "remote_data": {
        "url": "https://truyenx.link/truyensextv/channels/nguoi-trong-giang-ho"
      }
    },
    {
      "id": "3032-channel",
      "name": "Chân ngắn",
      "description": "Chào anh. Chào em. Lâu ngày ha. Em xuống với ai. Dạ, mình em thôi. ... Em tên Kiều, là kế toán trên tập đoàn tăng cường cho bộ phận kế toán công ty con, mỗi tháng em xuống giúp khoảng...",
      "image": null,
      "label": null,
      "display": "text-only",
      "type": "text",
      "enable_detail": true,
      "related": {
        "url": "https://truyenx.link/truyensextv/channels/related/3032",
        "request_headers": []
      },
      "share": {
        "url": "https://truyenx.link/truyensextv/channels/share/chan-ngan"
      },
      "remote_data": {
        "url": "https://truyenx.link/truyensextv/channels/chan-ngan"
      }
    },
    {
      "id": "3031-channel",
      "name": "Những người bạn của ba",
      "description": "Cô bé tên là Mai Thảo, năm nay 12 tuổi, đang học cấp 2 tại một trường PTTH nổi tiếng của Sài Gòn và là con gái một trong một gia đình giàu có. Kỷ niệm về tình dục đầu tiên...",
      "image": null,
      "label": null,
      "display": "text-only",
      "type": "text",
      "enable_detail": true,
      "related": {
        "url": "https://truyenx.link/truyensextv/channels/related/3031",
        "request_headers": []
      },
      "share": {
        "url": "https://truyenx.link/truyensextv/channels/share/nhung-nguoi-ban-cua-ba"
      },
      "remote_data": {
        "url": "https://truyenx.link/truyensextv/channels/nhung-nguoi-ban-cua-ba"
      }
    },
    {
      "id": "3030-channel",
      "name": "Nam sinh may mắn",
      "description": "Yếu rồi, sợ nó chết đấy! Giọng nói của một gã đàn ông hoang mang nhận định. Mẹ kiếp. Thế mà bảo là phục vụ 1 tuần, mới được 5 ngày. Một gã khác hằn học chửi thề...",
      "image": null,
      "label": null,
      "display": "text-only",
      "type": "text",
      "enable_detail": true,
      "related": {
        "url": "https://truyenx.link/truyensextv/channels/related/3030",
        "request_headers": []
      },
      "share": {
        "url": "https://truyenx.link/truyensextv/channels/share/nam-sinh-may-man"
      },
      "remote_data": {
        "url": "https://truyenx.link/truyensextv/channels/nam-sinh-may-man"
      }
    },
    {
      "id": "3029-channel",
      "name": "Kẻ thất lạc",
      "description": "Xác chết sống lại 21 tháng 8 năm 2020... 8h45... Dãy Hoàng Liên Sơn trùng trùng điệp điệp bao quanh bởi sương khói mịt mù như một con quái vật to lớn ngoằn ngoèo bất động. Cách...",
      "image": null,
      "label": null,
      "display": "text-only",
      "type": "text",
      "enable_detail": true,
      "related": {
        "url": "https://truyenx.link/truyensextv/channels/related/3029",
        "request_headers": []
      },
      "share": {
        "url": "https://truyenx.link/truyensextv/channels/share/ke-that-lac"
      },
      "remote_data": {
        "url": "https://truyenx.link/truyensextv/channels/ke-that-lac"
      }
    },
    {
      "id": "3028-channel",
      "name": "Em gái ruột",
      "description": "Lại một cái tết nữa tới, thêm cái tết này là tôi 19 tuổi. Tiết trời cận tết thật làm cho lòng người nao nao, từ Hà Nội về quê chật ních người, ơn giời là tôi đi xe máy dễ...",
      "image": null,
      "label": null,
      "display": "text-only",
      "type": "text",
      "enable_detail": true,
      "related": {
        "url": "https://truyenx.link/truyensextv/channels/related/3028",
        "request_headers": []
      },
      "share": {
        "url": "https://truyenx.link/truyensextv/channels/share/em-gai-ruot"
      },
      "remote_data": {
        "url": "https://truyenx.link/truyensextv/channels/em-gai-ruot"
      }
    },
    {
      "id": "3027-channel",
      "name": "Hắn và Hương ngày ấy",
      "description": "Hắn quen Hương trong một đám cưới em người hàng xóm. Hôm đó hắn đến trễ, thế là được nhét vào một bàn toàn người lạ. Những người cùng bàn hắn chắc cũng thế vì chẳng...",
      "image": null,
      "label": null,
      "display": "text-only",
      "type": "text",
      "enable_detail": true,
      "related": {
        "url": "https://truyenx.link/truyensextv/channels/related/3027",
        "request_headers": []
      },
      "share": {
        "url": "https://truyenx.link/truyensextv/channels/share/han-va-huong-ngay-ay"
      },
      "remote_data": {
        "url": "https://truyenx.link/truyensextv/channels/han-va-huong-ngay-ay"
      }
    },
    {
      "id": "3026-channel",
      "name": "Quần lót của mẹ",
      "description": "Lời nói đầu Bối cảnh xoay quanh những biến cố trong gia đình một doanh nhân thành đạt, gia đình ông Hải, chồng cô giáo Nga dạy Văn. Ông thường xuyên vắng nhà, từ lâu hầu như...",
      "image": null,
      "label": null,
      "display": "text-only",
      "type": "text",
      "enable_detail": true,
      "related": {
        "url": "https://truyenx.link/truyensextv/channels/related/3026",
        "request_headers": []
      },
      "share": {
        "url": "https://truyenx.link/truyensextv/channels/share/quan-lot-cua-me"
      },
      "remote_data": {
        "url": "https://truyenx.link/truyensextv/channels/quan-lot-cua-me"
      }
    },
    {
      "id": "3025-channel",
      "name": "Dì giúp việc",
      "description": "Tôi tốt nghiệp ngành IT xong đi làm đã 3 năm. Công ty tôi làm ăn được lắm, tôi không biết tầm cỡ công ty thế nào, vì tôi chỉ phụ trách mảng IT thôi, nhưng thấy lương hướng kha...",
      "image": null,
      "label": null,
      "display": "text-only",
      "type": "text",
      "enable_detail": true,
      "related": {
        "url": "https://truyenx.link/truyensextv/channels/related/3025",
        "request_headers": []
      },
      "share": {
        "url": "https://truyenx.link/truyensextv/channels/share/di-giup-viec"
      },
      "remote_data": {
        "url": "https://truyenx.link/truyensextv/channels/di-giup-viec"
      }
    },
    {
      "id": "3024-channel",
      "name": "Đi bar địt được em gái dâm",
      "description": "Vô tình gặp gỡ Mở đầu câu chuyện mình giới thiệu một chút. Mình tên Dương công việc hiện tại là quản lý của một nhà hàng có lương ổn định. Câu chuyện bắt đầu khi mình...",
      "image": null,
      "label": null,
      "display": "text-only",
      "type": "text",
      "enable_detail": true,
      "related": {
        "url": "https://truyenx.link/truyensextv/channels/related/3024",
        "request_headers": []
      },
      "share": {
        "url": "https://truyenx.link/truyensextv/channels/share/di-bar-dit-duoc-em-gai-dam"
      },
      "remote_data": {
        "url": "https://truyenx.link/truyensextv/channels/di-bar-dit-duoc-em-gai-dam"
      }
    },
    {
      "id": "3023-channel",
      "name": "Quỷ cái khát dục",
      "description": "Cõi đời này, không ai có thể lựa chọn nơi mình sinh ra. Nếu may mắn, bạn sinh ra trong một gia đình giàu sang, ba mẹ nuông chiều, sống một cuộc sống nhàn nhã. Rồi về già, chết đi...",
      "image": null,
      "label": null,
      "display": "text-only",
      "type": "text",
      "enable_detail": true,
      "related": {
        "url": "https://truyenx.link/truyensextv/channels/related/3023",
        "request_headers": []
      },
      "share": {
        "url": "https://truyenx.link/truyensextv/channels/share/quy-cai-khat-duc"
      },
      "remote_data": {
        "url": "https://truyenx.link/truyensextv/channels/quy-cai-khat-duc"
      }
    },
    {
      "id": "3022-channel",
      "name": "Mối hận thù",
      "description": "Ai cũng có cho mình một thời học sinh đẹp đẽ, những kỷ niệm vô giá chẳng bao giờ quay lại đc. Bản thân tôi cũng vậy, tôi đỗ ngôi trg mong ước, có những người bạn chí cốt...",
      "image": null,
      "label": null,
      "display": "text-only",
      "type": "text",
      "enable_detail": true,
      "related": {
        "url": "https://truyenx.link/truyensextv/channels/related/3022",
        "request_headers": []
      },
      "share": {
        "url": "https://truyenx.link/truyensextv/channels/share/moi-han-thu"
      },
      "remote_data": {
        "url": "https://truyenx.link/truyensextv/channels/moi-han-thu"
      }
    },
    {
      "id": "3021-channel",
      "name": "Bí mật gia tộc",
      "description": "Chuyến công tác đột xuất Ánh trăng lấp lánh dát vàng trên những con sóng nhấp nhô ngoài khơi xa. Hương biển theo làn gió mát rượi tràn vào lấp đầy căn biệt thự nghỉ dưỡng năm...",
      "image": null,
      "label": null,
      "display": "text-only",
      "type": "text",
      "enable_detail": true,
      "related": {
        "url": "https://truyenx.link/truyensextv/channels/related/3021",
        "request_headers": []
      },
      "share": {
        "url": "https://truyenx.link/truyensextv/channels/share/bi-mat-gia-toc"
      },
      "remote_data": {
        "url": "https://truyenx.link/truyensextv/channels/bi-mat-gia-toc"
      }
    },
    {
      "id": "3020-channel",
      "name": "Thằng Dương may mắn",
      "description": "Sinh ra tại một vùng quê của đồng bằng bắc bộ, Dương sống cùng với bố mẹ và hai người chị gái. Dương năm nay học lớp 9 và vừa trải qua kỳ thi cuối cấp xong. Tả sơ về...",
      "image": null,
      "label": null,
      "display": "text-only",
      "type": "text",
      "enable_detail": true,
      "related": {
        "url": "https://truyenx.link/truyensextv/channels/related/3020",
        "request_headers": []
      },
      "share": {
        "url": "https://truyenx.link/truyensextv/channels/share/thang-duong-may-man"
      },
      "remote_data": {
        "url": "https://truyenx.link/truyensextv/channels/thang-duong-may-man"
      }
    },
    {
      "id": "3019-channel",
      "name": "Cô giáo Trinh",
      "description": "Trường trung học cơ sở, trung học phổ thông Mặt Trời là một ngôi trường khá nổi tiếng trong thành phố, hoặc cũng có thể gọi là tai tiếng. Mới năm ngoái, hiệu trưởng và hầu...",
      "image": null,
      "label": null,
      "display": "text-only",
      "type": "text",
      "enable_detail": true,
      "related": {
        "url": "https://truyenx.link/truyensextv/channels/related/3019",
        "request_headers": []
      },
      "share": {
        "url": "https://truyenx.link/truyensextv/channels/share/co-giao-trinh"
      },
      "remote_data": {
        "url": "https://truyenx.link/truyensextv/channels/co-giao-trinh"
      }
    },
    {
      "id": "3018-channel",
      "name": "Chuyện mấy đứa con nít",
      "description": "Cái đầm cô tiên Nhân vật chính là thằng Dũng, năm đó nó 5 tuổi. Gần nhà là con Mít, bằng tuổi nó. Thằng Dũng qua nhà con Mít chơi, nay có đem quyển truyện tranh màu mà mấy cô chú...",
      "image": null,
      "label": null,
      "display": "text-only",
      "type": "text",
      "enable_detail": true,
      "related": {
        "url": "https://truyenx.link/truyensextv/channels/related/3018",
        "request_headers": []
      },
      "share": {
        "url": "https://truyenx.link/truyensextv/channels/share/chuyen-may-dua-con-nit"
      },
      "remote_data": {
        "url": "https://truyenx.link/truyensextv/channels/chuyen-may-dua-con-nit"
      }
    },
    {
      "id": "3017-channel",
      "name": "Cô dâu ma",
      "description": "Cơn ác mộng Cô mơ hồ bước đến trước cổng của một khách sạn bỏ hoang, phía trước cổng khách sạn là tấm bảng đám cưới, có lẽ ở đây đang tổ chức đám cưới. Nhưng cô...",
      "image": null,
      "label": null,
      "display": "text-only",
      "type": "text",
      "enable_detail": true,
      "related": {
        "url": "https://truyenx.link/truyensextv/channels/related/3017",
        "request_headers": []
      },
      "share": {
        "url": "https://truyenx.link/truyensextv/channels/share/co-dau-ma"
      },
      "remote_data": {
        "url": "https://truyenx.link/truyensextv/channels/co-dau-ma"
      }
    },
    {
      "id": "3016-channel",
      "name": "Cảm ơn mạng Zalo",
      "description": "Không biết đã bao nhiêu lần hoặc là tôi nói, hoặc là Nhung nói hoặc cả hai cùng nhắc đến việc nhờ có Zalo thì mới có cuộc tình đẹp đẽ, hạnh phúc và một tương lai tươi hồng...",
      "image": null,
      "label": null,
      "display": "text-only",
      "type": "text",
      "enable_detail": true,
      "related": {
        "url": "https://truyenx.link/truyensextv/channels/related/3016",
        "request_headers": []
      },
      "share": {
        "url": "https://truyenx.link/truyensextv/channels/share/cam-on-mang-zalo"
      },
      "remote_data": {
        "url": "https://truyenx.link/truyensextv/channels/cam-on-mang-zalo"
      }
    },
    {
      "id": "3015-channel",
      "name": "Hạnh phúc tới muộn",
      "description": "Dung vứt túi xách vào một góc rồi thả người tự do trên chiếc nệm êm ái. Một ngày mệt mỏi nữa lại trôi qua. Và một ngày nữa cô trở về nhà trong cơn say mềm. Bia rượu với cô...",
      "image": null,
      "label": null,
      "display": "text-only",
      "type": "text",
      "enable_detail": true,
      "related": {
        "url": "https://truyenx.link/truyensextv/channels/related/3015",
        "request_headers": []
      },
      "share": {
        "url": "https://truyenx.link/truyensextv/channels/share/hanh-phuc-toi-muon"
      },
      "remote_data": {
        "url": "https://truyenx.link/truyensextv/channels/hanh-phuc-toi-muon"
      }
    },
    {
      "id": "3014-channel",
      "name": "Duyên trời",
      "description": "Khi đang ngủ muộn, đột nhiên tôi nghe một âm thanh cổ vũ lớn đến từ bên ngoài. Tôi không biết chuyện gì đã xảy ra, ngơ ngác mở đôi mắt ngái ngủ và không khỏi reo lên kinh...",
      "image": null,
      "label": null,
      "display": "text-only",
      "type": "text",
      "enable_detail": true,
      "related": {
        "url": "https://truyenx.link/truyensextv/channels/related/3014",
        "request_headers": []
      },
      "share": {
        "url": "https://truyenx.link/truyensextv/channels/share/duyen-troi"
      },
      "remote_data": {
        "url": "https://truyenx.link/truyensextv/channels/duyen-troi"
      }
    },
    {
      "id": "3013-channel",
      "name": "Con vợ dâm tục",
      "description": "Dưới ánh đèn ngủ lờ mờ bên trong căn phòng trọ ở thành phố, phát ra những tiếng rên ưm... ưm... ưm cảm giác rất sung sướng, có một cặp nam nữ đang cùng nhau hưởng thụ cảm...",
      "image": null,
      "label": null,
      "display": "text-only",
      "type": "text",
      "enable_detail": true,
      "related": {
        "url": "https://truyenx.link/truyensextv/channels/related/3013",
        "request_headers": []
      },
      "share": {
        "url": "https://truyenx.link/truyensextv/channels/share/con-vo-dam-tuc"
      },
      "remote_data": {
        "url": "https://truyenx.link/truyensextv/channels/con-vo-dam-tuc"
      }
    },
    {
      "id": "3012-channel",
      "name": "Mẹ dâm tìm chồng",
      "description": "Về lại Sài Gòn sau một khoảng thời gian dài đằng đẵng công tác bên nước ngoài thật sự lúc này tôi rất mệt. Bởi vì tính chất công việc căng thẳng lại thêm xa quê hương lâu...",
      "image": null,
      "label": null,
      "display": "text-only",
      "type": "text",
      "enable_detail": true,
      "related": {
        "url": "https://truyenx.link/truyensextv/channels/related/3012",
        "request_headers": []
      },
      "share": {
        "url": "https://truyenx.link/truyensextv/channels/share/me-dam-tim-chong"
      },
      "remote_data": {
        "url": "https://truyenx.link/truyensextv/channels/me-dam-tim-chong"
      }
    },
    {
      "id": "3011-channel",
      "name": "Tôi và bà cô khu nghỉ dưỡng",
      "description": "Trong ngày đầu nghỉ hè tôi và gia đình được mời đi du lịch đến khu sinh thái vô cùng lớn ở cần thơ cùng với đó là các gia đình đồng nghiệp trong ngành cùng với bố nói chung...",
      "image": null,
      "label": null,
      "display": "text-only",
      "type": "text",
      "enable_detail": true,
      "related": {
        "url": "https://truyenx.link/truyensextv/channels/related/3011",
        "request_headers": []
      },
      "share": {
        "url": "https://truyenx.link/truyensextv/channels/share/toi-va-ba-co-khu-nghi-duong"
      },
      "remote_data": {
        "url": "https://truyenx.link/truyensextv/channels/toi-va-ba-co-khu-nghi-duong"
      }
    },
    {
      "id": "3010-channel",
      "name": "Lần đầu được địt người yêu",
      "description": "Xin chào mọi người mình biết đến truyensextv2.cc cũng đã lâu tốn bao nhiêu tinh binh rồi nay mới chia sẻ chuyện của mình lên cho anh em đồng dâm cùng nhau và chia sẻ kinh nghiệm ạ...",
      "image": null,
      "label": null,
      "display": "text-only",
      "type": "text",
      "enable_detail": true,
      "related": {
        "url": "https://truyenx.link/truyensextv/channels/related/3010",
        "request_headers": []
      },
      "share": {
        "url": "https://truyenx.link/truyensextv/channels/share/lan-dau-duoc-dit-nguoi-yeu"
      },
      "remote_data": {
        "url": "https://truyenx.link/truyensextv/channels/lan-dau-duoc-dit-nguoi-yeu"
      }
    },
    {
      "id": "3009-channel",
      "name": "Nỗi niềm trắc ẩn",
      "description": "Tôi ngắm nhìn Thành đang ngủ. Tấm áo may ô mỏng để lộ vầng ngực căng tròn, phập phồng theo nhịp thở. Con trai tôi vừa sang tuổi 17. Tôi ghé môi hôn nhẹ lên trán con và nói nhỏ...",
      "image": null,
      "label": null,
      "display": "text-only",
      "type": "text",
      "enable_detail": true,
      "related": {
        "url": "https://truyenx.link/truyensextv/channels/related/3009",
        "request_headers": []
      },
      "share": {
        "url": "https://truyenx.link/truyensextv/channels/share/noi-niem-trac-an"
      },
      "remote_data": {
        "url": "https://truyenx.link/truyensextv/channels/noi-niem-trac-an"
      }
    }
  ],
  "load_more": {
    "pageInfo": {
      "current_page": 59,
      "last_page": 140,
      "per_page": 30,
      "total": 4188
    },
    "paging": {
      "page_key": "page",
      "size_key": "size"
    },
    "remote_data": {
      "url": "https://truyenx.link/truyensextv/channels"
    }
  }
}