{
  "grid_number": 1,
  "channels": [
    {
      "id": "2576-channel",
      "name": "Come on baby",
      "description": "Tôi năm nay 17 tuổi và đã mất lần đầu bởi sau lần trú mưa định mệnh ấy. Vào buổi tối hôm thứ 2 sau khi học xong thì tôi và đám bạn rủ nhau đi đá bóng. Chúng tôi đá từ 3h...",
      "image": null,
      "label": null,
      "display": "text-only",
      "type": "text",
      "enable_detail": true,
      "related": {
        "url": "https://truyenx.link/truyensextv/channels/related/2576",
        "request_headers": []
      },
      "share": {
        "url": "https://truyenx.link/truyensextv/channels/share/come-on-baby"
      },
      "remote_data": {
        "url": "https://truyenx.link/truyensextv/channels/come-on-baby"
      }
    },
    {
      "id": "2574-channel",
      "name": "Chồng tôi",
      "description": "Mẹ mất bởi căn bệnh ung thư cổ tử cung di căn lúc tôi tròn 15, học lớp 8. Cái tuổi mọi thứ đều phải có mẹ chỉ dẫn và dặn dò. Tôi như ngây, như dại suốt ngày ở lì trong...",
      "image": null,
      "label": null,
      "display": "text-only",
      "type": "text",
      "enable_detail": true,
      "related": {
        "url": "https://truyenx.link/truyensextv/channels/related/2574",
        "request_headers": []
      },
      "share": {
        "url": "https://truyenx.link/truyensextv/channels/share/chong-toi"
      },
      "remote_data": {
        "url": "https://truyenx.link/truyensextv/channels/chong-toi"
      }
    },
    {
      "id": "2573-channel",
      "name": "Hà của tôi",
      "description": "Bố tôi bỏ rơi mẹ con tôi để cùng cô bồ trẻ ôm mớ tiền của mẹ tôi có được từ kinh doanh, buôn bán và chắt bóp trốn biệt tích từ khi tôi 10 tuổi. Từ bấy đến nay không có...",
      "image": null,
      "label": null,
      "display": "text-only",
      "type": "text",
      "enable_detail": true,
      "related": {
        "url": "https://truyenx.link/truyensextv/channels/related/2573",
        "request_headers": []
      },
      "share": {
        "url": "https://truyenx.link/truyensextv/channels/share/ha-cua-toi"
      },
      "remote_data": {
        "url": "https://truyenx.link/truyensextv/channels/ha-cua-toi"
      }
    },
    {
      "id": "2571-channel",
      "name": "Thế giới chỉ có phụ nữ",
      "description": "Bạn nghĩ sao về thế giới song song, một vũ trụ khác hay là một sự tồn tại của 1 hành tinh, một thực thể khác ngoài kia giống như đa vũ trụ trong Marvel vậy? “Reengg...",
      "image": null,
      "label": null,
      "display": "text-only",
      "type": "text",
      "enable_detail": true,
      "related": {
        "url": "https://truyenx.link/truyensextv/channels/related/2571",
        "request_headers": []
      },
      "share": {
        "url": "https://truyenx.link/truyensextv/channels/share/the-gioi-chi-co-phu-nu"
      },
      "remote_data": {
        "url": "https://truyenx.link/truyensextv/channels/the-gioi-chi-co-phu-nu"
      }
    },
    {
      "id": "2572-channel",
      "name": "Chuyến xe bus số 13",
      "description": "CHUYẾN XE CUỐI NGÀY KHÔNG AI MUỐN LÁI Tôi mới ngoài 30 tuổi, là một tài xế lái xe bus, cũng là tài xế trẻ nhất trong đội xe. Nhiều người cho rằng còn trẻ mà lái xe bus là không...",
      "image": null,
      "label": null,
      "display": "text-only",
      "type": "text",
      "enable_detail": true,
      "related": {
        "url": "https://truyenx.link/truyensextv/channels/related/2572",
        "request_headers": []
      },
      "share": {
        "url": "https://truyenx.link/truyensextv/channels/share/chuyen-xe-bus-so-13"
      },
      "remote_data": {
        "url": "https://truyenx.link/truyensextv/channels/chuyen-xe-bus-so-13"
      }
    },
    {
      "id": "2570-channel",
      "name": "Chuyện chị em thư ký",
      "description": "Chị Trang ơi sao em thấy lần nào đi công tác sếp cũng chọn chị đi cùng mà không chọn em, dù em cũng xinh đẹp trẻ trung hơn chị. Vậy là em chưa hiểu sếp bằng chị rồi. Không phải...",
      "image": null,
      "label": null,
      "display": "text-only",
      "type": "text",
      "enable_detail": true,
      "related": {
        "url": "https://truyenx.link/truyensextv/channels/related/2570",
        "request_headers": []
      },
      "share": {
        "url": "https://truyenx.link/truyensextv/channels/share/chuyen-chi-em-thu-ky"
      },
      "remote_data": {
        "url": "https://truyenx.link/truyensextv/channels/chuyen-chi-em-thu-ky"
      }
    },
    {
      "id": "2569-channel",
      "name": "Vòng xuyến tình",
      "description": "Quán mang biển hiệu tên của vợ, cũng là tên của một người con gái luôn ngự trị con tim mình Coffee Lê. Mở quán được hơn năm thì vợ...",
      "image": null,
      "label": null,
      "display": "text-only",
      "type": "text",
      "enable_detail": true,
      "related": {
        "url": "https://truyenx.link/truyensextv/channels/related/2569",
        "request_headers": []
      },
      "share": {
        "url": "https://truyenx.link/truyensextv/channels/share/vong-xuyen-tinh"
      },
      "remote_data": {
        "url": "https://truyenx.link/truyensextv/channels/vong-xuyen-tinh"
      }
    },
    {
      "id": "2568-channel",
      "name": "Rung cảm của mẹ với thầy gia sư nước ngoài của tôi",
      "description": "Xin chào, hôm nay xin đc kể câu chuyện của mình, mình sinh ra lớn lên trong 1 gia đình 3 người, bố, mẹ và mình, 1 gia đình hạnh phúc như bao nhà, bố mình làm bên biên phòng nên năm về...",
      "image": null,
      "label": null,
      "display": "text-only",
      "type": "text",
      "enable_detail": true,
      "related": {
        "url": "https://truyenx.link/truyensextv/channels/related/2568",
        "request_headers": []
      },
      "share": {
        "url": "https://truyenx.link/truyensextv/channels/share/rung-cam-cua-me-voi-thay-gia-su-nuoc-ngoai-cua-toi"
      },
      "remote_data": {
        "url": "https://truyenx.link/truyensextv/channels/rung-cam-cua-me-voi-thay-gia-su-nuoc-ngoai-cua-toi"
      }
    },
    {
      "id": "2567-channel",
      "name": "Con đường bá chủ - Quyển 7",
      "description": "“Nữ Hoàng, Thiếu Chủ trở về!” Bên trong Hoàng Cung, tứ đại Cung Nữ sắc mặt kinh hỉ vội vàng tiến lên báo cáo. “Trẫm đã biết!” Côn Lôn Nữ Hoàng ra vẻ uy...",
      "image": null,
      "label": null,
      "display": "text-only",
      "type": "text",
      "enable_detail": true,
      "related": {
        "url": "https://truyenx.link/truyensextv/channels/related/2567",
        "request_headers": []
      },
      "share": {
        "url": "https://truyenx.link/truyensextv/channels/share/con-duong-ba-chu-quyen-7"
      },
      "remote_data": {
        "url": "https://truyenx.link/truyensextv/channels/con-duong-ba-chu-quyen-7"
      }
    },
    {
      "id": "2566-channel",
      "name": "Domino",
      "description": "Kẻ Lạc Lối Diễm Kiều, cái tên đầy hoa mỹ, mang theo sự uyển chuyển của nước và nóng bỏng của lửa. Một sự dung hợp trên cả hoàn hảo. Từ khi còn nhỏ, tôi đã rất tự hào...",
      "image": null,
      "label": null,
      "display": "text-only",
      "type": "text",
      "enable_detail": true,
      "related": {
        "url": "https://truyenx.link/truyensextv/channels/related/2566",
        "request_headers": []
      },
      "share": {
        "url": "https://truyenx.link/truyensextv/channels/share/domino"
      },
      "remote_data": {
        "url": "https://truyenx.link/truyensextv/channels/domino"
      }
    },
    {
      "id": "2565-channel",
      "name": "Nhớ về em cùng dãy trọ",
      "description": "Hồi mình đi học thì có quen được một em trong cùng dãy trọ, em này thì mông má, 3 vòng đầy đặn, quen được 3 hôm thì lột đồ và bú cặc cho mình luôn, bác nào đến sau thì rõ...",
      "image": null,
      "label": null,
      "display": "text-only",
      "type": "text",
      "enable_detail": true,
      "related": {
        "url": "https://truyenx.link/truyensextv/channels/related/2565",
        "request_headers": []
      },
      "share": {
        "url": "https://truyenx.link/truyensextv/channels/share/nho-ve-em-cung-day-tro"
      },
      "remote_data": {
        "url": "https://truyenx.link/truyensextv/channels/nho-ve-em-cung-day-tro"
      }
    },
    {
      "id": "2564-channel",
      "name": "Cuộc sống thiên đường nơi đảo hoang",
      "description": "Lạc vào đảo hoang Vào một buổi trưa giữa tháng 7 trên vùng biển mênh mông thuộc vùng biển trên biển Đông gần quần đảo Trường Sa thuộc chủ quyền của VN có một con tàu khá...",
      "image": null,
      "label": null,
      "display": "text-only",
      "type": "text",
      "enable_detail": true,
      "related": {
        "url": "https://truyenx.link/truyensextv/channels/related/2564",
        "request_headers": []
      },
      "share": {
        "url": "https://truyenx.link/truyensextv/channels/share/cuoc-song-thien-duong-noi-dao-hoang"
      },
      "remote_data": {
        "url": "https://truyenx.link/truyensextv/channels/cuoc-song-thien-duong-noi-dao-hoang"
      }
    },
    {
      "id": "2563-channel",
      "name": "Xóm trọ nghèo",
      "description": "Ở cái xóm trọ này chỉ toàn là những người lao động nghèo. Chỉ có một phòng trọ nhỏ xíu nhưng có gia đình ở chen chúc nhau 5 6 người. Với thời tiết nóng quanh năm ở đây thì...",
      "image": null,
      "label": null,
      "display": "text-only",
      "type": "text",
      "enable_detail": true,
      "related": {
        "url": "https://truyenx.link/truyensextv/channels/related/2563",
        "request_headers": []
      },
      "share": {
        "url": "https://truyenx.link/truyensextv/channels/share/xom-tro-ngheo"
      },
      "remote_data": {
        "url": "https://truyenx.link/truyensextv/channels/xom-tro-ngheo"
      }
    },
    {
      "id": "2562-channel",
      "name": "Đứa con lưu lạc",
      "description": "Ông Tên Sâm, Hoàng Vĩnh Sâm nhắp một ngụm rượu, với tay lấy bao thuốc rút một điếu. Tôi cầm bật lửa mồi cho ông. Ông rít một hơi thật dài rồi lim dim nhả khói. Tuổi 68 mà...",
      "image": null,
      "label": null,
      "display": "text-only",
      "type": "text",
      "enable_detail": true,
      "related": {
        "url": "https://truyenx.link/truyensextv/channels/related/2562",
        "request_headers": []
      },
      "share": {
        "url": "https://truyenx.link/truyensextv/channels/share/dua-con-luu-lac"
      },
      "remote_data": {
        "url": "https://truyenx.link/truyensextv/channels/dua-con-luu-lac"
      }
    },
    {
      "id": "2561-channel",
      "name": "One night stand",
      "description": "Hey các ông, hôm nay tôi sẽ kể cho các ông nghe một câu chuyện của tôi, nhớ là chuẩn bị giấy vệ sinh sẵn sàng đi nhé, để có mà còn lau đi những thứ... Hy vọng người yêu tôi...",
      "image": null,
      "label": null,
      "display": "text-only",
      "type": "text",
      "enable_detail": true,
      "related": {
        "url": "https://truyenx.link/truyensextv/channels/related/2561",
        "request_headers": []
      },
      "share": {
        "url": "https://truyenx.link/truyensextv/channels/share/one-night-stand"
      },
      "remote_data": {
        "url": "https://truyenx.link/truyensextv/channels/one-night-stand"
      }
    },
    {
      "id": "2560-channel",
      "name": "Gia đình êm ấm",
      "description": "ngay từ khi hai người đàn bà mang thai, rằng: ” Đứa nào nhìn thấy mặt trời trước thì là anh, là chị!”. Chuyện của tôi, của...",
      "image": null,
      "label": null,
      "display": "text-only",
      "type": "text",
      "enable_detail": true,
      "related": {
        "url": "https://truyenx.link/truyensextv/channels/related/2560",
        "request_headers": []
      },
      "share": {
        "url": "https://truyenx.link/truyensextv/channels/share/gia-dinh-em-am"
      },
      "remote_data": {
        "url": "https://truyenx.link/truyensextv/channels/gia-dinh-em-am"
      }
    },
    {
      "id": "2559-channel",
      "name": "Em Duyên cực dâm",
      "description": "Tôi và Duyên quen biết nhau cách đây cũng khoản 5 6 năm. Duyên vốn là kế toán của 1 nhà phân phối hàng tiêu dùng tôi chỉ là 1 thằng giao hàng, chúng tôi tuy đã nghỉ việc nhưng vẫn...",
      "image": null,
      "label": null,
      "display": "text-only",
      "type": "text",
      "enable_detail": true,
      "related": {
        "url": "https://truyenx.link/truyensextv/channels/related/2559",
        "request_headers": []
      },
      "share": {
        "url": "https://truyenx.link/truyensextv/channels/share/em-duyen-cuc-dam"
      },
      "remote_data": {
        "url": "https://truyenx.link/truyensextv/channels/em-duyen-cuc-dam"
      }
    },
    {
      "id": "2558-channel",
      "name": "Chợ nổi Ngã Bảy",
      "description": "VỢ CHỒNG HAI VŨ Gọi là Ngã Bảy vì nó là nơi giao nhau của bảy nhánh sông khác nhau. Nếu như trên bộ, tin rằng người ta sẽ phải xây một cái bùng binh thiệt bự ở...",
      "image": null,
      "label": null,
      "display": "text-only",
      "type": "text",
      "enable_detail": true,
      "related": {
        "url": "https://truyenx.link/truyensextv/channels/related/2558",
        "request_headers": []
      },
      "share": {
        "url": "https://truyenx.link/truyensextv/channels/share/cho-noi-nga-bay"
      },
      "remote_data": {
        "url": "https://truyenx.link/truyensextv/channels/cho-noi-nga-bay"
      }
    },
    {
      "id": "2557-channel",
      "name": "Lục Vương Ký",
      "description": "Trong một ngôi nhà tranh rách nát vào ban đêm nhiệt độ xuống chỉ còn 7°C, tôi ngồi dưới đống bếp lửa để sưởi ấm như một thói quen hằng ngày. Tôi là Lục Vương, năm nay đã...",
      "image": null,
      "label": null,
      "display": "text-only",
      "type": "text",
      "enable_detail": true,
      "related": {
        "url": "https://truyenx.link/truyensextv/channels/related/2557",
        "request_headers": []
      },
      "share": {
        "url": "https://truyenx.link/truyensextv/channels/share/luc-vuong-ky"
      },
      "remote_data": {
        "url": "https://truyenx.link/truyensextv/channels/luc-vuong-ky"
      }
    },
    {
      "id": "2556-channel",
      "name": "Em gái trường chuyên",
      "description": "Học cấp 3 tôi thi đậu vào trường chuyên Phan Bội Châu nên khăn gói xuống Vinh để học. Đầu năm lớp 11 tôi viết qua thư hộc bàn có quen với 1 cô bé học sau 1 khóa . Nhưng sau đó...",
      "image": null,
      "label": null,
      "display": "text-only",
      "type": "text",
      "enable_detail": true,
      "related": {
        "url": "https://truyenx.link/truyensextv/channels/related/2556",
        "request_headers": []
      },
      "share": {
        "url": "https://truyenx.link/truyensextv/channels/share/em-gai-truong-chuyen"
      },
      "remote_data": {
        "url": "https://truyenx.link/truyensextv/channels/em-gai-truong-chuyen"
      }
    },
    {
      "id": "2555-channel",
      "name": "Hạnh phúc cuộc đời tôi",
      "description": "Xin chào Quý độc giả! Tác giả của NHỮNG NGƯỜI TÔI YÊU đã đăng đến Phần 50 thì tạm dừng rồi một ngày nào đó sẽ tiếp câu chuyện tình còn chưa đến hồi kết. Nay gửi tới...",
      "image": null,
      "label": null,
      "display": "text-only",
      "type": "text",
      "enable_detail": true,
      "related": {
        "url": "https://truyenx.link/truyensextv/channels/related/2555",
        "request_headers": []
      },
      "share": {
        "url": "https://truyenx.link/truyensextv/channels/share/hanh-phuc-cuoc-doi-toi"
      },
      "remote_data": {
        "url": "https://truyenx.link/truyensextv/channels/hanh-phuc-cuoc-doi-toi"
      }
    },
    {
      "id": "2554-channel",
      "name": "Chuyện tình cấm kị",
      "description": "Ánh nắng ban mai nhảy múa trên khu vườn đầy hoa cỏ của một căn nhà 2 tầng ở một vùng quê không quá xa thị thành. Ông chủ của căn nhà này thường đi công tác xa, đôi khi ông vội...",
      "image": null,
      "label": null,
      "display": "text-only",
      "type": "text",
      "enable_detail": true,
      "related": {
        "url": "https://truyenx.link/truyensextv/channels/related/2554",
        "request_headers": []
      },
      "share": {
        "url": "https://truyenx.link/truyensextv/channels/share/chuyen-tinh-cam-ki"
      },
      "remote_data": {
        "url": "https://truyenx.link/truyensextv/channels/chuyen-tinh-cam-ki"
      }
    },
    {
      "id": "2553-channel",
      "name": "Nhân viên sale",
      "description": "Dũng và Quỳnh năm nay cùng 25t đang là làm cho một công ty chuyên cung cấp vật tư cho các dự án xây dựng. Do tính chất công việc nên cả hai thường xuyên phải đi tiếp khách. Quỳnh...",
      "image": null,
      "label": null,
      "display": "text-only",
      "type": "text",
      "enable_detail": true,
      "related": {
        "url": "https://truyenx.link/truyensextv/channels/related/2553",
        "request_headers": []
      },
      "share": {
        "url": "https://truyenx.link/truyensextv/channels/share/nhan-vien-sale"
      },
      "remote_data": {
        "url": "https://truyenx.link/truyensextv/channels/nhan-vien-sale"
      }
    },
    {
      "id": "2552-channel",
      "name": "Những người mẹ",
      "description": "Mùa hè, những cơn mưa rơi như trút nước, ngoài đường những chiếc lá bay xào xạc, những đứa học sinh kéo nhau về hưởng những ngày hè thoải mái sau năm học căng thẳng. Ấy thế...",
      "image": null,
      "label": null,
      "display": "text-only",
      "type": "text",
      "enable_detail": true,
      "related": {
        "url": "https://truyenx.link/truyensextv/channels/related/2552",
        "request_headers": []
      },
      "share": {
        "url": "https://truyenx.link/truyensextv/channels/share/nhung-nguoi-me"
      },
      "remote_data": {
        "url": "https://truyenx.link/truyensextv/channels/nhung-nguoi-me"
      }
    },
    {
      "id": "2551-channel",
      "name": "Vết nhơ tội lỗi",
      "description": "Số phận đưa đẩy Một bức tranh đầy màu sắc, nét đầu vẽ ra sự êm đềm, nét thứ hai vẽ lên cơn sóng gió và nét thứ ba kết thúc bằng sự đau khổ tột cùng! ... Bạn đang...",
      "image": null,
      "label": null,
      "display": "text-only",
      "type": "text",
      "enable_detail": true,
      "related": {
        "url": "https://truyenx.link/truyensextv/channels/related/2551",
        "request_headers": []
      },
      "share": {
        "url": "https://truyenx.link/truyensextv/channels/share/vet-nho-toi-loi"
      },
      "remote_data": {
        "url": "https://truyenx.link/truyensextv/channels/vet-nho-toi-loi"
      }
    },
    {
      "id": "2550-channel",
      "name": "Những mảnh ký ức",
      "description": "Tôi cũng như bao thanh niên cùng trang lứa khác tên H sinh năm 95 ở 1 vùng quê, lớn lên khỏe mạnh bình thường, lớp 6 đã biết đến sex nhờ mấy ông anh mượn đâu cái băng sex thế là...",
      "image": null,
      "label": null,
      "display": "text-only",
      "type": "text",
      "enable_detail": true,
      "related": {
        "url": "https://truyenx.link/truyensextv/channels/related/2550",
        "request_headers": []
      },
      "share": {
        "url": "https://truyenx.link/truyensextv/channels/share/nhung-manh-ky-uc"
      },
      "remote_data": {
        "url": "https://truyenx.link/truyensextv/channels/nhung-manh-ky-uc"
      }
    },
    {
      "id": "2549-channel",
      "name": "Mối tình loạn luân",
      "description": "Tôi là Lan, tôi sinh ra trong gia đình có 2 chị em, đi học lớn lên đến tuổi lấy chồng. Tôi được gả cho Tuấn là con đầu nhà bác Hùng theo sự hứa hôn của 2 gia đình khi tôi còn...",
      "image": null,
      "label": null,
      "display": "text-only",
      "type": "text",
      "enable_detail": true,
      "related": {
        "url": "https://truyenx.link/truyensextv/channels/related/2549",
        "request_headers": []
      },
      "share": {
        "url": "https://truyenx.link/truyensextv/channels/share/moi-tinh-loan-luan"
      },
      "remote_data": {
        "url": "https://truyenx.link/truyensextv/channels/moi-tinh-loan-luan"
      }
    },
    {
      "id": "2548-channel",
      "name": "Hành trình chinh phục thế giới",
      "description": "Hai căn biệt thự được xây hoàn toàn giống nhau từ trong ra ngoài, được xây trên miếng đất rộng lớn này là của nữ chủ tịch HĐQT và nữ CEO của tập đoàn HM. Nói về HM, nó...",
      "image": null,
      "label": null,
      "display": "text-only",
      "type": "text",
      "enable_detail": true,
      "related": {
        "url": "https://truyenx.link/truyensextv/channels/related/2548",
        "request_headers": []
      },
      "share": {
        "url": "https://truyenx.link/truyensextv/channels/share/hanh-trinh-chinh-phuc-the-gioi"
      },
      "remote_data": {
        "url": "https://truyenx.link/truyensextv/channels/hanh-trinh-chinh-phuc-the-gioi"
      }
    },
    {
      "id": "2547-channel",
      "name": "Ký ức ngọt ngào",
      "description": "Thời điểm đó là năm 2017, ngày đó cũng nung nấu trong đầu các ý tưởng làm giàu kiếm tiền nuôi sống vợ con , khi đó có tham khảo một mô hình kinh doanh khá ổn đã từng đưa lên...",
      "image": null,
      "label": null,
      "display": "text-only",
      "type": "text",
      "enable_detail": true,
      "related": {
        "url": "https://truyenx.link/truyensextv/channels/related/2547",
        "request_headers": []
      },
      "share": {
        "url": "https://truyenx.link/truyensextv/channels/share/ky-uc-ngot-ngao"
      },
      "remote_data": {
        "url": "https://truyenx.link/truyensextv/channels/ky-uc-ngot-ngao"
      }
    },
    {
      "id": "2546-channel",
      "name": "Người tình kiếp trước",
      "description": "Vy khép nhẹ cánh cửa phòng, ném chiếc túi xách màu đen lên bàn trang điểm, nằm sấp ra giường, trong bộ dạng chán chường, tay cầm điện thoại, tay còn lại xoa mái tóc, cảm giác...",
      "image": null,
      "label": null,
      "display": "text-only",
      "type": "text",
      "enable_detail": true,
      "related": {
        "url": "https://truyenx.link/truyensextv/channels/related/2546",
        "request_headers": []
      },
      "share": {
        "url": "https://truyenx.link/truyensextv/channels/share/nguoi-tinh-kiep-truoc"
      },
      "remote_data": {
        "url": "https://truyenx.link/truyensextv/channels/nguoi-tinh-kiep-truoc"
      }
    }
  ],
  "load_more": {
    "pageInfo": {
      "current_page": 6,
      "last_page": 140,
      "per_page": 30,
      "total": 4188
    },
    "paging": {
      "page_key": "page",
      "size_key": "size"
    },
    "remote_data": {
      "url": "https://truyenx.link/truyensextv/channels"
    }
  }
}