{"grid_number":1,"channels":[{"id":"1458-channel","name":"Lần đầu sờ vú người yêu","description":"Mình muốn kể với các bác câu chuyện về người yêu cũ của mình lúc học cấp 3 nè. Năm đó mình và em yêu nhau được khoảng 5 tháng rồi, nắm tay hôn hít gì đầy đủ cả nhưng...","image":null,"label":null,"display":"text-only","type":"text","enable_detail":true,"related":{"url":"https://truyenx.link/truyensextv/channels/related/1458","request_headers":[]},"share":{"url":"https://truyenx.link/truyensextv/channels/share/lan-dau-so-vu-nguoi-yeu"},"remote_data":{"url":"https://truyenx.link/truyensextv/channels/lan-dau-so-vu-nguoi-yeu"}},{"id":"1457-channel","name":"Móc bướm bạn thân","description":"Em này hơi thấp chút, hơi hơi mập, ngực vừa phải, không xinh nhưng nhìn được, nếu chụp ảnh lựa được góc thì em nó cười đẹp lắm. Bạn thân, hoàn toàn không có dâm ý gì, khi...","image":null,"label":null,"display":"text-only","type":"text","enable_detail":true,"related":{"url":"https://truyenx.link/truyensextv/channels/related/1457","request_headers":[]},"share":{"url":"https://truyenx.link/truyensextv/channels/share/moc-buom-ban-than"},"remote_data":{"url":"https://truyenx.link/truyensextv/channels/moc-buom-ban-than"}},{"id":"1456-channel","name":"Cưỡng bức trong phòng tắm","description":"Dịch giả: damnu94 Tháng bảy nắng gắt, là thời điểm nghỉ hè của các trường đại học, nhóm sinh viên gọi bạn rủ bè lập kế hoạch đi du lịch. Thế nhưng, giờ phút này Trần...","image":null,"label":null,"display":"text-only","type":"text","enable_detail":true,"related":{"url":"https://truyenx.link/truyensextv/channels/related/1456","request_headers":[]},"share":{"url":"https://truyenx.link/truyensextv/channels/share/cuong-buc-trong-phong-tam"},"remote_data":{"url":"https://truyenx.link/truyensextv/channels/cuong-buc-trong-phong-tam"}},{"id":"1455-channel","name":"Bị cha dượng cưỡng dâm","description":"“Ba con đã không còn trên đời này nữa”. Trời hôm đó mưa rất lớn, tôi và mẹ tôi đang ở nhà chờ ba về ăn cơm chung. “Sấm chớp đùng đùng như thế làm sao mà coi ti...","image":null,"label":null,"display":"text-only","type":"text","enable_detail":true,"related":{"url":"https://truyenx.link/truyensextv/channels/related/1455","request_headers":[]},"share":{"url":"https://truyenx.link/truyensextv/channels/share/bi-cha-duong-cuong-dam"},"remote_data":{"url":"https://truyenx.link/truyensextv/channels/bi-cha-duong-cuong-dam"}},{"id":"1454-channel","name":"Người tình trong mộng","description":"Hồi đó là cuối kỳ 1 năm 3, không nhớ tìm kiếm cái khỉ gì trên google mà trong kết quả tìm kiếm hiện ra ảnh em. Lập tức bị hút hồn bởi sắc đẹp, ánh mắt, mái tóc dài đen...","image":null,"label":null,"display":"text-only","type":"text","enable_detail":true,"related":{"url":"https://truyenx.link/truyensextv/channels/related/1454","request_headers":[]},"share":{"url":"https://truyenx.link/truyensextv/channels/share/nguoi-tinh-trong-mong"},"remote_data":{"url":"https://truyenx.link/truyensextv/channels/nguoi-tinh-trong-mong"}},{"id":"1453-channel","name":"Để vợ cậu tránh xa hắn ra","description":"“Để vợ cậu tránh xa hắn ra” Bình tự nhiên nói vậy khi cùng tôi đang đi vệ sinh. Tôi khá bất ngờ câu chuyện chả liên quan. “Là sao?” Bình thoáng ra vẻ không vui...","image":null,"label":null,"display":"text-only","type":"text","enable_detail":true,"related":{"url":"https://truyenx.link/truyensextv/channels/related/1453","request_headers":[]},"share":{"url":"https://truyenx.link/truyensextv/channels/share/de-vo-cau-tranh-xa-han-ra"},"remote_data":{"url":"https://truyenx.link/truyensextv/channels/de-vo-cau-tranh-xa-han-ra"}},{"id":"1452-channel","name":"Tôi bị hiếp dâm","description":"Tổ sư con người yêu cũ... Nó quen mấy bà chị 35 40 tuổi... Bỏ chồng với thèm của lạ... Hôm sinh nhật thằng ku... Tổ chức ở nhà người yêu cũ... Có tôi... em người yêu cũ... em...","image":null,"label":null,"display":"text-only","type":"text","enable_detail":true,"related":{"url":"https://truyenx.link/truyensextv/channels/related/1452","request_headers":[]},"share":{"url":"https://truyenx.link/truyensextv/channels/share/toi-bi-hiep-dam"},"remote_data":{"url":"https://truyenx.link/truyensextv/channels/toi-bi-hiep-dam"}},{"id":"1451-channel","name":"Vô vị","description":"Tôi là một người con gái. Tôi và anh cũng quen nhau gần một năm rồi. Và tất nhiên chúng tôi đã have sex. Đều là trải nghiệm đầu đời của cả hai người. Những lần đầu thật...","image":null,"label":null,"display":"text-only","type":"text","enable_detail":true,"related":{"url":"https://truyenx.link/truyensextv/channels/related/1451","request_headers":[]},"share":{"url":"https://truyenx.link/truyensextv/channels/share/vo-vi"},"remote_data":{"url":"https://truyenx.link/truyensextv/channels/vo-vi"}},{"id":"1450-channel","name":"Địt gái quen trên xe","description":"Lần đó về quê ăn cỗ, định là chiều chủ nhật đi Hà Nội nhưng cuối cùng vui quá nên sáng thứ 2 mới đi. Thứ 2 mà xe đông phết, khi mình lên thì các hàng ghế đôi gần kín hết...","image":null,"label":null,"display":"text-only","type":"text","enable_detail":true,"related":{"url":"https://truyenx.link/truyensextv/channels/related/1450","request_headers":[]},"share":{"url":"https://truyenx.link/truyensextv/channels/share/dit-gai-quen-tren-xe"},"remote_data":{"url":"https://truyenx.link/truyensextv/channels/dit-gai-quen-tren-xe"}},{"id":"1449-channel","name":"Buổi tối định mệnh","description":"Xin Chào. Hôm nay tôi xin kể lại câu chuyện giữa tôi với mẹ. Tôi năm nay 16t còn mẹ tôi thì 40t, mẹ với bố đi ly dị từ 1 năm trước vì bất đồng quan điểm sống. 1 lần khi tôi...","image":null,"label":null,"display":"text-only","type":"text","enable_detail":true,"related":{"url":"https://truyenx.link/truyensextv/channels/related/1449","request_headers":[]},"share":{"url":"https://truyenx.link/truyensextv/channels/share/buoi-toi-dinh-menh"},"remote_data":{"url":"https://truyenx.link/truyensextv/channels/buoi-toi-dinh-menh"}},{"id":"1448-channel","name":"Thất tình, con chó và lão ăn xin","description":"Trong đêm tối có một cô gái đang lặng lẽ bước đi, cô vừa đi vừa khóc. Bước chân cô không vững vì cô uống rượu khá nhiều. Màn đêm cô tịch, mây đen che mờ trăng sao, nhưng...","image":null,"label":null,"display":"text-only","type":"text","enable_detail":true,"related":{"url":"https://truyenx.link/truyensextv/channels/related/1448","request_headers":[]},"share":{"url":"https://truyenx.link/truyensextv/channels/share/that-tinh-con-cho-va-lao-an-xin"},"remote_data":{"url":"https://truyenx.link/truyensextv/channels/that-tinh-con-cho-va-lao-an-xin"}},{"id":"1447-channel","name":"Thế giới dâm dục","description":"Tác giả: Tammy Tany Thế giới dâm dục, nơi mà người ta được học làm tình ở trường, được tự do làm tình bất cứ khi nào mình muốn và chỉ mặc áo khoác mỗi khi ra đường...","image":null,"label":null,"display":"text-only","type":"text","enable_detail":true,"related":{"url":"https://truyenx.link/truyensextv/channels/related/1447","request_headers":[]},"share":{"url":"https://truyenx.link/truyensextv/channels/share/the-gioi-dam-duc"},"remote_data":{"url":"https://truyenx.link/truyensextv/channels/the-gioi-dam-duc"}},{"id":"1446-channel","name":"Loạn luân với mẹ ruột","description":"Chào các bạn, mình tên D năm nay 15 tuổi. Mẹ mình năm nay 40 tuổi. Sau đây mình xin kể cho các bạn nghe 1 câu truyện loạn luân giữa mình và mẹ mình... Sau khi được vài...","image":null,"label":null,"display":"text-only","type":"text","enable_detail":true,"related":{"url":"https://truyenx.link/truyensextv/channels/related/1446","request_headers":[]},"share":{"url":"https://truyenx.link/truyensextv/channels/share/loan-luan-voi-me-ruot"},"remote_data":{"url":"https://truyenx.link/truyensextv/channels/loan-luan-voi-me-ruot"}},{"id":"1445-channel","name":"2 mẹ con bị hiếp","description":"Đang lo lắng bởi không thể liên lạc được với con gái từ chiều tối hôm qua sau buổi học thêm, mặc dù đã 15 tuổi nhưng do từ bé Huyền Trang chỉ quanh quẩn bên ba mẹ nên con bé...","image":null,"label":null,"display":"text-only","type":"text","enable_detail":true,"related":{"url":"https://truyenx.link/truyensextv/channels/related/1445","request_headers":[]},"share":{"url":"https://truyenx.link/truyensextv/channels/share/2-me-con-bi-hiep"},"remote_data":{"url":"https://truyenx.link/truyensextv/channels/2-me-con-bi-hiep"}},{"id":"1444-channel","name":"Đi nhà nghỉ với em người yêu sắp lấy chồng","description":"Em 1 cô gái đúng chất hiền lành, nhẹ nhàng. Em không xinh, người nhỏ nhắn. Em đến từ mảnh đất miền trung xa xôi. Em có giọng nói rất dễ thương, tôi bị yêu giọng nói đó. Thật...","image":null,"label":null,"display":"text-only","type":"text","enable_detail":true,"related":{"url":"https://truyenx.link/truyensextv/channels/related/1444","request_headers":[]},"share":{"url":"https://truyenx.link/truyensextv/channels/share/di-nha-nghi-voi-em-nguoi-yeu-sap-lay-chong"},"remote_data":{"url":"https://truyenx.link/truyensextv/channels/di-nha-nghi-voi-em-nguoi-yeu-sap-lay-chong"}},{"id":"1443-channel","name":"Mai Ngọc - người con gái tôi yêu","description":"Hiếu! Dậy, nhanh lên, gần 7 giờ rồi còn ngủ chết trương... mày có định đi học không đấy??? ... Dậy!! Dậy mau. Mẹ vơ cái gối đập liên tục vào mặt tôi. Đây, đây, con dậy...","image":null,"label":null,"display":"text-only","type":"text","enable_detail":true,"related":{"url":"https://truyenx.link/truyensextv/channels/related/1443","request_headers":[]},"share":{"url":"https://truyenx.link/truyensextv/channels/share/mai-ngoc-nguoi-con-gai-toi-yeu"},"remote_data":{"url":"https://truyenx.link/truyensextv/channels/mai-ngoc-nguoi-con-gai-toi-yeu"}},{"id":"1442-channel","name":"Địt em gái bỏ chồng","description":"Chào anh em. Mình năm nay 34 tuổi. Nay rảnh, ngồi kể cho anh em 1 số câu chuyện rau cỏ của mình. Truyện thật 100% nhé. Mình văn kém nên anh em đọc đừng chê! Mình vốn là 1 thiết kế...","image":null,"label":null,"display":"text-only","type":"text","enable_detail":true,"related":{"url":"https://truyenx.link/truyensextv/channels/related/1442","request_headers":[]},"share":{"url":"https://truyenx.link/truyensextv/channels/share/dit-em-gai-bo-chong"},"remote_data":{"url":"https://truyenx.link/truyensextv/channels/dit-em-gai-bo-chong"}},{"id":"1441-channel","name":"Món quà tặng ba","description":"Ý nghĩ loạn luân cứ luẩn quẩn trong trí óc của Mỹ Dung từ nhiều năm nay. Nàng biết đó là một điều vô liêm sỉ, đê tiện, không được xã hội chấp nhận. Nàng đã cố gắng xua...","image":null,"label":null,"display":"text-only","type":"text","enable_detail":true,"related":{"url":"https://truyenx.link/truyensextv/channels/related/1441","request_headers":[]},"share":{"url":"https://truyenx.link/truyensextv/channels/share/mon-qua-tang-ba"},"remote_data":{"url":"https://truyenx.link/truyensextv/channels/mon-qua-tang-ba"}},{"id":"1440-channel","name":"Bị hiếp dâm khi đi vệ sinh","description":"Đi dự tiệc chiêu đãi của bạn chồng, Linh ngán ngẩm đường đường là trưởng phòng sao lại quen người như vậy chứ. Chồng nàng là người giao thiệp rất rộng và vô cùng hào...","image":null,"label":null,"display":"text-only","type":"text","enable_detail":true,"related":{"url":"https://truyenx.link/truyensextv/channels/related/1440","request_headers":[]},"share":{"url":"https://truyenx.link/truyensextv/channels/share/bi-hiep-dam-khi-di-ve-sinh"},"remote_data":{"url":"https://truyenx.link/truyensextv/channels/bi-hiep-dam-khi-di-ve-sinh"}},{"id":"1439-channel","name":"Phá trinh em người yêu","description":"Trước khi vào chuyện em xin tự giới thiệu, em tên ‘T’ năm nay 18 tuổi, sống ở thành phố Vinh, cao m70, mặt mũi nói chung đẹp zai, chuyện bắt đầu từ tháng 6, vào 1 ngày hè oi...","image":null,"label":null,"display":"text-only","type":"text","enable_detail":true,"related":{"url":"https://truyenx.link/truyensextv/channels/related/1439","request_headers":[]},"share":{"url":"https://truyenx.link/truyensextv/channels/share/pha-trinh-em-nguoi-yeu"},"remote_data":{"url":"https://truyenx.link/truyensextv/channels/pha-trinh-em-nguoi-yeu"}},{"id":"1438-channel","name":"Lá thư của vợ","description":"Gửi ông xã yêu quý của em, anh cũng đã biết hết mọi chuyện sau khi phát hiện clip quay lén cảnh làm tình của em với anh Mạnh trong khách sạn. Sự thật không phải như anh thấy, em đã...","image":null,"label":null,"display":"text-only","type":"text","enable_detail":true,"related":{"url":"https://truyenx.link/truyensextv/channels/related/1438","request_headers":[]},"share":{"url":"https://truyenx.link/truyensextv/channels/share/la-thu-cua-vo"},"remote_data":{"url":"https://truyenx.link/truyensextv/channels/la-thu-cua-vo"}},{"id":"1437-channel","name":"Làm tình với những người tình","description":"Tác giả: Why Not Me Năm đó tôi có dịp về Sài gòn để vào học Ðại học. Tôi được Ba Mẹ xin cho tôi ở nhà Bà ngoại ở đường Ngô Quyền trong Chợ Lớn. Nhà có 2 tầng, Bà Ngoại...","image":null,"label":null,"display":"text-only","type":"text","enable_detail":true,"related":{"url":"https://truyenx.link/truyensextv/channels/related/1437","request_headers":[]},"share":{"url":"https://truyenx.link/truyensextv/channels/share/lam-tinh-voi-nhung-nguoi-tinh"},"remote_data":{"url":"https://truyenx.link/truyensextv/channels/lam-tinh-voi-nhung-nguoi-tinh"}},{"id":"1436-channel","name":"Chị chủ nhà nứng lồn","description":"Lúc ấy là đầu năm 3, đi làm thêm có tiền nên quyết định lên đời cuộc sống sinh viên: Rời xóm trọ nóng như cái lò kiếm phòng khép kín điều hòa nóng lạnh đầy đủ. Chẳng...","image":null,"label":null,"display":"text-only","type":"text","enable_detail":true,"related":{"url":"https://truyenx.link/truyensextv/channels/related/1436","request_headers":[]},"share":{"url":"https://truyenx.link/truyensextv/channels/share/chi-chu-nha-nung-lon"},"remote_data":{"url":"https://truyenx.link/truyensextv/channels/chi-chu-nha-nung-lon"}},{"id":"1435-channel","name":"Hắc Long - Quyển 2","description":"Trời thu mát mẻ với những cơn gió nhẹ thổi lướt qua. Hôm nay con đường trở nên nhộn nhịp hơn bao giờ hết, tết Nguyên Tiêu đã cận kề nên ai nấy đều hối hả nhất là lũ...","image":null,"label":null,"display":"text-only","type":"text","enable_detail":true,"related":{"url":"https://truyenx.link/truyensextv/channels/related/1435","request_headers":[]},"share":{"url":"https://truyenx.link/truyensextv/channels/share/hac-long-quyen-2"},"remote_data":{"url":"https://truyenx.link/truyensextv/channels/hac-long-quyen-2"}},{"id":"1434-channel","name":"Hai anh chàng Việt Nam - Truyện dịch","description":"Lần đầu tiên tôi gặp hai người anh em người Việt Nam là lúc tôi cùng chồng đến vườn ươm của họ để tìm mua một số cây cảnh. Cả hai anh em họ đều ở tuổi đôi mươi, họ...","image":null,"label":null,"display":"text-only","type":"text","enable_detail":true,"related":{"url":"https://truyenx.link/truyensextv/channels/related/1434","request_headers":[]},"share":{"url":"https://truyenx.link/truyensextv/channels/share/hai-anh-chang-viet-nam-truyen-dich"},"remote_data":{"url":"https://truyenx.link/truyensextv/channels/hai-anh-chang-viet-nam-truyen-dich"}},{"id":"1433-channel","name":"Chị vợ dâm dục","description":"Tôi là Trung Anh 1 giám đốc của 1 công ty Công nghệ mới vừa bước sang tuổi 24, là một chuyên gia công nghệ 4. 0 sống ở Mỹ từ năm 12 tuổi được tài trợ học bổng trài đại học...","image":null,"label":null,"display":"text-only","type":"text","enable_detail":true,"related":{"url":"https://truyenx.link/truyensextv/channels/related/1433","request_headers":[]},"share":{"url":"https://truyenx.link/truyensextv/channels/share/chi-vo-dam-duc"},"remote_data":{"url":"https://truyenx.link/truyensextv/channels/chi-vo-dam-duc"}},{"id":"1432-channel","name":"Sự trả thù man rợ","description":"Quỳnh Hoa tay cầm điện thoại nói chuyện với chồng nhưng vẫn phải đứng vịn lên cái tủ kê sát bức tường mà chổng mông ra để cho 1 thằng khốn nạn đứng phía sau liên tục...","image":null,"label":null,"display":"text-only","type":"text","enable_detail":true,"related":{"url":"https://truyenx.link/truyensextv/channels/related/1432","request_headers":[]},"share":{"url":"https://truyenx.link/truyensextv/channels/share/su-tra-thu-man-ro"},"remote_data":{"url":"https://truyenx.link/truyensextv/channels/su-tra-thu-man-ro"}},{"id":"1431-channel","name":"Địt cùng lúc 2 em sinh viên","description":"55 nên vẫn đẹp, mông bình thường. Khá xinh và rất dễ thương, ưa nhìn, mặt bầu bĩnh, môi dày vừa phải, răng trắng đẹp. Em độc thân, hồi hè chia tay thằng người yêu mà trước...","image":null,"label":null,"display":"text-only","type":"text","enable_detail":true,"related":{"url":"https://truyenx.link/truyensextv/channels/related/1431","request_headers":[]},"share":{"url":"https://truyenx.link/truyensextv/channels/share/dit-cung-luc-2-em-sinh-vien"},"remote_data":{"url":"https://truyenx.link/truyensextv/channels/dit-cung-luc-2-em-sinh-vien"}},{"id":"1430-channel","name":"Hoa anh túc","description":"Vân bắc nồi cơm xuống, sắp bát đũa vào mâm chuẩn bị dọn bữa tối. Cái nóng nực dưới bếp khiến trán nàng lấm tấm mồ hôi, làn áo mỏng càng dính chặt vào cơ thể như muốn...","image":null,"label":null,"display":"text-only","type":"text","enable_detail":true,"related":{"url":"https://truyenx.link/truyensextv/channels/related/1430","request_headers":[]},"share":{"url":"https://truyenx.link/truyensextv/channels/share/hoa-anh-tuc"},"remote_data":{"url":"https://truyenx.link/truyensextv/channels/hoa-anh-tuc"}},{"id":"1429-channel","name":"Cưỡng dâm 3 mẹ con","description":"My, ba mươi tuổi, xinh đẹp, trẻ trung, là mẫu người luôn cuốn hút mọi ánh nhìn, giám đốc tại chi nhánh ngân hàng A. Chồng nàng chết trong một tai nạn giao thông, hiện tại nàng...","image":null,"label":null,"display":"text-only","type":"text","enable_detail":true,"related":{"url":"https://truyenx.link/truyensextv/channels/related/1429","request_headers":[]},"share":{"url":"https://truyenx.link/truyensextv/channels/share/cuong-dam-3-me-con"},"remote_data":{"url":"https://truyenx.link/truyensextv/channels/cuong-dam-3-me-con"}}],"load_more":{"pageInfo":{"current_page":92,"last_page":140,"per_page":30,"total":4188},"paging":{"page_key":"page","size_key":"size"},"remote_data":{"url":"https://truyenx.link/truyensextv/channels"}}}