{"grid_number":1,"channels":[{"id":"1638-channel","name":"Chị nứng lồn lắm rồi em ơi","description":"Tôi tình cờ gặp chị trong lần về quê ăn tết. Cái lạnh thấu xương không ngăn nổi chiếc fz150 của tôi lao nhanh trên đường cao tốc. Phía trước là một người phụ nữ trên chiếc...","image":null,"label":null,"display":"text-only","type":"text","enable_detail":true,"related":{"url":"https://truyenx.link/truyensextv/channels/related/1638","request_headers":[]},"share":{"url":"https://truyenx.link/truyensextv/channels/share/chi-nung-lon-lam-roi-em-oi"},"remote_data":{"url":"https://truyenx.link/truyensextv/channels/chi-nung-lon-lam-roi-em-oi"}},{"id":"1637-channel","name":"Cuối năm với chị họ","description":"Đầu tiên mình muốn nói rõ là chuyện này mình viết bằng cảm xúc của mình chứ văn thì mình dở lắm, mấy cảnh sex mình thực hiện sao thì mình viết vậy thôi chứ mình không biết...","image":null,"label":null,"display":"text-only","type":"text","enable_detail":true,"related":{"url":"https://truyenx.link/truyensextv/channels/related/1637","request_headers":[]},"share":{"url":"https://truyenx.link/truyensextv/channels/share/cuoi-nam-voi-chi-ho"},"remote_data":{"url":"https://truyenx.link/truyensextv/channels/cuoi-nam-voi-chi-ho"}},{"id":"1636-channel","name":"Thằng đểu và con đĩ","description":"Đúng đêm 30 tết. Mình chia tay đi anh. Giọng nói quen thuộc phát ra từ chiếc điện thoại làm tim tôi như nghẹn lại, Mai... người con gái tôi yêu suốt 6 năm trời đã phũ phàng đá tôi...","image":null,"label":null,"display":"text-only","type":"text","enable_detail":true,"related":{"url":"https://truyenx.link/truyensextv/channels/related/1636","request_headers":[]},"share":{"url":"https://truyenx.link/truyensextv/channels/share/thang-deu-va-con-di"},"remote_data":{"url":"https://truyenx.link/truyensextv/channels/thang-deu-va-con-di"}},{"id":"1635-channel","name":"Đụ vợ ông anh họ","description":"Thú thực mình cũng không định không kể đâu, nhưng câu chuyện khá là thú vị, mà không kể ra một chút cho các bác nghe thì thấy tiếc quá. Nên em xin mạn phép kể trên trang web...","image":null,"label":null,"display":"text-only","type":"text","enable_detail":true,"related":{"url":"https://truyenx.link/truyensextv/channels/related/1635","request_headers":[]},"share":{"url":"https://truyenx.link/truyensextv/channels/share/du-vo-ong-anh-ho"},"remote_data":{"url":"https://truyenx.link/truyensextv/channels/du-vo-ong-anh-ho"}},{"id":"1634-channel","name":"Cuộc sống mới của cô con dâu","description":"Sau đây tôi sẽ kể cho các bạn nghe một câu chuyện, câu chuyện luôn xuất hiện trong những giấc mơ và suy nghĩ của tôi thời gian gần đây, tôi không biết nếu ngoài cuộc sống tồn...","image":null,"label":null,"display":"text-only","type":"text","enable_detail":true,"related":{"url":"https://truyenx.link/truyensextv/channels/related/1634","request_headers":[]},"share":{"url":"https://truyenx.link/truyensextv/channels/share/cuoc-song-moi-cua-co-con-dau"},"remote_data":{"url":"https://truyenx.link/truyensextv/channels/cuoc-song-moi-cua-co-con-dau"}},{"id":"1633-channel","name":"Đêm hoan lạc","description":"Trường tỉnh giấc nhưng đầu óc vẫn mụ mị. Mặt trời chủ nhật mùa hè đã lên cao, vài tia nắng gắt lọt qua những kẽ hở của rèm cửa lọt vào khiến căn phòng rộng của căn...","image":null,"label":null,"display":"text-only","type":"text","enable_detail":true,"related":{"url":"https://truyenx.link/truyensextv/channels/related/1633","request_headers":[]},"share":{"url":"https://truyenx.link/truyensextv/channels/share/dem-hoan-lac"},"remote_data":{"url":"https://truyenx.link/truyensextv/channels/dem-hoan-lac"}},{"id":"1632-channel","name":"Ký sự loạn luân","description":"Tôi tên là T, sinh ra ở miền tây sông nước, từ khi lên 5 tôi đã trở thành đứa trẻ mồ côi, bố mẹ tôi mất trong 1 vụ tai nạn giao thông. Tôi chỉ nghe ông ngoại tôi kể lại thôi...","image":null,"label":null,"display":"text-only","type":"text","enable_detail":true,"related":{"url":"https://truyenx.link/truyensextv/channels/related/1632","request_headers":[]},"share":{"url":"https://truyenx.link/truyensextv/channels/share/ky-su-loan-luan"},"remote_data":{"url":"https://truyenx.link/truyensextv/channels/ky-su-loan-luan"}},{"id":"1631-channel","name":"Bà dì ghẻ nứng lồn","description":"Ông Thời lái chiếc ô tô đen láng bóng, đời mới rề tới đậu ngay trước cửa chợ. Một vài cặp mắt liếc nhìn chiếc xe sang trọng không dấu nổi vẻ thèm thuồng. Từ trong chợ...","image":null,"label":null,"display":"text-only","type":"text","enable_detail":true,"related":{"url":"https://truyenx.link/truyensextv/channels/related/1631","request_headers":[]},"share":{"url":"https://truyenx.link/truyensextv/channels/share/ba-di-ghe-nung-lon"},"remote_data":{"url":"https://truyenx.link/truyensextv/channels/ba-di-ghe-nung-lon"}},{"id":"1630-channel","name":"Số đỏ","description":"“Cộc cộc”. “Cộc cộc cộc”. Tiếng gõ cửa lại vang lên mấy lượt. Tôi dụi dụi hai mắt kèm nhèm nhìn quanh. Dưới ánh sáng mờ mờ hắt vào từ khung rèm cửa che...","image":null,"label":null,"display":"text-only","type":"text","enable_detail":true,"related":{"url":"https://truyenx.link/truyensextv/channels/related/1630","request_headers":[]},"share":{"url":"https://truyenx.link/truyensextv/channels/share/so-do"},"remote_data":{"url":"https://truyenx.link/truyensextv/channels/so-do"}},{"id":"1629-channel","name":"Dâm đãng hệ thống","description":"Trùng sinh trong thân xác kẻ thù “Trên giường bệnh, khoa hồi sức cấp cứu.” Tần Lâm mở mắt ra. Giờ phút này, Thiên Bảo tâm tình thật đạ mấu muốn sụp đổ. Mẹ nó...","image":null,"label":null,"display":"text-only","type":"text","enable_detail":true,"related":{"url":"https://truyenx.link/truyensextv/channels/related/1629","request_headers":[]},"share":{"url":"https://truyenx.link/truyensextv/channels/share/dam-dang-he-thong"},"remote_data":{"url":"https://truyenx.link/truyensextv/channels/dam-dang-he-thong"}},{"id":"1628-channel","name":"Đụ vợ thầy giáo","description":"Hiện nay tình trạng đổi tình dục lấy điểm đã xảy quá là tràn lan rồi. Ngôi trường đại học mà tôi học thì cũng xảy ra như vậy. Bình thường thì mấy cái chuyện đó thường...","image":null,"label":null,"display":"text-only","type":"text","enable_detail":true,"related":{"url":"https://truyenx.link/truyensextv/channels/related/1628","request_headers":[]},"share":{"url":"https://truyenx.link/truyensextv/channels/share/du-vo-thay-giao"},"remote_data":{"url":"https://truyenx.link/truyensextv/channels/du-vo-thay-giao"}},{"id":"1627-channel","name":"Gái nhà quê","description":"Ba đứa Hồng, Thu, Loan ngồi gần lại với nhau, im lặng đắm đuối nhìn chăm chăm con Phương. Lúc đó là 8 giờ đêm rồi, mà con Phương cứ thao thao kể chuyện ma. Con Phương kể hay quá...","image":null,"label":null,"display":"text-only","type":"text","enable_detail":true,"related":{"url":"https://truyenx.link/truyensextv/channels/related/1627","request_headers":[]},"share":{"url":"https://truyenx.link/truyensextv/channels/share/gai-nha-que"},"remote_data":{"url":"https://truyenx.link/truyensextv/channels/gai-nha-que"}},{"id":"1626-channel","name":"Chị họ","description":"Tôi là một đứa con trai đang ở tuổi 17, tháng trước có một kỷ niệm hay chính xác hơn là một sự việc mà tôi không thể nào quên được. Đó là một hôm thứ 7 tôi được về quê...","image":null,"label":null,"display":"text-only","type":"text","enable_detail":true,"related":{"url":"https://truyenx.link/truyensextv/channels/related/1626","request_headers":[]},"share":{"url":"https://truyenx.link/truyensextv/channels/share/chi-ho"},"remote_data":{"url":"https://truyenx.link/truyensextv/channels/chi-ho"}},{"id":"1625-channel","name":"Phá trinh bạn học","description":"Hắn tên là Hưng, đã được phá trinh rất nhiều cô gái cả trong mơ và trên thực tế. Hắn dựa vào những hiểu biết của mình để hắn thực hiện tham vọng trong mơ. Và sử dụng...","image":null,"label":null,"display":"text-only","type":"text","enable_detail":true,"related":{"url":"https://truyenx.link/truyensextv/channels/related/1625","request_headers":[]},"share":{"url":"https://truyenx.link/truyensextv/channels/share/pha-trinh-ban-hoc"},"remote_data":{"url":"https://truyenx.link/truyensextv/channels/pha-trinh-ban-hoc"}},{"id":"1624-channel","name":"Cô Hạnh","description":"Đó là một ngày đầu tháng 7, với những đứa học sinh bình thường thì đây là thời gian tốt tuy ngắn ngủi để xả hơi sau một năm học dài dằng dặc. Tuy nhiên đối với những...","image":null,"label":null,"display":"text-only","type":"text","enable_detail":true,"related":{"url":"https://truyenx.link/truyensextv/channels/related/1624","request_headers":[]},"share":{"url":"https://truyenx.link/truyensextv/channels/share/co-hanh"},"remote_data":{"url":"https://truyenx.link/truyensextv/channels/co-hanh"}},{"id":"1623-channel","name":"Nữ giám đốc","description":"Chi thoáng đỏ mặt trước con mắt của gã đàn ông to béo đang nằm dạng chân trên chiếc giường lớn nhìn nàng. Gã nhe hàm răng khấp khểnh vàng khè hoàn toàn tương phản với bộ...","image":null,"label":null,"display":"text-only","type":"text","enable_detail":true,"related":{"url":"https://truyenx.link/truyensextv/channels/related/1623","request_headers":[]},"share":{"url":"https://truyenx.link/truyensextv/channels/share/nu-giam-doc"},"remote_data":{"url":"https://truyenx.link/truyensextv/channels/nu-giam-doc"}},{"id":"1622-channel","name":"Địt em người mẫu","description":"Hắn vừa giơ những tấm phim âm bản lên vừa ngắm nghía vừa huýt sáo, lâu rồi hắn mới chụp những bức ảnh đẹp đến thế. Lâu nay chỉ toàn chụp hình mấy cô ả người mẫu...","image":null,"label":null,"display":"text-only","type":"text","enable_detail":true,"related":{"url":"https://truyenx.link/truyensextv/channels/related/1622","request_headers":[]},"share":{"url":"https://truyenx.link/truyensextv/channels/share/dit-em-nguoi-mau"},"remote_data":{"url":"https://truyenx.link/truyensextv/channels/dit-em-nguoi-mau"}},{"id":"1621-channel","name":"Con nhà nghèo","description":"Nhà tôi ở một vùng đồng bằng ở Bắc bộ. Nhà thì cũng chẳng khá giả gì cho lắm, chỉ quanh quẩn lấy mấy sào ruộng khoán mà thôi. Ba tôi mất sớm lên chỉ còn mỗi mẹ tôi làm...","image":null,"label":null,"display":"text-only","type":"text","enable_detail":true,"related":{"url":"https://truyenx.link/truyensextv/channels/related/1621","request_headers":[]},"share":{"url":"https://truyenx.link/truyensextv/channels/share/con-nha-ngheo"},"remote_data":{"url":"https://truyenx.link/truyensextv/channels/con-nha-ngheo"}},{"id":"1620-channel","name":"Người tình tuyệt vời","description":"Um... em mệt quá. Cô nàng chống tay không nổi đổ ập cả người vào người tôi. Nàng úp mặt vào cổ tôi thở gấp rút sau lần lên đỉnh thứ tư, đợi cho cơn khoái cảm đi qua nàng...","image":null,"label":null,"display":"text-only","type":"text","enable_detail":true,"related":{"url":"https://truyenx.link/truyensextv/channels/related/1620","request_headers":[]},"share":{"url":"https://truyenx.link/truyensextv/channels/share/nguoi-tinh-tuyet-voi"},"remote_data":{"url":"https://truyenx.link/truyensextv/channels/nguoi-tinh-tuyet-voi"}},{"id":"1619-channel","name":"Cô giáo Lan","description":"“Tại sao mình lại từ chối? Chắc tại mình sợ... Nhưng sợ điều gì...” Những suy nghĩ mông lung ấy cứ hiện ra trong đầu của Liên, nàng đã ngồi ngây người bên cạnh khung...","image":null,"label":null,"display":"text-only","type":"text","enable_detail":true,"related":{"url":"https://truyenx.link/truyensextv/channels/related/1619","request_headers":[]},"share":{"url":"https://truyenx.link/truyensextv/channels/share/co-giao-lan"},"remote_data":{"url":"https://truyenx.link/truyensextv/channels/co-giao-lan"}},{"id":"1618-channel","name":"Lớp học Tiếng Anh","description":"Tiếng Anh hiện nay là ngôn ngữ không thể thiếu trong công việc hiện nay. Những người làm công việc văn phòng như tôi thì cũng càng phải tiếp thu học hỏi thêm nhiều hơn. Tôi là...","image":null,"label":null,"display":"text-only","type":"text","enable_detail":true,"related":{"url":"https://truyenx.link/truyensextv/channels/related/1618","request_headers":[]},"share":{"url":"https://truyenx.link/truyensextv/channels/share/lop-hoc-tieng-anh"},"remote_data":{"url":"https://truyenx.link/truyensextv/channels/lop-hoc-tieng-anh"}},{"id":"1617-channel","name":"Ký ức ngày xưa","description":"Tôi sinh ra và lớn lên ở một Huyện của tỉnh Đắk Lắk, dọc đường 26. Kể sơ qua về cuộc sống trước năm cuối THCS, là con trong gia đình CNVC , cha mẹ tôi không giàu có, gia đình...","image":null,"label":null,"display":"text-only","type":"text","enable_detail":true,"related":{"url":"https://truyenx.link/truyensextv/channels/related/1617","request_headers":[]},"share":{"url":"https://truyenx.link/truyensextv/channels/share/ky-uc-ngay-xua"},"remote_data":{"url":"https://truyenx.link/truyensextv/channels/ky-uc-ngay-xua"}},{"id":"1616-channel","name":"Em gái","description":"Tôi sinh ra trong 1 gia đình trung lưu ở ngoại thành Hà Nội, tôi là con cả, 2 đứa em sinh đôi 1 gái 1 trai kế là Vân và Huy ít hơn tôi 4 tuổi và cuối cùng là con bé An ít hơn tôi 6...","image":null,"label":null,"display":"text-only","type":"text","enable_detail":true,"related":{"url":"https://truyenx.link/truyensextv/channels/related/1616","request_headers":[]},"share":{"url":"https://truyenx.link/truyensextv/channels/share/em-gai"},"remote_data":{"url":"https://truyenx.link/truyensextv/channels/em-gai"}},{"id":"1615-channel","name":"Trại cai nghiện","description":"Nếu có người hỏi tôi: “Chỗ nào đáng quên nhất trên thế giới này?” Tôi sẽ không ngại ngần mà nó ngay ra đáp án: “Trại cai nghiện”. Nhưng cha nào cắc cớ hỏi...","image":null,"label":null,"display":"text-only","type":"text","enable_detail":true,"related":{"url":"https://truyenx.link/truyensextv/channels/related/1615","request_headers":[]},"share":{"url":"https://truyenx.link/truyensextv/channels/share/trai-cai-nghien"},"remote_data":{"url":"https://truyenx.link/truyensextv/channels/trai-cai-nghien"}},{"id":"1614-channel","name":"Gái dâm thèm đụ","description":"Khi cha mẹ tôi chết, tôi 16 tuổi. Tôi được bác Kha, người hàng xóm cho tá túc, phụ với ông làm rẫy để kiếm cơm qua ngày. Thành con nuôi của ông cũng bằng tuổi tôi. Có khi tôi ao...","image":null,"label":null,"display":"text-only","type":"text","enable_detail":true,"related":{"url":"https://truyenx.link/truyensextv/channels/related/1614","request_headers":[]},"share":{"url":"https://truyenx.link/truyensextv/channels/share/gai-dam-them-du"},"remote_data":{"url":"https://truyenx.link/truyensextv/channels/gai-dam-them-du"}},{"id":"1613-channel","name":"Nhật Ký làm tình","description":"Đạt cầm cái máy quay phim nhỏ hiệu Sony cầm tay. Hắn lách cửa vào phòng ngủ và đi vào đứng trong chỗ đựng treo quần áo. Trong chỗ treo quần áo đủ lớn để hắn dàn trận. Hắn...","image":null,"label":null,"display":"text-only","type":"text","enable_detail":true,"related":{"url":"https://truyenx.link/truyensextv/channels/related/1613","request_headers":[]},"share":{"url":"https://truyenx.link/truyensextv/channels/share/nhat-ky-lam-tinh"},"remote_data":{"url":"https://truyenx.link/truyensextv/channels/nhat-ky-lam-tinh"}},{"id":"1612-channel","name":"Địt trong toilet bệnh viện","description":"Tôi là 1 người hết sức bình thường, chả có gì là đặc biệt cả, không có công việc gì ổn định, vì tôi vốn không muốn đi làm, dù gì tôi cũng không có lý tưởng gì to tát...","image":null,"label":null,"display":"text-only","type":"text","enable_detail":true,"related":{"url":"https://truyenx.link/truyensextv/channels/related/1612","request_headers":[]},"share":{"url":"https://truyenx.link/truyensextv/channels/share/dit-trong-toilet-benh-vien"},"remote_data":{"url":"https://truyenx.link/truyensextv/channels/dit-trong-toilet-benh-vien"}},{"id":"1611-channel","name":"Người vợ dâm","description":"Toàn và Diệu là đôi vợ chồng trẻ, Toàn năm nay 30 tuổi, Diệu vợ Toàn kém hơn chồng 1 tuổi. Đôi vợ chồng trẻ sống ở TP Hồ Chí Minh, gia cảnh cũng bình thường, nếu không muốn...","image":null,"label":null,"display":"text-only","type":"text","enable_detail":true,"related":{"url":"https://truyenx.link/truyensextv/channels/related/1611","request_headers":[]},"share":{"url":"https://truyenx.link/truyensextv/channels/share/nguoi-vo-dam"},"remote_data":{"url":"https://truyenx.link/truyensextv/channels/nguoi-vo-dam"}},{"id":"1610-channel","name":"Người con gái bị hiếp dâm tập thể","description":"Tôi sang Mỹ theo diện tị nạn, được định cư lần đầu tại một bang rất ít người Việt. Đã vắng thì chớ, lại ở rải rác nhiều thành phố, chỉ có dịp gặp gỡ nhau mỗi chủ...","image":null,"label":null,"display":"text-only","type":"text","enable_detail":true,"related":{"url":"https://truyenx.link/truyensextv/channels/related/1610","request_headers":[]},"share":{"url":"https://truyenx.link/truyensextv/channels/share/nguoi-con-gai-bi-hiep-dam-tap-the"},"remote_data":{"url":"https://truyenx.link/truyensextv/channels/nguoi-con-gai-bi-hiep-dam-tap-the"}},{"id":"1609-channel","name":"Chị Huyền và Chị Trinh","description":"Tôi tên là Dũng. Hôm nay là ngày cuối tôi ở lại Việt Nam. Lòng trống rỗng, không biết cho tương lai sau này. Mới một tháng trước đây, tôi nhận được thư bảo lãnh do cậu tôi bên...","image":null,"label":null,"display":"text-only","type":"text","enable_detail":true,"related":{"url":"https://truyenx.link/truyensextv/channels/related/1609","request_headers":[]},"share":{"url":"https://truyenx.link/truyensextv/channels/share/chi-huyen-va-chi-trinh"},"remote_data":{"url":"https://truyenx.link/truyensextv/channels/chi-huyen-va-chi-trinh"}}],"load_more":{"pageInfo":{"current_page":86,"last_page":140,"per_page":30,"total":4188},"paging":{"page_key":"page","size_key":"size"},"remote_data":{"url":"https://truyenx.link/truyensextv/channels"}}}