{
  "grid_number": 1,
  "channels": [
    {
      "id": "108-channel",
      "name": "Cô vợ tiếp viên hàng không",
      "description": "Quỳnh, một tiếp viên hàng không, xinh đẹp, cao ráo. Quỳnh rất tự hào về body của mình. Với vòng ngực 96, Quỳnh rất hãnh diện khi cô bắt gặp một cặp mắt nhìn mình với bao thèm...",
      "image": null,
      "label": null,
      "display": "text-only",
      "type": "text",
      "enable_detail": true,
      "related": {
        "url": "https://truyenx.link/truyensextv/channels/related/108",
        "request_headers": []
      },
      "share": {
        "url": "https://truyenx.link/truyensextv/channels/share/co-vo-tiep-vien-hang-khong"
      },
      "remote_data": {
        "url": "https://truyenx.link/truyensextv/channels/co-vo-tiep-vien-hang-khong"
      }
    },
    {
      "id": "107-channel",
      "name": "Nhật ký ngoại tình",
      "description": "Ngày...tháng...năm... Lần này là lần thứ 22. Mình đếm đủ. Không lần nào chồng mình làm cho mình đạt được cực khoái. Chán thật. Cứ banh háng mình ra là nhét vô rồi nhấp cho đã...",
      "image": null,
      "label": null,
      "display": "text-only",
      "type": "text",
      "enable_detail": true,
      "related": {
        "url": "https://truyenx.link/truyensextv/channels/related/107",
        "request_headers": []
      },
      "share": {
        "url": "https://truyenx.link/truyensextv/channels/share/nhat-ky-ngoai-tinh"
      },
      "remote_data": {
        "url": "https://truyenx.link/truyensextv/channels/nhat-ky-ngoai-tinh"
      }
    },
    {
      "id": "106-channel",
      "name": "Tâm sự của một dâm nữ",
      "description": "Chào các anh chị trên trang web truyensextv2.cc, em là con gái nhưng em cũng rất thích đọc truyện sex, hôm nay rảnh rỗi không có việc gì làm, ngồi thẩn thơ nhớ về ông người yêu cũ...",
      "image": null,
      "label": null,
      "display": "text-only",
      "type": "text",
      "enable_detail": true,
      "related": {
        "url": "https://truyenx.link/truyensextv/channels/related/106",
        "request_headers": []
      },
      "share": {
        "url": "https://truyenx.link/truyensextv/channels/share/tam-su-cua-mot-dam-nu"
      },
      "remote_data": {
        "url": "https://truyenx.link/truyensextv/channels/tam-su-cua-mot-dam-nu"
      }
    },
    {
      "id": "105-channel",
      "name": "Thợ chụp ảnh",
      "description": "Tôi là thợ chụp ảnh thuộc loại khá nổi tiếng tại tiểu bang ở Mỹ. Hơn thế nữa, tôi còn là người lăng xê người mẫu cho các hãng quảng cáo và cho cả các giải thi hoa hậu Á...",
      "image": null,
      "label": null,
      "display": "text-only",
      "type": "text",
      "enable_detail": true,
      "related": {
        "url": "https://truyenx.link/truyensextv/channels/related/105",
        "request_headers": []
      },
      "share": {
        "url": "https://truyenx.link/truyensextv/channels/share/tho-chup-anh"
      },
      "remote_data": {
        "url": "https://truyenx.link/truyensextv/channels/tho-chup-anh"
      }
    },
    {
      "id": "104-channel",
      "name": "Chuyện thật với chị vợ",
      "description": "2014). Đây là lần đầu tiên mình viết nên lời văn không được chỉnh chu các bạn đọc thông cảm nha, chủ yếu là mình chia sẻ niềm sung sương của mình với các bạn mà thôi Mình...",
      "image": null,
      "label": null,
      "display": "text-only",
      "type": "text",
      "enable_detail": true,
      "related": {
        "url": "https://truyenx.link/truyensextv/channels/related/104",
        "request_headers": []
      },
      "share": {
        "url": "https://truyenx.link/truyensextv/channels/share/chuyen-that-voi-chi-vo"
      },
      "remote_data": {
        "url": "https://truyenx.link/truyensextv/channels/chuyen-that-voi-chi-vo"
      }
    },
    {
      "id": "103-channel",
      "name": "Làm tình với chị dâu",
      "description": "Từ ngày gia đình anh Ba tôi dọn về Florida, hè vừa rồi là lần đầu vợ chồng tôi đến nghĩ hè ở nhà anh chị. Vùng Miami người Việt không nhiều lắm, nên ngoài các thắng cảnh...",
      "image": null,
      "label": null,
      "display": "text-only",
      "type": "text",
      "enable_detail": true,
      "related": {
        "url": "https://truyenx.link/truyensextv/channels/related/103",
        "request_headers": []
      },
      "share": {
        "url": "https://truyenx.link/truyensextv/channels/share/lam-tinh-voi-chi-dau"
      },
      "remote_data": {
        "url": "https://truyenx.link/truyensextv/channels/lam-tinh-voi-chi-dau"
      }
    },
    {
      "id": "102-channel",
      "name": "Ông chủ thích phá trinh",
      "description": "Ông Trần Thế Hùng, Trưởng phòng Kiểm soát thực phẩm, có hai con: Một trai và một gái, chúng đều nên gia thất. Anh Thế Hiển là trai, chủ tiệm sửa lắp ráp và bán phụ tùng Điện...",
      "image": null,
      "label": null,
      "display": "text-only",
      "type": "text",
      "enable_detail": true,
      "related": {
        "url": "https://truyenx.link/truyensextv/channels/related/102",
        "request_headers": []
      },
      "share": {
        "url": "https://truyenx.link/truyensextv/channels/share/ong-chu-thich-pha-trinh"
      },
      "remote_data": {
        "url": "https://truyenx.link/truyensextv/channels/ong-chu-thich-pha-trinh"
      }
    },
    {
      "id": "101-channel",
      "name": "Phương pháp Sex",
      "description": "Mỗi tối tất cả các cặp tình nhân đều hay nghĩ về tình dục . Có khi chỉ thoáng qua rồi tan biến. Có khi nó còn âm ỉ trong đầu, để rồi chỉ vài lần va chạm nhau, hai người...",
      "image": null,
      "label": null,
      "display": "text-only",
      "type": "text",
      "enable_detail": true,
      "related": {
        "url": "https://truyenx.link/truyensextv/channels/related/101",
        "request_headers": []
      },
      "share": {
        "url": "https://truyenx.link/truyensextv/channels/share/phuong-phap-sex"
      },
      "remote_data": {
        "url": "https://truyenx.link/truyensextv/channels/phuong-phap-sex"
      }
    },
    {
      "id": "100-channel",
      "name": "Anh chàng yếu sinh lý",
      "description": "Tôi xin nói qua về tiểu sử bản thân. Tôi biết tôi yếu sinh lý hơn các bạn nam khác từ hồi cấp 3. Thể trạng của tôi ko được tốt vì hay ốm vặt. Nó không nghe lời tôi. Tôi rất...",
      "image": null,
      "label": null,
      "display": "text-only",
      "type": "text",
      "enable_detail": true,
      "related": {
        "url": "https://truyenx.link/truyensextv/channels/related/100",
        "request_headers": []
      },
      "share": {
        "url": "https://truyenx.link/truyensextv/channels/share/anh-chang-yeu-sinh-ly"
      },
      "remote_data": {
        "url": "https://truyenx.link/truyensextv/channels/anh-chang-yeu-sinh-ly"
      }
    },
    {
      "id": "99-channel",
      "name": "Hướng dẫn làm tình bằng miệng",
      "description": "Hướng dẫn cơ bản về cách làm tình bằng miệng : • “Mềm mỏng” luôn là cách tốt nhất để mở màn nếu như bạn chưa biết sở thích của nàng là gì. “Mềm...",
      "image": null,
      "label": null,
      "display": "text-only",
      "type": "text",
      "enable_detail": true,
      "related": {
        "url": "https://truyenx.link/truyensextv/channels/related/99",
        "request_headers": []
      },
      "share": {
        "url": "https://truyenx.link/truyensextv/channels/share/huong-dan-lam-tinh-bang-mieng"
      },
      "remote_data": {
        "url": "https://truyenx.link/truyensextv/channels/huong-dan-lam-tinh-bang-mieng"
      }
    },
    {
      "id": "98-channel",
      "name": "Cô giáo Quỳnh Thư",
      "description": "Ê! Thằng kia đọc truyện gì mà say sưa dữ vậy mày? Tôi hỏi thằng Tuấn, thằng lớp phó học tập cũng là thằng bạn thân nhất của tôi. Ê mày ...đừng la lớn nha ... để cho tao...",
      "image": null,
      "label": null,
      "display": "text-only",
      "type": "text",
      "enable_detail": true,
      "related": {
        "url": "https://truyenx.link/truyensextv/channels/related/98",
        "request_headers": []
      },
      "share": {
        "url": "https://truyenx.link/truyensextv/channels/share/co-giao-quynh-thu"
      },
      "remote_data": {
        "url": "https://truyenx.link/truyensextv/channels/co-giao-quynh-thu"
      }
    },
    {
      "id": "97-channel",
      "name": "Mặn nồng đêm mưa",
      "description": "Tôi quen em trong một dịp tình cờ, lúc đó tôi đang đang trú mưa dưới mái hiên của một kho hàng cũ. Em đi học về thì trời mưa, tìm mãi mới tới được chỗ trú là nơi mà tôi đang...",
      "image": null,
      "label": null,
      "display": "text-only",
      "type": "text",
      "enable_detail": true,
      "related": {
        "url": "https://truyenx.link/truyensextv/channels/related/97",
        "request_headers": []
      },
      "share": {
        "url": "https://truyenx.link/truyensextv/channels/share/man-nong-dem-mua"
      },
      "remote_data": {
        "url": "https://truyenx.link/truyensextv/channels/man-nong-dem-mua"
      }
    },
    {
      "id": "96-channel",
      "name": "Người anh chồng",
      "description": "Anh chồng tôi Dũng, vừa dọn vào ở chung với vợ chồng tôi mấy tháng nay. Lúc đầu tôi không đồng ý nhưng chồng tôi cứ thuyết phục hoài. Anh em họ thân nhau lắm, tôi nghĩ cũng...",
      "image": null,
      "label": null,
      "display": "text-only",
      "type": "text",
      "enable_detail": true,
      "related": {
        "url": "https://truyenx.link/truyensextv/channels/related/96",
        "request_headers": []
      },
      "share": {
        "url": "https://truyenx.link/truyensextv/channels/share/nguoi-anh-chong"
      },
      "remote_data": {
        "url": "https://truyenx.link/truyensextv/channels/nguoi-anh-chong"
      }
    },
    {
      "id": "95-channel",
      "name": "Em Huyền Teakwondo",
      "description": "Tôi tên Đức, chuyện tôi kể là hồi tôi là sinh viên năm 2 trường Đại học Thể dục thể thao Hà Tây. Tôi đang nằm ngủ nướng ở phòng thì bà chị điện cho tôi bảo ra bà nhờ tý...",
      "image": null,
      "label": null,
      "display": "text-only",
      "type": "text",
      "enable_detail": true,
      "related": {
        "url": "https://truyenx.link/truyensextv/channels/related/95",
        "request_headers": []
      },
      "share": {
        "url": "https://truyenx.link/truyensextv/channels/share/em-huyen-teakwondo"
      },
      "remote_data": {
        "url": "https://truyenx.link/truyensextv/channels/em-huyen-teakwondo"
      }
    },
    {
      "id": "94-channel",
      "name": "Đụ má của bạn",
      "description": "Tuấn xin ba mẹ cho thằng Nam, bạn nó, cùng đi nghỉ hè với mình. Mùa hè nắm nay ba mẹ nó nghĩ hè tại vùng biển ở miền nam nước Mỹ. Bà Nga, mẹ Tuấn vui vẻ nhận lời, vì Nam cũng...",
      "image": null,
      "label": null,
      "display": "text-only",
      "type": "text",
      "enable_detail": true,
      "related": {
        "url": "https://truyenx.link/truyensextv/channels/related/94",
        "request_headers": []
      },
      "share": {
        "url": "https://truyenx.link/truyensextv/channels/share/du-ma-cua-ban"
      },
      "remote_data": {
        "url": "https://truyenx.link/truyensextv/channels/du-ma-cua-ban"
      }
    },
    {
      "id": "93-channel",
      "name": "Chú Kim",
      "description": "Là con một gia đình khá giả, cũng là một nữ sinh được nhiều bạn nam trong trường chú ý? Tuy có nhiều ưu điểm về ngoại hình nhưng tôi vẫn còn nhiều đòi hỏi về chuyện khác...",
      "image": null,
      "label": null,
      "display": "text-only",
      "type": "text",
      "enable_detail": true,
      "related": {
        "url": "https://truyenx.link/truyensextv/channels/related/93",
        "request_headers": []
      },
      "share": {
        "url": "https://truyenx.link/truyensextv/channels/share/chu-kim"
      },
      "remote_data": {
        "url": "https://truyenx.link/truyensextv/channels/chu-kim"
      }
    },
    {
      "id": "92-channel",
      "name": "Về quê vợ",
      "description": "Mới cưới vợ được hai tháng, cảm xúc trong người còn lâng lâng khó tả. Vợ tôi là Mỹ Dung, một đầu bếp khá là của một nhà hàng có tiếng. Tôi là một trưởng phòng nhân sự...",
      "image": null,
      "label": null,
      "display": "text-only",
      "type": "text",
      "enable_detail": true,
      "related": {
        "url": "https://truyenx.link/truyensextv/channels/related/92",
        "request_headers": []
      },
      "share": {
        "url": "https://truyenx.link/truyensextv/channels/share/ve-que-vo"
      },
      "remote_data": {
        "url": "https://truyenx.link/truyensextv/channels/ve-que-vo"
      }
    },
    {
      "id": "91-channel",
      "name": "Đêm xuân tại Đà Lạt",
      "description": "Chiếc xe lao trong đêm ở vùng cao nguyên núi đồi thơ mộng. Trên xe Lợi một mình lặng lẽ lái trong lúc Trâm ngồi ngủ gà ngủ gật ở chiếc ghế kế bên, hai chân cô bé hớ hênh dạng...",
      "image": null,
      "label": null,
      "display": "text-only",
      "type": "text",
      "enable_detail": true,
      "related": {
        "url": "https://truyenx.link/truyensextv/channels/related/91",
        "request_headers": []
      },
      "share": {
        "url": "https://truyenx.link/truyensextv/channels/share/dem-xuan-tai-da-lat"
      },
      "remote_data": {
        "url": "https://truyenx.link/truyensextv/channels/dem-xuan-tai-da-lat"
      }
    },
    {
      "id": "90-channel",
      "name": "Bữa tiệc tình dục",
      "description": "“Tối nay mình đi chơi nhé em?” Nam gợi ý với vợ mình, Vân. “Nếu anh muốn,” Vân đồng ý. “Anh có ý hoặc nơi nào đặt biệt không?” “Ah, có,” Nam...",
      "image": null,
      "label": null,
      "display": "text-only",
      "type": "text",
      "enable_detail": true,
      "related": {
        "url": "https://truyenx.link/truyensextv/channels/related/90",
        "request_headers": []
      },
      "share": {
        "url": "https://truyenx.link/truyensextv/channels/share/bua-tiec-tinh-duc"
      },
      "remote_data": {
        "url": "https://truyenx.link/truyensextv/channels/bua-tiec-tinh-duc"
      }
    },
    {
      "id": "89-channel",
      "name": "Phá trinh cô bạn gái",
      "description": "Đã bao lần đi chơi, bao lần ngủ qua đêm với nhau mà em vẫn chỉ cho tôi sờ soạng bên ngoài, cậu em trong mình tức lắm mà không thể làm gì hơn được. Tôi muốn em tự nguyện dâng...",
      "image": null,
      "label": null,
      "display": "text-only",
      "type": "text",
      "enable_detail": true,
      "related": {
        "url": "https://truyenx.link/truyensextv/channels/related/89",
        "request_headers": []
      },
      "share": {
        "url": "https://truyenx.link/truyensextv/channels/share/pha-trinh-co-ban-gai"
      },
      "remote_data": {
        "url": "https://truyenx.link/truyensextv/channels/pha-trinh-co-ban-gai"
      }
    },
    {
      "id": "88-channel",
      "name": "Tâm sự về ngoại tình",
      "description": "Chị Quỳnh, tôi phải kể cho chị nghe một câu chuyện sau đây. Nếu không tìm được người tin tưởng như chị để giải toả, để trút được bầu tâm sự mà tôi đã cưu mang từ hơn...",
      "image": null,
      "label": null,
      "display": "text-only",
      "type": "text",
      "enable_detail": true,
      "related": {
        "url": "https://truyenx.link/truyensextv/channels/related/88",
        "request_headers": []
      },
      "share": {
        "url": "https://truyenx.link/truyensextv/channels/share/tam-su-ve-ngoai-tinh"
      },
      "remote_data": {
        "url": "https://truyenx.link/truyensextv/channels/tam-su-ve-ngoai-tinh"
      }
    },
    {
      "id": "87-channel",
      "name": "Rung động đầu đời",
      "description": "Năm đó tôi học lớp bảy, cái tuổi ma cách đây mười mấy năm những thằng con trai vẫn chưa biết gì về phụ nữ. Thời đó, Việt Nam mới vừa xóa bỏ bao cấp, nhà tôi ở quận 3. Ba...",
      "image": null,
      "label": null,
      "display": "text-only",
      "type": "text",
      "enable_detail": true,
      "related": {
        "url": "https://truyenx.link/truyensextv/channels/related/87",
        "request_headers": []
      },
      "share": {
        "url": "https://truyenx.link/truyensextv/channels/share/rung-dong-dau-doi"
      },
      "remote_data": {
        "url": "https://truyenx.link/truyensextv/channels/rung-dong-dau-doi"
      }
    },
    {
      "id": "86-channel",
      "name": "Đụ cô gia sư",
      "description": "Năm tôi chuẩn bị lên lớp 9 thì ba mẹ tôi thuê cho tôi một cô gia sư để đến kèm tôi học bài vì đây là năm học quan trọng. Chúng tôi chuẩn bị thi tốt nghiệp và thi vào PTTH. Đó...",
      "image": null,
      "label": null,
      "display": "text-only",
      "type": "text",
      "enable_detail": true,
      "related": {
        "url": "https://truyenx.link/truyensextv/channels/related/86",
        "request_headers": []
      },
      "share": {
        "url": "https://truyenx.link/truyensextv/channels/share/du-co-gia-su"
      },
      "remote_data": {
        "url": "https://truyenx.link/truyensextv/channels/du-co-gia-su"
      }
    },
    {
      "id": "85-channel",
      "name": "Em Huyền và bọn đầu gấu",
      "description": "Huyền năm nay mới 16 tuổi, nàng có cặp mắt to trong veo như nước. Hai hàng lông mi dài lúc nào cũng xụp xuống. Khuôn mặt tròn bồ câu, dáng nguời thon thon mãnh khãnh với làn da thật...",
      "image": null,
      "label": null,
      "display": "text-only",
      "type": "text",
      "enable_detail": true,
      "related": {
        "url": "https://truyenx.link/truyensextv/channels/related/85",
        "request_headers": []
      },
      "share": {
        "url": "https://truyenx.link/truyensextv/channels/share/em-huyen-va-bon-dau-gau"
      },
      "remote_data": {
        "url": "https://truyenx.link/truyensextv/channels/em-huyen-va-bon-dau-gau"
      }
    },
    {
      "id": "84-channel",
      "name": "Đụ vợ và con của đối tác",
      "description": "Tôi vừa về Việt Nam công tác, một chuyến đi thật đáng ghi nhớ, coi như là lần đầu mà tôi vừa vui vừa sướng. Vui vì việc hãng tôi xong trước thời hạn, sướng vì tôi được...",
      "image": null,
      "label": null,
      "display": "text-only",
      "type": "text",
      "enable_detail": true,
      "related": {
        "url": "https://truyenx.link/truyensextv/channels/related/84",
        "request_headers": []
      },
      "share": {
        "url": "https://truyenx.link/truyensextv/channels/share/du-vo-va-con-cua-doi-tac"
      },
      "remote_data": {
        "url": "https://truyenx.link/truyensextv/channels/du-vo-va-con-cua-doi-tac"
      }
    },
    {
      "id": "83-channel",
      "name": "Sờ lồn trên máy bay",
      "description": "Ra trường trung học, Trường được cha mẹ cho về nước chơi một tháng. Sau một tháng hắn hưởng đủ mọi ưu đãi của bà con, nhất là những người bà con cùng tuổi dẫn đi chơi...",
      "image": null,
      "label": null,
      "display": "text-only",
      "type": "text",
      "enable_detail": true,
      "related": {
        "url": "https://truyenx.link/truyensextv/channels/related/83",
        "request_headers": []
      },
      "share": {
        "url": "https://truyenx.link/truyensextv/channels/share/so-lon-tren-may-bay"
      },
      "remote_data": {
        "url": "https://truyenx.link/truyensextv/channels/so-lon-tren-may-bay"
      }
    },
    {
      "id": "82-channel",
      "name": "Trao đổi vợ chồng với hàng xóm",
      "description": "Nửa đêm đang ngủ ngon giấc, Vân giật mình, vì có bàn tay nào sờ vào chân mình. Cảm giác kinh hãi len nhanh vào trong trí óc, mơ hồ, khuấy động. Bàn tay xoa xoa nhè nhẹ trên bắp đùi...",
      "image": null,
      "label": null,
      "display": "text-only",
      "type": "text",
      "enable_detail": true,
      "related": {
        "url": "https://truyenx.link/truyensextv/channels/related/82",
        "request_headers": []
      },
      "share": {
        "url": "https://truyenx.link/truyensextv/channels/share/trao-doi-vo-chong-voi-hang-xom"
      },
      "remote_data": {
        "url": "https://truyenx.link/truyensextv/channels/trao-doi-vo-chong-voi-hang-xom"
      }
    },
    {
      "id": "81-channel",
      "name": "Thằng bé thích lái máy bay",
      "description": "Một buổi sáng đầu hè, thằng nhóc bật dậy với sinh lực tràn đầy. Nó đã 16 tuổi đang học cấp 3, một thằng nhóc ngoan và được mọi người kỳ vọng rất nhiều. Còn một năm...",
      "image": null,
      "label": null,
      "display": "text-only",
      "type": "text",
      "enable_detail": true,
      "related": {
        "url": "https://truyenx.link/truyensextv/channels/related/81",
        "request_headers": []
      },
      "share": {
        "url": "https://truyenx.link/truyensextv/channels/share/thang-be-thich-lai-may-bay"
      },
      "remote_data": {
        "url": "https://truyenx.link/truyensextv/channels/thang-be-thich-lai-may-bay"
      }
    },
    {
      "id": "80-channel",
      "name": "Con lai",
      "description": "Ông Lâm, bố của Tuấn, cách đây hai mươi hai năm về trước, tuy đã có đến năm mặt con nhưng do tính đào hoa léng phéng nên trong một chuyến về chơi tại xã Phước Lý, Huyện Long...",
      "image": null,
      "label": null,
      "display": "text-only",
      "type": "text",
      "enable_detail": true,
      "related": {
        "url": "https://truyenx.link/truyensextv/channels/related/80",
        "request_headers": []
      },
      "share": {
        "url": "https://truyenx.link/truyensextv/channels/share/con-lai"
      },
      "remote_data": {
        "url": "https://truyenx.link/truyensextv/channels/con-lai"
      }
    },
    {
      "id": "79-channel",
      "name": "Em Thùy Linh 15 tuổi",
      "description": "10. Trường và lớp Linh đang học đều rất tự hào về cô học trò nhỏ của mình. Bố mẹ cô bé cũng rất tự hào với hàng xóm khi có được cô con gái xinh xắn giỏi giang. Linh xinh...",
      "image": null,
      "label": null,
      "display": "text-only",
      "type": "text",
      "enable_detail": true,
      "related": {
        "url": "https://truyenx.link/truyensextv/channels/related/79",
        "request_headers": []
      },
      "share": {
        "url": "https://truyenx.link/truyensextv/channels/share/em-thuy-linh-15-tuoi"
      },
      "remote_data": {
        "url": "https://truyenx.link/truyensextv/channels/em-thuy-linh-15-tuoi"
      }
    }
  ],
  "load_more": {
    "pageInfo": {
      "current_page": 137,
      "last_page": 140,
      "per_page": 30,
      "total": 4188
    },
    "paging": {
      "page_key": "page",
      "size_key": "size"
    },
    "remote_data": {
      "url": "https://truyenx.link/truyensextv/channels"
    }
  }
}