{
  "grid_number": 1,
  "channels": [
    {
      "id": "1548-channel",
      "name": "Sắc màu cuộc sống",
      "description": "Tôi và đám bạn chia tay nhau để mỗi đứa bước riêng trên con đường riêng mình đã chọn. Đứa thì Nam tiến kiếm cơm sinh nhai, đứa thì quyết chí đi xuất khẩu lao động để...",
      "image": null,
      "label": null,
      "display": "text-only",
      "type": "text",
      "enable_detail": true,
      "related": {
        "url": "https://truyenx.link/truyensextv/channels/related/1548",
        "request_headers": []
      },
      "share": {
        "url": "https://truyenx.link/truyensextv/channels/share/sac-mau-cuoc-song"
      },
      "remote_data": {
        "url": "https://truyenx.link/truyensextv/channels/sac-mau-cuoc-song"
      }
    },
    {
      "id": "1547-channel",
      "name": "Bạn chịch của tôi là Nhi và Quỳnh",
      "description": "Nhi và Quỳnh là bạn học của tôi năm lớp 12. Nói chung thì 1 đứa nó rất dâm nó kể với tôi rằng 2 nó mất trinh khi mới lớp 7 được 1 thằng lớp 8 mà đụ mất trinh. Nhi thì có...",
      "image": null,
      "label": null,
      "display": "text-only",
      "type": "text",
      "enable_detail": true,
      "related": {
        "url": "https://truyenx.link/truyensextv/channels/related/1547",
        "request_headers": []
      },
      "share": {
        "url": "https://truyenx.link/truyensextv/channels/share/ban-chich-cua-toi-la-nhi-va-quynh"
      },
      "remote_data": {
        "url": "https://truyenx.link/truyensextv/channels/ban-chich-cua-toi-la-nhi-va-quynh"
      }
    },
    {
      "id": "1546-channel",
      "name": "Dâm loạn cùng chị họ",
      "description": "Trước tiên tôi xin giới thiệu ngắn gọn. Tôi tên là Phong 16t. Chị họ tôi tên Tuyền, 17t. Mùa hè tôi thường được lên SG chơi với cô, cô có 2 người con, 1 anh trai và 1 em gái. Chiều...",
      "image": null,
      "label": null,
      "display": "text-only",
      "type": "text",
      "enable_detail": true,
      "related": {
        "url": "https://truyenx.link/truyensextv/channels/related/1546",
        "request_headers": []
      },
      "share": {
        "url": "https://truyenx.link/truyensextv/channels/share/dam-loan-cung-chi-ho"
      },
      "remote_data": {
        "url": "https://truyenx.link/truyensextv/channels/dam-loan-cung-chi-ho"
      }
    },
    {
      "id": "1545-channel",
      "name": "Hằng và bạn Trang",
      "description": "Tác giả: Dream Tôi tên Hằng 23 tuổi là sinh viên đang theo học ở thành phố cùng ở trọ chung với nhỏ bạn tên Trang. Tôi học bên ngành sư phạm bên dạy cấp 3 còn Trang thì củng ngành...",
      "image": null,
      "label": null,
      "display": "text-only",
      "type": "text",
      "enable_detail": true,
      "related": {
        "url": "https://truyenx.link/truyensextv/channels/related/1545",
        "request_headers": []
      },
      "share": {
        "url": "https://truyenx.link/truyensextv/channels/share/hang-va-ban-trang"
      },
      "remote_data": {
        "url": "https://truyenx.link/truyensextv/channels/hang-va-ban-trang"
      }
    },
    {
      "id": "1544-channel",
      "name": "Vợ là nô lệ tình dục cho thằng khác",
      "description": "Cả hai vợ chồng tôi cùng là nhân viên của 1 công ty và được qua Nhật Bản để học hỏi thêm kinh nghiệm, tôi đã về phục vụ cho công ty được 1 năm và hôm nay là ngày nàng về...",
      "image": null,
      "label": null,
      "display": "text-only",
      "type": "text",
      "enable_detail": true,
      "related": {
        "url": "https://truyenx.link/truyensextv/channels/related/1544",
        "request_headers": []
      },
      "share": {
        "url": "https://truyenx.link/truyensextv/channels/share/vo-la-no-le-tinh-duc-cho-thang-khac"
      },
      "remote_data": {
        "url": "https://truyenx.link/truyensextv/channels/vo-la-no-le-tinh-duc-cho-thang-khac"
      }
    },
    {
      "id": "1543-channel",
      "name": "Đụ đéo ngoại tình",
      "description": "Cả tỉnh đều háo hức đi xem đám cưới con trai ông bà Tỉnh Trưởng Nguyễn Bá Hảo cưới con gái thương hào Trần Gia Thành. Hai gia đình đều tiếng tăm. Cả mấy năm về trước thiên...",
      "image": null,
      "label": null,
      "display": "text-only",
      "type": "text",
      "enable_detail": true,
      "related": {
        "url": "https://truyenx.link/truyensextv/channels/related/1543",
        "request_headers": []
      },
      "share": {
        "url": "https://truyenx.link/truyensextv/channels/share/du-deo-ngoai-tinh"
      },
      "remote_data": {
        "url": "https://truyenx.link/truyensextv/channels/du-deo-ngoai-tinh"
      }
    },
    {
      "id": "1542-channel",
      "name": "Hạnh phúc của kẻ cô đơn",
      "description": "Tôi tên là Đỗ, và biệt danh của tôi là duy nhất. Năm nay tôi vừa bước qua tuổi 40, và vẫn còn một khoảng cách so với tuổi 50. Dù sao đi nữa thì tôi cũng trải qua hơn nữa đời...",
      "image": null,
      "label": null,
      "display": "text-only",
      "type": "text",
      "enable_detail": true,
      "related": {
        "url": "https://truyenx.link/truyensextv/channels/related/1542",
        "request_headers": []
      },
      "share": {
        "url": "https://truyenx.link/truyensextv/channels/share/hanh-phuc-cua-ke-co-don"
      },
      "remote_data": {
        "url": "https://truyenx.link/truyensextv/channels/hanh-phuc-cua-ke-co-don"
      }
    },
    {
      "id": "1541-channel",
      "name": "Một lần với chị vợ",
      "description": "Buổi tối tầm 7h tôi ghé nhà chị vợ để lấy đồ cho vợ tôi. Do nhà ở vùng quê nên cửa thường không đóng vì luôn có người trong nhà. Đến trước nhà đậu xe trong sân, nhìn đi...",
      "image": null,
      "label": null,
      "display": "text-only",
      "type": "text",
      "enable_detail": true,
      "related": {
        "url": "https://truyenx.link/truyensextv/channels/related/1541",
        "request_headers": []
      },
      "share": {
        "url": "https://truyenx.link/truyensextv/channels/share/mot-lan-voi-chi-vo"
      },
      "remote_data": {
        "url": "https://truyenx.link/truyensextv/channels/mot-lan-voi-chi-vo"
      }
    },
    {
      "id": "1540-channel",
      "name": "Liên và động vật",
      "description": "Liên là một mẫu người phụ nữ thành công trong cuộc sống, năm nay nàng đã ngoài 30 nhưng dung nhan vẫn còn mặn mòi, có lẽ do khó tính quá cho nên những người đàn ông đến với...",
      "image": null,
      "label": null,
      "display": "text-only",
      "type": "text",
      "enable_detail": true,
      "related": {
        "url": "https://truyenx.link/truyensextv/channels/related/1540",
        "request_headers": []
      },
      "share": {
        "url": "https://truyenx.link/truyensextv/channels/share/lien-va-dong-vat"
      },
      "remote_data": {
        "url": "https://truyenx.link/truyensextv/channels/lien-va-dong-vat"
      }
    },
    {
      "id": "1539-channel",
      "name": "Ngọc và bố chồng",
      "description": "Ngọc là một cô gái xinh đẹp, cái nét đẹp mặn mà đằm thắm của cô gái miền Dũng, với khuôn mặt xinh đẹp, làn da trắng mịn màng, mái tóc đen nhánh dài ngang vai, thân hình nóng...",
      "image": null,
      "label": null,
      "display": "text-only",
      "type": "text",
      "enable_detail": true,
      "related": {
        "url": "https://truyenx.link/truyensextv/channels/related/1539",
        "request_headers": []
      },
      "share": {
        "url": "https://truyenx.link/truyensextv/channels/share/ngoc-va-bo-chong"
      },
      "remote_data": {
        "url": "https://truyenx.link/truyensextv/channels/ngoc-va-bo-chong"
      }
    },
    {
      "id": "1538-channel",
      "name": "Chịch em hàng xóm cạnh nhà tôi",
      "description": "Câu chuyện sau đây tôi muốn kể là chuyện thật đời tôi. Tôi sinh ra và lớn lên tại ngoại ô của thành phố, chuyên ngành của tôi là Bác sĩ thú y, bố mẹ và tôi là công chức nhà...",
      "image": null,
      "label": null,
      "display": "text-only",
      "type": "text",
      "enable_detail": true,
      "related": {
        "url": "https://truyenx.link/truyensextv/channels/related/1538",
        "request_headers": []
      },
      "share": {
        "url": "https://truyenx.link/truyensextv/channels/share/chich-em-hang-xom-canh-nha-toi"
      },
      "remote_data": {
        "url": "https://truyenx.link/truyensextv/channels/chich-em-hang-xom-canh-nha-toi"
      }
    },
    {
      "id": "1537-channel",
      "name": "Hai người biết còn một người không biết",
      "description": "Nàng dạng háng thật rộng và hân hoan đón nhận con cặc to tròn của ông từ từ chui vào bên trong cái lồn đang thiếu thốn của mình. Đã lâu, cái phần thiếu thốn đàn bà không...",
      "image": null,
      "label": null,
      "display": "text-only",
      "type": "text",
      "enable_detail": true,
      "related": {
        "url": "https://truyenx.link/truyensextv/channels/related/1537",
        "request_headers": []
      },
      "share": {
        "url": "https://truyenx.link/truyensextv/channels/share/hai-nguoi-biet-con-mot-nguoi-khong-biet"
      },
      "remote_data": {
        "url": "https://truyenx.link/truyensextv/channels/hai-nguoi-biet-con-mot-nguoi-khong-biet"
      }
    },
    {
      "id": "1536-channel",
      "name": "Tình yêu hay Tội lỗi",
      "description": "Tác giả: KesiTinh Mẹ ơi... dậy. Tôi gõ cửa phòng mẹ nói. Một lúc vẫn chưa thấy mẹ trả lời tôi mở cửa thò đầu vào: Mẹ ơi dậy nấu... Hình ảnh mẹ ngủ làm miệng tôi ngậm...",
      "image": null,
      "label": null,
      "display": "text-only",
      "type": "text",
      "enable_detail": true,
      "related": {
        "url": "https://truyenx.link/truyensextv/channels/related/1536",
        "request_headers": []
      },
      "share": {
        "url": "https://truyenx.link/truyensextv/channels/share/tinh-yeu-hay-toi-loi"
      },
      "remote_data": {
        "url": "https://truyenx.link/truyensextv/channels/tinh-yeu-hay-toi-loi"
      }
    },
    {
      "id": "1535-channel",
      "name": "Hạnh phúc đã an bài",
      "description": "Cuối cùng rồi tôi cũng đành khuất phục số phận và chìm đắm trong vũng lầy tình dục cùng với người cha chồng. Kể từ khi chồng tôi bị tai nạn đến nay cũng đã gần một năm...",
      "image": null,
      "label": null,
      "display": "text-only",
      "type": "text",
      "enable_detail": true,
      "related": {
        "url": "https://truyenx.link/truyensextv/channels/related/1535",
        "request_headers": []
      },
      "share": {
        "url": "https://truyenx.link/truyensextv/channels/share/hanh-phuc-da-an-bai"
      },
      "remote_data": {
        "url": "https://truyenx.link/truyensextv/channels/hanh-phuc-da-an-bai"
      }
    },
    {
      "id": "1534-channel",
      "name": "Tiệm hớt tóc sung sướng",
      "description": "Mới đầu mùa nóng mà thời tiết đã oi bức tới mức không thể nào chịu nổi, nhiệt độ vượt quá cái ngưỡng bốn chục độ C khiến cho ai cũng cảm thấy rất khó chịu. El Nino như...",
      "image": null,
      "label": null,
      "display": "text-only",
      "type": "text",
      "enable_detail": true,
      "related": {
        "url": "https://truyenx.link/truyensextv/channels/related/1534",
        "request_headers": []
      },
      "share": {
        "url": "https://truyenx.link/truyensextv/channels/share/tiem-hot-toc-sung-suong"
      },
      "remote_data": {
        "url": "https://truyenx.link/truyensextv/channels/tiem-hot-toc-sung-suong"
      }
    },
    {
      "id": "1533-channel",
      "name": "Hệ thống Livestream",
      "description": "Chạng vạng hôm nay, mây đen phủ kín bầu trời, gió lớn thổi lay động cây cối, từng tia chớp giống như lưỡi kiếm bổ vào thân cây, trên trời cao vang lên tiếng sấm kinh thiên...",
      "image": null,
      "label": null,
      "display": "text-only",
      "type": "text",
      "enable_detail": true,
      "related": {
        "url": "https://truyenx.link/truyensextv/channels/related/1533",
        "request_headers": []
      },
      "share": {
        "url": "https://truyenx.link/truyensextv/channels/share/he-thong-livestream"
      },
      "remote_data": {
        "url": "https://truyenx.link/truyensextv/channels/he-thong-livestream"
      }
    },
    {
      "id": "1532-channel",
      "name": "Cho sếp của chồng đụ",
      "description": "Rốt cục nghe được tiếng mở cửa, nhàm chán suốt một ngày nên Hà Anh lập tức hưng phấn chạy ra đón chồng, “Anh yêu của em, anh đã về rồi.” Chồng cô cười rồi ừ...",
      "image": null,
      "label": null,
      "display": "text-only",
      "type": "text",
      "enable_detail": true,
      "related": {
        "url": "https://truyenx.link/truyensextv/channels/related/1532",
        "request_headers": []
      },
      "share": {
        "url": "https://truyenx.link/truyensextv/channels/share/cho-sep-cua-chong-du"
      },
      "remote_data": {
        "url": "https://truyenx.link/truyensextv/channels/cho-sep-cua-chong-du"
      }
    },
    {
      "id": "1531-channel",
      "name": "Hòn đảo bão tố",
      "description": "“Chết tiệt, Philip, đừng quá ích kỷ. Con có kỳ nghĩ đến ba tháng ở trường, quá dễ dàng cho con sắp xếp được ba tuần chứ? Con thừa biết là cha không thể đi cùng mẹ...",
      "image": null,
      "label": null,
      "display": "text-only",
      "type": "text",
      "enable_detail": true,
      "related": {
        "url": "https://truyenx.link/truyensextv/channels/related/1531",
        "request_headers": []
      },
      "share": {
        "url": "https://truyenx.link/truyensextv/channels/share/hon-dao-bao-to"
      },
      "remote_data": {
        "url": "https://truyenx.link/truyensextv/channels/hon-dao-bao-to"
      }
    },
    {
      "id": "1530-channel",
      "name": "Bạn mới quen",
      "description": "Năm nay tôi đang học ĐH năm nhất ở Hà Nội, tôi xin kể cho mọi người nghe về 1 thời cấp ba của tôi. Năm lớp 11, tôi hơi có máu dâm dục một tí, tôi cũng thường lên truyensextv2.cc...",
      "image": null,
      "label": null,
      "display": "text-only",
      "type": "text",
      "enable_detail": true,
      "related": {
        "url": "https://truyenx.link/truyensextv/channels/related/1530",
        "request_headers": []
      },
      "share": {
        "url": "https://truyenx.link/truyensextv/channels/share/ban-moi-quen"
      },
      "remote_data": {
        "url": "https://truyenx.link/truyensextv/channels/ban-moi-quen"
      }
    },
    {
      "id": "1529-channel",
      "name": "Vợ tôi cho sếp đụ",
      "description": "Tôi tên là Bắc năm nay 27 tuổi vợ tôi tên Ngân kém tôi 2 tuổi, hơn 1 năm trước tôi gặp cô ấy lần đầu tiên tại shop bán giày dép khi đó tôi đã bị hút hồn bởi 1 cô nhân viên...",
      "image": null,
      "label": null,
      "display": "text-only",
      "type": "text",
      "enable_detail": true,
      "related": {
        "url": "https://truyenx.link/truyensextv/channels/related/1529",
        "request_headers": []
      },
      "share": {
        "url": "https://truyenx.link/truyensextv/channels/share/vo-toi-cho-sep-du"
      },
      "remote_data": {
        "url": "https://truyenx.link/truyensextv/channels/vo-toi-cho-sep-du"
      }
    },
    {
      "id": "1528-channel",
      "name": "Thác loạn",
      "description": "Là một công tử sống trong nhung lụa giàu sang. Tôi thấy mình thật hạnh phúc. Tuy nhiên lắm lúc cũng cảm thấy buồn chán vì chẳng có gì hay ho ở cuộc sống này cả. Suốt ngày chỉ...",
      "image": null,
      "label": null,
      "display": "text-only",
      "type": "text",
      "enable_detail": true,
      "related": {
        "url": "https://truyenx.link/truyensextv/channels/related/1528",
        "request_headers": []
      },
      "share": {
        "url": "https://truyenx.link/truyensextv/channels/share/thac-loan"
      },
      "remote_data": {
        "url": "https://truyenx.link/truyensextv/channels/thac-loan"
      }
    },
    {
      "id": "1527-channel",
      "name": "Con rể tương lai",
      "description": "Tôi 45 tuổi hoạt động trong lĩnh vực kinh doanh, Huyền Thu vợ tôi 38 tuổi từng là trưởng phòng kế toán thuộc diện biên chế nhà nước nhưng nay đã nghỉ hẳn để toàn tâm chăm lo...",
      "image": null,
      "label": null,
      "display": "text-only",
      "type": "text",
      "enable_detail": true,
      "related": {
        "url": "https://truyenx.link/truyensextv/channels/related/1527",
        "request_headers": []
      },
      "share": {
        "url": "https://truyenx.link/truyensextv/channels/share/con-re-tuong-lai"
      },
      "remote_data": {
        "url": "https://truyenx.link/truyensextv/channels/con-re-tuong-lai"
      }
    },
    {
      "id": "1526-channel",
      "name": "Chinh phục gái đẹp - Chương 6",
      "description": "Đinh Nhị Cẩu hôm nay đi làm thì bất ngờ nhận được tin tức Lý Pháp Thụy bị bệnh, và đang ở nhà dưỡng bệnh, cho nên có khả năng mấy ngày sắp tới không đến trong cục công...",
      "image": null,
      "label": null,
      "display": "text-only",
      "type": "text",
      "enable_detail": true,
      "related": {
        "url": "https://truyenx.link/truyensextv/channels/related/1526",
        "request_headers": []
      },
      "share": {
        "url": "https://truyenx.link/truyensextv/channels/share/chinh-phuc-gai-dep-chuong-6"
      },
      "remote_data": {
        "url": "https://truyenx.link/truyensextv/channels/chinh-phuc-gai-dep-chuong-6"
      }
    },
    {
      "id": "1525-channel",
      "name": "Cô giáo Phương - Quyển 2",
      "description": "Lại một mùa hè nữa tiếp tục lặng lẽ trôi qua trên Miệt Thứ. Những cơn mưa rào bất chợt đến, chợt đi khiến hàng phượng buồn rũ lá. Mùa hè thứ hai của Phương ở Miệt Thứ...",
      "image": null,
      "label": null,
      "display": "text-only",
      "type": "text",
      "enable_detail": true,
      "related": {
        "url": "https://truyenx.link/truyensextv/channels/related/1525",
        "request_headers": []
      },
      "share": {
        "url": "https://truyenx.link/truyensextv/channels/share/co-giao-phuong-quyen-2"
      },
      "remote_data": {
        "url": "https://truyenx.link/truyensextv/channels/co-giao-phuong-quyen-2"
      }
    },
    {
      "id": "1524-channel",
      "name": "Chị em song sinh",
      "description": "Ba má tôi sinh được hai người con. Tôi và chị Hà. Chúng tôi sinh đôi nên giống nhau vô cùng, duy chỉ có cái khác biệt là tôi là con trai và chị Hà là con gái mà thôi. Hai chị em tôi...",
      "image": null,
      "label": null,
      "display": "text-only",
      "type": "text",
      "enable_detail": true,
      "related": {
        "url": "https://truyenx.link/truyensextv/channels/related/1524",
        "request_headers": []
      },
      "share": {
        "url": "https://truyenx.link/truyensextv/channels/share/chi-em-song-sinh"
      },
      "remote_data": {
        "url": "https://truyenx.link/truyensextv/channels/chi-em-song-sinh"
      }
    },
    {
      "id": "1523-channel",
      "name": "Vợ và những người thợ",
      "description": "Hân hoan chuyển đến ngôi nhà vừa mới mua, Quỳnh Hoa vợ tôi vui vẻ dẫn 2 người thợ lên phòng ngủ ở lầu trên để lắp ráp lại cái tủ quần áo vừa mua về, còn tôi phải ở...",
      "image": null,
      "label": null,
      "display": "text-only",
      "type": "text",
      "enable_detail": true,
      "related": {
        "url": "https://truyenx.link/truyensextv/channels/related/1523",
        "request_headers": []
      },
      "share": {
        "url": "https://truyenx.link/truyensextv/channels/share/vo-va-nhung-nguoi-tho"
      },
      "remote_data": {
        "url": "https://truyenx.link/truyensextv/channels/vo-va-nhung-nguoi-tho"
      }
    },
    {
      "id": "1522-channel",
      "name": "Đổi vợ",
      "description": "Thắng nghĩ không có gì thích thú bằng nhìn một người đàn ông khác làm tình với vợ mình. Chàng muốn thấy con cặc lạ thụt vào, kéo ra trong lồn vợ chàng, và nàng hất mông lên khi...",
      "image": null,
      "label": null,
      "display": "text-only",
      "type": "text",
      "enable_detail": true,
      "related": {
        "url": "https://truyenx.link/truyensextv/channels/related/1522",
        "request_headers": []
      },
      "share": {
        "url": "https://truyenx.link/truyensextv/channels/share/doi-vo"
      },
      "remote_data": {
        "url": "https://truyenx.link/truyensextv/channels/doi-vo"
      }
    },
    {
      "id": "1521-channel",
      "name": "Những bà cô dâm đãng",
      "description": "Vào một ngày hè oi bức, nhiệt độ hôm nay được dự báo là 39 độ C, cái hanh nóng làm bất kỳ ai cũng cảm thấy nóng bức và bực bội đến điên người. “Nóng quá mày...",
      "image": null,
      "label": null,
      "display": "text-only",
      "type": "text",
      "enable_detail": true,
      "related": {
        "url": "https://truyenx.link/truyensextv/channels/related/1521",
        "request_headers": []
      },
      "share": {
        "url": "https://truyenx.link/truyensextv/channels/share/nhung-ba-co-dam-dang"
      },
      "remote_data": {
        "url": "https://truyenx.link/truyensextv/channels/nhung-ba-co-dam-dang"
      }
    },
    {
      "id": "1520-channel",
      "name": "Chị của thằng em",
      "description": "Mình và thằng em học chung ở 1 lớp nghiệp vụ ngắn hạn, hai anh em nói chuyện hợp nhau nên gắn kết, với lại công việc cũng liên quan với nhau nên hay gặp nhau rồi thân thiết. Ku...",
      "image": null,
      "label": null,
      "display": "text-only",
      "type": "text",
      "enable_detail": true,
      "related": {
        "url": "https://truyenx.link/truyensextv/channels/related/1520",
        "request_headers": []
      },
      "share": {
        "url": "https://truyenx.link/truyensextv/channels/share/chi-cua-thang-em"
      },
      "remote_data": {
        "url": "https://truyenx.link/truyensextv/channels/chi-cua-thang-em"
      }
    },
    {
      "id": "1519-channel",
      "name": "Người mẹ nông thôn",
      "description": "Lần đầu tiên tôi cảm thấy kỳ lạ về cơ thể của mẹ tôi là lúc tôi lên 10 tuổi. Đó là vào một buổi tối, khi tôi đang nằm ngủ trong mùng thì mẹ tôi vội vàng đi vào phòng...",
      "image": null,
      "label": null,
      "display": "text-only",
      "type": "text",
      "enable_detail": true,
      "related": {
        "url": "https://truyenx.link/truyensextv/channels/related/1519",
        "request_headers": []
      },
      "share": {
        "url": "https://truyenx.link/truyensextv/channels/share/nguoi-me-nong-thon"
      },
      "remote_data": {
        "url": "https://truyenx.link/truyensextv/channels/nguoi-me-nong-thon"
      }
    }
  ],
  "load_more": {
    "pageInfo": {
      "current_page": 89,
      "last_page": 140,
      "per_page": 30,
      "total": 4188
    },
    "paging": {
      "page_key": "page",
      "size_key": "size"
    },
    "remote_data": {
      "url": "https://truyenx.link/truyensextv/channels"
    }
  }
}