{"grid_number":1,"channels":[{"id":"2275-channel","name":"Bạn khác giới","description":"Linh đang xoay qua xoay lại trong một bộ quần áo cực kỳ xinh đẹp. Dáng cô cao ráo, khuôn mặt ra khuôn mặt thiên kiều bá mị, nụ cười diễm mỹ, da trắng môi hồng thoát ra vẻ thanh...","image":null,"label":null,"display":"text-only","type":"text","enable_detail":true,"related":{"url":"https://truyenx.link/truyensextv/channels/related/2275","request_headers":[]},"share":{"url":"https://truyenx.link/truyensextv/channels/share/ban-khac-gioi"},"remote_data":{"url":"https://truyenx.link/truyensextv/channels/ban-khac-gioi"}},{"id":"2274-channel","name":"Kỷ niệm về hội chợ","description":"Mình nhớ lúc còn đi học cấp ba, cách đây khoảng 20 năm trước có lần hội chợ ở quê, thường là sân trường hoặc sân bóng đá của xã. Đứng xem ca nhạc rất đông, lúc đó thời...","image":null,"label":null,"display":"text-only","type":"text","enable_detail":true,"related":{"url":"https://truyenx.link/truyensextv/channels/related/2274","request_headers":[]},"share":{"url":"https://truyenx.link/truyensextv/channels/share/ky-niem-ve-hoi-cho"},"remote_data":{"url":"https://truyenx.link/truyensextv/channels/ky-niem-ve-hoi-cho"}},{"id":"2273-channel","name":"Lưu bút ngày xanh","description":"Trong cái thời kỳ đầu những năm 2000 thì cuộc sống ở chốn làng quê trên khắp nước Việt Nam này thật đơn sơ và giản dị. Cuộc đời học sinh cũng vậy, không có internet, không...","image":null,"label":null,"display":"text-only","type":"text","enable_detail":true,"related":{"url":"https://truyenx.link/truyensextv/channels/related/2273","request_headers":[]},"share":{"url":"https://truyenx.link/truyensextv/channels/share/luu-but-ngay-xanh"},"remote_data":{"url":"https://truyenx.link/truyensextv/channels/luu-but-ngay-xanh"}},{"id":"2272-channel","name":"Thằng Long","description":"Năm 2007... Thằng Long hậm hực bỏ lên lầu, tay nó bê nguyên chồng truyện mới mướn được đầu xóm. Nó vứt mạnh chồng truyện dày phải đến hơn mười cuốn xuống nền nhà, nguyên...","image":null,"label":null,"display":"text-only","type":"text","enable_detail":true,"related":{"url":"https://truyenx.link/truyensextv/channels/related/2272","request_headers":[]},"share":{"url":"https://truyenx.link/truyensextv/channels/share/thang-long"},"remote_data":{"url":"https://truyenx.link/truyensextv/channels/thang-long"}},{"id":"2271-channel","name":"Chuyện tình tay ba","description":"Số là hồi cấp 3, em cũng nghịch ngợm chơi bời, học hành chểnh mảng lên khi thi đại học ngó trước ngó sau cũng bập bõm được hơn chục điểm, ngày nhận được tờ giấy báo...","image":null,"label":null,"display":"text-only","type":"text","enable_detail":true,"related":{"url":"https://truyenx.link/truyensextv/channels/related/2271","request_headers":[]},"share":{"url":"https://truyenx.link/truyensextv/channels/share/chuyen-tinh-tay-ba"},"remote_data":{"url":"https://truyenx.link/truyensextv/channels/chuyen-tinh-tay-ba"}},{"id":"2270-channel","name":"Những người tôi yêu","description":"Tự giới thiệu: Tôi họ Lưu, tên Thanh Luân. Là một Doanh nhân tại một thành phố ở Miền Bắc. Qua những năm tháng chìm nổi của cuộc sống và nhân tình, thế thái, tôi vẫn trụ...","image":null,"label":null,"display":"text-only","type":"text","enable_detail":true,"related":{"url":"https://truyenx.link/truyensextv/channels/related/2270","request_headers":[]},"share":{"url":"https://truyenx.link/truyensextv/channels/share/nhung-nguoi-toi-yeu"},"remote_data":{"url":"https://truyenx.link/truyensextv/channels/nhung-nguoi-toi-yeu"}},{"id":"2269-channel","name":"Tôi và nữ sinh lớp 12","description":"Tôi là chàng sinh viên năm cuối của một trường tại TPHCM. Bận bịu với việc làm đồ án tốt nghiệp, ngày qua ngày lên lớp, xong lại về phòng hoàn thành từng trang vẽ đồ án...","image":null,"label":null,"display":"text-only","type":"text","enable_detail":true,"related":{"url":"https://truyenx.link/truyensextv/channels/related/2269","request_headers":[]},"share":{"url":"https://truyenx.link/truyensextv/channels/share/toi-va-nu-sinh-lop-12"},"remote_data":{"url":"https://truyenx.link/truyensextv/channels/toi-va-nu-sinh-lop-12"}},{"id":"2267-channel","name":"Ác mộng vùng quê","description":"Tuấn và Huyền, có thể nói là mối duyên tiền định. Hai người gặp nhau tận phương trời Anh quốc, khi đó cả hai cùng là du học sinh. Cũng biết, cũng quen, nhưng chưa yêu. Nhưng đến...","image":null,"label":null,"display":"text-only","type":"text","enable_detail":true,"related":{"url":"https://truyenx.link/truyensextv/channels/related/2267","request_headers":[]},"share":{"url":"https://truyenx.link/truyensextv/channels/share/ac-mong-vung-que"},"remote_data":{"url":"https://truyenx.link/truyensextv/channels/ac-mong-vung-que"}},{"id":"2268-channel","name":"Thiên Bảo Chi Mệnh","description":"“Brừm... Ặc... Ặc” Một chiếc xe hơi liên tục khởi động rồi lại chết máy trên một con đường vắng vẻ, xung quanh chỉ có màn đêm đen không có lấy một ánh đèn. Xen...","image":null,"label":null,"display":"text-only","type":"text","enable_detail":true,"related":{"url":"https://truyenx.link/truyensextv/channels/related/2268","request_headers":[]},"share":{"url":"https://truyenx.link/truyensextv/channels/share/thien-bao-chi-menh"},"remote_data":{"url":"https://truyenx.link/truyensextv/channels/thien-bao-chi-menh"}},{"id":"2266-channel","name":"Đất và người 2","description":"Sau khi chứng kiến Biên thất vọng về người vợ của mình rồi lặng lẽ bỏ về, tối đó Hậu ra hiên ngoài ngồi ngắm trời, nàng ngẫm nghĩ không biết cuộc sống sau này của nàng...","image":null,"label":null,"display":"text-only","type":"text","enable_detail":true,"related":{"url":"https://truyenx.link/truyensextv/channels/related/2266","request_headers":[]},"share":{"url":"https://truyenx.link/truyensextv/channels/share/dat-va-nguoi-2"},"remote_data":{"url":"https://truyenx.link/truyensextv/channels/dat-va-nguoi-2"}},{"id":"2265-channel","name":"Mẹ tôi là kiều nữ","description":"Tôi sinh ra tại một vùng quê nghèo, nơi mà đồi núi trập trùng phủ xanh bởi những rừng sim xanh xum xuê. Mỗi mùa xuân qua hè về, đồi sim lại nở rộ những bông hoa tím ngắt như...","image":null,"label":null,"display":"text-only","type":"text","enable_detail":true,"related":{"url":"https://truyenx.link/truyensextv/channels/related/2265","request_headers":[]},"share":{"url":"https://truyenx.link/truyensextv/channels/share/me-toi-la-kieu-nu"},"remote_data":{"url":"https://truyenx.link/truyensextv/channels/me-toi-la-kieu-nu"}},{"id":"2264-channel","name":"Chàng mù may mắn","description":"Hạ gia trang là một trang viện đồ sộ và lớn nhất của thành Diên An. Có thể nói trong mấy năm gần đây không ở đâu lại nổi tiếng bằng nơi này. Số là trang chủ Hạ Bạch Thế...","image":null,"label":null,"display":"text-only","type":"text","enable_detail":true,"related":{"url":"https://truyenx.link/truyensextv/channels/related/2264","request_headers":[]},"share":{"url":"https://truyenx.link/truyensextv/channels/share/chang-mu-may-man"},"remote_data":{"url":"https://truyenx.link/truyensextv/channels/chang-mu-may-man"}},{"id":"2263-channel","name":"Đường lên Thiên Thai","description":"Nam tới bến xe Minh Trung lúc 9 giờ sáng. Anh vào quán nước gọi ly cà phê đá, vừa uống được mấy hớp thì thấy chiếc taxi dừng bên kia lề đường, gần đối diện với quán nước...","image":null,"label":null,"display":"text-only","type":"text","enable_detail":true,"related":{"url":"https://truyenx.link/truyensextv/channels/related/2263","request_headers":[]},"share":{"url":"https://truyenx.link/truyensextv/channels/share/duong-len-thien-thai"},"remote_data":{"url":"https://truyenx.link/truyensextv/channels/duong-len-thien-thai"}},{"id":"2262-channel","name":"Cô bồ nhí","description":"Từ ngày được giám đốc sở cất nhắc lên chức bồ nhí, Hải Yến hết còn lo chuyện phải thức sớm, lăng xăng vệ sinh, trang điểm để đến chỗ làm kịp giờ nữa. Cô tự tung tự...","image":null,"label":null,"display":"text-only","type":"text","enable_detail":true,"related":{"url":"https://truyenx.link/truyensextv/channels/related/2262","request_headers":[]},"share":{"url":"https://truyenx.link/truyensextv/channels/share/co-bo-nhi"},"remote_data":{"url":"https://truyenx.link/truyensextv/channels/co-bo-nhi"}},{"id":"2261-channel","name":"Những người đàn bà đã đi qua đời tôi","description":"Tôi tên Bình, năm nay 22 tuổi, là sinh viên của một trường đại học cũng có tiếng ở TPHCM, tôi là dân quê gốc miền Trung, thân hình tôi không có gì nổi bật so với nhiều bạn bè...","image":null,"label":null,"display":"text-only","type":"text","enable_detail":true,"related":{"url":"https://truyenx.link/truyensextv/channels/related/2261","request_headers":[]},"share":{"url":"https://truyenx.link/truyensextv/channels/share/nhung-nguoi-dan-ba-da-di-qua-doi-toi"},"remote_data":{"url":"https://truyenx.link/truyensextv/channels/nhung-nguoi-dan-ba-da-di-qua-doi-toi"}},{"id":"2260-channel","name":"Thuần hóa mẹ tôi","description":"Tôi là Đóm, một thanh niên 18 tuổi vừa mới tốt nghiệp cấp 3, đang phải chờ kết quả xét tuyển đại học bên Nhật Bản. Bố tôi tên Dũng và mẹ tôi là Hoa. Do mẹ mang bầu tôi khi...","image":null,"label":null,"display":"text-only","type":"text","enable_detail":true,"related":{"url":"https://truyenx.link/truyensextv/channels/related/2260","request_headers":[]},"share":{"url":"https://truyenx.link/truyensextv/channels/share/thuan-hoa-me-toi"},"remote_data":{"url":"https://truyenx.link/truyensextv/channels/thuan-hoa-me-toi"}},{"id":"2259-channel","name":"Bố tôi bắt trộm","description":"Hồi bé thì tôi sống với bố, mẹ thì đi sang Đài Loan làm việc. Tôi hầu như chỉ ở nhà một mình, lúc nào tôi cũng sợ những tên trộm. Do tôi xem DVD kinh dị của bố về một tên...","image":null,"label":null,"display":"text-only","type":"text","enable_detail":true,"related":{"url":"https://truyenx.link/truyensextv/channels/related/2259","request_headers":[]},"share":{"url":"https://truyenx.link/truyensextv/channels/share/bo-toi-bat-trom"},"remote_data":{"url":"https://truyenx.link/truyensextv/channels/bo-toi-bat-trom"}},{"id":"2258-channel","name":"Chạy trốn","description":"Trong màn đêm, gió thổi nhẹ nhàng nhưng đủ để người ta cảm thấy lạnh buốt từ bên trong cõi lòng, trong lòng tôi lúc này cũng giống như một mảnh thủy tinh rớt bể tan nát trên...","image":null,"label":null,"display":"text-only","type":"text","enable_detail":true,"related":{"url":"https://truyenx.link/truyensextv/channels/related/2258","request_headers":[]},"share":{"url":"https://truyenx.link/truyensextv/channels/share/chay-tron"},"remote_data":{"url":"https://truyenx.link/truyensextv/channels/chay-tron"}},{"id":"2257-channel","name":"Yêu bạn cùng lớp","description":"Năm em học lớp 10, do hoàn cảnh đưa đẩy nên bị tống về quê học. Còn cả gia đình em thì vẫn ở ngoài thủ đô sinh sống. Ở quê, nhà em còn có căn nhà 2 tầng mới xây năm ngoái...","image":null,"label":null,"display":"text-only","type":"text","enable_detail":true,"related":{"url":"https://truyenx.link/truyensextv/channels/related/2257","request_headers":[]},"share":{"url":"https://truyenx.link/truyensextv/channels/share/yeu-ban-cung-lop"},"remote_data":{"url":"https://truyenx.link/truyensextv/channels/yeu-ban-cung-lop"}},{"id":"2256-channel","name":"Chuyện sex của tôi và gia đình vợ","description":"Xin chào mọi người đây là câu chuyện của tôi có 1 phần sự thật còn lại thì có 1 số tình tiết ảo cho thêm đặc sắc. Chuyện như vầy: Xin giới thiệu đôi chút tôi hiện đang...","image":null,"label":null,"display":"text-only","type":"text","enable_detail":true,"related":{"url":"https://truyenx.link/truyensextv/channels/related/2256","request_headers":[]},"share":{"url":"https://truyenx.link/truyensextv/channels/share/chuyen-sex-cua-toi-va-gia-dinh-vo"},"remote_data":{"url":"https://truyenx.link/truyensextv/channels/chuyen-sex-cua-toi-va-gia-dinh-vo"}},{"id":"2255-channel","name":"TT Anh Ngữ - Những cuộc ngoại tình đầy cảm xúc","description":"Phần Tiến Nam 25 tuổi, chưa vợ, Nhân viên kinh doanh... Nguyễn Linh 26 tuổi, có chồng chưa có con, Nhân viên kinh doanh... Phương Thảo 25 tuổi, có chồng và 2 con, Nhân viên kinh doanh... Thanh...","image":null,"label":null,"display":"text-only","type":"text","enable_detail":true,"related":{"url":"https://truyenx.link/truyensextv/channels/related/2255","request_headers":[]},"share":{"url":"https://truyenx.link/truyensextv/channels/share/tt-anh-ngu-nhung-cuoc-ngoai-tinh-day-cam-xuc"},"remote_data":{"url":"https://truyenx.link/truyensextv/channels/tt-anh-ngu-nhung-cuoc-ngoai-tinh-day-cam-xuc"}},{"id":"2254-channel","name":"Thời sinh viên","description":"Nay không phải đi làm, trời lại mưa bỗng nhớ lại những kỉ niệm thời 18 20. Mà năm nay cũng 30 rồi, 1 vợ 1 con rồi mọi người ạ. Đúng là ở cái tuổi mới lớn ấy trong đầu...","image":null,"label":null,"display":"text-only","type":"text","enable_detail":true,"related":{"url":"https://truyenx.link/truyensextv/channels/related/2254","request_headers":[]},"share":{"url":"https://truyenx.link/truyensextv/channels/share/thoi-sinh-vien"},"remote_data":{"url":"https://truyenx.link/truyensextv/channels/thoi-sinh-vien"}},{"id":"2253-channel","name":"Phá trinh 4 mỹ nhân - Quyển 1","description":"Trong cảnh tối mịt mờ và lạnh buốt của khu mộ địa, có hai bóng người chậm chạp đi tới. Người đi trước tay cầm một ngọn đèn dầu ánh sáng lờ mờ soi bước. Nàng ta ăn mặc...","image":null,"label":null,"display":"text-only","type":"text","enable_detail":true,"related":{"url":"https://truyenx.link/truyensextv/channels/related/2253","request_headers":[]},"share":{"url":"https://truyenx.link/truyensextv/channels/share/pha-trinh-4-my-nhan-quyen-1"},"remote_data":{"url":"https://truyenx.link/truyensextv/channels/pha-trinh-4-my-nhan-quyen-1"}},{"id":"2252-channel","name":"Địt gái khi cách ly","description":"Chào các ông... Tôi là Hoàng Tùng Lâm ở truyện “Những bà hàng xóm dâm đãng”... Nhưng mà tôi đang ở năm... một nghìn chín trăm tám mươi... năm sau công nguyên... Cái năm như...","image":null,"label":null,"display":"text-only","type":"text","enable_detail":true,"related":{"url":"https://truyenx.link/truyensextv/channels/related/2252","request_headers":[]},"share":{"url":"https://truyenx.link/truyensextv/channels/share/dit-gai-khi-cach-ly"},"remote_data":{"url":"https://truyenx.link/truyensextv/channels/dit-gai-khi-cach-ly"}},{"id":"2251-channel","name":"Sai lầm của tôi","description":"Năm nay tôi 18, tôi sẽ đi đại học nên sẽ không gặp lại quá khứ. Chuyện đó xảy ra cách bây giờ 1 năm, tôi với mẹ địt nhau và mẹ đã có thai. Mẹ tôi tên Xuân, người phụ nữ...","image":null,"label":null,"display":"text-only","type":"text","enable_detail":true,"related":{"url":"https://truyenx.link/truyensextv/channels/related/2251","request_headers":[]},"share":{"url":"https://truyenx.link/truyensextv/channels/share/sai-lam-cua-toi"},"remote_data":{"url":"https://truyenx.link/truyensextv/channels/sai-lam-cua-toi"}},{"id":"2250-channel","name":"Hai cô con dâu dâm đãng","description":"Ông Khánh năm nay 56 tuổi rồi nhưng nhìn khá phong độ, một phần vì gia đình ông giàu nhất nhì trong khu phố, một phần vì ông vẫn giữ thói quen rèn luyện thể thao. Thấm thoát đã...","image":null,"label":null,"display":"text-only","type":"text","enable_detail":true,"related":{"url":"https://truyenx.link/truyensextv/channels/related/2250","request_headers":[]},"share":{"url":"https://truyenx.link/truyensextv/channels/share/hai-co-con-dau-dam-dang"},"remote_data":{"url":"https://truyenx.link/truyensextv/channels/hai-co-con-dau-dam-dang"}},{"id":"2249-channel","name":"Thằng Hận","description":"Thi xong môn cuối cùng của kỳ thi tốt nghiệp trung học phổ thông, thằng Hận đạp xe về tới nhà lúc trời nắng chang chang. Dựng chiếc xe đạp cũ sát vô tường nhà dưới cửa sổ...","image":null,"label":null,"display":"text-only","type":"text","enable_detail":true,"related":{"url":"https://truyenx.link/truyensextv/channels/related/2249","request_headers":[]},"share":{"url":"https://truyenx.link/truyensextv/channels/share/thang-han"},"remote_data":{"url":"https://truyenx.link/truyensextv/channels/thang-han"}},{"id":"2248-channel","name":"Chị Loan và người vợ mù","description":"Tôi tên Huy, hiện giờ tôi đang có một cuộc sống khá yên bình bên người vợ bị mù... Vợ tôi mù bởi một lần đi dã ngoại với hội bạn vào năm 2018. Trước khi gặp đại họa...","image":null,"label":null,"display":"text-only","type":"text","enable_detail":true,"related":{"url":"https://truyenx.link/truyensextv/channels/related/2248","request_headers":[]},"share":{"url":"https://truyenx.link/truyensextv/channels/share/chi-loan-va-nguoi-vo-mu"},"remote_data":{"url":"https://truyenx.link/truyensextv/channels/chi-loan-va-nguoi-vo-mu"}},{"id":"2247-channel","name":"Con đường bá chủ - Quyển 5","description":"Nhìn Vạn Kiếm Lôi lập lòe trước mắt, Lạc Nam cảm giác toàn thân nặng nề... Ngay cả chính hắn cũng không lường trước được mình sẽ có được Vạn Kiếm Lôi theo một cách như...","image":null,"label":null,"display":"text-only","type":"text","enable_detail":true,"related":{"url":"https://truyenx.link/truyensextv/channels/related/2247","request_headers":[]},"share":{"url":"https://truyenx.link/truyensextv/channels/share/con-duong-ba-chu-quyen-5"},"remote_data":{"url":"https://truyenx.link/truyensextv/channels/con-duong-ba-chu-quyen-5"}},{"id":"2246-channel","name":"Uống nhầm thuốc","description":"Thành phố Dương Hà, ngày 08 tháng 02 năm 2021. Rầm... Tiếng nổ lớn vang lên. Một chiếc Ford Mustang đời mới đâm thẳng vào giải phân cách, đầu chiếc xe bốc khói nghi ngút. Từ trong...","image":null,"label":null,"display":"text-only","type":"text","enable_detail":true,"related":{"url":"https://truyenx.link/truyensextv/channels/related/2246","request_headers":[]},"share":{"url":"https://truyenx.link/truyensextv/channels/share/uong-nham-thuoc"},"remote_data":{"url":"https://truyenx.link/truyensextv/channels/uong-nham-thuoc"}}],"load_more":{"pageInfo":{"current_page":16,"last_page":140,"per_page":30,"total":4188},"paging":{"page_key":"page","size_key":"size"},"remote_data":{"url":"https://truyenx.link/truyensextv/channels"}}}