{
  "grid_number": 1,
  "channels": [
    {
      "id": "408-channel",
      "name": "Liên Minh Huyền Thoại - Quyển 6",
      "description": "Sau khi chiếm lại toàn bộ lãnh thổ Demacia từ tay của quân đội Hư Không, John chính thức trao lại toàn bộ quyền kiểm soát lãnh thổ cho những người Demacia cai quản. Đồng thời...",
      "image": null,
      "label": null,
      "display": "text-only",
      "type": "text",
      "enable_detail": true,
      "related": {
        "url": "https://truyenx.link/truyensextv/channels/related/408",
        "request_headers": []
      },
      "share": {
        "url": "https://truyenx.link/truyensextv/channels/share/lien-minh-huyen-thoai-quyen-6"
      },
      "remote_data": {
        "url": "https://truyenx.link/truyensextv/channels/lien-minh-huyen-thoai-quyen-6"
      }
    },
    {
      "id": "407-channel",
      "name": "Cô gái mùa thu",
      "description": "Trên chiếc xe máy mới cáu, tôi chạy chầm chậm, lơ đãng ngắm bầu trời trong vắt, xanh biêng biếc vào thu. Từng cụm mây trắng lững lờ trôi trên nền trời tĩnh lặng. Những loài...",
      "image": null,
      "label": null,
      "display": "text-only",
      "type": "text",
      "enable_detail": true,
      "related": {
        "url": "https://truyenx.link/truyensextv/channels/related/407",
        "request_headers": []
      },
      "share": {
        "url": "https://truyenx.link/truyensextv/channels/share/co-gai-mua-thu"
      },
      "remote_data": {
        "url": "https://truyenx.link/truyensextv/channels/co-gai-mua-thu"
      }
    },
    {
      "id": "406-channel",
      "name": "Chị gái thích bạo dâm",
      "description": "Tôi tên Thắng, lúc đó tôi tầm 10 tuổi, do thế nên ba má mới cho tôi ngủ cùng chị, chị tôi tên Huyền, năm đó 18t, chị không cao lắm nhưng 3 vòng thì hết sức chuẩn cùng mái tóc...",
      "image": null,
      "label": null,
      "display": "text-only",
      "type": "text",
      "enable_detail": true,
      "related": {
        "url": "https://truyenx.link/truyensextv/channels/related/406",
        "request_headers": []
      },
      "share": {
        "url": "https://truyenx.link/truyensextv/channels/share/chi-gai-thich-bao-dam"
      },
      "remote_data": {
        "url": "https://truyenx.link/truyensextv/channels/chi-gai-thich-bao-dam"
      }
    },
    {
      "id": "405-channel",
      "name": "Liên Minh Huyền Thoại - Quyển 5",
      "description": "Đêm Nguyệt Thực. Trời đất như chìm vào bóng đêm vô hạn. Quái vật đang ngủ yên bắt đầu trỗi dậy Những luồng ma pháp đen tối và độc ác nhất dần thức tỉnh. Tiếng những...",
      "image": null,
      "label": null,
      "display": "text-only",
      "type": "text",
      "enable_detail": true,
      "related": {
        "url": "https://truyenx.link/truyensextv/channels/related/405",
        "request_headers": []
      },
      "share": {
        "url": "https://truyenx.link/truyensextv/channels/share/lien-minh-huyen-thoai-quyen-5"
      },
      "remote_data": {
        "url": "https://truyenx.link/truyensextv/channels/lien-minh-huyen-thoai-quyen-5"
      }
    },
    {
      "id": "404-channel",
      "name": "Cô gái bán dâm",
      "description": "Hôm đó, khi tôi đang trên đường về nhà thì thấy một cô gái xinh đẹp mặc 1 chiếc áo dài màu vàng tươi chói lọi, quần đỏ hấp dẫn, tóc dài uống cong nhìn rất sang trọng và...",
      "image": null,
      "label": null,
      "display": "text-only",
      "type": "text",
      "enable_detail": true,
      "related": {
        "url": "https://truyenx.link/truyensextv/channels/related/404",
        "request_headers": []
      },
      "share": {
        "url": "https://truyenx.link/truyensextv/channels/share/co-gai-ban-dam"
      },
      "remote_data": {
        "url": "https://truyenx.link/truyensextv/channels/co-gai-ban-dam"
      }
    },
    {
      "id": "403-channel",
      "name": "Bích và Thủy",
      "description": "Vinh và Bích đang đụ nhau ở căn biệt thự nhà Bích. Á á á á... sướng quá anh ơi... á á á... em sướng quá... Tiếng rên của Bích đang kích thích Vinh rất nhiều. Bích ngồi trên...",
      "image": null,
      "label": null,
      "display": "text-only",
      "type": "text",
      "enable_detail": true,
      "related": {
        "url": "https://truyenx.link/truyensextv/channels/related/403",
        "request_headers": []
      },
      "share": {
        "url": "https://truyenx.link/truyensextv/channels/share/bich-va-thuy"
      },
      "remote_data": {
        "url": "https://truyenx.link/truyensextv/channels/bich-va-thuy"
      }
    },
    {
      "id": "402-channel",
      "name": "Liên Minh Huyền Thoại - Quyển 4",
      "description": "“John, cuối cùng cậu cũng đã tỉnh lại rồi, thật tốt quá.” Taric nhìn đôi mắt của John đang dần dần mở ra, cậu ta mừng rỡ. Sau khi phát hiện thấy John nằm gục giữa...",
      "image": null,
      "label": null,
      "display": "text-only",
      "type": "text",
      "enable_detail": true,
      "related": {
        "url": "https://truyenx.link/truyensextv/channels/related/402",
        "request_headers": []
      },
      "share": {
        "url": "https://truyenx.link/truyensextv/channels/share/lien-minh-huyen-thoai-quyen-4"
      },
      "remote_data": {
        "url": "https://truyenx.link/truyensextv/channels/lien-minh-huyen-thoai-quyen-4"
      }
    },
    {
      "id": "401-channel",
      "name": "Liên Minh Huyền Thoại - Quyển 3",
      "description": "Thế giới Huyền Thoại cảnh đẹp vô số, lên cao có mây mờ ẩn hiện, ôm ấp ngọn núi trong lòng, phía dưới lại có thạch lâm với vô số quái thạch đẹp đẽ, xa xa lại có cả...",
      "image": null,
      "label": null,
      "display": "text-only",
      "type": "text",
      "enable_detail": true,
      "related": {
        "url": "https://truyenx.link/truyensextv/channels/related/401",
        "request_headers": []
      },
      "share": {
        "url": "https://truyenx.link/truyensextv/channels/share/lien-minh-huyen-thoai-quyen-3"
      },
      "remote_data": {
        "url": "https://truyenx.link/truyensextv/channels/lien-minh-huyen-thoai-quyen-3"
      }
    },
    {
      "id": "400-channel",
      "name": "Liên Minh Huyền Thoại - Quyển 2",
      "description": "Trong khu rừng Grove Astral đầy yên tĩnh và tràn ngập nguyên tố ma thuật trong không khí. Lúc này đây John đang ngồi xếp bằng trên một tảng đá, trước mặt hắn là một chiếc hồ...",
      "image": null,
      "label": null,
      "display": "text-only",
      "type": "text",
      "enable_detail": true,
      "related": {
        "url": "https://truyenx.link/truyensextv/channels/related/400",
        "request_headers": []
      },
      "share": {
        "url": "https://truyenx.link/truyensextv/channels/share/lien-minh-huyen-thoai-quyen-2"
      },
      "remote_data": {
        "url": "https://truyenx.link/truyensextv/channels/lien-minh-huyen-thoai-quyen-2"
      }
    },
    {
      "id": "399-channel",
      "name": "Liên Minh Huyền Thoại - Quyển 1",
      "description": "Cánh Cổng Mở Ra Đến Thế Giới Khác... Hỡi cánh cửa kia Hãy phát huy sức mạnh Để đưa về cho ta Người được chọn ở thế giới khác. Năm 2013, Duy Tân University, Đà Nẵng City. Bầu...",
      "image": null,
      "label": null,
      "display": "text-only",
      "type": "text",
      "enable_detail": true,
      "related": {
        "url": "https://truyenx.link/truyensextv/channels/related/399",
        "request_headers": []
      },
      "share": {
        "url": "https://truyenx.link/truyensextv/channels/share/lien-minh-huyen-thoai-quyen-1"
      },
      "remote_data": {
        "url": "https://truyenx.link/truyensextv/channels/lien-minh-huyen-thoai-quyen-1"
      }
    },
    {
      "id": "398-channel",
      "name": "Miền Tây sông nước",
      "description": "Chiều xuống, gió ngoài đồng thổi lồng lộng. Ánh trời hồng đang phản chiếu xuống mặt đầm đẹp như chiếc chiếu gấm vàng... Mấy cụm bông lau mọc chòi lên cạnh mấy thân cây...",
      "image": null,
      "label": null,
      "display": "text-only",
      "type": "text",
      "enable_detail": true,
      "related": {
        "url": "https://truyenx.link/truyensextv/channels/related/398",
        "request_headers": []
      },
      "share": {
        "url": "https://truyenx.link/truyensextv/channels/share/mien-tay-song-nuoc"
      },
      "remote_data": {
        "url": "https://truyenx.link/truyensextv/channels/mien-tay-song-nuoc"
      }
    },
    {
      "id": "397-channel",
      "name": "Kẻ hai mặt",
      "description": "Aaaaa…aaaa…hhhhhhhhh… nữa đi cưng ơi! Bóp mạnh vào… aaa.. nữa đi… đúng rồi… thích lắm… sướng quá…aaahhh Hải Yến rên rỉ cuồng loạn, rượu mạnh và sex luôn kích thích con...",
      "image": null,
      "label": null,
      "display": "text-only",
      "type": "text",
      "enable_detail": true,
      "related": {
        "url": "https://truyenx.link/truyensextv/channels/related/397",
        "request_headers": []
      },
      "share": {
        "url": "https://truyenx.link/truyensextv/channels/share/ke-hai-mat"
      },
      "remote_data": {
        "url": "https://truyenx.link/truyensextv/channels/ke-hai-mat"
      }
    },
    {
      "id": "396-channel",
      "name": "Em đồng nghiệp",
      "description": "Mình đã có vợ, em đã có chồng. Em đẹp, cả công ty đều biết và em cũng biết. Em đẹp vẻ hiền thục thanh khiết, ăn nói lúc nào cũng nghiêm chỉnh không bỗ bã, những lúc anh em...",
      "image": null,
      "label": null,
      "display": "text-only",
      "type": "text",
      "enable_detail": true,
      "related": {
        "url": "https://truyenx.link/truyensextv/channels/related/396",
        "request_headers": []
      },
      "share": {
        "url": "https://truyenx.link/truyensextv/channels/share/em-dong-nghiep"
      },
      "remote_data": {
        "url": "https://truyenx.link/truyensextv/channels/em-dong-nghiep"
      }
    },
    {
      "id": "395-channel",
      "name": "Tình xưa",
      "description": "Anh đang ở đâu đấy? Em đang ở gần nhà anh. Nhận được điện thoại của em... đã hơn 10 năm rồi, kể từ ngày ra trường. Giọng em vẫn thế chững chạc hơn 1 chút, 10 năm rồi vẫn...",
      "image": null,
      "label": null,
      "display": "text-only",
      "type": "text",
      "enable_detail": true,
      "related": {
        "url": "https://truyenx.link/truyensextv/channels/related/395",
        "request_headers": []
      },
      "share": {
        "url": "https://truyenx.link/truyensextv/channels/share/tinh-xua"
      },
      "remote_data": {
        "url": "https://truyenx.link/truyensextv/channels/tinh-xua"
      }
    },
    {
      "id": "394-channel",
      "name": "Minh Thư dâm đãng",
      "description": "Tôi đã đọc truyện trên truyensextv2.cc lâu rồi, giờ tôi kể cho các bạn nghe 1 đoạn truyện có thật, tôi tên là Long ở Ninh Bình, 1 lần tôi qua facebook quen được 1 em tên là Nguyễn...",
      "image": null,
      "label": null,
      "display": "text-only",
      "type": "text",
      "enable_detail": true,
      "related": {
        "url": "https://truyenx.link/truyensextv/channels/related/394",
        "request_headers": []
      },
      "share": {
        "url": "https://truyenx.link/truyensextv/channels/share/minh-thu-dam-dang"
      },
      "remote_data": {
        "url": "https://truyenx.link/truyensextv/channels/minh-thu-dam-dang"
      }
    },
    {
      "id": "393-channel",
      "name": "Đụ nhau ngày mùng một Tết",
      "description": "Ngày mùng một tết, Bình và Vũ nhậu với nhau ở nhà của Bình, khi đã quá say cả hai lăn ra ngủ ở hai cái ghế sofa trong phòng khách. Một lát sau, Như cô vợ xinh đẹp của Bình trở...",
      "image": null,
      "label": null,
      "display": "text-only",
      "type": "text",
      "enable_detail": true,
      "related": {
        "url": "https://truyenx.link/truyensextv/channels/related/393",
        "request_headers": []
      },
      "share": {
        "url": "https://truyenx.link/truyensextv/channels/share/du-nhau-ngay-mung-mot-tet"
      },
      "remote_data": {
        "url": "https://truyenx.link/truyensextv/channels/du-nhau-ngay-mung-mot-tet"
      }
    },
    {
      "id": "392-channel",
      "name": "Mợ Hương",
      "description": "Gọi là mợ nghe già quá nhưng thực ra em kém mình 2 tuổi. Hồi mình học lớp 12 thì em học lớp 10, ngày ấy em là hoa khôi của khối, rất nhiều người theo đuổi em, còn mình thì chỉ...",
      "image": null,
      "label": null,
      "display": "text-only",
      "type": "text",
      "enable_detail": true,
      "related": {
        "url": "https://truyenx.link/truyensextv/channels/related/392",
        "request_headers": []
      },
      "share": {
        "url": "https://truyenx.link/truyensextv/channels/share/mo-huong"
      },
      "remote_data": {
        "url": "https://truyenx.link/truyensextv/channels/mo-huong"
      }
    },
    {
      "id": "391-channel",
      "name": "Mất trinh bữa Tết",
      "description": "Hôm Tết, anh ấy đến nhà tôi, vẫn xe đạp điện, vẫn con người ấy, anh gọi tôi với chất giọng ấm áp, tôi chạy ra như một tên lửa, phần vì nhớ anh ấy, phần vì thèm hôn. Ê...",
      "image": null,
      "label": null,
      "display": "text-only",
      "type": "text",
      "enable_detail": true,
      "related": {
        "url": "https://truyenx.link/truyensextv/channels/related/391",
        "request_headers": []
      },
      "share": {
        "url": "https://truyenx.link/truyensextv/channels/share/mat-trinh-bua-tet"
      },
      "remote_data": {
        "url": "https://truyenx.link/truyensextv/channels/mat-trinh-bua-tet"
      }
    },
    {
      "id": "390-channel",
      "name": "Tôi yêu chị, tình đầu của tôi",
      "description": "Giới thiệu một chút về mình, tướng tá nhỏ con, gầy nhưng trời thương bù lại cho khuôn mặt dễ thương, trắng trẻo nhìn rất thư sinh , cũng có vài em teen nó tán tỉnh em, nhưng em...",
      "image": null,
      "label": null,
      "display": "text-only",
      "type": "text",
      "enable_detail": true,
      "related": {
        "url": "https://truyenx.link/truyensextv/channels/related/390",
        "request_headers": []
      },
      "share": {
        "url": "https://truyenx.link/truyensextv/channels/share/toi-yeu-chi-tinh-dau-cua-toi"
      },
      "remote_data": {
        "url": "https://truyenx.link/truyensextv/channels/toi-yeu-chi-tinh-dau-cua-toi"
      }
    },
    {
      "id": "389-channel",
      "name": "Cô gái năm ấy chúng ta cùng theo đuổi",
      "description": "Thanh xuân là cơn mưa tầm tã. Dẫu bị cảm, cũng muốn quay lại dầm mình thêm lần nữa. Thanh xuân còn là cuốn sách, một cuốn sách hễ đọc là ấn tượng sâu xa, một cuốn sách làm...",
      "image": null,
      "label": null,
      "display": "text-only",
      "type": "text",
      "enable_detail": true,
      "related": {
        "url": "https://truyenx.link/truyensextv/channels/related/389",
        "request_headers": []
      },
      "share": {
        "url": "https://truyenx.link/truyensextv/channels/share/co-gai-nam-ay-chung-ta-cung-theo-duoi"
      },
      "remote_data": {
        "url": "https://truyenx.link/truyensextv/channels/co-gai-nam-ay-chung-ta-cung-theo-duoi"
      }
    },
    {
      "id": "388-channel",
      "name": "Đêm mùng 2 sung sướng",
      "description": "Quen chị này qua Facebook đã 2 năm nay, nhưng đến hôm mùng 2 tết vừa rồi mới được 1 đêm sung sướng và thỏa mãn cùng chị. Chị sinh năm 82, đã có 1 con gái 7 tuổi và chồng chị làm...",
      "image": null,
      "label": null,
      "display": "text-only",
      "type": "text",
      "enable_detail": true,
      "related": {
        "url": "https://truyenx.link/truyensextv/channels/related/388",
        "request_headers": []
      },
      "share": {
        "url": "https://truyenx.link/truyensextv/channels/share/dem-mung-2-sung-suong"
      },
      "remote_data": {
        "url": "https://truyenx.link/truyensextv/channels/dem-mung-2-sung-suong"
      }
    },
    {
      "id": "387-channel",
      "name": "Câu chuyện đầu xuân",
      "description": "Năm đó theo phong trào làm đất cùng ông anh trong công ty nên cũng hay đi đây đi đó để xem đất lấy bìa về làm tư liệu cho khách xem. Tháng đầu năm người ta đi chơi là chủ yếu...",
      "image": null,
      "label": null,
      "display": "text-only",
      "type": "text",
      "enable_detail": true,
      "related": {
        "url": "https://truyenx.link/truyensextv/channels/related/387",
        "request_headers": []
      },
      "share": {
        "url": "https://truyenx.link/truyensextv/channels/share/cau-chuyen-dau-xuan"
      },
      "remote_data": {
        "url": "https://truyenx.link/truyensextv/channels/cau-chuyen-dau-xuan"
      }
    },
    {
      "id": "386-channel",
      "name": "Cực phẩm dâm dục",
      "description": "Tác giả: Leysek Tiếng “oe oe” của Gia Bảo khóc làm Long bực mình, nó ẵm đứa bé lên hát ru cho con ngủ mà con bé vẫn khóc. Long chửi thầm con vợ: “ĐM vợ với chả con...",
      "image": null,
      "label": null,
      "display": "text-only",
      "type": "text",
      "enable_detail": true,
      "related": {
        "url": "https://truyenx.link/truyensextv/channels/related/386",
        "request_headers": []
      },
      "share": {
        "url": "https://truyenx.link/truyensextv/channels/share/cuc-pham-dam-duc"
      },
      "remote_data": {
        "url": "https://truyenx.link/truyensextv/channels/cuc-pham-dam-duc"
      }
    },
    {
      "id": "385-channel",
      "name": "Làm tình dịp tết",
      "description": "Tết năm ngoái, em với bạn gái đi chơi với hội bạn. Trong lúc ngồi chơi tranh thủ vài lúc bọn kia không có mặt bọn em có ôm hôn nồng thắm được mấy lần, nhưng vẫn nhắn tin...",
      "image": null,
      "label": null,
      "display": "text-only",
      "type": "text",
      "enable_detail": true,
      "related": {
        "url": "https://truyenx.link/truyensextv/channels/related/385",
        "request_headers": []
      },
      "share": {
        "url": "https://truyenx.link/truyensextv/channels/share/lam-tinh-dip-tet"
      },
      "remote_data": {
        "url": "https://truyenx.link/truyensextv/channels/lam-tinh-dip-tet"
      }
    },
    {
      "id": "384-channel",
      "name": "Trễ rồi còn đâu",
      "description": "Em sinh ra trên mảnh đất tây nguyên nắng gió, vậy mà lấy chồng tại đất Huế mộng mơ này, kể sơ về em thì em là con thứ trong nhà, em có khuôn mặt rất là baby và đôi mắt khá long...",
      "image": null,
      "label": null,
      "display": "text-only",
      "type": "text",
      "enable_detail": true,
      "related": {
        "url": "https://truyenx.link/truyensextv/channels/related/384",
        "request_headers": []
      },
      "share": {
        "url": "https://truyenx.link/truyensextv/channels/share/tre-roi-con-dau"
      },
      "remote_data": {
        "url": "https://truyenx.link/truyensextv/channels/tre-roi-con-dau"
      }
    },
    {
      "id": "383-channel",
      "name": "Lần đụ tập thể đầu tiên",
      "description": "2013. Lang thang trên facebook và Ola treo stt “Ai bán người yêu không?” Lúc sau thì có 1 Boy PMình: Boy: Anh ơi địt vợ em không? Mình: Á đù! đùa hay thật? Boy: Địt thật anh ạ! Vk...",
      "image": null,
      "label": null,
      "display": "text-only",
      "type": "text",
      "enable_detail": true,
      "related": {
        "url": "https://truyenx.link/truyensextv/channels/related/383",
        "request_headers": []
      },
      "share": {
        "url": "https://truyenx.link/truyensextv/channels/share/lan-du-tap-the-dau-tien"
      },
      "remote_data": {
        "url": "https://truyenx.link/truyensextv/channels/lan-du-tap-the-dau-tien"
      }
    },
    {
      "id": "382-channel",
      "name": "Tù vượt ngục",
      "description": "Huy đi lang thang trên đường phố, trong túi không có đồng nào, bụng thì đang đói. Mỗi lần nhìn thấy công an, Huy vội vã né ra chỗ khác. Huy là tù vượt ngục, anh đã lợi dụng lúc...",
      "image": null,
      "label": null,
      "display": "text-only",
      "type": "text",
      "enable_detail": true,
      "related": {
        "url": "https://truyenx.link/truyensextv/channels/related/382",
        "request_headers": []
      },
      "share": {
        "url": "https://truyenx.link/truyensextv/channels/share/tu-vuot-nguc"
      },
      "remote_data": {
        "url": "https://truyenx.link/truyensextv/channels/tu-vuot-nguc"
      }
    },
    {
      "id": "381-channel",
      "name": "Chị gái người yêu cũ",
      "description": "2017, tôi đèo chị lên cầu Long Biên chơi, 2 chị em lâu rồi mới gặp nhau, cũng có nhiều điều để tâm sự. Nói chuyện thì nhiều, nhưng tôi nhớ nhất câu nói của chị: Với chị...",
      "image": null,
      "label": null,
      "display": "text-only",
      "type": "text",
      "enable_detail": true,
      "related": {
        "url": "https://truyenx.link/truyensextv/channels/related/381",
        "request_headers": []
      },
      "share": {
        "url": "https://truyenx.link/truyensextv/channels/share/chi-gai-nguoi-yeu-cu"
      },
      "remote_data": {
        "url": "https://truyenx.link/truyensextv/channels/chi-gai-nguoi-yeu-cu"
      }
    },
    {
      "id": "380-channel",
      "name": "Không thể nào quên",
      "description": "Tôi là một thằng con trai nhà giàu, được bố mẹ chiều chuộng. Bố mẹ tôi thường phải đi công tác gặp đối tác, nhưng không vì thế mà xao nhãng việc học của tôi. Trong lớp tôi...",
      "image": null,
      "label": null,
      "display": "text-only",
      "type": "text",
      "enable_detail": true,
      "related": {
        "url": "https://truyenx.link/truyensextv/channels/related/380",
        "request_headers": []
      },
      "share": {
        "url": "https://truyenx.link/truyensextv/channels/share/khong-the-nao-quen"
      },
      "remote_data": {
        "url": "https://truyenx.link/truyensextv/channels/khong-the-nao-quen"
      }
    },
    {
      "id": "379-channel",
      "name": "Hiếp dâm tập thể em Dương",
      "description": "Chiếc siêu xe dừng lại trước cổng biệt thự, cô gái nhìn ra bên ngoài, trên môi cựu hoa khôi khẽ nở một nụ cười hài lòng khi nhìn từng khóm hoa hồng màu vàng đung đưa trong ánh...",
      "image": null,
      "label": null,
      "display": "text-only",
      "type": "text",
      "enable_detail": true,
      "related": {
        "url": "https://truyenx.link/truyensextv/channels/related/379",
        "request_headers": []
      },
      "share": {
        "url": "https://truyenx.link/truyensextv/channels/share/hiep-dam-tap-the-em-duong"
      },
      "remote_data": {
        "url": "https://truyenx.link/truyensextv/channels/hiep-dam-tap-the-em-duong"
      }
    }
  ],
  "load_more": {
    "pageInfo": {
      "current_page": 127,
      "last_page": 140,
      "per_page": 30,
      "total": 4188
    },
    "paging": {
      "page_key": "page",
      "size_key": "size"
    },
    "remote_data": {
      "url": "https://truyenx.link/truyensextv/channels"
    }
  }
}