{"grid_number":1,"channels":[{"id":"3880-channel","name":"Câu chuyện tình yêu","description":"Hồi ức Sau 12 năm xa quê, lần đầu tôi trở về cố hương. Một ngôi làng nhỏ nằm kế bên sông. Tôi lớn lên ở nơi có núi, có sông, có những cánh đồng lúa trải dài xanh mướt...","image":null,"label":null,"display":"text-only","type":"text","enable_detail":true,"related":{"url":"https://truyenx.link/truyensextv/channels/related/3880","request_headers":[]},"share":{"url":"https://truyenx.link/truyensextv/channels/share/cau-chuyen-tinh-yeu"},"remote_data":{"url":"https://truyenx.link/truyensextv/channels/cau-chuyen-tinh-yeu"}},{"id":"3879-channel","name":"Mợ của tôi làm gái phục vụ","description":"Tôi xin kể qua 1 chút tôi tên là cường 19 tuổi đến từ hà nội, tôi được về ở chung với mợ để giúp mợ 1 số việc khi cậu đi làm ăn xa. Về phần mợ tôi, mợ là 1 người phụ...","image":null,"label":null,"display":"text-only","type":"text","enable_detail":true,"related":{"url":"https://truyenx.link/truyensextv/channels/related/3879","request_headers":[]},"share":{"url":"https://truyenx.link/truyensextv/channels/share/mo-cua-toi-lam-gai-phuc-vu"},"remote_data":{"url":"https://truyenx.link/truyensextv/channels/mo-cua-toi-lam-gai-phuc-vu"}},{"id":"3878-channel","name":"Đêm hoan lạc","description":"Đang lúc túng cùng, vì gia đình mướn em làm công, không còn đủ tiền để thuê em nữa thì con nhỏ bạn tới giới thiệu cho em, tới săn sóc một ông già. Gia đình này đã có thân nhân...","image":null,"label":null,"display":"text-only","type":"text","enable_detail":true,"related":{"url":"https://truyenx.link/truyensextv/channels/related/3878","request_headers":[]},"share":{"url":"https://truyenx.link/truyensextv/channels/share/dem-hoan-lac"},"remote_data":{"url":"https://truyenx.link/truyensextv/channels/dem-hoan-lac"}},{"id":"3877-channel","name":"Thanh - đàn bà khổ","description":"Cửa khẩu Hữu Nghị những năm sau 1979 bị chiếm đóng mất vài khu vực. Vì vậy biên giới không rõ ràng. Đồng là bộ đội được về sớm sau chiến thắng chiến tranh biên giới. Anh...","image":null,"label":null,"display":"text-only","type":"text","enable_detail":true,"related":{"url":"https://truyenx.link/truyensextv/channels/related/3877","request_headers":[]},"share":{"url":"https://truyenx.link/truyensextv/channels/share/thanh-dan-ba-kho"},"remote_data":{"url":"https://truyenx.link/truyensextv/channels/thanh-dan-ba-kho"}},{"id":"3876-channel","name":"Chuyện tình Thành - Ngọc, Vương - Hằng","description":"USB Loạn luân... từ ngữ sinh ra để nói đến việc quan hệ tình dục cùng với người cận huyết thống như bố mẹ quan hệ với con cái, cô chú, ông bà quan hệ với các cháu. Thật...","image":null,"label":null,"display":"text-only","type":"text","enable_detail":true,"related":{"url":"https://truyenx.link/truyensextv/channels/related/3876","request_headers":[]},"share":{"url":"https://truyenx.link/truyensextv/channels/share/chuyen-tinh-thanh-ngoc-vuong-hang"},"remote_data":{"url":"https://truyenx.link/truyensextv/channels/chuyen-tinh-thanh-ngoc-vuong-hang"}},{"id":"3875-channel","name":"Dân chơi","description":"Chiếc Lanos màu trắng nháy đèn xi nhan từ từ rẽ phải rồi đậu xịch trước cửa vũ trường lớn trên đại lộ ở thành phố HCM, cửa xe hé mở trên xe bước xuống hai thanh niên súng...","image":null,"label":null,"display":"text-only","type":"text","enable_detail":true,"related":{"url":"https://truyenx.link/truyensextv/channels/related/3875","request_headers":[]},"share":{"url":"https://truyenx.link/truyensextv/channels/share/dan-choi"},"remote_data":{"url":"https://truyenx.link/truyensextv/channels/dan-choi"}},{"id":"3874-channel","name":"Vợ chồng Tư Long Câu","description":"P, họ thích trọ ở đây vì lý...","image":null,"label":null,"display":"text-only","type":"text","enable_detail":true,"related":{"url":"https://truyenx.link/truyensextv/channels/related/3874","request_headers":[]},"share":{"url":"https://truyenx.link/truyensextv/channels/share/vo-chong-tu-long-cau"},"remote_data":{"url":"https://truyenx.link/truyensextv/channels/vo-chong-tu-long-cau"}},{"id":"3873-channel","name":"Đại Du","description":"Du khao khát được dập vùi thân xác rực lửa của bà giáo Mỹ hơn bao giờ hết. Trong giờ học mắt chàng cứ dán sát vào cặp mông tròn lẳn lơ và cặp nhũ hoa căng cứng sau làn vải...","image":null,"label":null,"display":"text-only","type":"text","enable_detail":true,"related":{"url":"https://truyenx.link/truyensextv/channels/related/3873","request_headers":[]},"share":{"url":"https://truyenx.link/truyensextv/channels/share/dai-du"},"remote_data":{"url":"https://truyenx.link/truyensextv/channels/dai-du"}},{"id":"3872-channel","name":"Con nhỏ cô giáo Loan","description":"“Ôi chết, ôi chết...” Loan liên tục quặn mình như con rắn lượn. 10 Đầu ngón chân và 10 đầu ngón tay của cô quíu lại. Loan rên xít, kêu ré, khoa tay xin thôi, mà miệng thì...","image":null,"label":null,"display":"text-only","type":"text","enable_detail":true,"related":{"url":"https://truyenx.link/truyensextv/channels/related/3872","request_headers":[]},"share":{"url":"https://truyenx.link/truyensextv/channels/share/con-nho-co-giao-loan"},"remote_data":{"url":"https://truyenx.link/truyensextv/channels/con-nho-co-giao-loan"}},{"id":"3871-channel","name":"Con bé ăn xin","description":"Bà ơi, bà làm ơn làm phước cho con xin một củ khoai, con đói quá. Con dập đầu cúi lạy bà. Xéo đi, đừng có xớ dzớ ở đấy, bà đập cho một gậy nhá, cút ngay không thì chết với...","image":null,"label":null,"display":"text-only","type":"text","enable_detail":true,"related":{"url":"https://truyenx.link/truyensextv/channels/related/3871","request_headers":[]},"share":{"url":"https://truyenx.link/truyensextv/channels/share/con-be-an-xin"},"remote_data":{"url":"https://truyenx.link/truyensextv/channels/con-be-an-xin"}},{"id":"3870-channel","name":"Anh hùng tiếp bước tại dị thế","description":"Người anh hùng ngã xuống Điện Biên 1 Điện Biên 1 đây là Điện Biên 7 các đối tượng cùng con tin vừa đi qua bìa rừng phía Nam, có 4 đối tượng dắt theo 7 con tin tuổi từ 4 đến...","image":null,"label":null,"display":"text-only","type":"text","enable_detail":true,"related":{"url":"https://truyenx.link/truyensextv/channels/related/3870","request_headers":[]},"share":{"url":"https://truyenx.link/truyensextv/channels/share/anh-hung-tiep-buoc-tai-di-the"},"remote_data":{"url":"https://truyenx.link/truyensextv/channels/anh-hung-tiep-buoc-tai-di-the"}},{"id":"3869-channel","name":"Cô Hoa","description":"Chuyện sau đây có thật 100%, trừ tên tuổi và một vài tình tiết. Tôi muốn viết ra trên truyensextv2.cc vì không thể nào giữ mãi trong lòng, và cũng muốn chia sẻ với bạn đọc bốn...","image":null,"label":null,"display":"text-only","type":"text","enable_detail":true,"related":{"url":"https://truyenx.link/truyensextv/channels/related/3869","request_headers":[]},"share":{"url":"https://truyenx.link/truyensextv/channels/share/co-hoa"},"remote_data":{"url":"https://truyenx.link/truyensextv/channels/co-hoa"}},{"id":"3868-channel","name":"Cô bé Ngọc Quỳnh","description":"10. Trường và lớp Quỳnh đang học đều rất tự hào về cô học trò nhỏ của mình. Bố mẹ cô bé cũng...","image":null,"label":null,"display":"text-only","type":"text","enable_detail":true,"related":{"url":"https://truyenx.link/truyensextv/channels/related/3868","request_headers":[]},"share":{"url":"https://truyenx.link/truyensextv/channels/share/co-be-ngoc-quynh"},"remote_data":{"url":"https://truyenx.link/truyensextv/channels/co-be-ngoc-quynh"}},{"id":"3867-channel","name":"Chuyện tình xóm đạo","description":"Tôi sinh ra và lớn lên ở xóm Lương, xóm tôi và xóm Đạo cách nhau bởi Vườn đào ma. Người ta kể rằng: Ngày xưa ông Vạn Hòa một địa chủ giàu có và khét tiếng ác ôn đích thân...","image":null,"label":null,"display":"text-only","type":"text","enable_detail":true,"related":{"url":"https://truyenx.link/truyensextv/channels/related/3867","request_headers":[]},"share":{"url":"https://truyenx.link/truyensextv/channels/share/chuyen-tinh-xom-dao"},"remote_data":{"url":"https://truyenx.link/truyensextv/channels/chuyen-tinh-xom-dao"}},{"id":"3865-channel","name":"Chuyện tình trong rạp rex","description":"Tôi và Kim đi vào rạp Rex. Kẻ đi trước người đi sau. Nhưng khi bước hẳn vào rạp chiếu bóng, tôi nắm kéo Kim theo tôi. Minh Kim vẫn để yên cho tôi dẫn đi. Tôi tìm mãi mới được 2...","image":null,"label":null,"display":"text-only","type":"text","enable_detail":true,"related":{"url":"https://truyenx.link/truyensextv/channels/related/3865","request_headers":[]},"share":{"url":"https://truyenx.link/truyensextv/channels/share/chuyen-tinh-trong-rap-rex"},"remote_data":{"url":"https://truyenx.link/truyensextv/channels/chuyen-tinh-trong-rap-rex"}},{"id":"3866-channel","name":"Câu chuyện của tôi","description":"Tôi là Hoàng 24 tuổi, sinh ra ở Nam Định nhưng lớn lên ở Hà Nội, Bố tôi tên Hòa 50 tuổi, mẹ tôi tên Hoa 47 tuổi, gia đình tôi kinh doanh đồ gỗ nhưng tôi không theo nghề gia đình mà...","image":null,"label":null,"display":"text-only","type":"text","enable_detail":true,"related":{"url":"https://truyenx.link/truyensextv/channels/related/3866","request_headers":[]},"share":{"url":"https://truyenx.link/truyensextv/channels/share/cau-chuyen-cua-toi"},"remote_data":{"url":"https://truyenx.link/truyensextv/channels/cau-chuyen-cua-toi"}},{"id":"3864-channel","name":"Chim cánh cụt","description":"Không ai biết rõ về nó, chỉ biết nó là một người lùn từ Quãng Nam vô Sài Gòn kiếm sống. Nó khoảng 18 19 tuổi mà chỉ cao gần một thước. Hai chân và hai tay ngắn củng. Cái đít...","image":null,"label":null,"display":"text-only","type":"text","enable_detail":true,"related":{"url":"https://truyenx.link/truyensextv/channels/related/3864","request_headers":[]},"share":{"url":"https://truyenx.link/truyensextv/channels/share/chim-canh-cut"},"remote_data":{"url":"https://truyenx.link/truyensextv/channels/chim-canh-cut"}},{"id":"3863-channel","name":"Chuyện tình của Mai","description":"Mai Một cô thôn nữ, ở vùng quê thuộc diện vùng sâu vùng xa. Nhưng đó cũng là một vùng quê như bao làng quê khác với rặng tre, giếng nước bờ ao. Quê Mai Một vùng bán sơn địa...","image":null,"label":null,"display":"text-only","type":"text","enable_detail":true,"related":{"url":"https://truyenx.link/truyensextv/channels/related/3863","request_headers":[]},"share":{"url":"https://truyenx.link/truyensextv/channels/share/chuyen-tinh-cua-mai"},"remote_data":{"url":"https://truyenx.link/truyensextv/channels/chuyen-tinh-cua-mai"}},{"id":"3862-channel","name":"Chuyện ông hàng xóm","description":"Ông Năm góa vợ đã khá lâu nắm rồi, năm nay ông mới bốn hai tuổi. Là một nhà giáo, có vóc dáng to khỏe, ông cứ ở vậy nuôi hai cô con gái... cho tới khi hai con ông đi lấy chồng...","image":null,"label":null,"display":"text-only","type":"text","enable_detail":true,"related":{"url":"https://truyenx.link/truyensextv/channels/related/3862","request_headers":[]},"share":{"url":"https://truyenx.link/truyensextv/channels/share/chuyen-ong-hang-xom"},"remote_data":{"url":"https://truyenx.link/truyensextv/channels/chuyen-ong-hang-xom"}},{"id":"3861-channel","name":"Chồng chúa vợ tôi","description":"Hắn không bao giờ thương yêu con vợ trẻ. Hễ nhìn thấy cô ta là hắn phát cáu. Hắn có thích lấy cô ta đâu. Tại ba má hắn ở dưới quê hứa hẹn. Cô ta là gái quê, không đẹp không...","image":null,"label":null,"display":"text-only","type":"text","enable_detail":true,"related":{"url":"https://truyenx.link/truyensextv/channels/related/3861","request_headers":[]},"share":{"url":"https://truyenx.link/truyensextv/channels/share/chong-chua-vo-toi"},"remote_data":{"url":"https://truyenx.link/truyensextv/channels/chong-chua-vo-toi"}},{"id":"3860-channel","name":"Chim thằng Tú, vú chị Mơ","description":"Thân, chồng Mơ là người cùng làng, lại có họ với chị Ba, phó bí thư thành ủy, nên hai vợ chồng được điều từ quê tận ngoài Kiến An vào Nam phục vụ cho anh chị Ba. Mấy năm...","image":null,"label":null,"display":"text-only","type":"text","enable_detail":true,"related":{"url":"https://truyenx.link/truyensextv/channels/related/3860","request_headers":[]},"share":{"url":"https://truyenx.link/truyensextv/channels/share/chim-thang-tu-vu-chi-mo"},"remote_data":{"url":"https://truyenx.link/truyensextv/channels/chim-thang-tu-vu-chi-mo"}},{"id":"3859-channel","name":"Chơi gái da đen","description":"Sau khi bị Thu Thủy hành hạ vì chuyện Tuyết Lê, tôi tính gác cu quy ẩn, không còn đi hành lạc giang hồ nữa. Không ngờ trời vẫn chưa tha, bắt tôi phải trả thù dân tộc trước khi...","image":null,"label":null,"display":"text-only","type":"text","enable_detail":true,"related":{"url":"https://truyenx.link/truyensextv/channels/related/3859","request_headers":[]},"share":{"url":"https://truyenx.link/truyensextv/channels/share/choi-gai-da-den"},"remote_data":{"url":"https://truyenx.link/truyensextv/channels/choi-gai-da-den"}},{"id":"3858-channel","name":"Chiếc vòng sắt trạm hình vòng","description":"Tại phòng đợi phi trường San Francisco. Bà Tấn ôm Bình nói: Con qua Việt Nam gặp bác Hưng lần này mẹ mừng lắm. Cố gắng học hỏi thêm và vui vẻ với cái Yến. Con dâu tương lai...","image":null,"label":null,"display":"text-only","type":"text","enable_detail":true,"related":{"url":"https://truyenx.link/truyensextv/channels/related/3858","request_headers":[]},"share":{"url":"https://truyenx.link/truyensextv/channels/share/chiec-vong-sat-tram-hinh-vong"},"remote_data":{"url":"https://truyenx.link/truyensextv/channels/chiec-vong-sat-tram-hinh-vong"}},{"id":"3857-channel","name":"Quán nhậu “ÚT HỒNG”","description":"Trên đường đi làm về, ngang qua khu dân cư mới đang xây dựng, thấy trước căn biệt thự chưa hoàn chỉnh của thằng bạn, có cái biển “Quán nhậu Út Hồng”. Tò mò, Tôi rẽ...","image":null,"label":null,"display":"text-only","type":"text","enable_detail":true,"related":{"url":"https://truyenx.link/truyensextv/channels/related/3857","request_headers":[]},"share":{"url":"https://truyenx.link/truyensextv/channels/share/quan-nhau-ut-hong"},"remote_data":{"url":"https://truyenx.link/truyensextv/channels/quan-nhau-ut-hong"}},{"id":"3856-channel","name":"Chiếc nhẫn","description":"Tại xứ Peru dân da đỏ thường có tục lệ trao đổi nhẫn trong lễ đính hôn giữa đôi trẻ. Những chiếc nhẫn này đều là nhẫn có từ lâu đời của gia đình hai bên, gọi là nhẫn...","image":null,"label":null,"display":"text-only","type":"text","enable_detail":true,"related":{"url":"https://truyenx.link/truyensextv/channels/related/3856","request_headers":[]},"share":{"url":"https://truyenx.link/truyensextv/channels/share/chiec-nhan"},"remote_data":{"url":"https://truyenx.link/truyensextv/channels/chiec-nhan"}},{"id":"3855-channel","name":"Chị Thu Lan","description":"Sau khi chia tay với bà Minh & bà Hồng, tôi trở lại tiểu bang cũ dạy toán cho một đại học trong vùng. Nỗi thương nhớ Minh & Hồng cũng vơi dần theo năm tháng. Lúc đó mẹ tôi...","image":null,"label":null,"display":"text-only","type":"text","enable_detail":true,"related":{"url":"https://truyenx.link/truyensextv/channels/related/3855","request_headers":[]},"share":{"url":"https://truyenx.link/truyensextv/channels/share/chi-thu-lan"},"remote_data":{"url":"https://truyenx.link/truyensextv/channels/chi-thu-lan"}},{"id":"3854-channel","name":"Em Mai","description":"Năm đó tôi vừa tròn 20 tuổi, là sinh viên năm thứ hai Đại học Bách Khoa. Tuy không đẹp trai lắm nhưng trời lại phú cho tôi cái khiếu ăn nói... và cũng cho tôi cái số đào hoa. Chúng...","image":null,"label":null,"display":"text-only","type":"text","enable_detail":true,"related":{"url":"https://truyenx.link/truyensextv/channels/related/3854","request_headers":[]},"share":{"url":"https://truyenx.link/truyensextv/channels/share/em-mai"},"remote_data":{"url":"https://truyenx.link/truyensextv/channels/em-mai"}},{"id":"3853-channel","name":"Cháu muốn làm tình","description":"Chiếc đầu DVD Qisheng vừa được Trang mua về từ món tiền ba má cho nhân dịp Trang trúng tuyển vào Đại Học. Đã từ lâu Trang ao ước có 1 chiếc đầu đĩa riêng để có thể tự do...","image":null,"label":null,"display":"text-only","type":"text","enable_detail":true,"related":{"url":"https://truyenx.link/truyensextv/channels/related/3853","request_headers":[]},"share":{"url":"https://truyenx.link/truyensextv/channels/share/chau-muon-lam-tinh"},"remote_data":{"url":"https://truyenx.link/truyensextv/channels/chau-muon-lam-tinh"}},{"id":"3852-channel","name":"Cha con Tuấn Ngọc","description":"Vào một ngày đẹp trời, Ngọc quyết định dậy sớm để tập thể dục. Thực ra thì nàng đã có sẵn 1 thân hình cân đối và phải nói không chê được vào đâu nhưng nàng quyết...","image":null,"label":null,"display":"text-only","type":"text","enable_detail":true,"related":{"url":"https://truyenx.link/truyensextv/channels/related/3852","request_headers":[]},"share":{"url":"https://truyenx.link/truyensextv/channels/share/cha-con-tuan-ngoc"},"remote_data":{"url":"https://truyenx.link/truyensextv/channels/cha-con-tuan-ngoc"}},{"id":"3851-channel","name":"Cậu Tư Chướng","description":"Trong khu phố từ con nít đến người gần trăm tuổi đều biết đến cậu Tư Chướng. Người ta khẽ bảo với nhau, cậu ta là người đàn ông cặc dài. Lối phố bàn tán như vậy nhưng...","image":null,"label":null,"display":"text-only","type":"text","enable_detail":true,"related":{"url":"https://truyenx.link/truyensextv/channels/related/3851","request_headers":[]},"share":{"url":"https://truyenx.link/truyensextv/channels/share/cau-tu-chuong"},"remote_data":{"url":"https://truyenx.link/truyensextv/channels/cau-tu-chuong"}}],"load_more":{"pageInfo":{"current_page":31,"last_page":140,"per_page":30,"total":4188},"paging":{"page_key":"page","size_key":"size"},"remote_data":{"url":"https://truyenx.link/truyensextv/channels"}}}