{"grid_number":1,"channels":[{"id":"3760-channel","name":"Những con đĩ dâm đãng","description":"Hà 1 con đĩ nứng lồn cái lồn dâm lúc nào cũng đầy nước sở hữu thân hình mảnh khảnh cao 1m63 da trắng eo thon vòng 1 không gọi là quá to cũng không quá nhỏ... Sở dĩ kêu Hà là đĩ...","image":null,"label":null,"display":"text-only","type":"text","enable_detail":true,"related":{"url":"https://truyenx.link/truyensextv/channels/related/3760","request_headers":[]},"share":{"url":"https://truyenx.link/truyensextv/channels/share/nhung-con-di-dam-dang"},"remote_data":{"url":"https://truyenx.link/truyensextv/channels/nhung-con-di-dam-dang"}},{"id":"3759-channel","name":"Chuyện chị Hường","description":"Đêm thứ bảy, chị Hường thức dậy nữa khuya. Trời bên ngoài nóng hừng hực. Mùa hè miền Đông Bắc Mỹ nhiều khi nóng lên gần 100 độ F, Thuê những căn Apartment rẻ tiền không có...","image":null,"label":null,"display":"text-only","type":"text","enable_detail":true,"related":{"url":"https://truyenx.link/truyensextv/channels/related/3759","request_headers":[]},"share":{"url":"https://truyenx.link/truyensextv/channels/share/chuyen-chi-huong"},"remote_data":{"url":"https://truyenx.link/truyensextv/channels/chuyen-chi-huong"}},{"id":"3758-channel","name":"Mẹ yêu","description":"Ah... Ah... Oh... Oh... mạnh lên cưng... phải... phải ngay đó đó, mạnh lên... Trên chiếc giường đôi là một gã thanh niên đang quấn chặt lấy một người đàn bà, hắn đang nắc những...","image":null,"label":null,"display":"text-only","type":"text","enable_detail":true,"related":{"url":"https://truyenx.link/truyensextv/channels/related/3758","request_headers":[]},"share":{"url":"https://truyenx.link/truyensextv/channels/share/me-yeu"},"remote_data":{"url":"https://truyenx.link/truyensextv/channels/me-yeu"}},{"id":"3757-channel","name":"Mát xa","description":"Lúa má dạo này giá cao mà thu vô chẳng được là bao nhiêu làm Tư cò chán nản, nhiều đêm nằm vắt tay lên chán Tư cò nghĩ hay là bán quách mẹ nó cái máy xay xát lúa kiếm ít vốn...","image":null,"label":null,"display":"text-only","type":"text","enable_detail":true,"related":{"url":"https://truyenx.link/truyensextv/channels/related/3757","request_headers":[]},"share":{"url":"https://truyenx.link/truyensextv/channels/share/mat-xa"},"remote_data":{"url":"https://truyenx.link/truyensextv/channels/mat-xa"}},{"id":"3756-channel","name":"Mẹ vắng nhà","description":"Gia đình tôi vốn nghèo lắm, căn nhà khi cha tôi chết để lại trước sau chẳng được gì ngoài một vườn trồng trọt rau cải và giàn mướp hương mà mẹ tôi vẫn thường ngày hái...","image":null,"label":null,"display":"text-only","type":"text","enable_detail":true,"related":{"url":"https://truyenx.link/truyensextv/channels/related/3756","request_headers":[]},"share":{"url":"https://truyenx.link/truyensextv/channels/share/me-vang-nha"},"remote_data":{"url":"https://truyenx.link/truyensextv/channels/me-vang-nha"}},{"id":"3755-channel","name":"Mai","description":"Sân trường đại học hôm nay chợt im ắng khác với mọi ngày thường, chắc là thứ 7 nên mọi người không đến lớp, hàng ghế đá trống trơn chỉ lác đác vài người siêng học hay...","image":null,"label":null,"display":"text-only","type":"text","enable_detail":true,"related":{"url":"https://truyenx.link/truyensextv/channels/related/3755","request_headers":[]},"share":{"url":"https://truyenx.link/truyensextv/channels/share/mai"},"remote_data":{"url":"https://truyenx.link/truyensextv/channels/mai"}},{"id":"3754-channel","name":"Tình dục học đường","description":"Dù là mùa hè nhưng thời tiết ở vùng trung du vẫn mát mẻ hơn ở đồng bằng. Nhận quyết định xong, tạm biệt mọi người tôi lên xe rồi về miền quê hẻo lánh để làm. Ra trường...","image":null,"label":null,"display":"text-only","type":"text","enable_detail":true,"related":{"url":"https://truyenx.link/truyensextv/channels/related/3754","request_headers":[]},"share":{"url":"https://truyenx.link/truyensextv/channels/share/tinh-duc-hoc-duong"},"remote_data":{"url":"https://truyenx.link/truyensextv/channels/tinh-duc-hoc-duong"}},{"id":"3753-channel","name":"Má nó lên cơn","description":"Hai má con nó ở chung phòng với ông bà Năm. Phòng nhỏ chỉ có một giường cho má nó nằm, nó trải cái túi ngủ nằm dưới đất. Hồi mới tới cách đây một năm, hai má con còn ngủ...","image":null,"label":null,"display":"text-only","type":"text","enable_detail":true,"related":{"url":"https://truyenx.link/truyensextv/channels/related/3753","request_headers":[]},"share":{"url":"https://truyenx.link/truyensextv/channels/share/ma-no-len-con"},"remote_data":{"url":"https://truyenx.link/truyensextv/channels/ma-no-len-con"}},{"id":"3752-channel","name":"Ma chơi","description":"Những đốm sáng chập chờn bên trong nghĩa địa, như những ánh ma chơi làm Hưng chú ý ngay từ đêm tân hôn. Chính Hưng cũng không hiểu tại sao chàng lại nghe lời Đào, mướn phòng ở...","image":null,"label":null,"display":"text-only","type":"text","enable_detail":true,"related":{"url":"https://truyenx.link/truyensextv/channels/related/3752","request_headers":[]},"share":{"url":"https://truyenx.link/truyensextv/channels/share/ma-choi"},"remote_data":{"url":"https://truyenx.link/truyensextv/channels/ma-choi"}},{"id":"3751-channel","name":"Vợ tôi dâm hơn đĩ","description":"Hương vợ tôi năm nay 28 tuổi, là một phụ nữ xinh đẹp, 3 vòng vòng nào ra vòng nấy. Đặt biệt là cặp mông căng tròn, ai nhìn cũng muốn đè ra để Doggy cho thỏa cơn thèm khác, dù...","image":null,"label":null,"display":"text-only","type":"text","enable_detail":true,"related":{"url":"https://truyenx.link/truyensextv/channels/related/3751","request_headers":[]},"share":{"url":"https://truyenx.link/truyensextv/channels/share/vo-toi-dam-hon-di"},"remote_data":{"url":"https://truyenx.link/truyensextv/channels/vo-toi-dam-hon-di"}},{"id":"3750-channel","name":"Lần đầu làm tình với bác dâu","description":"Tôi là H và tôi ở vùng nông thôn vì vậy các ngôi nhà ở vùng nông thôn chúng tôi thường cách nhau bởi 1 khu vườn nhỏ được che chắn bởi các cây cối nên rất khó để nhìn thấy...","image":null,"label":null,"display":"text-only","type":"text","enable_detail":true,"related":{"url":"https://truyenx.link/truyensextv/channels/related/3750","request_headers":[]},"share":{"url":"https://truyenx.link/truyensextv/channels/share/lan-dau-lam-tinh-voi-bac-dau"},"remote_data":{"url":"https://truyenx.link/truyensextv/channels/lan-dau-lam-tinh-voi-bac-dau"}},{"id":"3749-channel","name":"Tình bạn keo sơn","description":"Nhấp được một chút thì tôi cũng cứ nằm yên mà ngoáy chầm chậm con cặc ở bên trong cái lỗ lồn. Nước nhờn bên trong cứ thế mà nhoe nhoét nước chảy ra thêm thật nhiều. Thấy...","image":null,"label":null,"display":"text-only","type":"text","enable_detail":true,"related":{"url":"https://truyenx.link/truyensextv/channels/related/3749","request_headers":[]},"share":{"url":"https://truyenx.link/truyensextv/channels/share/tinh-ban-keo-son"},"remote_data":{"url":"https://truyenx.link/truyensextv/channels/tinh-ban-keo-son"}},{"id":"3748-channel","name":"Chơi bê đê với giám đốc mập","description":"Tôi là T năm nay 28 tuổi tôi đã lập gia đình và có 1 đứa con, tôi là leader của 1 team ở trong phòng ban marketing, tôi là một người khá là mập cân nặng của tôi là 100kg tuy nhiên tôi...","image":null,"label":null,"display":"text-only","type":"text","enable_detail":true,"related":{"url":"https://truyenx.link/truyensextv/channels/related/3748","request_headers":[]},"share":{"url":"https://truyenx.link/truyensextv/channels/share/choi-be-de-voi-giam-doc-map"},"remote_data":{"url":"https://truyenx.link/truyensextv/channels/choi-be-de-voi-giam-doc-map"}},{"id":"3747-channel","name":"Người vợ đẹp","description":"Tốt nghiệp đại học xong rồi lấy vợ và xin vào một công ty nhà nước làm được gần 8 năm thì tôi cũng lên được chức phó phòng. Cũng chính từ đây mà mọi chuyện trong gia đình...","image":null,"label":null,"display":"text-only","type":"text","enable_detail":true,"related":{"url":"https://truyenx.link/truyensextv/channels/related/3747","request_headers":[]},"share":{"url":"https://truyenx.link/truyensextv/channels/share/nguoi-vo-dep"},"remote_data":{"url":"https://truyenx.link/truyensextv/channels/nguoi-vo-dep"}},{"id":"3746-channel","name":"Người mẹ dâm đãng","description":"Đang buồn về chuyện thi cử của mình. Về đến nhà thì đã thấy mẹ tôi ở nhà cùng với một người đàn ông rồi. Tôi lên cấp ba nên chuyện yêu đương lăng nhăng thì tôi cũng...","image":null,"label":null,"display":"text-only","type":"text","enable_detail":true,"related":{"url":"https://truyenx.link/truyensextv/channels/related/3746","request_headers":[]},"share":{"url":"https://truyenx.link/truyensextv/channels/share/nguoi-me-dam-dang"},"remote_data":{"url":"https://truyenx.link/truyensextv/channels/nguoi-me-dam-dang"}},{"id":"3745-channel","name":"Lễ hiến trinh","description":"Trong một lâu đài, dưới ánh đèn vàng tráng lệ là một cái sạp cao tới bụng người, phủ khăn trắng, trên khăn trắng là một cô gái người Iran trần truồng, mặt phủ bằng một...","image":null,"label":null,"display":"text-only","type":"text","enable_detail":true,"related":{"url":"https://truyenx.link/truyensextv/channels/related/3745","request_headers":[]},"share":{"url":"https://truyenx.link/truyensextv/channels/share/le-hien-trinh"},"remote_data":{"url":"https://truyenx.link/truyensextv/channels/le-hien-trinh"}},{"id":"3744-channel","name":"Lãng mạn","description":"Bước vào năm tuổi 39, Thu Vân biết mình không còn yêu Hoàng nữa. Sau 15 năm lấy nhau, nàng cảm thấy nàng mất mát quá nhiều. Hai người chỉ sanh được một con trai rồi thôi, tối ngày...","image":null,"label":null,"display":"text-only","type":"text","enable_detail":true,"related":{"url":"https://truyenx.link/truyensextv/channels/related/3744","request_headers":[]},"share":{"url":"https://truyenx.link/truyensextv/channels/share/lang-man"},"remote_data":{"url":"https://truyenx.link/truyensextv/channels/lang-man"}},{"id":"3743-channel","name":"Lần đầu tiên","description":"Chuyện xảy ra vào trung tuần tháng tám chỉ vài tháng sau cuộc hẹn hò của chúng tôi. Kể từ tháng tư, mặc dù chỉ có một cuộc hẹn thôi nhưng chúng tôi đã yêu nhau. Mặc dù cô ấy...","image":null,"label":null,"display":"text-only","type":"text","enable_detail":true,"related":{"url":"https://truyenx.link/truyensextv/channels/related/3743","request_headers":[]},"share":{"url":"https://truyenx.link/truyensextv/channels/share/lan-dau-tien"},"remote_data":{"url":"https://truyenx.link/truyensextv/channels/lan-dau-tien"}},{"id":"3742-channel","name":"Kỷ niệm Hồng Kông","description":"Trong chuyến đi Việt Nam vừa rồi, tôi và vợ tôi, Vân, cùng ngồi chung trên máy bay với một cặp vợ chồng Việt Nam khác rất dễ thương trên chuyến đi về Mỹ. Hai vợ chồng này...","image":null,"label":null,"display":"text-only","type":"text","enable_detail":true,"related":{"url":"https://truyenx.link/truyensextv/channels/related/3742","request_headers":[]},"share":{"url":"https://truyenx.link/truyensextv/channels/share/ky-niem-hong-kong"},"remote_data":{"url":"https://truyenx.link/truyensextv/channels/ky-niem-hong-kong"}},{"id":"3741-channel","name":"Sóng tình Cam Ranh","description":"Trang và Cường và cặp vợ chồng có thể nói là cực kỳ đẹp đôi. Họ sống ở thành phố Cam Ranh nơi có thể coi là một thiên đường du lịch biển thứ hai tại tỉnh Khánh Hòa. Tuy...","image":null,"label":null,"display":"text-only","type":"text","enable_detail":true,"related":{"url":"https://truyenx.link/truyensextv/channels/related/3741","request_headers":[]},"share":{"url":"https://truyenx.link/truyensextv/channels/share/song-tinh-cam-ranh"},"remote_data":{"url":"https://truyenx.link/truyensextv/channels/song-tinh-cam-ranh"}},{"id":"3740-channel","name":"Khúc hát tình yêu","description":"Tiếng hát Như Quỳnh thanh cao cất vang trong làn âm nhạc quê hương đã làm bao thính khách trong rạp mê say. Giữa một khung trời xa cách Việt Nam cả hơn mấy nghìn cây số đường biển...","image":null,"label":null,"display":"text-only","type":"text","enable_detail":true,"related":{"url":"https://truyenx.link/truyensextv/channels/related/3740","request_headers":[]},"share":{"url":"https://truyenx.link/truyensextv/channels/share/khuc-hat-tinh-yeu"},"remote_data":{"url":"https://truyenx.link/truyensextv/channels/khuc-hat-tinh-yeu"}},{"id":"3739-channel","name":"Cô giáo Hằng Chuppy","description":"Mình tên Hằng 23t là giáo viên mầm non mình cao 1m65 mình thuộc dạng chuppy 3 vòng thì khá to da trắng. Chuyện là vào thứ 2 tuần rồi mình có đưa em gái mình đi làm cccd. Mình mặc đồ...","image":null,"label":null,"display":"text-only","type":"text","enable_detail":true,"related":{"url":"https://truyenx.link/truyensextv/channels/related/3739","request_headers":[]},"share":{"url":"https://truyenx.link/truyensextv/channels/share/co-giao-hang-chuppy"},"remote_data":{"url":"https://truyenx.link/truyensextv/channels/co-giao-hang-chuppy"}},{"id":"3738-channel","name":"Nàng dâu gợi cảm","description":"Lệ sinh ra trong một gia đình khà là nề nếp. Bố là bác sĩ, mẹ là giáo viên. Được sống trong một gia đinh cơ bản như vậy lại được bố mẹ chăm chút kỹ càng lên Lệ khá là...","image":null,"label":null,"display":"text-only","type":"text","enable_detail":true,"related":{"url":"https://truyenx.link/truyensextv/channels/related/3738","request_headers":[]},"share":{"url":"https://truyenx.link/truyensextv/channels/share/nang-dau-goi-cam"},"remote_data":{"url":"https://truyenx.link/truyensextv/channels/nang-dau-goi-cam"}},{"id":"3737-channel","name":"Hiến dâng","description":"Cặp với Sơn 3 tháng nay, nhưng chưa lần nào Sơn sàm sỡ với Phương như đêm qua. Dưới ánh đèn vũ trường CBC, vừa nhảy Sơn vừa cạ vào vú Phương. Cạ vú thì đâu có gì là lạ...","image":null,"label":null,"display":"text-only","type":"text","enable_detail":true,"related":{"url":"https://truyenx.link/truyensextv/channels/related/3737","request_headers":[]},"share":{"url":"https://truyenx.link/truyensextv/channels/share/hien-dang"},"remote_data":{"url":"https://truyenx.link/truyensextv/channels/hien-dang"}},{"id":"3736-channel","name":"Tâm sự của dâm nữ","description":"Xin chào mấy bạn, chả là tui là một dâm nữ, phận đời đưa đẩy, tui lại tiếp xúc với mấy cái đồi trụy từ khá nhỏ, nhưng mà khi lớn lên rồi mới hiểu hết. Chuyện là vú tui...","image":null,"label":null,"display":"text-only","type":"text","enable_detail":true,"related":{"url":"https://truyenx.link/truyensextv/channels/related/3736","request_headers":[]},"share":{"url":"https://truyenx.link/truyensextv/channels/share/tam-su-cua-dam-nu"},"remote_data":{"url":"https://truyenx.link/truyensextv/channels/tam-su-cua-dam-nu"}},{"id":"3735-channel","name":"Gái gọi","description":"Hồng đi tới đi lui ngắm nghía bộ đồ đắt tiền treo trong tủ kính. Cô gái đưa mắt chăm chú nhìn bộ đồ sang trọng mang nhãn hiệu nổi tiếng một cách thèm thuồng, rồi nó nhìn...","image":null,"label":null,"display":"text-only","type":"text","enable_detail":true,"related":{"url":"https://truyenx.link/truyensextv/channels/related/3735","request_headers":[]},"share":{"url":"https://truyenx.link/truyensextv/channels/share/gai-goi"},"remote_data":{"url":"https://truyenx.link/truyensextv/channels/gai-goi"}},{"id":"3734-channel","name":"Dũng","description":"Là một thằng con trai mới lớn, tôi cũng không thể thoát được những cám dỗ của tình dục. Nếu nói về thủ dâm, có lẽ tôi có thể tự hào về tần số thủ dâm của tôi có khi là...","image":null,"label":null,"display":"text-only","type":"text","enable_detail":true,"related":{"url":"https://truyenx.link/truyensextv/channels/related/3734","request_headers":[]},"share":{"url":"https://truyenx.link/truyensextv/channels/share/dung"},"remote_data":{"url":"https://truyenx.link/truyensextv/channels/dung"}},{"id":"3733-channel","name":"Một chuyến ra Đồ Sơn","description":"Ngay những ngày tháng 8 vừa rồi chuẩn bị bước vào năm học mới. Bốn đứa chúng lớp 11 chúng tôi góp tiền rủ nhau ra Đồ Sơn chơi một bữa. Chúng tôi gồm Bảo, Sơn, An và tôi. Do...","image":null,"label":null,"display":"text-only","type":"text","enable_detail":true,"related":{"url":"https://truyenx.link/truyensextv/channels/related/3733","request_headers":[]},"share":{"url":"https://truyenx.link/truyensextv/channels/share/mot-chuyen-ra-do-son"},"remote_data":{"url":"https://truyenx.link/truyensextv/channels/mot-chuyen-ra-do-son"}},{"id":"3732-channel","name":"Mợ loan dâm","description":"Ngọc Khánh về ăn cơm nào. Mẹ đợi con một tí. Tiếng Ngọc Khánh vang lên ở bên nhà hàng xóm. Đứa em họ tôi mười bảy tuổi đang học lớp mười một còn người gọi là mợ Loan...","image":null,"label":null,"display":"text-only","type":"text","enable_detail":true,"related":{"url":"https://truyenx.link/truyensextv/channels/related/3732","request_headers":[]},"share":{"url":"https://truyenx.link/truyensextv/channels/share/mo-loan-dam"},"remote_data":{"url":"https://truyenx.link/truyensextv/channels/mo-loan-dam"}},{"id":"3731-channel","name":"Đức","description":"Bà Liên bước vào phòng thằng Đức định kêu nó đi tắm thì thấy Đức ngồi trên giường tay đang sục lên sục xuống cái dương vật to tổ bố đỏ rực, một ít nước nhờn rỉ ra...","image":null,"label":null,"display":"text-only","type":"text","enable_detail":true,"related":{"url":"https://truyenx.link/truyensextv/channels/related/3731","request_headers":[]},"share":{"url":"https://truyenx.link/truyensextv/channels/share/duc"},"remote_data":{"url":"https://truyenx.link/truyensextv/channels/duc"}}],"load_more":{"pageInfo":{"current_page":35,"last_page":140,"per_page":30,"total":4188},"paging":{"page_key":"page","size_key":"size"},"remote_data":{"url":"https://truyenx.link/truyensextv/channels"}}}