{"grid_number":1,"channels":[{"id":"1428-channel","name":"Cô giáo dạy Hóa","description":"Chuyện này ban đầu mình không định kể, mình còn không liệt kê chuyện này trong cmt đầu tiên của mình trong bài này. Không nhớ chính xác lắm cô về trường mình dạy từ khi nào...","image":null,"label":null,"display":"text-only","type":"text","enable_detail":true,"related":{"url":"https://truyenx.link/truyensextv/channels/related/1428","request_headers":[]},"share":{"url":"https://truyenx.link/truyensextv/channels/share/co-giao-day-hoa"},"remote_data":{"url":"https://truyenx.link/truyensextv/channels/co-giao-day-hoa"}},{"id":"1427-channel","name":"Địt gái lồn sâu","description":"Hồi đó cách đây chừng 3 năm, em vẫn làm cho 1 công ty người quen về mảng marketing, đợt đó công ty em có ký với 1 khách mới về việc triển khai marketing cho bên đó. Công việc diễn...","image":null,"label":null,"display":"text-only","type":"text","enable_detail":true,"related":{"url":"https://truyenx.link/truyensextv/channels/related/1427","request_headers":[]},"share":{"url":"https://truyenx.link/truyensextv/channels/share/dit-gai-lon-sau"},"remote_data":{"url":"https://truyenx.link/truyensextv/channels/dit-gai-lon-sau"}},{"id":"1426-channel","name":"Cưỡng dâm vợ bạn","description":"Tôi và T vốn là hai đứa chơi thân với nhau hồi đại học, nhà nó khá lắm, nghe đâu bố nó làm quan to dưới tỉnh. Vì thế nó lấy được cô vợ hoa khôi kém nó 5 tuổi đang làm ngân...","image":null,"label":null,"display":"text-only","type":"text","enable_detail":true,"related":{"url":"https://truyenx.link/truyensextv/channels/related/1426","request_headers":[]},"share":{"url":"https://truyenx.link/truyensextv/channels/share/cuong-dam-vo-ban"},"remote_data":{"url":"https://truyenx.link/truyensextv/channels/cuong-dam-vo-ban"}},{"id":"1425-channel","name":"Bác sĩ thèm tinh dịch","description":"Lê Minh và Lâm Ngọc là một cặp vợ chồng hạnh phúc. Họ là bạn học trong trường Đại học Y Hà Nội. Sau khi tốt nghiệp, thời gian đầu họ cùng đi làm trong Bệnh viện Việt Pháp...","image":null,"label":null,"display":"text-only","type":"text","enable_detail":true,"related":{"url":"https://truyenx.link/truyensextv/channels/related/1425","request_headers":[]},"share":{"url":"https://truyenx.link/truyensextv/channels/share/bac-si-them-tinh-dich"},"remote_data":{"url":"https://truyenx.link/truyensextv/channels/bac-si-them-tinh-dich"}},{"id":"1424-channel","name":"Họp lớp","description":"Cuối năm 2018, tôi đi công tác Hà Nội ghé về quê, chúng tôi tổ chức họp lớp hồi cấp 2, làm mấy nồi lẩu, gặp bạn bè cũ, có đứa gặp hoài, có đứa từ hồi lớp 9 đến giờ...","image":null,"label":null,"display":"text-only","type":"text","enable_detail":true,"related":{"url":"https://truyenx.link/truyensextv/channels/related/1424","request_headers":[]},"share":{"url":"https://truyenx.link/truyensextv/channels/share/hop-lop"},"remote_data":{"url":"https://truyenx.link/truyensextv/channels/hop-lop"}},{"id":"1423-channel","name":"Lần làm tình sướng nhất","description":"Hôm đó sinh nhật của người yêu tôi. Cũng như mọi lần, tắm rửa sạch sẽ rồi xách con xe tàn chạy qua phòng trọ của em, cùng em với nhỏ bạn thân của em ấy đi ăn mừng sinh nhật...","image":null,"label":null,"display":"text-only","type":"text","enable_detail":true,"related":{"url":"https://truyenx.link/truyensextv/channels/related/1423","request_headers":[]},"share":{"url":"https://truyenx.link/truyensextv/channels/share/lan-lam-tinh-suong-nhat"},"remote_data":{"url":"https://truyenx.link/truyensextv/channels/lan-lam-tinh-suong-nhat"}},{"id":"1422-channel","name":"Đụ với thím","description":"Đêm qua vừa chịch thím. Thím rất đẹp và ngon, rất quý mình. Là vợ của chú mình, không có quan hệ huyết thống nên mình không ngượng chim khi địt thím. Hôm qua thím và vài người...","image":null,"label":null,"display":"text-only","type":"text","enable_detail":true,"related":{"url":"https://truyenx.link/truyensextv/channels/related/1422","request_headers":[]},"share":{"url":"https://truyenx.link/truyensextv/channels/share/du-voi-thim"},"remote_data":{"url":"https://truyenx.link/truyensextv/channels/du-voi-thim"}},{"id":"1421-channel","name":"Đụ em sinh viên ngoại thương","description":"Mình quen em 5 năm trước qua facebook, chẳng nhớ vì sao mà thấy em nó mà gửi lời kết bạn. Em học Ngoại Thương, khá xinh đẹp. Khuôn mặt không phải là nguyên nhân, điều khiến mình...","image":null,"label":null,"display":"text-only","type":"text","enable_detail":true,"related":{"url":"https://truyenx.link/truyensextv/channels/related/1421","request_headers":[]},"share":{"url":"https://truyenx.link/truyensextv/channels/share/du-em-sinh-vien-ngoai-thuong"},"remote_data":{"url":"https://truyenx.link/truyensextv/channels/du-em-sinh-vien-ngoai-thuong"}},{"id":"1420-channel","name":"Đụ em vợ","description":"Cách đây 10 năm, em vợ tôi làm công nhân ở Sài Gòncòn tôi thì hay đi Sài Gòncông tác nên cũng có ghé qua thăm. Nói thật lúc đó cũng chỉ chào hỏi qua loa chứ không để ý gì, lúc đó...","image":null,"label":null,"display":"text-only","type":"text","enable_detail":true,"related":{"url":"https://truyenx.link/truyensextv/channels/related/1420","request_headers":[]},"share":{"url":"https://truyenx.link/truyensextv/channels/share/du-em-vo"},"remote_data":{"url":"https://truyenx.link/truyensextv/channels/du-em-vo"}},{"id":"1419-channel","name":"Hoa thắm giữa đời","description":"Chiếc xe lao đi vùn vụt trong đêm ở vùng cao nguyên núi đồi thơ mộng. Trên xe chỉ có hai người. Khoa một mình lặng lẽ lái trong lúc Thoa ngồi ngủ gà ngủ gật ở chiếc ghế kế...","image":null,"label":null,"display":"text-only","type":"text","enable_detail":true,"related":{"url":"https://truyenx.link/truyensextv/channels/related/1419","request_headers":[]},"share":{"url":"https://truyenx.link/truyensextv/channels/share/hoa-tham-giua-doi"},"remote_data":{"url":"https://truyenx.link/truyensextv/channels/hoa-tham-giua-doi"}},{"id":"1418-channel","name":"Đụ em giúp việc xa chồng","description":"Xin kể cho cả cụ một chuyện thế này. Tôi làm việc ở thành phố nhà thì ở quê. Vì lý do công việc nên ít về nhà. Lần đó khi về nhà tôi thấy có một con bé giúp việc nhà, mới...","image":null,"label":null,"display":"text-only","type":"text","enable_detail":true,"related":{"url":"https://truyenx.link/truyensextv/channels/related/1418","request_headers":[]},"share":{"url":"https://truyenx.link/truyensextv/channels/share/du-em-giup-viec-xa-chong"},"remote_data":{"url":"https://truyenx.link/truyensextv/channels/du-em-giup-viec-xa-chong"}},{"id":"1417-channel","name":"Tiểu Mai - Quyển 3","description":"Từng nói, đối với tôi, mùa hè của năm lớp 10 là mùa hè vui nhất thời trung học phổ thông vì khoảng thời gian đó đã được lấp đầy bởi những kỉ niệm vui tươi, những tràng...","image":null,"label":null,"display":"text-only","type":"text","enable_detail":true,"related":{"url":"https://truyenx.link/truyensextv/channels/related/1417","request_headers":[]},"share":{"url":"https://truyenx.link/truyensextv/channels/share/tieu-mai-quyen-3"},"remote_data":{"url":"https://truyenx.link/truyensextv/channels/tieu-mai-quyen-3"}},{"id":"1416-channel","name":"Chuyện đời Yến","description":"Tiếng thở hổn hển trong phòng của Đặng làm chị Yến tò mò đứng lại, ghé mắt nhìn qua cánh cửa khép hờ, cảnh tượng đang xảy ra trước mắt làm cho Yến xuýt chút đánh rơi cái...","image":null,"label":null,"display":"text-only","type":"text","enable_detail":true,"related":{"url":"https://truyenx.link/truyensextv/channels/related/1416","request_headers":[]},"share":{"url":"https://truyenx.link/truyensextv/channels/share/chuyen-doi-yen"},"remote_data":{"url":"https://truyenx.link/truyensextv/channels/chuyen-doi-yen"}},{"id":"1415-channel","name":"Nhớ về Như","description":"Buổi chiều. Tôi dành thời gian đưa Như đi dạo một vòng các chợ trái cây. Cô nàng từ Hà Nội vào chơi ít ngày, mai sẽ về lại, nên muốn đi mua chút trái cây về làm quà. Tôi không...","image":null,"label":null,"display":"text-only","type":"text","enable_detail":true,"related":{"url":"https://truyenx.link/truyensextv/channels/related/1415","request_headers":[]},"share":{"url":"https://truyenx.link/truyensextv/channels/share/nho-ve-nhu"},"remote_data":{"url":"https://truyenx.link/truyensextv/channels/nho-ve-nhu"}},{"id":"1414-channel","name":"Đụ thím giữa mùa đông","description":"Mấy hôm nay nắng nóng quá, lại thèm cái rét mùa đông. Nhớ hôm đó siêu rét, vợ chồng mình không có kế hoạch chơi bời gì cả. Sáng mình cưỡi chiến mã lượn phố HN hiếm khi vắng...","image":null,"label":null,"display":"text-only","type":"text","enable_detail":true,"related":{"url":"https://truyenx.link/truyensextv/channels/related/1414","request_headers":[]},"share":{"url":"https://truyenx.link/truyensextv/channels/share/du-thim-giua-mua-dong"},"remote_data":{"url":"https://truyenx.link/truyensextv/channels/du-thim-giua-mua-dong"}},{"id":"1413-channel","name":"Địt vợ tương lai của thằng bạn","description":"Đờ mờ, chuyến bay bị hoãn mấy tiếng. Làm ăn như nồi. Ngồi tia gái mãi không thấy em nào xinh. Đen! Chán quá lên đây kể cho anh em câu chuyện của mình với người yêu và giờ đang...","image":null,"label":null,"display":"text-only","type":"text","enable_detail":true,"related":{"url":"https://truyenx.link/truyensextv/channels/related/1413","request_headers":[]},"share":{"url":"https://truyenx.link/truyensextv/channels/share/dit-vo-tuong-lai-cua-thang-ban"},"remote_data":{"url":"https://truyenx.link/truyensextv/channels/dit-vo-tuong-lai-cua-thang-ban"}},{"id":"1412-channel","name":"Một lần thử Gloryhole","description":"Chuyến đi công tác và du lịch châu Âu lần đó suôn sẻ về công việc và du lịch, đến ngày cuối cùng thì mình chỉ ở nhà anh bạn, tận hưởng nốt thời gian còn lại. Tối đó sau...","image":null,"label":null,"display":"text-only","type":"text","enable_detail":true,"related":{"url":"https://truyenx.link/truyensextv/channels/related/1412","request_headers":[]},"share":{"url":"https://truyenx.link/truyensextv/channels/share/mot-lan-thu-gloryhole"},"remote_data":{"url":"https://truyenx.link/truyensextv/channels/mot-lan-thu-gloryhole"}},{"id":"1411-channel","name":"Hẹn hò facebook","description":"Từ lúc cái app hẹn hò của facebook mở ra cũng là lúc những tâm hồn cô đơn có thêm một mảnh đất màu mỡ để rải thính, gieo thính hay đớp thính... Trải qua 32 nồi bánh chưng cùng...","image":null,"label":null,"display":"text-only","type":"text","enable_detail":true,"related":{"url":"https://truyenx.link/truyensextv/channels/related/1411","request_headers":[]},"share":{"url":"https://truyenx.link/truyensextv/channels/share/hen-ho-facebook"},"remote_data":{"url":"https://truyenx.link/truyensextv/channels/hen-ho-facebook"}},{"id":"1410-channel","name":"Chuyện chàng Shipper","description":"Trời Hà Nội tháng 6 nắng như đổ lửa cộng với hiệu ứng nhà bê tông thi thoảng có thêm cơn gió Lào làm không khí càng oi bức hơn. “Nếu mà bên Tàu có Hỏa Diệm Sơn được coi...","image":null,"label":null,"display":"text-only","type":"text","enable_detail":true,"related":{"url":"https://truyenx.link/truyensextv/channels/related/1410","request_headers":[]},"share":{"url":"https://truyenx.link/truyensextv/channels/share/chuyen-chang-shipper"},"remote_data":{"url":"https://truyenx.link/truyensextv/channels/chuyen-chang-shipper"}},{"id":"1409-channel","name":"Địt gái fan MU","description":"Mình và em quen nhau hồi học đại học, qua một diễn dàn của fan MU. Hồi ấy fb mới bắt đầu phát triển ở VN thôi, diễn đàn trực tuyến vẫn khỏe mạnh lắm. Trên diễn đàn, mình...","image":null,"label":null,"display":"text-only","type":"text","enable_detail":true,"related":{"url":"https://truyenx.link/truyensextv/channels/related/1409","request_headers":[]},"share":{"url":"https://truyenx.link/truyensextv/channels/share/dit-gai-fan-mu"},"remote_data":{"url":"https://truyenx.link/truyensextv/channels/dit-gai-fan-mu"}},{"id":"1408-channel","name":"Chịch lén trong ktx","description":"Trời hôm nay trong lành mát mẻ, em lại nhớ kỷ niệm cũ đã qua, “tiếng chim cúc cu” hót véo von trên cành cây trước hiên nhà làm em lại nhớ con cu của người yêu cũ em. Hồi...","image":null,"label":null,"display":"text-only","type":"text","enable_detail":true,"related":{"url":"https://truyenx.link/truyensextv/channels/related/1408","request_headers":[]},"share":{"url":"https://truyenx.link/truyensextv/channels/share/chich-len-trong-ktx"},"remote_data":{"url":"https://truyenx.link/truyensextv/channels/chich-len-trong-ktx"}},{"id":"1407-channel","name":"Yêu nữ quầy bar 2","description":"Tôi luôn có cảm giác tiếc nuối đối với mùa đông Hà Nội và những cơn mưa đặc trưng giữa thời tiết ấy. Mưa mùa đông đường hoàng xảy đến theo cái lý riêng của mưa mùa...","image":null,"label":null,"display":"text-only","type":"text","enable_detail":true,"related":{"url":"https://truyenx.link/truyensextv/channels/related/1407","request_headers":[]},"share":{"url":"https://truyenx.link/truyensextv/channels/share/yeu-nu-quay-bar-2"},"remote_data":{"url":"https://truyenx.link/truyensextv/channels/yeu-nu-quay-bar-2"}},{"id":"1406-channel","name":"Những cô em gái","description":"Tôi ở trọ cùng 2 đứa em và... người yêu tên Thủy tình cờ qua facebook, em là người yêu cũ của 1 bạn khác lớp. Hôm đó, em vào comment bài viết của tôi và add friend rồi chat. Chuyện...","image":null,"label":null,"display":"text-only","type":"text","enable_detail":true,"related":{"url":"https://truyenx.link/truyensextv/channels/related/1406","request_headers":[]},"share":{"url":"https://truyenx.link/truyensextv/channels/share/nhung-co-em-gai"},"remote_data":{"url":"https://truyenx.link/truyensextv/channels/nhung-co-em-gai"}},{"id":"1405-channel","name":"Địt chị giúp việc","description":"Hồi đó, cách đây 4 năm em thuê một căn chung cư ở khu Cầu Giấy. Căn chung cư mới xây, rộng cỡ 70 80m gì đó, có 2 phòng ngủ và đầy đủ tiện nghi, chủ nhà mua căn nhà này cho con...","image":null,"label":null,"display":"text-only","type":"text","enable_detail":true,"related":{"url":"https://truyenx.link/truyensextv/channels/related/1405","request_headers":[]},"share":{"url":"https://truyenx.link/truyensextv/channels/share/dit-chi-giup-viec"},"remote_data":{"url":"https://truyenx.link/truyensextv/channels/dit-chi-giup-viec"}},{"id":"1404-channel","name":"Kể về máy bay","description":"Cuộc đời em cũng có lái nhiều máy bay, nhưng máy bay dễ chịch nhất là 1 người sinh năm 84 , bán đồ ở chợ. Cũng quét zalo mà ra. Kết bạn zalo rồi cũng cù cưa mấy ngày, nhắn tin...","image":null,"label":null,"display":"text-only","type":"text","enable_detail":true,"related":{"url":"https://truyenx.link/truyensextv/channels/related/1404","request_headers":[]},"share":{"url":"https://truyenx.link/truyensextv/channels/share/ke-ve-may-bay"},"remote_data":{"url":"https://truyenx.link/truyensextv/channels/ke-ve-may-bay"}},{"id":"1403-channel","name":"Nhìn trộm hàng xóm","description":"Hồi năm 2011, mình có chuyển qua thuê phòng trọ tại Quận 8. Căn phòng mình thuê nằm cuối dãy của tầng lầu nhà trọ. Nhà trọ có 1 lầu 1 trệt, dùng ván ép ngăn ra làm thành các phòng...","image":null,"label":null,"display":"text-only","type":"text","enable_detail":true,"related":{"url":"https://truyenx.link/truyensextv/channels/related/1403","request_headers":[]},"share":{"url":"https://truyenx.link/truyensextv/channels/share/nhin-trom-hang-xom"},"remote_data":{"url":"https://truyenx.link/truyensextv/channels/nhin-trom-hang-xom"}},{"id":"1402-channel","name":"Lần đầu đụ lỗ đít","description":"Chuyện này cách đây 10 năm rồi, từ 2009. Hồi đó mình ở trọ trong xóm công nhân khu vực Dĩ An, Bình Dương. Trước đó chỉ nghe nói thôi, chứ chưa thử bao giờ, còn xem phim thì thấy...","image":null,"label":null,"display":"text-only","type":"text","enable_detail":true,"related":{"url":"https://truyenx.link/truyensextv/channels/related/1402","request_headers":[]},"share":{"url":"https://truyenx.link/truyensextv/channels/share/lan-dau-du-lo-dit"},"remote_data":{"url":"https://truyenx.link/truyensextv/channels/lan-dau-du-lo-dit"}},{"id":"1401-channel","name":"Cô Lan Phương","description":"Năm ấy em 15 tuổi sinh ra và lớn lên ở vùng quê núi đá Ninh Bình, tuy mới tuổi 15 chăm chỉ tập thể dục thể hình nên em có thân hình cao to vạm vỡ nổi bật hơn bạn cùng lứa tuổi...","image":null,"label":null,"display":"text-only","type":"text","enable_detail":true,"related":{"url":"https://truyenx.link/truyensextv/channels/related/1401","request_headers":[]},"share":{"url":"https://truyenx.link/truyensextv/channels/share/co-lan-phuong"},"remote_data":{"url":"https://truyenx.link/truyensextv/channels/co-lan-phuong"}},{"id":"1400-channel","name":"Đụ chị cùng khu trọ","description":"Chuyện thời mình còn sinh viên, giờ mình đã hơn 30t rồi. Năm ấy cách đây gần 10 năm rồi. Lúc đó mình ở trọ chung với thằng bạn, khu mình thì như khu ổ chuột được cái giờ...","image":null,"label":null,"display":"text-only","type":"text","enable_detail":true,"related":{"url":"https://truyenx.link/truyensextv/channels/related/1400","request_headers":[]},"share":{"url":"https://truyenx.link/truyensextv/channels/share/du-chi-cung-khu-tro"},"remote_data":{"url":"https://truyenx.link/truyensextv/channels/du-chi-cung-khu-tro"}},{"id":"1399-channel","name":"Nỗi nhớ về em","description":"Tôi và em ngày mới quen nhau cả hai đều không nghĩ là sẽ thuộc về nhau vì tôi là một cậu miền Trung và em là một cô gái miền Nam, nhưng rồi cái duyên nó lớn quá số phận đưa...","image":null,"label":null,"display":"text-only","type":"text","enable_detail":true,"related":{"url":"https://truyenx.link/truyensextv/channels/related/1399","request_headers":[]},"share":{"url":"https://truyenx.link/truyensextv/channels/share/noi-nho-ve-em"},"remote_data":{"url":"https://truyenx.link/truyensextv/channels/noi-nho-ve-em"}}],"load_more":{"pageInfo":{"current_page":93,"last_page":140,"per_page":30,"total":4188},"paging":{"page_key":"page","size_key":"size"},"remote_data":{"url":"https://truyenx.link/truyensextv/channels"}}}