{"grid_number":1,"channels":[{"id":"2708-channel","name":"Giang hồ","description":"Cu! Mày làm gì mà tối ngày cứ cắm đầu ngồi vẽ vậy. Dượng Ba kêu. Ra đổi lái chút coi. Thằng Sáng lật đật nhét cuốn sổ nhỏ với cây bút chì vô túi rồi bò ra ngoài sau, vịn...","image":null,"label":null,"display":"text-only","type":"text","enable_detail":true,"related":{"url":"https://truyenx.link/truyensextv/channels/related/2708","request_headers":[]},"share":{"url":"https://truyenx.link/truyensextv/channels/share/giang-ho"},"remote_data":{"url":"https://truyenx.link/truyensextv/channels/giang-ho"}},{"id":"2707-channel","name":"Người gỡ mớ bòng bong","description":"Hân đưa con cho tôi bế, mắt em cứ trong vắt và đẹp đến mê hồn. Dù em đã qua 3 lần sinh nở, đứa thứ 3 mới tròn tuổi ta chính là con của tôi. Nhìn thằng Huấn là em lại nhớ...","image":null,"label":null,"display":"text-only","type":"text","enable_detail":true,"related":{"url":"https://truyenx.link/truyensextv/channels/related/2707","request_headers":[]},"share":{"url":"https://truyenx.link/truyensextv/channels/share/nguoi-go-mo-bong-bong"},"remote_data":{"url":"https://truyenx.link/truyensextv/channels/nguoi-go-mo-bong-bong"}},{"id":"2706-channel","name":"Vợ làm nghề y","description":"Linh là kỹ thuật viên phòng mổ trong phòng trong bệnh viện khá lớn ở thành phố. Nhờ làm bên trong phòng mổ mà cô quen rất nhiều bác sĩ giỏi. Nhờ tài ăn nói khéo léo và kỹ năng...","image":null,"label":null,"display":"text-only","type":"text","enable_detail":true,"related":{"url":"https://truyenx.link/truyensextv/channels/related/2706","request_headers":[]},"share":{"url":"https://truyenx.link/truyensextv/channels/share/vo-lam-nghe-y"},"remote_data":{"url":"https://truyenx.link/truyensextv/channels/vo-lam-nghe-y"}},{"id":"2705-channel","name":"Nhật ký tuổi thơ tôi","description":"Ngày... tháng... năm... Sinh nhật 9 tuổi. Mẹ bảo thổi nến để cả nhà cùng hát bài Happy birthday to you. Mình không chịu và vùng vằng: ” Con đợi ông trẻ tới đã “. Bà nội...","image":null,"label":null,"display":"text-only","type":"text","enable_detail":true,"related":{"url":"https://truyenx.link/truyensextv/channels/related/2705","request_headers":[]},"share":{"url":"https://truyenx.link/truyensextv/channels/share/nhat-ky-tuoi-tho-toi"},"remote_data":{"url":"https://truyenx.link/truyensextv/channels/nhat-ky-tuoi-tho-toi"}},{"id":"2704-channel","name":"Lấy chồng xa xứ","description":"Bình 24 tuổi là 1 cô gái dân tộc nghèo, nhà lại đông anh em, ấy thế mà cô phải nghỉ học và đi làm thuê từ sớm, quanh năm chỉ vì cuốc đất trồng rau. Vì mải mê công việc nên...","image":null,"label":null,"display":"text-only","type":"text","enable_detail":true,"related":{"url":"https://truyenx.link/truyensextv/channels/related/2704","request_headers":[]},"share":{"url":"https://truyenx.link/truyensextv/channels/share/lay-chong-xa-xu"},"remote_data":{"url":"https://truyenx.link/truyensextv/channels/lay-chong-xa-xu"}},{"id":"2703-channel","name":"Khế ước nô lệ","description":"Hà Nội, 19h ngày 12 tháng 7 năm 20XX... Trong căn phòng khách của tòa biệt thự tọa lạc ở quận Tây Hồ, Hà nội, lúc này ba con người đang nhìn nhau, không khí căng thẳng vô cùng. Con...","image":null,"label":null,"display":"text-only","type":"text","enable_detail":true,"related":{"url":"https://truyenx.link/truyensextv/channels/related/2703","request_headers":[]},"share":{"url":"https://truyenx.link/truyensextv/channels/share/khe-uoc-no-le"},"remote_data":{"url":"https://truyenx.link/truyensextv/channels/khe-uoc-no-le"}},{"id":"2702-channel","name":"Đêm mưa ngọt ngào","description":"Hôm nay là một ngày cuối tuần đẹp trời, ánh nắng xuyên qua khe cửa làm mình choàng tỉnh giấc. Lúc này mình đang nằm khỏa thân uốn éo trên giường vì còn đang mê ngủ, thân thể...","image":null,"label":null,"display":"text-only","type":"text","enable_detail":true,"related":{"url":"https://truyenx.link/truyensextv/channels/related/2702","request_headers":[]},"share":{"url":"https://truyenx.link/truyensextv/channels/share/dem-mua-ngot-ngao"},"remote_data":{"url":"https://truyenx.link/truyensextv/channels/dem-mua-ngot-ngao"}},{"id":"2701-channel","name":"Cô gái 18 tuổi","description":"Vào dịp 2017 cô gái tôi gọi là nobita. Tôi với tụi bạn hay ngồi quán cafe như thường ngày. Vài hôm tôi thấy ánh mắt của Nobita tôi đó ý lúc đó tầm 10h trưa thấy cô gái Nobita hơi...","image":null,"label":null,"display":"text-only","type":"text","enable_detail":true,"related":{"url":"https://truyenx.link/truyensextv/channels/related/2701","request_headers":[]},"share":{"url":"https://truyenx.link/truyensextv/channels/share/co-gai-18-tuoi"},"remote_data":{"url":"https://truyenx.link/truyensextv/channels/co-gai-18-tuoi"}},{"id":"2700-channel","name":"Máy bay thích khổ dâm","description":"Minh là một đứa trẻ năm nay 15 tuổi có một hoàn cảnh gia đình rất đặc biệt không giống hầu hết những đứa trẻ khác. Gia đình của nó có 4 người gồm có nó, bà ngoại . Ba...","image":null,"label":null,"display":"text-only","type":"text","enable_detail":true,"related":{"url":"https://truyenx.link/truyensextv/channels/related/2700","request_headers":[]},"share":{"url":"https://truyenx.link/truyensextv/channels/share/may-bay-thich-kho-dam"},"remote_data":{"url":"https://truyenx.link/truyensextv/channels/may-bay-thich-kho-dam"}},{"id":"2699-channel","name":"Dã tâm của người cha","description":"14 năm trước Khánh vừa bước vào trong thang máy thì nghe tiếng gọi của chị Huế hớt hải từ đằng sau: “Chờ chị với Khánh ơi!”. Khánh nghe thấy vậy liền nhanh nhảu...","image":null,"label":null,"display":"text-only","type":"text","enable_detail":true,"related":{"url":"https://truyenx.link/truyensextv/channels/related/2699","request_headers":[]},"share":{"url":"https://truyenx.link/truyensextv/channels/share/da-tam-cua-nguoi-cha"},"remote_data":{"url":"https://truyenx.link/truyensextv/channels/da-tam-cua-nguoi-cha"}},{"id":"2698-channel","name":"Chị chủ trọ","description":"Ơ ơ hơ anh ra anh raaaa đây aaaa... Ưm ưm ực... Trinh quỳ dưới nền miệng vẫn còn ngậm chặt đầu cặc của Đạt, cô le lưỡi liếm nốt những giọt tinh còn sót lại trên đầu cặc...","image":null,"label":null,"display":"text-only","type":"text","enable_detail":true,"related":{"url":"https://truyenx.link/truyensextv/channels/related/2698","request_headers":[]},"share":{"url":"https://truyenx.link/truyensextv/channels/share/chi-chu-tro"},"remote_data":{"url":"https://truyenx.link/truyensextv/channels/chi-chu-tro"}},{"id":"2697-channel","name":"Huyền dâm thích ngoại tình","description":"Hai vợ chồng Hải và Huyền lấy nhau đã được 1 năm kể từ ngày quen nhau. Hải 28t và Huyền thì mới 23t vừa mới tốt nghiệp đi làm được không lâu. Nàng không cao chỉ 1m6 thôi...","image":null,"label":null,"display":"text-only","type":"text","enable_detail":true,"related":{"url":"https://truyenx.link/truyensextv/channels/related/2697","request_headers":[]},"share":{"url":"https://truyenx.link/truyensextv/channels/share/huyen-dam-thich-ngoai-tinh"},"remote_data":{"url":"https://truyenx.link/truyensextv/channels/huyen-dam-thich-ngoai-tinh"}},{"id":"2696-channel","name":"Bạn học cũ","description":"Nhớ năm đó, có một lần mẫu thân tôi nhờ tôi đi đám cưới hộ, đám cưới con một người bạn của mẹ tôi. Mặc dù nói là đi hộ, cơ mà tôi vẫn diện đồ đẹp, phong bì hẳn...","image":null,"label":null,"display":"text-only","type":"text","enable_detail":true,"related":{"url":"https://truyenx.link/truyensextv/channels/related/2696","request_headers":[]},"share":{"url":"https://truyenx.link/truyensextv/channels/share/ban-hoc-cu"},"remote_data":{"url":"https://truyenx.link/truyensextv/channels/ban-hoc-cu"}},{"id":"2695-channel","name":"Tứ đại danh bổ","description":"Truy Đuổi Võ lâm tranh bá, bão tố phong ba đời đời nào cũng có nhưng khác với mọi khi lần này võ lâm thật sự phải trải qua 1 kiếp nạn có thể thay đổi toàn bộ lịch sử võ...","image":null,"label":null,"display":"text-only","type":"text","enable_detail":true,"related":{"url":"https://truyenx.link/truyensextv/channels/related/2695","request_headers":[]},"share":{"url":"https://truyenx.link/truyensextv/channels/share/tu-dai-danh-bo"},"remote_data":{"url":"https://truyenx.link/truyensextv/channels/tu-dai-danh-bo"}},{"id":"2694-channel","name":"Hiếp dâm đứa bạn thân","description":"Tôi tên Đạt, tôi có 1 con bạn thân bằng tuổi tôi. Nó và tôi chơi thân với nhau từ hồi nhỏ nhưng hôm nay tôi thấy nó lạ lắm. Nó rủ tôi đi mua bia về nhậu mặc dù tửu lượng nó...","image":null,"label":null,"display":"text-only","type":"text","enable_detail":true,"related":{"url":"https://truyenx.link/truyensextv/channels/related/2694","request_headers":[]},"share":{"url":"https://truyenx.link/truyensextv/channels/share/hiep-dam-dua-ban-than"},"remote_data":{"url":"https://truyenx.link/truyensextv/channels/hiep-dam-dua-ban-than"}},{"id":"2693-channel","name":"Tôi có một người chị họ","description":"Lần đầu tiên tôi gặp chị là vào ngày giỗ của bà cố, năm đó tôi khoảng chừng mười hai tuổi, trước đó thì tôi cũng không biết rằng mình lại có một cô chị xinh xắn như...","image":null,"label":null,"display":"text-only","type":"text","enable_detail":true,"related":{"url":"https://truyenx.link/truyensextv/channels/related/2693","request_headers":[]},"share":{"url":"https://truyenx.link/truyensextv/channels/share/toi-co-mot-nguoi-chi-ho"},"remote_data":{"url":"https://truyenx.link/truyensextv/channels/toi-co-mot-nguoi-chi-ho"}},{"id":"2692-channel","name":"Đụ gái Nha Trang","description":"Năm đó tôi mười tuổi, vừa học hết lớp năm, cũng chỉ là một thằng nhóc con vô tư lự chưa biết gì. Không biết đối với mọi người mùa hè là gì, chứ đối với tôi từ nhỏ...","image":null,"label":null,"display":"text-only","type":"text","enable_detail":true,"related":{"url":"https://truyenx.link/truyensextv/channels/related/2692","request_headers":[]},"share":{"url":"https://truyenx.link/truyensextv/channels/share/du-gai-nha-trang"},"remote_data":{"url":"https://truyenx.link/truyensextv/channels/du-gai-nha-trang"}},{"id":"2691-channel","name":"Con đường bá chủ - Quyển 8","description":"Đối với thế giới mạnh được yếu thua, khi kẻ mạnh có quyền uy tuyệt đối như thế này, đôi khi cần chứng minh được sức mạnh của chính mình. Ngươi càng mạnh, càng cường...","image":null,"label":null,"display":"text-only","type":"text","enable_detail":true,"related":{"url":"https://truyenx.link/truyensextv/channels/related/2691","request_headers":[]},"share":{"url":"https://truyenx.link/truyensextv/channels/share/con-duong-ba-chu-quyen-8"},"remote_data":{"url":"https://truyenx.link/truyensextv/channels/con-duong-ba-chu-quyen-8"}},{"id":"2690-channel","name":"Đồng nghiệp cũ","description":"Tiến không thể ngờ rằng sau hơn năm năm lại gặp được chi P. Chị đồng nghiệp cũ ngày trước, nơi Tiến từng trải qua thời gian ngắn ngủi khoảng hai năm được làm chung với...","image":null,"label":null,"display":"text-only","type":"text","enable_detail":true,"related":{"url":"https://truyenx.link/truyensextv/channels/related/2690","request_headers":[]},"share":{"url":"https://truyenx.link/truyensextv/channels/share/dong-nghiep-cu"},"remote_data":{"url":"https://truyenx.link/truyensextv/channels/dong-nghiep-cu"}},{"id":"2689-channel","name":"Triệu Đức Tam","description":"Triệu Đức Tam thuộc hàng con ông cháu cha của một gia đình buôn bán than đá, nhưng mấy năm trước bởi vì bị phát hiện trốn thuế, cha của hắn đi tù, từ đó về sau gia đình suy...","image":null,"label":null,"display":"text-only","type":"text","enable_detail":true,"related":{"url":"https://truyenx.link/truyensextv/channels/related/2689","request_headers":[]},"share":{"url":"https://truyenx.link/truyensextv/channels/share/trieu-duc-tam"},"remote_data":{"url":"https://truyenx.link/truyensextv/channels/trieu-duc-tam"}},{"id":"2688-channel","name":"Một cuộc tình","description":"74 tuổi với ai thì không biết, riêng tôi vẫn còn khao khát những đụng chạm xác thịt tuy tần số và biên độ không còn được như mươi năm trước. Thi thoảng, tháng đôi ba lần vẫn...","image":null,"label":null,"display":"text-only","type":"text","enable_detail":true,"related":{"url":"https://truyenx.link/truyensextv/channels/related/2688","request_headers":[]},"share":{"url":"https://truyenx.link/truyensextv/channels/share/mot-cuoc-tinh"},"remote_data":{"url":"https://truyenx.link/truyensextv/channels/mot-cuoc-tinh"}},{"id":"2687-channel","name":"Sai lầm","description":"Phần Tôi là Minh, năm nay 23 tuổi hiện đang là 1 nhân viên công nghệ thông tin trong 1 bệnh viện tỉnh nơi tôi sinh sống. Cầm trên tay tờ kết quả xét nghiệm ADN trên này mà lòng tôi...","image":null,"label":null,"display":"text-only","type":"text","enable_detail":true,"related":{"url":"https://truyenx.link/truyensextv/channels/related/2687","request_headers":[]},"share":{"url":"https://truyenx.link/truyensextv/channels/share/sai-lam"},"remote_data":{"url":"https://truyenx.link/truyensextv/channels/sai-lam"}},{"id":"2686-channel","name":"Làm tình với huynh trưởng","description":"Cả hai đứa biết nhau hơn 10 năm, vì cung đồng môn tu học mỗi chủ nhật trong gdpt tại Mỹ nên rất thích nhau và để ý nhau. Mỗi tuần này mình không đi sinh hoạt anh đều liên lạc...","image":null,"label":null,"display":"text-only","type":"text","enable_detail":true,"related":{"url":"https://truyenx.link/truyensextv/channels/related/2686","request_headers":[]},"share":{"url":"https://truyenx.link/truyensextv/channels/share/lam-tinh-voi-huynh-truong"},"remote_data":{"url":"https://truyenx.link/truyensextv/channels/lam-tinh-voi-huynh-truong"}},{"id":"2685-channel","name":"Đôi lời về nô lệ tình dục u40 của tôi","description":"Mới vài tháng trước em có lên mạng tìm fwb, tại sinh viên cũng không nhìu tiền nong để đi đá phò. May mắn là em tìm được 1 ghệ địt, hàng khá sạch, nhà có lai lịch gia giáo nhưng...","image":null,"label":null,"display":"text-only","type":"text","enable_detail":true,"related":{"url":"https://truyenx.link/truyensextv/channels/related/2685","request_headers":[]},"share":{"url":"https://truyenx.link/truyensextv/channels/share/doi-loi-ve-no-le-tinh-duc-u40-cua-toi"},"remote_data":{"url":"https://truyenx.link/truyensextv/channels/doi-loi-ve-no-le-tinh-duc-u40-cua-toi"}},{"id":"2684-channel","name":"Truyện tình buồn của tôi và Nguyên","description":"Tôi là Trí sinh năm 2003. Tôi sinh ra và lớn lên ở thủ đô Hà Nội. Nhà tôi không giàu lắm nhưng mà cũng đủ để tiêu xài nhiều thứ. Tôi lớn lên trong vòng tay của ba mẹ tôi. Gia...","image":null,"label":null,"display":"text-only","type":"text","enable_detail":true,"related":{"url":"https://truyenx.link/truyensextv/channels/related/2684","request_headers":[]},"share":{"url":"https://truyenx.link/truyensextv/channels/share/truyen-tinh-buon-cua-toi-va-nguyen"},"remote_data":{"url":"https://truyenx.link/truyensextv/channels/truyen-tinh-buon-cua-toi-va-nguyen"}},{"id":"2683-channel","name":"Kỷ niệm với lớp lễ Noel","description":"Mỗi năm, hễ cứ đến thời điểm này thì tôi lại nhớ về những kỷ niệm xưa cũ những kỷ niệm tuyệt đẹp đã in hằn sâu trong ký ức. Mỗi khi những câu hát “we wish you a...","image":null,"label":null,"display":"text-only","type":"text","enable_detail":true,"related":{"url":"https://truyenx.link/truyensextv/channels/related/2683","request_headers":[]},"share":{"url":"https://truyenx.link/truyensextv/channels/share/ky-niem-voi-lop-le-noel"},"remote_data":{"url":"https://truyenx.link/truyensextv/channels/ky-niem-voi-lop-le-noel"}},{"id":"2682-channel","name":"Nữ lãnh đạo","description":"MỚI RA ĐỜI Đường Thành sau khi tốt nghiệp đại học, thì tìm không được công việc tốt, cô của Đường Thành có một đồng học làm bí thư đảng ủy trấn Thành Quan, huyện...","image":null,"label":null,"display":"text-only","type":"text","enable_detail":true,"related":{"url":"https://truyenx.link/truyensextv/channels/related/2682","request_headers":[]},"share":{"url":"https://truyenx.link/truyensextv/channels/share/nu-lanh-dao"},"remote_data":{"url":"https://truyenx.link/truyensextv/channels/nu-lanh-dao"}},{"id":"2681-channel","name":"Địt cô vợ dâm đãng của bạn thân","description":"Mình tên H năm nay 32 tuổi, quê gốc Quảng Ninh, hiện đang sống và làm việc ở Hà Nội. Nhu cầu tình dục của mình khá cao, và cũng khá là bệnh hoạn, trải qua thời trai trẻ yêu...","image":null,"label":null,"display":"text-only","type":"text","enable_detail":true,"related":{"url":"https://truyenx.link/truyensextv/channels/related/2681","request_headers":[]},"share":{"url":"https://truyenx.link/truyensextv/channels/share/dit-co-vo-dam-dang-cua-ban-than"},"remote_data":{"url":"https://truyenx.link/truyensextv/channels/dit-co-vo-dam-dang-cua-ban-than"}},{"id":"2680-channel","name":"Người chồng siêu đẳng","description":"Báo cáo thủ trưởng, nội gián vừa gửi thư báo cáo về... Ngài có muốn xem qua không? Người đàn ông được gọi là thủ Trưởng kia không ai khác chính là người đứng đầu của...","image":null,"label":null,"display":"text-only","type":"text","enable_detail":true,"related":{"url":"https://truyenx.link/truyensextv/channels/related/2680","request_headers":[]},"share":{"url":"https://truyenx.link/truyensextv/channels/share/nguoi-chong-sieu-dang"},"remote_data":{"url":"https://truyenx.link/truyensextv/channels/nguoi-chong-sieu-dang"}},{"id":"2679-channel","name":"Bạn gái làm Sugar baby","description":"Hôm ấy là một ngày trời mưa bão tố, gió giật đùng đùng còn tôi thì được nghỉ việc một buổi. Nằm nhà từ sáng đến chiều, trùm chăn chơi điện tử mãi thì cũng chán, tôi...","image":null,"label":null,"display":"text-only","type":"text","enable_detail":true,"related":{"url":"https://truyenx.link/truyensextv/channels/related/2679","request_headers":[]},"share":{"url":"https://truyenx.link/truyensextv/channels/share/ban-gai-lam-sugar-baby"},"remote_data":{"url":"https://truyenx.link/truyensextv/channels/ban-gai-lam-sugar-baby"}}],"load_more":{"pageInfo":{"current_page":70,"last_page":140,"per_page":30,"total":4188},"paging":{"page_key":"page","size_key":"size"},"remote_data":{"url":"https://truyenx.link/truyensextv/channels"}}}