{
  "grid_number": 1,
  "channels": [
    {
      "id": "1908-channel",
      "name": "Gã tâm thần",
      "description": "Trời tối khoảng 8h, trong một con hẻm vắng lặng, một chiếc đèn đường sáng tỏ. Một gã trai đang nhẹ nhàng đi tới, với động tác thật chậm nhưng cực kỳ dứt khoát, gã cởi...",
      "image": null,
      "label": null,
      "display": "text-only",
      "type": "text",
      "enable_detail": true,
      "related": {
        "url": "https://truyenx.link/truyensextv/channels/related/1908",
        "request_headers": []
      },
      "share": {
        "url": "https://truyenx.link/truyensextv/channels/share/ga-tam-than"
      },
      "remote_data": {
        "url": "https://truyenx.link/truyensextv/channels/ga-tam-than"
      }
    },
    {
      "id": "1907-channel",
      "name": "Đứa con gay",
      "description": "Tôi có một thằng con trai, tôi đặt nó tên Thiên, nhưng ở nhà vợ chồng tôi gọi nó là Thiến, theo quan niệm đặt tên xấu cho dễ nuôi ấy mà. Từ bé, Thiến là một đứa con trai yếu...",
      "image": null,
      "label": null,
      "display": "text-only",
      "type": "text",
      "enable_detail": true,
      "related": {
        "url": "https://truyenx.link/truyensextv/channels/related/1907",
        "request_headers": []
      },
      "share": {
        "url": "https://truyenx.link/truyensextv/channels/share/dua-con-gay"
      },
      "remote_data": {
        "url": "https://truyenx.link/truyensextv/channels/dua-con-gay"
      }
    },
    {
      "id": "1906-channel",
      "name": "Viên thuốc kích dục",
      "description": "Trong gia đình Tuấn, đúng ra là có đến tám người con gái lận. Câu chuyện thương tâm này xảy ra cách đây bốn năm trời ròng rã nên dường như cũng đã nguôi ngoai trong cõi lòng mọi...",
      "image": null,
      "label": null,
      "display": "text-only",
      "type": "text",
      "enable_detail": true,
      "related": {
        "url": "https://truyenx.link/truyensextv/channels/related/1906",
        "request_headers": []
      },
      "share": {
        "url": "https://truyenx.link/truyensextv/channels/share/vien-thuoc-kich-duc"
      },
      "remote_data": {
        "url": "https://truyenx.link/truyensextv/channels/vien-thuoc-kich-duc"
      }
    },
    {
      "id": "1905-channel",
      "name": "Em Dung và mối tình đầu",
      "description": "Tôi và Dung học cùng lớp hồi trung học cơ sở, đến lớp 10 thì quen nhau, quen theo kiểu học sinh mà cách đây gần 20 năm ấy chứ không phải yêu theo kiểu học sinh thời nay. Thôi thì...",
      "image": null,
      "label": null,
      "display": "text-only",
      "type": "text",
      "enable_detail": true,
      "related": {
        "url": "https://truyenx.link/truyensextv/channels/related/1905",
        "request_headers": []
      },
      "share": {
        "url": "https://truyenx.link/truyensextv/channels/share/em-dung-va-moi-tinh-dau"
      },
      "remote_data": {
        "url": "https://truyenx.link/truyensextv/channels/em-dung-va-moi-tinh-dau"
      }
    },
    {
      "id": "1904-channel",
      "name": "Phá trinh em hàng xóm",
      "description": "Con bé hàng xóm gần nhà tôi tên là Yến, theo năm tháng tôi và nó vẫn thường đi học cùng nhau, thế rồi dần dần Yến ngày càng xinh ra, nhất là nước da của nó rất trắng nhìn là...",
      "image": null,
      "label": null,
      "display": "text-only",
      "type": "text",
      "enable_detail": true,
      "related": {
        "url": "https://truyenx.link/truyensextv/channels/related/1904",
        "request_headers": []
      },
      "share": {
        "url": "https://truyenx.link/truyensextv/channels/share/pha-trinh-em-hang-xom"
      },
      "remote_data": {
        "url": "https://truyenx.link/truyensextv/channels/pha-trinh-em-hang-xom"
      }
    },
    {
      "id": "1903-channel",
      "name": "Chuyến xe đêm",
      "description": "Linh Là cô gái thị thành vô cùng xinh đẹp, Giờ đã khá khuya nhưng cô vội bắt chuyến xe muộn để về nhà. Đây là chuyển xe cuối cùng trong ngày. Công tác trên thành phố một tuần...",
      "image": null,
      "label": null,
      "display": "text-only",
      "type": "text",
      "enable_detail": true,
      "related": {
        "url": "https://truyenx.link/truyensextv/channels/related/1903",
        "request_headers": []
      },
      "share": {
        "url": "https://truyenx.link/truyensextv/channels/share/chuyen-xe-dem"
      },
      "remote_data": {
        "url": "https://truyenx.link/truyensextv/channels/chuyen-xe-dem"
      }
    },
    {
      "id": "1902-channel",
      "name": "Bà chị nuôi vú bự",
      "description": "Vậy là đây là lần đầu tiên thằng Đậu ở nhà một mình, không phải là tạm thời nhưng là mãi mãi. Tình cảnh của hắn là như vầy, ông anh hai của hắn ở tiểu bang Cali bên nước...",
      "image": null,
      "label": null,
      "display": "text-only",
      "type": "text",
      "enable_detail": true,
      "related": {
        "url": "https://truyenx.link/truyensextv/channels/related/1902",
        "request_headers": []
      },
      "share": {
        "url": "https://truyenx.link/truyensextv/channels/share/ba-chi-nuoi-vu-bu"
      },
      "remote_data": {
        "url": "https://truyenx.link/truyensextv/channels/ba-chi-nuoi-vu-bu"
      }
    },
    {
      "id": "1901-channel",
      "name": "Hoàng Vi",
      "description": "Mới sáng sớm đã bị phá đám bởi tiếng chuông inh ỏi. Bực mình. Mình lật chăn vùng dậy, chạy xuống nhà với cái quần đùi không thể chóe hơn. Tưởng nhà có thư hay điện báo hay...",
      "image": null,
      "label": null,
      "display": "text-only",
      "type": "text",
      "enable_detail": true,
      "related": {
        "url": "https://truyenx.link/truyensextv/channels/related/1901",
        "request_headers": []
      },
      "share": {
        "url": "https://truyenx.link/truyensextv/channels/share/hoang-vi"
      },
      "remote_data": {
        "url": "https://truyenx.link/truyensextv/channels/hoang-vi"
      }
    },
    {
      "id": "1900-channel",
      "name": "Nghe lời chồng some với trai lạ",
      "description": "Phim sex ngày càng trở nên nhàm chán nên ngày càng có nhiều ông chồng khoái cho vợ mình lên giường đụ với trai lạ để được nhìn một cách thực tế, sướng mắt và kích thích...",
      "image": null,
      "label": null,
      "display": "text-only",
      "type": "text",
      "enable_detail": true,
      "related": {
        "url": "https://truyenx.link/truyensextv/channels/related/1900",
        "request_headers": []
      },
      "share": {
        "url": "https://truyenx.link/truyensextv/channels/share/nghe-loi-chong-some-voi-trai-la"
      },
      "remote_data": {
        "url": "https://truyenx.link/truyensextv/channels/nghe-loi-chong-some-voi-trai-la"
      }
    },
    {
      "id": "1899-channel",
      "name": "Ba đè chị Thơ",
      "description": "Gia đình tôi đến bây giờ vẫn bình thường như bao gia đình khác, nhưng đằng sau cái bình thường đó là bí mật của ba và chị Thơ đã giấu từ trước đến giờ, họ vẫn nghĩ chỉ...",
      "image": null,
      "label": null,
      "display": "text-only",
      "type": "text",
      "enable_detail": true,
      "related": {
        "url": "https://truyenx.link/truyensextv/channels/related/1899",
        "request_headers": []
      },
      "share": {
        "url": "https://truyenx.link/truyensextv/channels/share/ba-de-chi-tho"
      },
      "remote_data": {
        "url": "https://truyenx.link/truyensextv/channels/ba-de-chi-tho"
      }
    },
    {
      "id": "1898-channel",
      "name": "Tây Môn Khánh gặp Phan Kim Liên",
      "description": "Dịch giả: Vu Sơn Lời giới thiệu: Kim Bình Mai là đại dâm thư của Trung Quốc do Tiếu Tiếu Sinh viết vào cuối đời nhà Minh khoảng 1620 và đã được dịch ra nhiều thứ tiếng như...",
      "image": null,
      "label": null,
      "display": "text-only",
      "type": "text",
      "enable_detail": true,
      "related": {
        "url": "https://truyenx.link/truyensextv/channels/related/1898",
        "request_headers": []
      },
      "share": {
        "url": "https://truyenx.link/truyensextv/channels/share/tay-mon-khanh-gap-phan-kim-lien"
      },
      "remote_data": {
        "url": "https://truyenx.link/truyensextv/channels/tay-mon-khanh-gap-phan-kim-lien"
      }
    },
    {
      "id": "1897-channel",
      "name": "Yêu nhầm vợ bạn",
      "description": "Tôi làm ở một công ty cũng nhỏ thôi, đầu năm nay do dịch nên mọi hoạt động của công ty gần như chỉ nằm ở mức cầm chừng chứ không có gì đặc sắc cả, cũng chán với kinh...",
      "image": null,
      "label": null,
      "display": "text-only",
      "type": "text",
      "enable_detail": true,
      "related": {
        "url": "https://truyenx.link/truyensextv/channels/related/1897",
        "request_headers": []
      },
      "share": {
        "url": "https://truyenx.link/truyensextv/channels/share/yeu-nham-vo-ban"
      },
      "remote_data": {
        "url": "https://truyenx.link/truyensextv/channels/yeu-nham-vo-ban"
      }
    },
    {
      "id": "1896-channel",
      "name": "Tình yêu của mưa",
      "description": "Cuối mùa xuân năm đó... Những hạt mưa xuân cuối mùa, cùng với những cơn gió cứ phả thẳng vào mặt tôi như hắt những cốc nước đá vào mặt, hai bàn tay không có bao tay che chắn...",
      "image": null,
      "label": null,
      "display": "text-only",
      "type": "text",
      "enable_detail": true,
      "related": {
        "url": "https://truyenx.link/truyensextv/channels/related/1896",
        "request_headers": []
      },
      "share": {
        "url": "https://truyenx.link/truyensextv/channels/share/tinh-yeu-cua-mua"
      },
      "remote_data": {
        "url": "https://truyenx.link/truyensextv/channels/tinh-yeu-cua-mua"
      }
    },
    {
      "id": "1895-channel",
      "name": "Đừng làm đĩ nữa",
      "description": "Ngụm cuối cùng của Ly Đen Đá thì trời cũng đã gần sáng... Tàn dư của những mẫu thuốc lá vụn vặt khắp dưới chân của Vy và Tôi đêm qua để lại... Tôi đứng lên và trở về...",
      "image": null,
      "label": null,
      "display": "text-only",
      "type": "text",
      "enable_detail": true,
      "related": {
        "url": "https://truyenx.link/truyensextv/channels/related/1895",
        "request_headers": []
      },
      "share": {
        "url": "https://truyenx.link/truyensextv/channels/share/dung-lam-di-nua"
      },
      "remote_data": {
        "url": "https://truyenx.link/truyensextv/channels/dung-lam-di-nua"
      }
    },
    {
      "id": "1894-channel",
      "name": "Hẹn hò với mẹ",
      "description": "“Mày nói gì?” “Em yêu cầu mẹ em dạy cho tụi mình cách hẹn hò trai gái.” “Cả hai đứa luôn hả?” “Thì giống như trong truyện sex mình đọc đó, hai...",
      "image": null,
      "label": null,
      "display": "text-only",
      "type": "text",
      "enable_detail": true,
      "related": {
        "url": "https://truyenx.link/truyensextv/channels/related/1894",
        "request_headers": []
      },
      "share": {
        "url": "https://truyenx.link/truyensextv/channels/share/hen-ho-voi-me"
      },
      "remote_data": {
        "url": "https://truyenx.link/truyensextv/channels/hen-ho-voi-me"
      }
    },
    {
      "id": "1893-channel",
      "name": "Chị tôi trở thành mẹ tôi",
      "description": "Tôi viết không được hay nên xin phép vào thẳng câu chuyện. Tôi tên Minh năm nay 14 tuổi, gia đình có 4 người chị Thư, mẹ tôi, và ba tôi. Câu chuyện bắt đầu làm xáo trộn suy nghĩ...",
      "image": null,
      "label": null,
      "display": "text-only",
      "type": "text",
      "enable_detail": true,
      "related": {
        "url": "https://truyenx.link/truyensextv/channels/related/1893",
        "request_headers": []
      },
      "share": {
        "url": "https://truyenx.link/truyensextv/channels/share/chi-toi-tro-thanh-me-toi"
      },
      "remote_data": {
        "url": "https://truyenx.link/truyensextv/channels/chi-toi-tro-thanh-me-toi"
      }
    },
    {
      "id": "1892-channel",
      "name": "Minh mạt Thanh sơ",
      "description": "Bi kịch Trấn Hòa Ninh Cuối thời Nhà Minh, khắp nơi loạn lạc, bách tính sống trong cảnh lầm than cơ cực, khắp nơi các cuộc khởi nghĩa nông dân nổ ra ở khắp nơi nhất là cuộc...",
      "image": null,
      "label": null,
      "display": "text-only",
      "type": "text",
      "enable_detail": true,
      "related": {
        "url": "https://truyenx.link/truyensextv/channels/related/1892",
        "request_headers": []
      },
      "share": {
        "url": "https://truyenx.link/truyensextv/channels/share/minh-mat-thanh-so"
      },
      "remote_data": {
        "url": "https://truyenx.link/truyensextv/channels/minh-mat-thanh-so"
      }
    },
    {
      "id": "1891-channel",
      "name": "Cuộc sống như mơ",
      "description": "tháng. Ngay buổi chiều hôm đó, một cô bé khoảng 15 16 tuổi đã gõ...",
      "image": null,
      "label": null,
      "display": "text-only",
      "type": "text",
      "enable_detail": true,
      "related": {
        "url": "https://truyenx.link/truyensextv/channels/related/1891",
        "request_headers": []
      },
      "share": {
        "url": "https://truyenx.link/truyensextv/channels/share/cuoc-song-nhu-mo"
      },
      "remote_data": {
        "url": "https://truyenx.link/truyensextv/channels/cuoc-song-nhu-mo"
      }
    },
    {
      "id": "1890-channel",
      "name": "Chị cùng xóm",
      "description": "Nhớ lại chuyện cũ, cách đây đã khoản 17 năm. Năm đó có một gia đình mới dọn tới khu nhà tôi ở. Khu nhà này là một khuôn viên rộng gồm 5 căn nhà có chung một cái cổng để ra...",
      "image": null,
      "label": null,
      "display": "text-only",
      "type": "text",
      "enable_detail": true,
      "related": {
        "url": "https://truyenx.link/truyensextv/channels/related/1890",
        "request_headers": []
      },
      "share": {
        "url": "https://truyenx.link/truyensextv/channels/share/chi-cung-xom"
      },
      "remote_data": {
        "url": "https://truyenx.link/truyensextv/channels/chi-cung-xom"
      }
    },
    {
      "id": "1889-channel",
      "name": "Chuyện tình sinh viên",
      "description": "Một ngày, mưa mù mịt, người tài xế taxi chở tôi đến trước một chiếc cổng màu xanh, căn nhà vôi tím, nhìn tôi ngần ngại. “Mưa lớn như thế này, cô không mang dù làm...",
      "image": null,
      "label": null,
      "display": "text-only",
      "type": "text",
      "enable_detail": true,
      "related": {
        "url": "https://truyenx.link/truyensextv/channels/related/1889",
        "request_headers": []
      },
      "share": {
        "url": "https://truyenx.link/truyensextv/channels/share/chuyen-tinh-sinh-vien"
      },
      "remote_data": {
        "url": "https://truyenx.link/truyensextv/channels/chuyen-tinh-sinh-vien"
      }
    },
    {
      "id": "1888-channel",
      "name": "Chú Tư hàng xóm",
      "description": "), chuyện của mình cũng dài dòng lắm nhưng lúc đó mình làm tăng ca suốt, rồi về nhà bận bịu cơm nước gia đình nên mình kết thúc sớm. Nhưng hôm nay mình muốn kể lại 1 chuyện...",
      "image": null,
      "label": null,
      "display": "text-only",
      "type": "text",
      "enable_detail": true,
      "related": {
        "url": "https://truyenx.link/truyensextv/channels/related/1888",
        "request_headers": []
      },
      "share": {
        "url": "https://truyenx.link/truyensextv/channels/share/chu-tu-hang-xom"
      },
      "remote_data": {
        "url": "https://truyenx.link/truyensextv/channels/chu-tu-hang-xom"
      }
    },
    {
      "id": "1887-channel",
      "name": "Cô gái năm ấy tôi dùng ảnh để quay tay",
      "description": "Chuyện là hồi đi học tôi ở ký túc xá, mà lại ở với bọn lớp khác nên lịch học khác nhau. Chiều hôm đấy bọn nó đi học hết, mỗi mình tôi ở phòng tự học. 1 2H chiều nắng...",
      "image": null,
      "label": null,
      "display": "text-only",
      "type": "text",
      "enable_detail": true,
      "related": {
        "url": "https://truyenx.link/truyensextv/channels/related/1887",
        "request_headers": []
      },
      "share": {
        "url": "https://truyenx.link/truyensextv/channels/share/co-gai-nam-ay-toi-dung-anh-de-quay-tay"
      },
      "remote_data": {
        "url": "https://truyenx.link/truyensextv/channels/co-gai-nam-ay-toi-dung-anh-de-quay-tay"
      }
    },
    {
      "id": "1886-channel",
      "name": "Chín người tình của tôi",
      "description": "Lần đầu được hôn chỗ ấy Là một cô gái ở tỉnh lẻ, nhưng cũng sinh ra trong một gia đình khá giả. Chính vì vậy tôi cũng được gia đình dạy dỗ quản lý rất kỹ càng. Khi bắt...",
      "image": null,
      "label": null,
      "display": "text-only",
      "type": "text",
      "enable_detail": true,
      "related": {
        "url": "https://truyenx.link/truyensextv/channels/related/1886",
        "request_headers": []
      },
      "share": {
        "url": "https://truyenx.link/truyensextv/channels/share/chin-nguoi-tinh-cua-toi"
      },
      "remote_data": {
        "url": "https://truyenx.link/truyensextv/channels/chin-nguoi-tinh-cua-toi"
      }
    },
    {
      "id": "1885-channel",
      "name": "Hiếp dâm tập thể 2 mẹ con",
      "description": "Má nó, gần tết mà xui thấy mẹ, hôm qua mà không gặp mấy thằng công nhân thì giờ này là ấm rồi. Thằng Dũng vừa dằn cốc bia xuống bàn, tay bốc vài hạt đậu phộng rang cho vào...",
      "image": null,
      "label": null,
      "display": "text-only",
      "type": "text",
      "enable_detail": true,
      "related": {
        "url": "https://truyenx.link/truyensextv/channels/related/1885",
        "request_headers": []
      },
      "share": {
        "url": "https://truyenx.link/truyensextv/channels/share/hiep-dam-tap-the-2-me-con"
      },
      "remote_data": {
        "url": "https://truyenx.link/truyensextv/channels/hiep-dam-tap-the-2-me-con"
      }
    },
    {
      "id": "1884-channel",
      "name": "Phá trinh cô em vợ",
      "description": "Tôi bước xuống sân bay mà lòng đầy nỗi nhớ. Nỗi nhớ da diết về người vợ thân yêu của mình. Chúng tôi mới kết hôn được sáu tháng. Trong sáu tháng này, ngày nào bên vợ đối...",
      "image": null,
      "label": null,
      "display": "text-only",
      "type": "text",
      "enable_detail": true,
      "related": {
        "url": "https://truyenx.link/truyensextv/channels/related/1884",
        "request_headers": []
      },
      "share": {
        "url": "https://truyenx.link/truyensextv/channels/share/pha-trinh-co-em-vo"
      },
      "remote_data": {
        "url": "https://truyenx.link/truyensextv/channels/pha-trinh-co-em-vo"
      }
    },
    {
      "id": "1883-channel",
      "name": "Bạn tôi làm đĩ",
      "description": "Thật ra mà nói tôi chẳng vinh dự gì khi nhận mình là thằng từng cờ bạc mà bể nợ, lang thang khắp các tỉnh thành, làm đủ các ngành nghề từ nam ra bắc, sau khi thất bại với 2...",
      "image": null,
      "label": null,
      "display": "text-only",
      "type": "text",
      "enable_detail": true,
      "related": {
        "url": "https://truyenx.link/truyensextv/channels/related/1883",
        "request_headers": []
      },
      "share": {
        "url": "https://truyenx.link/truyensextv/channels/share/ban-toi-lam-di"
      },
      "remote_data": {
        "url": "https://truyenx.link/truyensextv/channels/ban-toi-lam-di"
      }
    },
    {
      "id": "1882-channel",
      "name": "Chuyến nghỉ mát đặc biệt",
      "description": "Lợi vừa chạy chân sáo về nhà vừa hát một bản nhạc vui mà nó ưa thích cuối cùng thì ngày mà nó chờ đợi cũng đã đến. Với số điểm tổng kết cả năm lên đến 8,0 nó sẽ...",
      "image": null,
      "label": null,
      "display": "text-only",
      "type": "text",
      "enable_detail": true,
      "related": {
        "url": "https://truyenx.link/truyensextv/channels/related/1882",
        "request_headers": []
      },
      "share": {
        "url": "https://truyenx.link/truyensextv/channels/share/chuyen-nghi-mat-dac-biet"
      },
      "remote_data": {
        "url": "https://truyenx.link/truyensextv/channels/chuyen-nghi-mat-dac-biet"
      }
    },
    {
      "id": "1881-channel",
      "name": "Địt chị gái làm ở sân bay Nội Bài",
      "description": "Em làm nhân viên văn phòng, lương 3 cọc 3 đồng, chi tiêu tiết kiệm cũng để dành mua được chiếc xe 4 chỗ để phục vụ gia đình. Lương văn phòng thấp quá nên tối rảnh em lại vác...",
      "image": null,
      "label": null,
      "display": "text-only",
      "type": "text",
      "enable_detail": true,
      "related": {
        "url": "https://truyenx.link/truyensextv/channels/related/1881",
        "request_headers": []
      },
      "share": {
        "url": "https://truyenx.link/truyensextv/channels/share/dit-chi-gai-lam-o-san-bay-noi-bai"
      },
      "remote_data": {
        "url": "https://truyenx.link/truyensextv/channels/dit-chi-gai-lam-o-san-bay-noi-bai"
      }
    },
    {
      "id": "1880-channel",
      "name": "Cô Thảo chơi trai tây",
      "description": "Lúc 14 tuổi gia đình cô Thảo tản cư từ dưới quê lên thành phố. Thời loạn lạc chiến tranh người ta bồng bế đổ xô về thị thành lánh nạn đạn bom rất nhiều. Những chuyến đi...",
      "image": null,
      "label": null,
      "display": "text-only",
      "type": "text",
      "enable_detail": true,
      "related": {
        "url": "https://truyenx.link/truyensextv/channels/related/1880",
        "request_headers": []
      },
      "share": {
        "url": "https://truyenx.link/truyensextv/channels/share/co-thao-choi-trai-tay"
      },
      "remote_data": {
        "url": "https://truyenx.link/truyensextv/channels/co-thao-choi-trai-tay"
      }
    },
    {
      "id": "1879-channel",
      "name": "Nhật ký chơi gái",
      "description": "Cô Bạn Cùng Lớp Cô gái đầu tiên lên giường cùng tôi là Tâm cô bạn học từ năm lớp 9. Vào một ngày hè đầu năm lớp 12, Tâm đến nhà tôi để học nhóm như bao lần trước đó...",
      "image": null,
      "label": null,
      "display": "text-only",
      "type": "text",
      "enable_detail": true,
      "related": {
        "url": "https://truyenx.link/truyensextv/channels/related/1879",
        "request_headers": []
      },
      "share": {
        "url": "https://truyenx.link/truyensextv/channels/share/nhat-ky-choi-gai"
      },
      "remote_data": {
        "url": "https://truyenx.link/truyensextv/channels/nhat-ky-choi-gai"
      }
    }
  ],
  "load_more": {
    "pageInfo": {
      "current_page": 77,
      "last_page": 140,
      "per_page": 30,
      "total": 4188
    },
    "paging": {
      "page_key": "page",
      "size_key": "size"
    },
    "remote_data": {
      "url": "https://truyenx.link/truyensextv/channels"
    }
  }
}