{
  "grid_number": 1,
  "channels": [
    {
      "id": "678-channel",
      "name": "Hiếp dâm đêm mưa",
      "description": "Chúng ta là hàng xóm, ở 2 phòng úp mặt vào nhau. Thằng bạn anh và con bạn em tối ngày đi với bồ, bỏ rơi chúng ta trong sự cô đơn vãi đái và buồi dái thèm ăn. Nhất là những tối...",
      "image": null,
      "label": null,
      "display": "text-only",
      "type": "text",
      "enable_detail": true,
      "related": {
        "url": "https://truyenx.link/truyensextv/channels/related/678",
        "request_headers": []
      },
      "share": {
        "url": "https://truyenx.link/truyensextv/channels/share/hiep-dam-dem-mua"
      },
      "remote_data": {
        "url": "https://truyenx.link/truyensextv/channels/hiep-dam-dem-mua"
      }
    },
    {
      "id": "677-channel",
      "name": "Những lần địt gái vụng trộm",
      "description": "Đọc nhiều truyện của các bác kể về những lần làm tình vụng trộm mỗi người mỗi cảnh có bi có hài. Em cũng thú vui vụng trộm, thích làm tình ở những nơi, những thời điểm...",
      "image": null,
      "label": null,
      "display": "text-only",
      "type": "text",
      "enable_detail": true,
      "related": {
        "url": "https://truyenx.link/truyensextv/channels/related/677",
        "request_headers": []
      },
      "share": {
        "url": "https://truyenx.link/truyensextv/channels/share/nhung-lan-dit-gai-vung-trom"
      },
      "remote_data": {
        "url": "https://truyenx.link/truyensextv/channels/nhung-lan-dit-gai-vung-trom"
      }
    },
    {
      "id": "676-channel",
      "name": "Ngõ cụt cuộc đời",
      "description": "Alo bạn à? Mình đây.. có việc gì không? Đến bệnh viện Thanh Nhàn, khoa... được không? Buổi trưa, mình tranh thủ đến thăm người bạn gái cũ. Đã dễ chừng 3 năm không gặp nhau...",
      "image": null,
      "label": null,
      "display": "text-only",
      "type": "text",
      "enable_detail": true,
      "related": {
        "url": "https://truyenx.link/truyensextv/channels/related/676",
        "request_headers": []
      },
      "share": {
        "url": "https://truyenx.link/truyensextv/channels/share/ngo-cut-cuoc-doi"
      },
      "remote_data": {
        "url": "https://truyenx.link/truyensextv/channels/ngo-cut-cuoc-doi"
      }
    },
    {
      "id": "675-channel",
      "name": "Kẻ lướt qua đời em",
      "description": "Cách đây mấy năm hồi còn đang ở HN, mình thuê nhà trọ ở Nam hồng mê linh. Gần chỗ đó có khu phố đêm, tụ điểm massage và karaoke ôm. Lần đầu tiên đi hát với đám bạn ở đó...",
      "image": null,
      "label": null,
      "display": "text-only",
      "type": "text",
      "enable_detail": true,
      "related": {
        "url": "https://truyenx.link/truyensextv/channels/related/675",
        "request_headers": []
      },
      "share": {
        "url": "https://truyenx.link/truyensextv/channels/share/ke-luot-qua-doi-em"
      },
      "remote_data": {
        "url": "https://truyenx.link/truyensextv/channels/ke-luot-qua-doi-em"
      }
    },
    {
      "id": "674-channel",
      "name": "Những người vợ tù",
      "description": "Tôi nằm ở giường cuối cùng. Thực ra đây là gường đôi nhưng nhà xe chét 3 người. Tôi ý tứ nằm ngoài, nằm giữa là một thiếu phụ chắc đã ngoài 40, còn cạnh đó là...",
      "image": null,
      "label": null,
      "display": "text-only",
      "type": "text",
      "enable_detail": true,
      "related": {
        "url": "https://truyenx.link/truyensextv/channels/related/674",
        "request_headers": []
      },
      "share": {
        "url": "https://truyenx.link/truyensextv/channels/share/nhung-nguoi-vo-tu"
      },
      "remote_data": {
        "url": "https://truyenx.link/truyensextv/channels/nhung-nguoi-vo-tu"
      }
    },
    {
      "id": "673-channel",
      "name": "Đụ vợ trong quán cafe",
      "description": "Hôm qua đẹp trời, mình bàn với vợ: “Vợ ơi, tối gửi con cho ông bà xong vợ chồng mình đi chơi nhá”. Vợ hí hửng hỏi đi đâu? Nàng ta cũng đi làm suốt xong về lại còn con...",
      "image": null,
      "label": null,
      "display": "text-only",
      "type": "text",
      "enable_detail": true,
      "related": {
        "url": "https://truyenx.link/truyensextv/channels/related/673",
        "request_headers": []
      },
      "share": {
        "url": "https://truyenx.link/truyensextv/channels/share/du-vo-trong-quan-cafe"
      },
      "remote_data": {
        "url": "https://truyenx.link/truyensextv/channels/du-vo-trong-quan-cafe"
      }
    },
    {
      "id": "672-channel",
      "name": "Chỉ là bạn thôi",
      "description": "Ngày...tháng...năm... Mình với bạn thân với nhau. Thân và có rất nhiều bí mật với nhau. Thường xuyên tranh thủ ôm nhau, bạn còn cho mình gục đầu vào ngực bạn khi ôm nữa. Rồi thì...",
      "image": null,
      "label": null,
      "display": "text-only",
      "type": "text",
      "enable_detail": true,
      "related": {
        "url": "https://truyenx.link/truyensextv/channels/related/672",
        "request_headers": []
      },
      "share": {
        "url": "https://truyenx.link/truyensextv/channels/share/chi-la-ban-thoi"
      },
      "remote_data": {
        "url": "https://truyenx.link/truyensextv/channels/chi-la-ban-thoi"
      }
    },
    {
      "id": "671-channel",
      "name": "Lấy trinh chị họ",
      "description": "Tôi và em là chị em họ. Tuy nói là chị em nhưng tôi và em không có máu mủ gì cả, vì em là con được dì Năm tôi nhận nuôi từ nhỏ ở bệnh viện do người nhà không có khả năng nuôi...",
      "image": null,
      "label": null,
      "display": "text-only",
      "type": "text",
      "enable_detail": true,
      "related": {
        "url": "https://truyenx.link/truyensextv/channels/related/671",
        "request_headers": []
      },
      "share": {
        "url": "https://truyenx.link/truyensextv/channels/share/lay-trinh-chi-ho"
      },
      "remote_data": {
        "url": "https://truyenx.link/truyensextv/channels/lay-trinh-chi-ho"
      }
    },
    {
      "id": "670-channel",
      "name": "Một thời vụng trộm",
      "description": "Hôm nay đi làm rảnh rỗi nên ngồi lật điện thoại coi lại tin nhắn cũ. Bất chợt nhận ra 1 đống tin nhắn của 1 em làm chung công ty năm ngoái nên tâm trạng phấn khích. Chẳng biết...",
      "image": null,
      "label": null,
      "display": "text-only",
      "type": "text",
      "enable_detail": true,
      "related": {
        "url": "https://truyenx.link/truyensextv/channels/related/670",
        "request_headers": []
      },
      "share": {
        "url": "https://truyenx.link/truyensextv/channels/share/mot-thoi-vung-trom"
      },
      "remote_data": {
        "url": "https://truyenx.link/truyensextv/channels/mot-thoi-vung-trom"
      }
    },
    {
      "id": "669-channel",
      "name": "Địt trên xe giường nằm",
      "description": "Mấy chuyến đi Đà Lạt và Nha Trang với bạn gái, mình hay mua vé xe máy lạnh giường nằm, 22 giờ xuất bến ngủ 1 đêm sáng hôm sau tới nơi. Mình luôn mua vé cuối xe, nơi có 5 chỗ nằm...",
      "image": null,
      "label": null,
      "display": "text-only",
      "type": "text",
      "enable_detail": true,
      "related": {
        "url": "https://truyenx.link/truyensextv/channels/related/669",
        "request_headers": []
      },
      "share": {
        "url": "https://truyenx.link/truyensextv/channels/share/dit-tren-xe-giuong-nam"
      },
      "remote_data": {
        "url": "https://truyenx.link/truyensextv/channels/dit-tren-xe-giuong-nam"
      }
    },
    {
      "id": "668-channel",
      "name": "Một chiều cuối năm",
      "description": "Chiều cuối năm văn phòng vắng tanh, ông Sếp lúc nãy gọi điện kêu có chuyện về sớm. Em cứ ở lại làm việc đi nhé. Huầy, chán chết đi được. Dạo này công ty khó khăn, làm ăn...",
      "image": null,
      "label": null,
      "display": "text-only",
      "type": "text",
      "enable_detail": true,
      "related": {
        "url": "https://truyenx.link/truyensextv/channels/related/668",
        "request_headers": []
      },
      "share": {
        "url": "https://truyenx.link/truyensextv/channels/share/mot-chieu-cuoi-nam"
      },
      "remote_data": {
        "url": "https://truyenx.link/truyensextv/channels/mot-chieu-cuoi-nam"
      }
    },
    {
      "id": "667-channel",
      "name": "Tâm sự của bạn gái cũ",
      "description": "Thủ thỉ một lúc thì mình cũng hiểu ra, hóa ra ba năm nay nó cứ hết rình lại mò chồng nó, vốn là Phó tổng một tập đoàn lớn. Nó kể, bồ sếp nó vốn là đứa cắt tóc gội...",
      "image": null,
      "label": null,
      "display": "text-only",
      "type": "text",
      "enable_detail": true,
      "related": {
        "url": "https://truyenx.link/truyensextv/channels/related/667",
        "request_headers": []
      },
      "share": {
        "url": "https://truyenx.link/truyensextv/channels/share/tam-su-cua-ban-gai-cu"
      },
      "remote_data": {
        "url": "https://truyenx.link/truyensextv/channels/tam-su-cua-ban-gai-cu"
      }
    },
    {
      "id": "666-channel",
      "name": "Bi kịch cuộc đời",
      "description": "Năm 198x. Tại một bệnh viện ở tỉnh miền tây, một cậu bé ra đời do sinh thiếu tháng nên nặng 2 ký 2. Cậu bé được đặt tên là Nguyễn Hoàng Sơn Năm lên 6 tuổi cơ thể Sơn nhỏ...",
      "image": null,
      "label": null,
      "display": "text-only",
      "type": "text",
      "enable_detail": true,
      "related": {
        "url": "https://truyenx.link/truyensextv/channels/related/666",
        "request_headers": []
      },
      "share": {
        "url": "https://truyenx.link/truyensextv/channels/share/bi-kich-cuoc-doi"
      },
      "remote_data": {
        "url": "https://truyenx.link/truyensextv/channels/bi-kich-cuoc-doi"
      }
    },
    {
      "id": "665-channel",
      "name": "Nhớ về em",
      "description": "Hàng ngày, vào buổi chiều sau khi em đi làm về, tôi và em nói chuyện điện thoại hàng giờ không biết chán, em tâm sự về em, về cuộc đời em và thỉnh thoảng em lại khóc, tôi thì...",
      "image": null,
      "label": null,
      "display": "text-only",
      "type": "text",
      "enable_detail": true,
      "related": {
        "url": "https://truyenx.link/truyensextv/channels/related/665",
        "request_headers": []
      },
      "share": {
        "url": "https://truyenx.link/truyensextv/channels/share/nho-ve-em"
      },
      "remote_data": {
        "url": "https://truyenx.link/truyensextv/channels/nho-ve-em"
      }
    },
    {
      "id": "664-channel",
      "name": "Gửi cho Trâm",
      "description": "Thân gửi Trâm... Trâm nhỉ, em kém tôi đến 4 tuổi, là nhân viên chạy bàn, dáng dây, nhỏ mà xinh... đôi môi đầy gợi dục... ấy là sau này tôi mới phán được thế nào là gợi...",
      "image": null,
      "label": null,
      "display": "text-only",
      "type": "text",
      "enable_detail": true,
      "related": {
        "url": "https://truyenx.link/truyensextv/channels/related/664",
        "request_headers": []
      },
      "share": {
        "url": "https://truyenx.link/truyensextv/channels/share/gui-cho-tram"
      },
      "remote_data": {
        "url": "https://truyenx.link/truyensextv/channels/gui-cho-tram"
      }
    },
    {
      "id": "663-channel",
      "name": "Khu biệt thự bên quả đồi",
      "description": "Tôi thức dậy vào buổi sáng sớm, phải nói là sớm hơn ngày thường để chuẩn bị hành lý cho chuyến đi lúc 9 giờ sáng. Kể từ hôm nay tôi sẽ chuyển tới quận Đông để ở tại...",
      "image": null,
      "label": null,
      "display": "text-only",
      "type": "text",
      "enable_detail": true,
      "related": {
        "url": "https://truyenx.link/truyensextv/channels/related/663",
        "request_headers": []
      },
      "share": {
        "url": "https://truyenx.link/truyensextv/channels/share/khu-biet-thu-ben-qua-doi"
      },
      "remote_data": {
        "url": "https://truyenx.link/truyensextv/channels/khu-biet-thu-ben-qua-doi"
      }
    },
    {
      "id": "662-channel",
      "name": "Người đàn bà sinh ra để làm tình",
      "description": "Em với tôi là hàng xóm cùng khu trọ sinh viên với 15 phòng san sát nhau. Tôi – sinh viên năm cuối ở 1 mình còn em là sinh viên năm 2 cuả 1 trường ĐH ở HN sống thử với người yêu . Em...",
      "image": null,
      "label": null,
      "display": "text-only",
      "type": "text",
      "enable_detail": true,
      "related": {
        "url": "https://truyenx.link/truyensextv/channels/related/662",
        "request_headers": []
      },
      "share": {
        "url": "https://truyenx.link/truyensextv/channels/share/nguoi-dan-ba-sinh-ra-de-lam-tinh"
      },
      "remote_data": {
        "url": "https://truyenx.link/truyensextv/channels/nguoi-dan-ba-sinh-ra-de-lam-tinh"
      }
    },
    {
      "id": "661-channel",
      "name": "Cô gái ngày xưa",
      "description": "Người ta nói, đi 1 ngày đàng, học một sàng khôn, nhưng đi nhiều rồi mới thấy sợ! Tôi sợ những thứ giả dối và toan tính của con người... Hắn vào đại học, điểm không cao...",
      "image": null,
      "label": null,
      "display": "text-only",
      "type": "text",
      "enable_detail": true,
      "related": {
        "url": "https://truyenx.link/truyensextv/channels/related/661",
        "request_headers": []
      },
      "share": {
        "url": "https://truyenx.link/truyensextv/channels/share/co-gai-ngay-xua"
      },
      "remote_data": {
        "url": "https://truyenx.link/truyensextv/channels/co-gai-ngay-xua"
      }
    },
    {
      "id": "660-channel",
      "name": "Thằng Dương",
      "description": "Thằng Dương ngồi thỏng trên ghế, vạch một ống quần đùi sang một bên, đưa tay trái thủ dâm nhè nhẹ. Miệng nó há hốc, thở dồn, đôi mắt nó tập trung trên màn hình, tay phải...",
      "image": null,
      "label": null,
      "display": "text-only",
      "type": "text",
      "enable_detail": true,
      "related": {
        "url": "https://truyenx.link/truyensextv/channels/related/660",
        "request_headers": []
      },
      "share": {
        "url": "https://truyenx.link/truyensextv/channels/share/thang-duong"
      },
      "remote_data": {
        "url": "https://truyenx.link/truyensextv/channels/thang-duong"
      }
    },
    {
      "id": "659-channel",
      "name": "Chuyện tình cô công nhân",
      "description": "Tôi một nữ công nhân may xa nhà, quê quán tận miền Trung xa xôi. Chúng tôi quen nhau khi chát trên mạng, anh tự giới thiệu là sinh viên đại học Ngân hàng, 22 tuổi, quê ở Cần Thơ và...",
      "image": null,
      "label": null,
      "display": "text-only",
      "type": "text",
      "enable_detail": true,
      "related": {
        "url": "https://truyenx.link/truyensextv/channels/related/659",
        "request_headers": []
      },
      "share": {
        "url": "https://truyenx.link/truyensextv/channels/share/chuyen-tinh-co-cong-nhan"
      },
      "remote_data": {
        "url": "https://truyenx.link/truyensextv/channels/chuyen-tinh-co-cong-nhan"
      }
    },
    {
      "id": "658-channel",
      "name": "Gấu xin lỗi",
      "description": "Chả là hôm trước đang chơi trên nhà gấu nghịch cái điện thoại có bắt được gấu nhắn tin với thằng người yêu cũ. Chuyện trò hỏi han thôi cũng chả có gì to tát. Mặc dù em...",
      "image": null,
      "label": null,
      "display": "text-only",
      "type": "text",
      "enable_detail": true,
      "related": {
        "url": "https://truyenx.link/truyensextv/channels/related/658",
        "request_headers": []
      },
      "share": {
        "url": "https://truyenx.link/truyensextv/channels/share/gau-xin-loi"
      },
      "remote_data": {
        "url": "https://truyenx.link/truyensextv/channels/gau-xin-loi"
      }
    },
    {
      "id": "657-channel",
      "name": "Hai chị em dâm đãng",
      "description": "Thực ra thì hồi đó với cái tuổi 8x của tôi và ở một vùng quê cho nên chuyện đó dường như với tụi chúng tôi còn rất mơ hồ. Sau khi vô thành phố học đại học, đến khi lần...",
      "image": null,
      "label": null,
      "display": "text-only",
      "type": "text",
      "enable_detail": true,
      "related": {
        "url": "https://truyenx.link/truyensextv/channels/related/657",
        "request_headers": []
      },
      "share": {
        "url": "https://truyenx.link/truyensextv/channels/share/hai-chi-em-dam-dang"
      },
      "remote_data": {
        "url": "https://truyenx.link/truyensextv/channels/hai-chi-em-dam-dang"
      }
    },
    {
      "id": "656-channel",
      "name": "Tà áo dài bị ướt",
      "description": "Hùng năm nay 16 tuổi rồi mà trông như một thằng trẻ con. Hùng có vóc người nhỏ bé, gầy trơ xương đã thế lại còn đen đúa xấu xí với cặp kính cận. Với dáng hình như vậy...",
      "image": null,
      "label": null,
      "display": "text-only",
      "type": "text",
      "enable_detail": true,
      "related": {
        "url": "https://truyenx.link/truyensextv/channels/related/656",
        "request_headers": []
      },
      "share": {
        "url": "https://truyenx.link/truyensextv/channels/share/ta-ao-dai-bi-uot"
      },
      "remote_data": {
        "url": "https://truyenx.link/truyensextv/channels/ta-ao-dai-bi-uot"
      }
    },
    {
      "id": "655-channel",
      "name": "Cô con dâu xinh đẹp",
      "description": "“Con mời bố ăn lê, lê hôm nay con mua ngọt lắm đấy ạ.” Trâm đặt đĩa lê đã gọt và cắt sẵn thành những miếng đều tăm tắp trước mặt bố chồng, nhẹ nhàng mời ông...",
      "image": null,
      "label": null,
      "display": "text-only",
      "type": "text",
      "enable_detail": true,
      "related": {
        "url": "https://truyenx.link/truyensextv/channels/related/655",
        "request_headers": []
      },
      "share": {
        "url": "https://truyenx.link/truyensextv/channels/share/co-con-dau-xinh-dep"
      },
      "remote_data": {
        "url": "https://truyenx.link/truyensextv/channels/co-con-dau-xinh-dep"
      }
    },
    {
      "id": "654-channel",
      "name": "Ông già Noel phá trinh công chúa tuyết",
      "description": "Tại Nam Cực, một lục địa vốn lạnh lẽo, không một bóng người và đầy bí ẩn… Tuy nhiên gần đây lục địa băng giá này đã được người ta...",
      "image": null,
      "label": null,
      "display": "text-only",
      "type": "text",
      "enable_detail": true,
      "related": {
        "url": "https://truyenx.link/truyensextv/channels/related/654",
        "request_headers": []
      },
      "share": {
        "url": "https://truyenx.link/truyensextv/channels/share/ong-gia-noel-pha-trinh-cong-chua-tuyet"
      },
      "remote_data": {
        "url": "https://truyenx.link/truyensextv/channels/ong-gia-noel-pha-trinh-cong-chua-tuyet"
      }
    },
    {
      "id": "653-channel",
      "name": "Gái điếm",
      "description": "Linh quay người, hất mái tóc về một phía cho khỏi vướng víu trong lúc cô thấy rõ là người yêu đang sướng lịm người. Linh thấy mặt anh như dại đi theo từng nhịp giao hoan, dương...",
      "image": null,
      "label": null,
      "display": "text-only",
      "type": "text",
      "enable_detail": true,
      "related": {
        "url": "https://truyenx.link/truyensextv/channels/related/653",
        "request_headers": []
      },
      "share": {
        "url": "https://truyenx.link/truyensextv/channels/share/gai-diem"
      },
      "remote_data": {
        "url": "https://truyenx.link/truyensextv/channels/gai-diem"
      }
    },
    {
      "id": "652-channel",
      "name": "Địt mẹ mày, sướng quá",
      "description": "Từng nụ hôn nhẹ, mơn mơn vào miệng thơm của vợ, nhẹ nhàng kéo lưỡi nàng ra mà mút. Từng tiếng “ưm... ơ...’ nhẹ trong cuống họng. Nó dồn dập hơn khi mình để con cu...",
      "image": null,
      "label": null,
      "display": "text-only",
      "type": "text",
      "enable_detail": true,
      "related": {
        "url": "https://truyenx.link/truyensextv/channels/related/652",
        "request_headers": []
      },
      "share": {
        "url": "https://truyenx.link/truyensextv/channels/share/dit-me-may-suong-qua"
      },
      "remote_data": {
        "url": "https://truyenx.link/truyensextv/channels/dit-me-may-suong-qua"
      }
    },
    {
      "id": "651-channel",
      "name": "Giáng sinh ngọt ngào",
      "description": "Chào các bác trên truyensextv2.cc Em tên Minh, 23 tuổi vừa ra trường được 1 năm hiện đang làm việc cho một ngân hàng ở phố núi đầy nắng và gió. Em cao 1m75, thời sinh viên vẫn theo...",
      "image": null,
      "label": null,
      "display": "text-only",
      "type": "text",
      "enable_detail": true,
      "related": {
        "url": "https://truyenx.link/truyensextv/channels/related/651",
        "request_headers": []
      },
      "share": {
        "url": "https://truyenx.link/truyensextv/channels/share/giang-sinh-ngot-ngao"
      },
      "remote_data": {
        "url": "https://truyenx.link/truyensextv/channels/giang-sinh-ngot-ngao"
      }
    },
    {
      "id": "650-channel",
      "name": "Đêm giáng sinh",
      "description": "Dũng mới tốt nghiệp Đại Học ở Nhật là lập tức trở về Sài Gòn với gia đình. Ngày trở về có ba má và các bạn cùng học cũ của Dũng ra đón. Trong số đó có Nhi, người cùng...",
      "image": null,
      "label": null,
      "display": "text-only",
      "type": "text",
      "enable_detail": true,
      "related": {
        "url": "https://truyenx.link/truyensextv/channels/related/650",
        "request_headers": []
      },
      "share": {
        "url": "https://truyenx.link/truyensextv/channels/share/dem-giang-sinh"
      },
      "remote_data": {
        "url": "https://truyenx.link/truyensextv/channels/dem-giang-sinh"
      }
    },
    {
      "id": "649-channel",
      "name": "Đụ với ông già noel",
      "description": "Hai vợ chồng Bảo và Hiền là cặp đôi hạnh phúc, họ cưới nhau đã lâu và đã có một đứa con gái 2 tuổi. Họ sống trong một căn biệt thự ở quận 7, Tp HCM. Bảo cũng không đẹp...",
      "image": null,
      "label": null,
      "display": "text-only",
      "type": "text",
      "enable_detail": true,
      "related": {
        "url": "https://truyenx.link/truyensextv/channels/related/649",
        "request_headers": []
      },
      "share": {
        "url": "https://truyenx.link/truyensextv/channels/share/du-voi-ong-gia-noel"
      },
      "remote_data": {
        "url": "https://truyenx.link/truyensextv/channels/du-voi-ong-gia-noel"
      }
    }
  ],
  "load_more": {
    "pageInfo": {
      "current_page": 118,
      "last_page": 140,
      "per_page": 30,
      "total": 4188
    },
    "paging": {
      "page_key": "page",
      "size_key": "size"
    },
    "remote_data": {
      "url": "https://truyenx.link/truyensextv/channels"
    }
  }
}