{
  "grid_number": 1,
  "channels": [
    {
      "id": "828-channel",
      "name": "Ỷ thiên đồ long ký - Quyển 2",
      "description": "Bỗng nhiên cả người Trương Siêu Quần cứng đơ ngây dại không nhúc nhích được, chỉ thấy trước mặt mình không biết khi nào thì xuất hiện một dòng xoáy màu lam cực lớn, phảng...",
      "image": null,
      "label": null,
      "display": "text-only",
      "type": "text",
      "enable_detail": true,
      "related": {
        "url": "https://truyenx.link/truyensextv/channels/related/828",
        "request_headers": []
      },
      "share": {
        "url": "https://truyenx.link/truyensextv/channels/share/y-thien-do-long-ky-quyen-2"
      },
      "remote_data": {
        "url": "https://truyenx.link/truyensextv/channels/y-thien-do-long-ky-quyen-2"
      }
    },
    {
      "id": "827-channel",
      "name": "Mối tình loạn luân",
      "description": "Tôi là một thanh niên, năm nay 25 tuổi, và em, cô họ của tôi, năm nay 18 tuổi. Chúng tôi ở cách xa nhau, và từ trước khi sự việc xảy ra tôi chỉ mới gặp em đúng 1 lần và lần. Tôi...",
      "image": null,
      "label": null,
      "display": "text-only",
      "type": "text",
      "enable_detail": true,
      "related": {
        "url": "https://truyenx.link/truyensextv/channels/related/827",
        "request_headers": []
      },
      "share": {
        "url": "https://truyenx.link/truyensextv/channels/share/moi-tinh-loan-luan"
      },
      "remote_data": {
        "url": "https://truyenx.link/truyensextv/channels/moi-tinh-loan-luan"
      }
    },
    {
      "id": "826-channel",
      "name": "Bồ của xếp tổng",
      "description": "Câu chuyện bắt đầu từ khi em chuyển về làm “Trợ lý” của “cụ tổng”, cái này nôm na gọi là “thằng hầu” cắp tráp theo cụ tổng ngày xưa. Trăm thứ bà...",
      "image": null,
      "label": null,
      "display": "text-only",
      "type": "text",
      "enable_detail": true,
      "related": {
        "url": "https://truyenx.link/truyensextv/channels/related/826",
        "request_headers": []
      },
      "share": {
        "url": "https://truyenx.link/truyensextv/channels/share/bo-cua-xep-tong"
      },
      "remote_data": {
        "url": "https://truyenx.link/truyensextv/channels/bo-cua-xep-tong"
      }
    },
    {
      "id": "825-channel",
      "name": "Chị hàng xóm cực dâm",
      "description": "Vợ chồng mình mới cưới, có thuê được căn phòng trọ trong khu nhà chung cư, mới cưới nên việc ưu tiên chính của 2 vợ chồng là “làm tình”, bất kể ngày đêm. Vợ mình...",
      "image": null,
      "label": null,
      "display": "text-only",
      "type": "text",
      "enable_detail": true,
      "related": {
        "url": "https://truyenx.link/truyensextv/channels/related/825",
        "request_headers": []
      },
      "share": {
        "url": "https://truyenx.link/truyensextv/channels/share/chi-hang-xom-cuc-dam"
      },
      "remote_data": {
        "url": "https://truyenx.link/truyensextv/channels/chi-hang-xom-cuc-dam"
      }
    },
    {
      "id": "824-channel",
      "name": "Bà xã dâm",
      "description": "Một hôm, vợ chồng mình nổi hứng đi ra thành phố và ngủ lại khách sạn một đêm. Mình liền tính toán kỹ lưỡng cho một đêm thật sung sướng: đi ăn, cà phê chuồng và bãi đáp là...",
      "image": null,
      "label": null,
      "display": "text-only",
      "type": "text",
      "enable_detail": true,
      "related": {
        "url": "https://truyenx.link/truyensextv/channels/related/824",
        "request_headers": []
      },
      "share": {
        "url": "https://truyenx.link/truyensextv/channels/share/ba-xa-dam"
      },
      "remote_data": {
        "url": "https://truyenx.link/truyensextv/channels/ba-xa-dam"
      }
    },
    {
      "id": "823-channel",
      "name": "Đụ cô ruột",
      "description": "Trời mùa hè nắng chói chang, ve kêu rộn rã cả 1 khoảng góc trời, màu hoa phượng đỏ rực, một mùa hè nóng bức đang diễn ra. Khi mà những ngôi nhà không có điều hòa thì điều đó...",
      "image": null,
      "label": null,
      "display": "text-only",
      "type": "text",
      "enable_detail": true,
      "related": {
        "url": "https://truyenx.link/truyensextv/channels/related/823",
        "request_headers": []
      },
      "share": {
        "url": "https://truyenx.link/truyensextv/channels/share/du-co-ruot"
      },
      "remote_data": {
        "url": "https://truyenx.link/truyensextv/channels/du-co-ruot"
      }
    },
    {
      "id": "822-channel",
      "name": "Lớp học 12A7",
      "description": "12a7 là một lớp học không thầy cô nào muốn nhận. Làm chủ nhiệm của một lớp tập trung của thành phần học sinh cá biệt là một cực hình đối với tất cả thầy cô trường Hoa...",
      "image": null,
      "label": null,
      "display": "text-only",
      "type": "text",
      "enable_detail": true,
      "related": {
        "url": "https://truyenx.link/truyensextv/channels/related/822",
        "request_headers": []
      },
      "share": {
        "url": "https://truyenx.link/truyensextv/channels/share/lop-hoc-12a7"
      },
      "remote_data": {
        "url": "https://truyenx.link/truyensextv/channels/lop-hoc-12a7"
      }
    },
    {
      "id": "821-channel",
      "name": "Người yêu cũ",
      "description": "Đã lâu rồi tôi chưa nghe lại giọng nói của Thu Huyền, bất ngờ nàng gọi điện cho tôi vì nàng mới chia tay với người yêu, cần người tâm sự. Giọng nàng vẫn còn hồn nhiên bé...",
      "image": null,
      "label": null,
      "display": "text-only",
      "type": "text",
      "enable_detail": true,
      "related": {
        "url": "https://truyenx.link/truyensextv/channels/related/821",
        "request_headers": []
      },
      "share": {
        "url": "https://truyenx.link/truyensextv/channels/share/nguoi-yeu-cu"
      },
      "remote_data": {
        "url": "https://truyenx.link/truyensextv/channels/nguoi-yeu-cu"
      }
    },
    {
      "id": "820-channel",
      "name": "Cô gái đến từ sự tình cờ",
      "description": "Sài Gòn, ngày... tháng... năm... Cái thời tiết của Sài Gòn cứ nắng mưa thất thường, biết bao nhiêu cái khó chịu, biết bao nhiêu cái ưu phiền của công việc. Cứ thế cứ dồn đẩy...",
      "image": null,
      "label": null,
      "display": "text-only",
      "type": "text",
      "enable_detail": true,
      "related": {
        "url": "https://truyenx.link/truyensextv/channels/related/820",
        "request_headers": []
      },
      "share": {
        "url": "https://truyenx.link/truyensextv/channels/share/co-gai-den-tu-su-tinh-co"
      },
      "remote_data": {
        "url": "https://truyenx.link/truyensextv/channels/co-gai-den-tu-su-tinh-co"
      }
    },
    {
      "id": "819-channel",
      "name": "Quãng thời gian tuyệt vời",
      "description": "Tôi và em quen nhau vì em hay sang hàng xóm chơi, hàng xóm của em lại là bạn thân của tôi, thế là tôi xin số điện thoại của em, nhắn tin qua lại mãi rồi em cũng có phần thích tôi...",
      "image": null,
      "label": null,
      "display": "text-only",
      "type": "text",
      "enable_detail": true,
      "related": {
        "url": "https://truyenx.link/truyensextv/channels/related/819",
        "request_headers": []
      },
      "share": {
        "url": "https://truyenx.link/truyensextv/channels/share/quang-thoi-gian-tuyet-voi"
      },
      "remote_data": {
        "url": "https://truyenx.link/truyensextv/channels/quang-thoi-gian-tuyet-voi"
      }
    },
    {
      "id": "818-channel",
      "name": "Em Message đáng nhớ",
      "description": "Quen em trong một lần đi massage, tối trước uống rượu say nên cơ thể mỏi mệt vào lấy phòng yêu cầu 1 em có kỹ thuật tốt, vì mình lúc đó chỉ mong khỏi nhức mỏi người, bác nào...",
      "image": null,
      "label": null,
      "display": "text-only",
      "type": "text",
      "enable_detail": true,
      "related": {
        "url": "https://truyenx.link/truyensextv/channels/related/818",
        "request_headers": []
      },
      "share": {
        "url": "https://truyenx.link/truyensextv/channels/share/em-message-dang-nho"
      },
      "remote_data": {
        "url": "https://truyenx.link/truyensextv/channels/em-message-dang-nho"
      }
    },
    {
      "id": "817-channel",
      "name": "Quả báo",
      "description": "Hơn 1 năm trước, do làm ăn thua lỗ tôi rơi vào tình trạng nợ nần và bị giang hồ truy sát, căn nhà duy nhất cũng có nguy cơ bị siết nợ, nhưng trong lúc khó khăn nhất thì vợ chồng...",
      "image": null,
      "label": null,
      "display": "text-only",
      "type": "text",
      "enable_detail": true,
      "related": {
        "url": "https://truyenx.link/truyensextv/channels/related/817",
        "request_headers": []
      },
      "share": {
        "url": "https://truyenx.link/truyensextv/channels/share/qua-bao"
      },
      "remote_data": {
        "url": "https://truyenx.link/truyensextv/channels/qua-bao"
      }
    },
    {
      "id": "816-channel",
      "name": "Tình 1 đêm",
      "description": "Chỉ còn 2 ngày nữa là mình bước sang tuổi 25. 25 năm sống trên đời cũng đã trải qua biết bao nhiêu là chuyện, yêu đương có, qua đường cũng có. Mình cứ nghĩ, đã yêu là phải yêu...",
      "image": null,
      "label": null,
      "display": "text-only",
      "type": "text",
      "enable_detail": true,
      "related": {
        "url": "https://truyenx.link/truyensextv/channels/related/816",
        "request_headers": []
      },
      "share": {
        "url": "https://truyenx.link/truyensextv/channels/share/tinh-1-dem"
      },
      "remote_data": {
        "url": "https://truyenx.link/truyensextv/channels/tinh-1-dem"
      }
    },
    {
      "id": "815-channel",
      "name": "Tôi nhớ em",
      "description": "Chuyện là thế này! Cách đây hơn 1 năm, chính xác là tháng 7 năm 2012. Lúc đó, tôi mới tốt nghiệp THPT và đang đi làm thêm ở 1 Shop quần áo nhỏ. Tôi là 1 mem trung thành của Ola Chat khi...",
      "image": null,
      "label": null,
      "display": "text-only",
      "type": "text",
      "enable_detail": true,
      "related": {
        "url": "https://truyenx.link/truyensextv/channels/related/815",
        "request_headers": []
      },
      "share": {
        "url": "https://truyenx.link/truyensextv/channels/share/toi-nho-em"
      },
      "remote_data": {
        "url": "https://truyenx.link/truyensextv/channels/toi-nho-em"
      }
    },
    {
      "id": "814-channel",
      "name": "Tản mạn về nàng đồng nghiệp cũ",
      "description": "Lúc trước, tôi và nàng chung chỗ làm. Nàng hoàn toàn bình thường về mặt ngoại hình, thậm chí còn không phải gu ưa thích của tôi. Tôi mê các em đùi ếch, bởi có thể mông mới to...",
      "image": null,
      "label": null,
      "display": "text-only",
      "type": "text",
      "enable_detail": true,
      "related": {
        "url": "https://truyenx.link/truyensextv/channels/related/814",
        "request_headers": []
      },
      "share": {
        "url": "https://truyenx.link/truyensextv/channels/share/tan-man-ve-nang-dong-nghiep-cu"
      },
      "remote_data": {
        "url": "https://truyenx.link/truyensextv/channels/tan-man-ve-nang-dong-nghiep-cu"
      }
    },
    {
      "id": "813-channel",
      "name": "Gái 17 đầy kinh nghiệm",
      "description": "Không biết vì lý do gì mà hôm nay mình lại không ngủ được. Vô tình lại nhớ lại vài chuyện cách đây cũng đã ngót 6 năm trời rồi nhưng mình nhớ rất rõ cứ như là vừa mới xảy...",
      "image": null,
      "label": null,
      "display": "text-only",
      "type": "text",
      "enable_detail": true,
      "related": {
        "url": "https://truyenx.link/truyensextv/channels/related/813",
        "request_headers": []
      },
      "share": {
        "url": "https://truyenx.link/truyensextv/channels/share/gai-17-day-kinh-nghiem"
      },
      "remote_data": {
        "url": "https://truyenx.link/truyensextv/channels/gai-17-day-kinh-nghiem"
      }
    },
    {
      "id": "812-channel",
      "name": "Cuộc tình đầu tiên",
      "description": "Mùa mưa cuối cùng rồi cũng tạnh, tôi nhớ độ khoảng vào tháng 9 năm 2009. Dạo ấy tôi còn khá là trẻ và non nớt với những cái nhìn từ những bông hồng trẻ, cứ phây pha làm cho...",
      "image": null,
      "label": null,
      "display": "text-only",
      "type": "text",
      "enable_detail": true,
      "related": {
        "url": "https://truyenx.link/truyensextv/channels/related/812",
        "request_headers": []
      },
      "share": {
        "url": "https://truyenx.link/truyensextv/channels/share/cuoc-tinh-dau-tien"
      },
      "remote_data": {
        "url": "https://truyenx.link/truyensextv/channels/cuoc-tinh-dau-tien"
      }
    },
    {
      "id": "811-channel",
      "name": "Địt nhau trên tàu hỏa",
      "description": "Chuyện là thế này: Mình có máy bay hơn mình 5 tuổi trong một lần tình cờ gặp nhau, sau một thời gian nói chuyện thì cuối cùng bọn mình cũng quan hệ với nhau. Do mình và máy bay ở...",
      "image": null,
      "label": null,
      "display": "text-only",
      "type": "text",
      "enable_detail": true,
      "related": {
        "url": "https://truyenx.link/truyensextv/channels/related/811",
        "request_headers": []
      },
      "share": {
        "url": "https://truyenx.link/truyensextv/channels/share/dit-nhau-tren-tau-hoa"
      },
      "remote_data": {
        "url": "https://truyenx.link/truyensextv/channels/dit-nhau-tren-tau-hoa"
      }
    },
    {
      "id": "810-channel",
      "name": "Nữ sinh lớp chọn",
      "description": "Tôi tên Hải, cao 1m65, gia đình nhà tôi cũng đủ dư giả, ấm no hạnh phúc, tôi có một chị gái tên Huyền, hơn tôi 1 tuổi, đang học lớp 12 cùng trường với tôi, bố mẹ tôi đều đi...",
      "image": null,
      "label": null,
      "display": "text-only",
      "type": "text",
      "enable_detail": true,
      "related": {
        "url": "https://truyenx.link/truyensextv/channels/related/810",
        "request_headers": []
      },
      "share": {
        "url": "https://truyenx.link/truyensextv/channels/share/nu-sinh-lop-chon"
      },
      "remote_data": {
        "url": "https://truyenx.link/truyensextv/channels/nu-sinh-lop-chon"
      }
    },
    {
      "id": "809-channel",
      "name": "Liên hoan cùng công ty gấu",
      "description": "Hôm trước công ty gấu mình kỷ niệm xx năm thành lập. Phần lễ được tổ chức vào buổi chiều tại công ty, còn phần liên hoan thì được tổ chức vào buổi tối tại nhà hàng. Tối...",
      "image": null,
      "label": null,
      "display": "text-only",
      "type": "text",
      "enable_detail": true,
      "related": {
        "url": "https://truyenx.link/truyensextv/channels/related/809",
        "request_headers": []
      },
      "share": {
        "url": "https://truyenx.link/truyensextv/channels/share/lien-hoan-cung-cong-ty-gau"
      },
      "remote_data": {
        "url": "https://truyenx.link/truyensextv/channels/lien-hoan-cung-cong-ty-gau"
      }
    },
    {
      "id": "808-channel",
      "name": "Kinh nghiệm giúp làm tình lâu hơn",
      "description": "Một ngày đẹp trời, sau bao nhiêu ngày làm việc mệt mỏi, cuối cùng 2 vợ chồng mình cũng có dịp để đi chơi ở Phan Thiết, mình với bà xã xuất phát từ TpHCM vào lúc 6h30 sáng thứ...",
      "image": null,
      "label": null,
      "display": "text-only",
      "type": "text",
      "enable_detail": true,
      "related": {
        "url": "https://truyenx.link/truyensextv/channels/related/808",
        "request_headers": []
      },
      "share": {
        "url": "https://truyenx.link/truyensextv/channels/share/kinh-nghiem-giup-lam-tinh-lau-hon"
      },
      "remote_data": {
        "url": "https://truyenx.link/truyensextv/channels/kinh-nghiem-giup-lam-tinh-lau-hon"
      }
    },
    {
      "id": "807-channel",
      "name": "Hiếp dâm 2 người cô họ chiều mùng 2",
      "description": "Vào buổi chiều mùng 2, khoảng 15h00’, tôi xuống nhà ông Hai để tìm ông chú họ rủ đi nhậu . Khi xuống nhà, tôi gọi mãi mà không thấy ai ra mở cửa, tôi tưởng không...",
      "image": null,
      "label": null,
      "display": "text-only",
      "type": "text",
      "enable_detail": true,
      "related": {
        "url": "https://truyenx.link/truyensextv/channels/related/807",
        "request_headers": []
      },
      "share": {
        "url": "https://truyenx.link/truyensextv/channels/share/hiep-dam-2-nguoi-co-ho-chieu-mung-2"
      },
      "remote_data": {
        "url": "https://truyenx.link/truyensextv/channels/hiep-dam-2-nguoi-co-ho-chieu-mung-2"
      }
    },
    {
      "id": "806-channel",
      "name": "Chị đồng nghiệp đã có chồng",
      "description": "Vào một ngày mùa thu năm 2006, sau nhiều năm bôn ba sinh sống và làm việc tại Sài Gòn, tôi có việc buộc phải trở lại Bắc. Bỏ lại sau lưng bao hoài bão bấy lâu nay tôi ấp ủ, bao...",
      "image": null,
      "label": null,
      "display": "text-only",
      "type": "text",
      "enable_detail": true,
      "related": {
        "url": "https://truyenx.link/truyensextv/channels/related/806",
        "request_headers": []
      },
      "share": {
        "url": "https://truyenx.link/truyensextv/channels/share/chi-dong-nghiep-da-co-chong"
      },
      "remote_data": {
        "url": "https://truyenx.link/truyensextv/channels/chi-dong-nghiep-da-co-chong"
      }
    },
    {
      "id": "805-channel",
      "name": "Gia đình họ Hạ",
      "description": "Gia đình họ Hạ là chủ nhà tàu lớn nhất Phú Yên. Họ có bến tàu riêng với hơn 45 chiếc tàu đánh cá lớn thay phiên ra vào neo đậu. Nhân công lên tới gần nghìn người, nhưng không...",
      "image": null,
      "label": null,
      "display": "text-only",
      "type": "text",
      "enable_detail": true,
      "related": {
        "url": "https://truyenx.link/truyensextv/channels/related/805",
        "request_headers": []
      },
      "share": {
        "url": "https://truyenx.link/truyensextv/channels/share/gia-dinh-ho-ha"
      },
      "remote_data": {
        "url": "https://truyenx.link/truyensextv/channels/gia-dinh-ho-ha"
      }
    },
    {
      "id": "804-channel",
      "name": "Lão chủ nhà",
      "description": "Lão Dương năm nay đã bước vào lục tuần, nhưng dáng người vẫn rất cường tráng mạnh khỏe. Da dẻ rám nắng căng bóng, cơ bắp săn chắc không có vẻ bệu rạc như tuổi. Lão được...",
      "image": null,
      "label": null,
      "display": "text-only",
      "type": "text",
      "enable_detail": true,
      "related": {
        "url": "https://truyenx.link/truyensextv/channels/related/804",
        "request_headers": []
      },
      "share": {
        "url": "https://truyenx.link/truyensextv/channels/share/lao-chu-nha"
      },
      "remote_data": {
        "url": "https://truyenx.link/truyensextv/channels/lao-chu-nha"
      }
    },
    {
      "id": "803-channel",
      "name": "Thời sinh viên đáng nhớ",
      "description": "Câu chuyện mình sắp kể dưới đây có lẽ sẽ rất gần gũi với nhiều người nhất là những ai đã từng sống và trải qua quãng đời sinh viên... Mình không biết quãng thời gian đó...",
      "image": null,
      "label": null,
      "display": "text-only",
      "type": "text",
      "enable_detail": true,
      "related": {
        "url": "https://truyenx.link/truyensextv/channels/related/803",
        "request_headers": []
      },
      "share": {
        "url": "https://truyenx.link/truyensextv/channels/share/thoi-sinh-vien-dang-nho"
      },
      "remote_data": {
        "url": "https://truyenx.link/truyensextv/channels/thoi-sinh-vien-dang-nho"
      }
    },
    {
      "id": "802-channel",
      "name": "Nhã Phương",
      "description": "Ôi Nhất Huy... Tên hắn cũng manly như vậy ah... Chưa chắc man đâu... Có khi là chị em với chúng ta không chừng. Bồ nói gì kì vậy? Anh ta không phải gay đâu mà... Chứ mày nói sao? Hấp...",
      "image": null,
      "label": null,
      "display": "text-only",
      "type": "text",
      "enable_detail": true,
      "related": {
        "url": "https://truyenx.link/truyensextv/channels/related/802",
        "request_headers": []
      },
      "share": {
        "url": "https://truyenx.link/truyensextv/channels/share/nha-phuong"
      },
      "remote_data": {
        "url": "https://truyenx.link/truyensextv/channels/nha-phuong"
      }
    },
    {
      "id": "801-channel",
      "name": "Hai anh em cùng đụ mẹ",
      "description": "Đến bây giờ tôi cũng không biết ba mình là ai, lúc tôi đã 16 tuổi thì em tôi 15, hai anh em tôi lớn lên chỉ biết có Mẹ thôi. Tôi chỉ nghe Mẹ kể lại là Ba tôi đi tàu biển đánh...",
      "image": null,
      "label": null,
      "display": "text-only",
      "type": "text",
      "enable_detail": true,
      "related": {
        "url": "https://truyenx.link/truyensextv/channels/related/801",
        "request_headers": []
      },
      "share": {
        "url": "https://truyenx.link/truyensextv/channels/share/hai-anh-em-cung-du-me"
      },
      "remote_data": {
        "url": "https://truyenx.link/truyensextv/channels/hai-anh-em-cung-du-me"
      }
    },
    {
      "id": "800-channel",
      "name": "Cho vợ ngoại tình",
      "description": "Một ngày vất vả trôi qua, hôm nay về sớm, thôi không la cà nhậu nhẹt nữa. Toàn dừng xe trước cổng nhà mình, nhìn sang bên lô đất còn trống mà người ta chưa xây, một chiếc xe...",
      "image": null,
      "label": null,
      "display": "text-only",
      "type": "text",
      "enable_detail": true,
      "related": {
        "url": "https://truyenx.link/truyensextv/channels/related/800",
        "request_headers": []
      },
      "share": {
        "url": "https://truyenx.link/truyensextv/channels/share/cho-vo-ngoai-tinh"
      },
      "remote_data": {
        "url": "https://truyenx.link/truyensextv/channels/cho-vo-ngoai-tinh"
      }
    },
    {
      "id": "799-channel",
      "name": "Vợ chồng đi nhà nghỉ",
      "description": "“Cánh cửa nhà nghỉ đóng lại, vợ chồng tôi quấn lấy nhau... âu yếm và làm tình như quên hết thời gian và không gian...” Ngồi sau xe, vợ cho tay vào túi áo khoác rồi ôm tôi...",
      "image": null,
      "label": null,
      "display": "text-only",
      "type": "text",
      "enable_detail": true,
      "related": {
        "url": "https://truyenx.link/truyensextv/channels/related/799",
        "request_headers": []
      },
      "share": {
        "url": "https://truyenx.link/truyensextv/channels/share/vo-chong-di-nha-nghi"
      },
      "remote_data": {
        "url": "https://truyenx.link/truyensextv/channels/vo-chong-di-nha-nghi"
      }
    }
  ],
  "load_more": {
    "pageInfo": {
      "current_page": 113,
      "last_page": 140,
      "per_page": 30,
      "total": 4188
    },
    "paging": {
      "page_key": "page",
      "size_key": "size"
    },
    "remote_data": {
      "url": "https://truyenx.link/truyensextv/channels"
    }
  }
}