{"grid_number":1,"channels":[{"id":"258-channel","name":"Chị gái làm đĩ","description":"Thằng Chung đang lục lọi tìm cái đĩa trong phòng chị nó thì nó nghe tiếng con Sương bước đến cửa. Nó sợ con Sương la nên chui vội vô tủ quần áo mà trốn. Con Sương vô phòng đóng...","image":null,"label":null,"display":"text-only","type":"text","enable_detail":true,"related":{"url":"https://truyenx.link/truyensextv/channels/related/258","request_headers":[]},"share":{"url":"https://truyenx.link/truyensextv/channels/share/chi-gai-lam-di"},"remote_data":{"url":"https://truyenx.link/truyensextv/channels/chi-gai-lam-di"}},{"id":"257-channel","name":"Hai chị em les","description":"Ưm..ưm…ui…đúng!... Đút vào đi. Đút lưỡi vào đi... Trang rên rỉ trong giấc ngủ, nàng xoắn lại trong chiếc nệm. Hơi thở của nàng bật ra ngắn ngủi khi nàng dần đưa mình tới...","image":null,"label":null,"display":"text-only","type":"text","enable_detail":true,"related":{"url":"https://truyenx.link/truyensextv/channels/related/257","request_headers":[]},"share":{"url":"https://truyenx.link/truyensextv/channels/share/hai-chi-em-les"},"remote_data":{"url":"https://truyenx.link/truyensextv/channels/hai-chi-em-les"}},{"id":"256-channel","name":"Cu Tí và bác dâu","description":"Tôi tên là Tuấn Ngọc nhưng ở nhà mọi người thường gọi tôi là Tí. Tôi vừa tốt nghiệp đại học và vẫn chưa kiếm được việc làm nên hiện tại tôi khá là rảnh rỗi. Hôm nay...","image":null,"label":null,"display":"text-only","type":"text","enable_detail":true,"related":{"url":"https://truyenx.link/truyensextv/channels/related/256","request_headers":[]},"share":{"url":"https://truyenx.link/truyensextv/channels/share/cu-ti-va-bac-dau"},"remote_data":{"url":"https://truyenx.link/truyensextv/channels/cu-ti-va-bac-dau"}},{"id":"255-channel","name":"Gái trinh","description":"Con bé chau mày, bấm chuông thêm một lần nữa, miệng lẩm bẩm: Mới kêu đây mà sao lại không có nhà! Nó quay lưng định bỏ đi thì cánh cửa xịch mở. Thản nhiên, nó bước vào cửa...","image":null,"label":null,"display":"text-only","type":"text","enable_detail":true,"related":{"url":"https://truyenx.link/truyensextv/channels/related/255","request_headers":[]},"share":{"url":"https://truyenx.link/truyensextv/channels/share/gai-trinh"},"remote_data":{"url":"https://truyenx.link/truyensextv/channels/gai-trinh"}},{"id":"254-channel","name":"Vợ tôi đụ nhau với chó","description":"Tính tới hôm nay, vợ chồng tôi cũng đã sống với nhau đã trên 10 năm rồi, như bao đôi vợ chồng khác, chúng tôi rất thương yêu nhau và rất hợp ý nhau, hợp nhất là về mặt tình...","image":null,"label":null,"display":"text-only","type":"text","enable_detail":true,"related":{"url":"https://truyenx.link/truyensextv/channels/related/254","request_headers":[]},"share":{"url":"https://truyenx.link/truyensextv/channels/share/vo-toi-du-nhau-voi-cho"},"remote_data":{"url":"https://truyenx.link/truyensextv/channels/vo-toi-du-nhau-voi-cho"}},{"id":"253-channel","name":"Xem trộm mẹ ngoại tình","description":"Văn chương em của không được hay lắm, chỉ kể ra cho nhẹ dạ thôi. Các bác nào thích thì đọc đừng ném đá em. Em năm nay 25 tuổi, mẹ em 47 tuổi. Hồi nhỏ còn ở quê, nhà em bằng...","image":null,"label":null,"display":"text-only","type":"text","enable_detail":true,"related":{"url":"https://truyenx.link/truyensextv/channels/related/253","request_headers":[]},"share":{"url":"https://truyenx.link/truyensextv/channels/share/xem-trom-me-ngoai-tinh"},"remote_data":{"url":"https://truyenx.link/truyensextv/channels/xem-trom-me-ngoai-tinh"}},{"id":"252-channel","name":"Đồ ngốc! Em yêu anh.","description":"Chào các bạn, tôi là Nam! Con trai út của 1 gia đình có thể nói là giàu có ở Hà Nội, trên tôi là 1 chị hơn tôi 2 tuổi tên là Nga, tôi là 1 thằng nhóc ăn chơi từ năm lớp 7 hầu như...","image":null,"label":null,"display":"text-only","type":"text","enable_detail":true,"related":{"url":"https://truyenx.link/truyensextv/channels/related/252","request_headers":[]},"share":{"url":"https://truyenx.link/truyensextv/channels/share/do-ngoc-em-yeu-anh"},"remote_data":{"url":"https://truyenx.link/truyensextv/channels/do-ngoc-em-yeu-anh"}},{"id":"251-channel","name":"Ngọc Lan","description":"Bỏ lại phía sau cơm áo gạo tiền, bỏ hết những bon chen bề bộn của cuộc sống, tôi tự thưởng chút thời gian tĩnh lặng cho riêng mình với nắng Hà Nội cuối tuần. Hồ Gươm...","image":null,"label":null,"display":"text-only","type":"text","enable_detail":true,"related":{"url":"https://truyenx.link/truyensextv/channels/related/251","request_headers":[]},"share":{"url":"https://truyenx.link/truyensextv/channels/share/ngoc-lan"},"remote_data":{"url":"https://truyenx.link/truyensextv/channels/ngoc-lan"}},{"id":"250-channel","name":"Truyện nứng của em Quỳnh","description":"23h khuya ngày thứ 1 Buổi liên hoan kết thúc, ai cũng say mềm, nhất là Quỳnh. Khuôn mặt cô ửng đỏ, mái tóc rũ rượi, chiếc áo sơ mi ban đầu phẳng lì tươm tất là thế, giờ đây...","image":null,"label":null,"display":"text-only","type":"text","enable_detail":true,"related":{"url":"https://truyenx.link/truyensextv/channels/related/250","request_headers":[]},"share":{"url":"https://truyenx.link/truyensextv/channels/share/truyen-nung-cua-em-quynh"},"remote_data":{"url":"https://truyenx.link/truyensextv/channels/truyen-nung-cua-em-quynh"}},{"id":"249-channel","name":"Phá trinh em họ","description":"Nhớ ngày trước được làm với con em họ kém 2 tuổi. Mình với nó chơi thân với nhau từ bé, cũng hay sang nhà nhau chơi. Hồi lớp 8 sang nhà nó thấy nó bảo có cái hay lắm cho xem. Hóa...","image":null,"label":null,"display":"text-only","type":"text","enable_detail":true,"related":{"url":"https://truyenx.link/truyensextv/channels/related/249","request_headers":[]},"share":{"url":"https://truyenx.link/truyensextv/channels/share/pha-trinh-em-ho"},"remote_data":{"url":"https://truyenx.link/truyensextv/channels/pha-trinh-em-ho"}},{"id":"248-channel","name":"Tuyển tập truyện sex Tết 2016","description":"Chào tất cả các bạn, chúc các bạn cùng gia đình năm mới gặp nhiều niềm vui và may mắn trong cuộc sống. Trong dịp tết vừa qua rất cảm ơn các bạn đã gửi những truyện sex của...","image":null,"label":null,"display":"text-only","type":"text","enable_detail":true,"related":{"url":"https://truyenx.link/truyensextv/channels/related/248","request_headers":[]},"share":{"url":"https://truyenx.link/truyensextv/channels/share/tuyen-tap-truyen-sex-tet-2016"},"remote_data":{"url":"https://truyenx.link/truyensextv/channels/tuyen-tap-truyen-sex-tet-2016"}},{"id":"247-channel","name":"Em gái họ","description":"Xin chào anh em đang đọc truyện sex tại truyensextv2.cc. Hôm nay mình xin chia sẻ cho các anh em 1 chuyện xảy ra trong cuộc đời mình. Mình tên K. Hiện giờ mình đang học THCS. Vào lúc mình...","image":null,"label":null,"display":"text-only","type":"text","enable_detail":true,"related":{"url":"https://truyenx.link/truyensextv/channels/related/247","request_headers":[]},"share":{"url":"https://truyenx.link/truyensextv/channels/share/em-gai-ho"},"remote_data":{"url":"https://truyenx.link/truyensextv/channels/em-gai-ho"}},{"id":"246-channel","name":"Hai mẹ con nhà hàng xóm","description":"Chào các anh em trong truyensextv2.cc, đây là lần đầu tiên mình kể chuyện, cũng là chuyện mà mình vừa chứng kiến ngày hôm qua xong. Hiện tại thì mình đang sống trong một khu xóm lao...","image":null,"label":null,"display":"text-only","type":"text","enable_detail":true,"related":{"url":"https://truyenx.link/truyensextv/channels/related/246","request_headers":[]},"share":{"url":"https://truyenx.link/truyensextv/channels/share/hai-me-con-nha-hang-xom"},"remote_data":{"url":"https://truyenx.link/truyensextv/channels/hai-me-con-nha-hang-xom"}},{"id":"245-channel","name":"Nữ sinh thôn quê si tình","description":"Vào khoảng giữa thập niên 80, lúc đó chúng tôi đang học cấp 2. Dân nông thôn như chúng tôi thì làm gì có điều kiện tiếp xúc với những phương tiện truyền bá văn hóa, nói chi là...","image":null,"label":null,"display":"text-only","type":"text","enable_detail":true,"related":{"url":"https://truyenx.link/truyensextv/channels/related/245","request_headers":[]},"share":{"url":"https://truyenx.link/truyensextv/channels/share/nu-sinh-thon-que-si-tinh"},"remote_data":{"url":"https://truyenx.link/truyensextv/channels/nu-sinh-thon-que-si-tinh"}},{"id":"244-channel","name":"Ông bác sĩ tà dâm","description":"Hà nhận nhiệm vụ của cơ quan điều tra công an tỉnh XXX để điều tra phá án. Cô ngồi đọc ngấu nghiến những tài liệu có liên quan đến vụ án. Xem ra, đây là vụ án ly kỳ nhất...","image":null,"label":null,"display":"text-only","type":"text","enable_detail":true,"related":{"url":"https://truyenx.link/truyensextv/channels/related/244","request_headers":[]},"share":{"url":"https://truyenx.link/truyensextv/channels/share/ong-bac-si-ta-dam"},"remote_data":{"url":"https://truyenx.link/truyensextv/channels/ong-bac-si-ta-dam"}},{"id":"243-channel","name":"Phá trinh lần đầu","description":"Tôi quen nàng trong một dịp chơi lễ. Thời gian trôi qua tình cảm hai đứa càng thêm mặn nồng, nàng hay rủ tôi về nhà nàng để tự tay nàng nấu nướng đãi tôi. Có khi tôi ở nhà nàng...","image":null,"label":null,"display":"text-only","type":"text","enable_detail":true,"related":{"url":"https://truyenx.link/truyensextv/channels/related/243","request_headers":[]},"share":{"url":"https://truyenx.link/truyensextv/channels/share/pha-trinh-lan-dau"},"remote_data":{"url":"https://truyenx.link/truyensextv/channels/pha-trinh-lan-dau"}},{"id":"242-channel","name":"Gái dâm ngoại tình","description":"Em năm nay 23 tuổi, quê ở thành phố Quy Nhơn nhưng vì công việc nên em phải vào TP HCM. Em đã có người yêu ở quê được 5 năm, chúng e rất yêu nhau và đã trao trọn cho nhau tất cả...","image":null,"label":null,"display":"text-only","type":"text","enable_detail":true,"related":{"url":"https://truyenx.link/truyensextv/channels/related/242","request_headers":[]},"share":{"url":"https://truyenx.link/truyensextv/channels/share/gai-dam-ngoai-tinh"},"remote_data":{"url":"https://truyenx.link/truyensextv/channels/gai-dam-ngoai-tinh"}},{"id":"241-channel","name":"Cưỡng dâm gái quê","description":"Những ngày cuối năm thật mệt mỏi. Công việc thì lu bu, nhà cửa thì bừa bộn. Tôi ở một mình một căn nho nhỏ, chả bày vẽ gì nhiều, nhưng không hiểu sao ba cái thứ đồ lăng...","image":null,"label":null,"display":"text-only","type":"text","enable_detail":true,"related":{"url":"https://truyenx.link/truyensextv/channels/related/241","request_headers":[]},"share":{"url":"https://truyenx.link/truyensextv/channels/share/cuong-dam-gai-que"},"remote_data":{"url":"https://truyenx.link/truyensextv/channels/cuong-dam-gai-que"}},{"id":"240-channel","name":"Sex cùng đồng nghiệp của chồng","description":"Đến giờ Vân vẫn thấy nứng lồn khi nhớ lại chuyến nghỉ mát đó cùng cơ quan chồng, ngày nào Vân cũng ướt nhẹp cái quần xi líp khi nghĩ lại hoàn cảnh làm tình hoang dã đó. Chả...","image":null,"label":null,"display":"text-only","type":"text","enable_detail":true,"related":{"url":"https://truyenx.link/truyensextv/channels/related/240","request_headers":[]},"share":{"url":"https://truyenx.link/truyensextv/channels/share/sex-cung-dong-nghiep-cua-chong"},"remote_data":{"url":"https://truyenx.link/truyensextv/channels/sex-cung-dong-nghiep-cua-chong"}},{"id":"239-channel","name":"Đụ tập thể em Dung","description":"Tôi và Dung quen nhau đã được 6 tháng. Dung là một cô gái có vẻ bề ngoài ưa nhìn, dịu dàng trước mặt người khác. Nhưng có một sự thật đố ai biết được, Dung là một dâm nữ...","image":null,"label":null,"display":"text-only","type":"text","enable_detail":true,"related":{"url":"https://truyenx.link/truyensextv/channels/related/239","request_headers":[]},"share":{"url":"https://truyenx.link/truyensextv/channels/share/du-tap-the-em-dung"},"remote_data":{"url":"https://truyenx.link/truyensextv/channels/du-tap-the-em-dung"}},{"id":"238-channel","name":"Chị Dung hàng xóm","description":"Đã khuya rồi mà sao thằng Hùng vẫn không tài nào ngủ được, trong người cảm thấy nóng bức khó chịu. Bực mình, nó quyết định đi tắm cho mát mẻ để xem có ngủ được không...","image":null,"label":null,"display":"text-only","type":"text","enable_detail":true,"related":{"url":"https://truyenx.link/truyensextv/channels/related/238","request_headers":[]},"share":{"url":"https://truyenx.link/truyensextv/channels/share/chi-dung-hang-xom"},"remote_data":{"url":"https://truyenx.link/truyensextv/channels/chi-dung-hang-xom"}},{"id":"237-channel","name":"Phá trinh bạn cùng lớp","description":"Là một thằng con trai mới lớn, tôi luôn ám ảnh về tình dục. Nếu nói về thủ dâm, có lẽ tôi có thể tự hào về tần số thủ dâm của tôi có khi là mười mấy lần trong 1 ngày...","image":null,"label":null,"display":"text-only","type":"text","enable_detail":true,"related":{"url":"https://truyenx.link/truyensextv/channels/related/237","request_headers":[]},"share":{"url":"https://truyenx.link/truyensextv/channels/share/pha-trinh-ban-cung-lop"},"remote_data":{"url":"https://truyenx.link/truyensextv/channels/pha-trinh-ban-cung-lop"}},{"id":"236-channel","name":"Hiếp dâm cô em vợ","description":"Hắn và cả nhà cuối tuần rồi đến thăm gia đình cô em vợ mới mua nhà mới. Huyền, tên nàng,hai sáu tuổi, cao ráo, thịt da căng đầy nóng bỏng, tóc dài, mắt to đen láy và đôi môi...","image":null,"label":null,"display":"text-only","type":"text","enable_detail":true,"related":{"url":"https://truyenx.link/truyensextv/channels/related/236","request_headers":[]},"share":{"url":"https://truyenx.link/truyensextv/channels/share/hiep-dam-co-em-vo"},"remote_data":{"url":"https://truyenx.link/truyensextv/channels/hiep-dam-co-em-vo"}},{"id":"235-channel","name":"Đổi vợ đổi chồng","description":"Mỗi lần Nga qua chơi, Tân thường khen Nga ăn mặc đẹp, có lần Nga mặc quần đùi ngắn, Tân nói thẳng: Nga đưa đùi đưa vú ra dụ ai vậy? Thường thì Nga chỉ tủm tỉm cười trừ...","image":null,"label":null,"display":"text-only","type":"text","enable_detail":true,"related":{"url":"https://truyenx.link/truyensextv/channels/related/235","request_headers":[]},"share":{"url":"https://truyenx.link/truyensextv/channels/share/doi-vo-doi-chong"},"remote_data":{"url":"https://truyenx.link/truyensextv/channels/doi-vo-doi-chong"}},{"id":"234-channel","name":"Địt toét lồn con gái","description":"Buổi sáng nay Nhung không đi tập đàn vì ốm. Ông Huy hôm đó ở nhà, thấy cửa buồng Nhung hé mở, hắn đưa cặp mắt kẻ ngó vào như một phản ứng tự nhiên, nói đúng hơn là vì tò...","image":null,"label":null,"display":"text-only","type":"text","enable_detail":true,"related":{"url":"https://truyenx.link/truyensextv/channels/related/234","request_headers":[]},"share":{"url":"https://truyenx.link/truyensextv/channels/share/dit-toet-lon-con-gai"},"remote_data":{"url":"https://truyenx.link/truyensextv/channels/dit-toet-lon-con-gai"}},{"id":"233-channel","name":"Cuộc ngoại tình sai trái","description":"Bây giờ chắc có lẽ chỉ có cái chết, hay bỏ đi nơi khác mới giải thoát được sự bế tắc, mới trốn được lời đàm tiếu, dè bỉu của thiên hạ, mới hy vọng trốn được sự...","image":null,"label":null,"display":"text-only","type":"text","enable_detail":true,"related":{"url":"https://truyenx.link/truyensextv/channels/related/233","request_headers":[]},"share":{"url":"https://truyenx.link/truyensextv/channels/share/cuoc-ngoai-tinh-sai-trai"},"remote_data":{"url":"https://truyenx.link/truyensextv/channels/cuoc-ngoai-tinh-sai-trai"}},{"id":"232-channel","name":"Hiếp dâm gái đẹp","description":"Ngồi vật vờ bên trong quán cà phê đèn mờ… vậy là đã mười ngày Tuấn bỏ nhà đi vì giận vợ, trông Tuấn râu ria xồm xoàm, hai mắt trũng xuống, tinh thần mỏi mệt… Tuấn nhớ...","image":null,"label":null,"display":"text-only","type":"text","enable_detail":true,"related":{"url":"https://truyenx.link/truyensextv/channels/related/232","request_headers":[]},"share":{"url":"https://truyenx.link/truyensextv/channels/share/hiep-dam-gai-dep"},"remote_data":{"url":"https://truyenx.link/truyensextv/channels/hiep-dam-gai-dep"}},{"id":"231-channel","name":"Dì Hạnh","description":"Vào tuổi 13 Cu Dũng trông lớn hơn đám bạn cùng tuổi. Vài năm nữa nếu hắn thi rớt đại học là phải đi nghĩa vụ quân sự. Bây giờ Cu Dũng vẫn cắp sách tới trường. Như trăm...","image":null,"label":null,"display":"text-only","type":"text","enable_detail":true,"related":{"url":"https://truyenx.link/truyensextv/channels/related/231","request_headers":[]},"share":{"url":"https://truyenx.link/truyensextv/channels/share/di-hanh"},"remote_data":{"url":"https://truyenx.link/truyensextv/channels/di-hanh"}},{"id":"230-channel","name":"Đụ tập thể em cave","description":"Vân ngồi nhìn cái máy điện thoại để trên bàn, chán quá mấy hôm nay chẳng thấy khách nào gọi cả. Vân làm cái công việc bất đắc dĩ này đã gần năm nay rồi. Cũng tại hoàn...","image":null,"label":null,"display":"text-only","type":"text","enable_detail":true,"related":{"url":"https://truyenx.link/truyensextv/channels/related/230","request_headers":[]},"share":{"url":"https://truyenx.link/truyensextv/channels/share/du-tap-the-em-cave"},"remote_data":{"url":"https://truyenx.link/truyensextv/channels/du-tap-the-em-cave"}},{"id":"229-channel","name":"Gái trinh thèm đụ","description":"Vậy là vài ngày nữa Trâm đủ 18 tuổi. Sáng nay Trâm lại thức dậy sớm đến trước gương để ngắm nghía bản thân mình. Trâm đẹp thật, nàng nhìn gương mà tự hào về chính bản...","image":null,"label":null,"display":"text-only","type":"text","enable_detail":true,"related":{"url":"https://truyenx.link/truyensextv/channels/related/229","request_headers":[]},"share":{"url":"https://truyenx.link/truyensextv/channels/share/gai-trinh-them-du"},"remote_data":{"url":"https://truyenx.link/truyensextv/channels/gai-trinh-them-du"}}],"load_more":{"pageInfo":{"current_page":132,"last_page":140,"per_page":30,"total":4188},"paging":{"page_key":"page","size_key":"size"},"remote_data":{"url":"https://truyenx.link/truyensextv/channels"}}}