{
  "grid_number": 1,
  "channels": [
    {
      "id": "1758-channel",
      "name": "Chuyến du lịch Vũng Tàu",
      "description": "“Anh về đây đi em dẫn đi chơi.” Duy tiếp: “Ở bên đó cứ ngồi ôm điện thoại lên truyensextv2.cc đọc truyện sex, chán chết, đâu sướng bằng chơi thật sự.” Tiến...",
      "image": null,
      "label": null,
      "display": "text-only",
      "type": "text",
      "enable_detail": true,
      "related": {
        "url": "https://truyenx.link/truyensextv/channels/related/1758",
        "request_headers": []
      },
      "share": {
        "url": "https://truyenx.link/truyensextv/channels/share/chuyen-du-lich-vung-tau"
      },
      "remote_data": {
        "url": "https://truyenx.link/truyensextv/channels/chuyen-du-lich-vung-tau"
      }
    },
    {
      "id": "1757-channel",
      "name": "Cuộc trao đổi vợ chồng bất ngờ",
      "description": "Đám tang ông Cầu diễn ra gọn gàng nhanh chóng. Chỉ có cậu con duy nhất đã trưởng thành và người vợ bé cưới ba năm về trước sau khi người vợ lớn mãn phần sớm. Qua Mỹ diện...",
      "image": null,
      "label": null,
      "display": "text-only",
      "type": "text",
      "enable_detail": true,
      "related": {
        "url": "https://truyenx.link/truyensextv/channels/related/1757",
        "request_headers": []
      },
      "share": {
        "url": "https://truyenx.link/truyensextv/channels/share/cuoc-trao-doi-vo-chong-bat-ngo"
      },
      "remote_data": {
        "url": "https://truyenx.link/truyensextv/channels/cuoc-trao-doi-vo-chong-bat-ngo"
      }
    },
    {
      "id": "1756-channel",
      "name": "Câu chuyện của Lão Hưng",
      "description": "Lão Hưng buột miệng la lớn: “Địt mẹ nó”. Bao nhiêu ngày tháng đặt máy quay lén giờ lão mới phát hiện. Cảnh tượng trên TV làm hai tai lão nóng lên, người lão run rẩy...",
      "image": null,
      "label": null,
      "display": "text-only",
      "type": "text",
      "enable_detail": true,
      "related": {
        "url": "https://truyenx.link/truyensextv/channels/related/1756",
        "request_headers": []
      },
      "share": {
        "url": "https://truyenx.link/truyensextv/channels/share/cau-chuyen-cua-lao-hung"
      },
      "remote_data": {
        "url": "https://truyenx.link/truyensextv/channels/cau-chuyen-cua-lao-hung"
      }
    },
    {
      "id": "1755-channel",
      "name": "Hồng Hạnh",
      "description": "Chị Trương tên là Hồng Hạnh, qua Mỹ còn có tên Mina. Chồng chị tên Trương nên gọi tên chị là Trương hay Mina, ít ai gọi tên Hồng Hạnh, chỉ những bạn quen cũ ở Việt Nam vẫn...",
      "image": null,
      "label": null,
      "display": "text-only",
      "type": "text",
      "enable_detail": true,
      "related": {
        "url": "https://truyenx.link/truyensextv/channels/related/1755",
        "request_headers": []
      },
      "share": {
        "url": "https://truyenx.link/truyensextv/channels/share/hong-hanh"
      },
      "remote_data": {
        "url": "https://truyenx.link/truyensextv/channels/hong-hanh"
      }
    },
    {
      "id": "1754-channel",
      "name": "Chị vợ và em vợ",
      "description": "Chào các bác. Em năm nay cũng ngót nghét 24 tuổi. Chả là em bị cũng bị hội chứng nghiện thủ dâm và thèm khát mấy thứ đọng lại trên quần lót phụ nữ. . Không phải thiếu thốn gì...",
      "image": null,
      "label": null,
      "display": "text-only",
      "type": "text",
      "enable_detail": true,
      "related": {
        "url": "https://truyenx.link/truyensextv/channels/related/1754",
        "request_headers": []
      },
      "share": {
        "url": "https://truyenx.link/truyensextv/channels/share/chi-vo-va-em-vo"
      },
      "remote_data": {
        "url": "https://truyenx.link/truyensextv/channels/chi-vo-va-em-vo"
      }
    },
    {
      "id": "1753-channel",
      "name": "Hiếp dâm con bạn thân",
      "description": "Tôi tên D năm nay 19 tuổi và tôi có 1 con bạn thân kém tuổi , hồi đấy tôi ghét nó cực tại vì nó khá nhoi nhoi và nói khá nhiều. Thú thật lúc đấy tôi chẳng có cảm tình với nó. 3...",
      "image": null,
      "label": null,
      "display": "text-only",
      "type": "text",
      "enable_detail": true,
      "related": {
        "url": "https://truyenx.link/truyensextv/channels/related/1753",
        "request_headers": []
      },
      "share": {
        "url": "https://truyenx.link/truyensextv/channels/share/hiep-dam-con-ban-than"
      },
      "remote_data": {
        "url": "https://truyenx.link/truyensextv/channels/hiep-dam-con-ban-than"
      }
    },
    {
      "id": "1752-channel",
      "name": "Tôi mất trinh thế đấy",
      "description": "Tôi chạy qua nhà nhỏ Lan như mọi ngày hè khác để chuẩn bị rủ nó đi chọi lù, cái trò mà lũ học sinh cấp 2 bọn tôi vẫn hay ham hố và chí chóe cùng nhau. Không như mọi hôm, cái...",
      "image": null,
      "label": null,
      "display": "text-only",
      "type": "text",
      "enable_detail": true,
      "related": {
        "url": "https://truyenx.link/truyensextv/channels/related/1752",
        "request_headers": []
      },
      "share": {
        "url": "https://truyenx.link/truyensextv/channels/share/toi-mat-trinh-the-day"
      },
      "remote_data": {
        "url": "https://truyenx.link/truyensextv/channels/toi-mat-trinh-the-day"
      }
    },
    {
      "id": "1751-channel",
      "name": "Chị Năm cùng với em Huyền",
      "description": "Lúc tôi được đâu chừng 3 tuổi thì chị Năm đến xin làm việc ở nhà tôi. Chị đã 23 tuổi và chị mang bầu khi chồng chị bỏ nhà ra đi. Mẹ tôi thấy thương hại nên cho chị ở...",
      "image": null,
      "label": null,
      "display": "text-only",
      "type": "text",
      "enable_detail": true,
      "related": {
        "url": "https://truyenx.link/truyensextv/channels/related/1751",
        "request_headers": []
      },
      "share": {
        "url": "https://truyenx.link/truyensextv/channels/share/chi-nam-cung-voi-em-huyen"
      },
      "remote_data": {
        "url": "https://truyenx.link/truyensextv/channels/chi-nam-cung-voi-em-huyen"
      }
    },
    {
      "id": "1750-channel",
      "name": "Cuộc sống của một con điếm",
      "description": "Anh rất là yêu em, sau khi cưới anh sẽ đưa em qua Mỹ. Em đồng ý chứ? Hắn vừa nói vừa đưa tay gở từng cái nút áo của tôi. Hắn kéo khóa kéo quần tôi xuống rồi từng chút từng...",
      "image": null,
      "label": null,
      "display": "text-only",
      "type": "text",
      "enable_detail": true,
      "related": {
        "url": "https://truyenx.link/truyensextv/channels/related/1750",
        "request_headers": []
      },
      "share": {
        "url": "https://truyenx.link/truyensextv/channels/share/cuoc-song-cua-mot-con-diem"
      },
      "remote_data": {
        "url": "https://truyenx.link/truyensextv/channels/cuoc-song-cua-mot-con-diem"
      }
    },
    {
      "id": "1749-channel",
      "name": "Học sinh đụ nhau tập thể",
      "description": "Ngày đầu đến trường của Thùy Anh, năm lớp 10. Hôm ấy, cô bé đến trường xem điểm thi và cũng để xem thời khóa biểu cho năm học mới. Trời nắng chang chang, từng tia nắng chói...",
      "image": null,
      "label": null,
      "display": "text-only",
      "type": "text",
      "enable_detail": true,
      "related": {
        "url": "https://truyenx.link/truyensextv/channels/related/1749",
        "request_headers": []
      },
      "share": {
        "url": "https://truyenx.link/truyensextv/channels/share/hoc-sinh-du-nhau-tap-the"
      },
      "remote_data": {
        "url": "https://truyenx.link/truyensextv/channels/hoc-sinh-du-nhau-tap-the"
      }
    },
    {
      "id": "1748-channel",
      "name": "Hiếp dâm cô MC xinh đẹp",
      "description": "Sam là 1 cô MC và cũng là diễn viên, cô nay đã 30 tuổi vẫn trẻ đẹp như gái 18 vậy. Tâm chàng fan cuồng của các nghệ sĩ nữ, Tâm năm nay 21 tuổi mà vẫn chưa muốn có người yêu...",
      "image": null,
      "label": null,
      "display": "text-only",
      "type": "text",
      "enable_detail": true,
      "related": {
        "url": "https://truyenx.link/truyensextv/channels/related/1748",
        "request_headers": []
      },
      "share": {
        "url": "https://truyenx.link/truyensextv/channels/share/hiep-dam-co-mc-xinh-dep"
      },
      "remote_data": {
        "url": "https://truyenx.link/truyensextv/channels/hiep-dam-co-mc-xinh-dep"
      }
    },
    {
      "id": "1747-channel",
      "name": "Gái miền tây",
      "description": "“Con về quê nhớ gửi lời thăm ông nội... nha Kiên”. “Con biết rồi ba...” Xe lăn bánh, chuyến xe Phương Trang xuất phát từ Q. 5 sài Gòn về miền tây Vĩnh Long. Nó...",
      "image": null,
      "label": null,
      "display": "text-only",
      "type": "text",
      "enable_detail": true,
      "related": {
        "url": "https://truyenx.link/truyensextv/channels/related/1747",
        "request_headers": []
      },
      "share": {
        "url": "https://truyenx.link/truyensextv/channels/share/gai-mien-tay"
      },
      "remote_data": {
        "url": "https://truyenx.link/truyensextv/channels/gai-mien-tay"
      }
    },
    {
      "id": "1746-channel",
      "name": "Cô vợ dâm đãng của anh thợ điện",
      "description": "Trang là một phụ nữ đẹp, nàng tuy không cao ráo nhưng lại xinh đẹp dữ dội, như các cô gái tuổi teen lại có vẻ đẹp mặn mà của người phụ nữ đã có gia đình. Da trắng, môi...",
      "image": null,
      "label": null,
      "display": "text-only",
      "type": "text",
      "enable_detail": true,
      "related": {
        "url": "https://truyenx.link/truyensextv/channels/related/1746",
        "request_headers": []
      },
      "share": {
        "url": "https://truyenx.link/truyensextv/channels/share/co-vo-dam-dang-cua-anh-tho-dien"
      },
      "remote_data": {
        "url": "https://truyenx.link/truyensextv/channels/co-vo-dam-dang-cua-anh-tho-dien"
      }
    },
    {
      "id": "1745-channel",
      "name": "Tuyết Hân",
      "description": "Ở một vùng vê mang một bầu không khí trong lành, mát mẻ, nằm gần một con sông trong veo xanh biếc, cách xa một thị trấn 20 km, có cánh đồng xanh ngát. Vùng quê ấy có những ngôi nhà...",
      "image": null,
      "label": null,
      "display": "text-only",
      "type": "text",
      "enable_detail": true,
      "related": {
        "url": "https://truyenx.link/truyensextv/channels/related/1745",
        "request_headers": []
      },
      "share": {
        "url": "https://truyenx.link/truyensextv/channels/share/tuyet-han"
      },
      "remote_data": {
        "url": "https://truyenx.link/truyensextv/channels/tuyet-han"
      }
    },
    {
      "id": "1744-channel",
      "name": "Hồi ức sát gái",
      "description": "Tác giả: Hắc Gia Tôi là Trần Chí Huy một doanh nhân thành đạt và giàu có, hiện tại tôi đã hai mươi bảy tuổi và hiện tại vẫn chưa có vợ, trong cuộc đời của tôi điều làm tôi...",
      "image": null,
      "label": null,
      "display": "text-only",
      "type": "text",
      "enable_detail": true,
      "related": {
        "url": "https://truyenx.link/truyensextv/channels/related/1744",
        "request_headers": []
      },
      "share": {
        "url": "https://truyenx.link/truyensextv/channels/share/hoi-uc-sat-gai"
      },
      "remote_data": {
        "url": "https://truyenx.link/truyensextv/channels/hoi-uc-sat-gai"
      }
    },
    {
      "id": "1743-channel",
      "name": "Làm tình với chị chủ nhà",
      "description": "Tôi khổ sở vô cùng mỗi lần được anh chị chủ nhà kêu ra ăn cơm. Tôi đã nói lúc nào đói tôi ăn cũng được, nhưng anh nhất định không chịu. Có khi tôi đã cố trốn nằm trong...",
      "image": null,
      "label": null,
      "display": "text-only",
      "type": "text",
      "enable_detail": true,
      "related": {
        "url": "https://truyenx.link/truyensextv/channels/related/1743",
        "request_headers": []
      },
      "share": {
        "url": "https://truyenx.link/truyensextv/channels/share/lam-tinh-voi-chi-chu-nha"
      },
      "remote_data": {
        "url": "https://truyenx.link/truyensextv/channels/lam-tinh-voi-chi-chu-nha"
      }
    },
    {
      "id": "1742-channel",
      "name": "Chơi vợ người khác sướng thế nào?",
      "description": "Tôi là Minh dân kiến trúc, cũng hiền lành và thích thể thao. Có lẽ nhìn tôi sẽ chẳng ai bảo tôi bị nghiện tình dục, tôi đam mê nó mà bạn gái chẳng thể mang lại sự thỏa mãn...",
      "image": null,
      "label": null,
      "display": "text-only",
      "type": "text",
      "enable_detail": true,
      "related": {
        "url": "https://truyenx.link/truyensextv/channels/related/1742",
        "request_headers": []
      },
      "share": {
        "url": "https://truyenx.link/truyensextv/channels/share/choi-vo-nguoi-khac-suong-the-nao"
      },
      "remote_data": {
        "url": "https://truyenx.link/truyensextv/channels/choi-vo-nguoi-khac-suong-the-nao"
      }
    },
    {
      "id": "1741-channel",
      "name": "Tôi và những người đàn ông",
      "description": "Đó là một buổi tối chủ nhật, khi tôi vừa mới kết thúc buổi học thêm, cuộc đời của một học sinh lớp 10 thật mệt mỏi, vội vàng trở về nhà, lúc này là khoảng 9h tối, bầu...",
      "image": null,
      "label": null,
      "display": "text-only",
      "type": "text",
      "enable_detail": true,
      "related": {
        "url": "https://truyenx.link/truyensextv/channels/related/1741",
        "request_headers": []
      },
      "share": {
        "url": "https://truyenx.link/truyensextv/channels/share/toi-va-nhung-nguoi-dan-ong"
      },
      "remote_data": {
        "url": "https://truyenx.link/truyensextv/channels/toi-va-nhung-nguoi-dan-ong"
      }
    },
    {
      "id": "1740-channel",
      "name": "Rào cản mong manh",
      "description": "Những năm 19xx ngày xưa ấy. Tôi là lớn em gái kém tôi 4 tuổi bố đi làm xa mẹ thì làm công việc gần nhà, cuộc sống cứ yên ấm vui vẻ diễn ra. Mấy tháng bố đi làm lại về qua...",
      "image": null,
      "label": null,
      "display": "text-only",
      "type": "text",
      "enable_detail": true,
      "related": {
        "url": "https://truyenx.link/truyensextv/channels/related/1740",
        "request_headers": []
      },
      "share": {
        "url": "https://truyenx.link/truyensextv/channels/share/rao-can-mong-manh"
      },
      "remote_data": {
        "url": "https://truyenx.link/truyensextv/channels/rao-can-mong-manh"
      }
    },
    {
      "id": "1739-channel",
      "name": "Mua trinh bé gái mới lớn",
      "description": "Hai mẹ con đã đến trước căn biệt thự xinh xắn. Mẹ con bé dặn dò nó một lần cuối trước khi bấm chuông: Con nhớ nghe lời cô chú đây hết mình, không được từ chối điều gì...",
      "image": null,
      "label": null,
      "display": "text-only",
      "type": "text",
      "enable_detail": true,
      "related": {
        "url": "https://truyenx.link/truyensextv/channels/related/1739",
        "request_headers": []
      },
      "share": {
        "url": "https://truyenx.link/truyensextv/channels/share/mua-trinh-be-gai-moi-lon"
      },
      "remote_data": {
        "url": "https://truyenx.link/truyensextv/channels/mua-trinh-be-gai-moi-lon"
      }
    },
    {
      "id": "1738-channel",
      "name": "Em dâu vợ",
      "description": "Tôi là con một, còn vợ tôi là chị cả trong gia đình có bốn người con, hai trai, hai gái, đứa út là con trai, đương nhiên vợ của thằng này sẽ là nhân vật nữ chính của câu...",
      "image": null,
      "label": null,
      "display": "text-only",
      "type": "text",
      "enable_detail": true,
      "related": {
        "url": "https://truyenx.link/truyensextv/channels/related/1738",
        "request_headers": []
      },
      "share": {
        "url": "https://truyenx.link/truyensextv/channels/share/em-dau-vo"
      },
      "remote_data": {
        "url": "https://truyenx.link/truyensextv/channels/em-dau-vo"
      }
    },
    {
      "id": "1737-channel",
      "name": "Phá trinh nữ sinh",
      "description": "Tôi là một con người khá kỳ lạ, tôi tự nhật biết được ý thức những điều mình làm, bây giờ tôi là 1 đứa con trai đã trưởng thành tôi có một niềm đam mê khác mọi người...",
      "image": null,
      "label": null,
      "display": "text-only",
      "type": "text",
      "enable_detail": true,
      "related": {
        "url": "https://truyenx.link/truyensextv/channels/related/1737",
        "request_headers": []
      },
      "share": {
        "url": "https://truyenx.link/truyensextv/channels/share/pha-trinh-nu-sinh"
      },
      "remote_data": {
        "url": "https://truyenx.link/truyensextv/channels/pha-trinh-nu-sinh"
      }
    },
    {
      "id": "1736-channel",
      "name": "Những cô nàng thích đụ",
      "description": "Ðám cưới linh đình diễn ra thật vui vẻ, nhưng cuộc vui nào cũng có lúc tàn, Toàn bước ra cửa nói lời chúc mừng lần nữa trước khi ra về. Tội nghiệp chú Toàn, già rồi mà vẫn...",
      "image": null,
      "label": null,
      "display": "text-only",
      "type": "text",
      "enable_detail": true,
      "related": {
        "url": "https://truyenx.link/truyensextv/channels/related/1736",
        "request_headers": []
      },
      "share": {
        "url": "https://truyenx.link/truyensextv/channels/share/nhung-co-nang-thich-du"
      },
      "remote_data": {
        "url": "https://truyenx.link/truyensextv/channels/nhung-co-nang-thich-du"
      }
    },
    {
      "id": "1735-channel",
      "name": "Phá trinh bé Tóc Dài",
      "description": "Ngày xửa ngày xưa, ở một vùng núi hoang vắng nọ có một ngôi làng. Nhưng cư dân trong làng rất yêu thương nhau và họ sống rất hạnh phúc. Trong làng có một cô gái rất xinh đẹp, cô...",
      "image": null,
      "label": null,
      "display": "text-only",
      "type": "text",
      "enable_detail": true,
      "related": {
        "url": "https://truyenx.link/truyensextv/channels/related/1735",
        "request_headers": []
      },
      "share": {
        "url": "https://truyenx.link/truyensextv/channels/share/pha-trinh-be-toc-dai"
      },
      "remote_data": {
        "url": "https://truyenx.link/truyensextv/channels/pha-trinh-be-toc-dai"
      }
    },
    {
      "id": "1734-channel",
      "name": "Gã thợ mộc dê xồm",
      "description": "Những tiếng tích tắc đều đặn của chiếc đồng hồ treo tường cứ đều đặn vọng vào tai Thảo, đã gần 1 giờ sáng rồi mà Thảo không sao ngủ được. Giữa phòng ngủ với chiếc...",
      "image": null,
      "label": null,
      "display": "text-only",
      "type": "text",
      "enable_detail": true,
      "related": {
        "url": "https://truyenx.link/truyensextv/channels/related/1734",
        "request_headers": []
      },
      "share": {
        "url": "https://truyenx.link/truyensextv/channels/share/ga-tho-moc-de-xom"
      },
      "remote_data": {
        "url": "https://truyenx.link/truyensextv/channels/ga-tho-moc-de-xom"
      }
    },
    {
      "id": "1733-channel",
      "name": "Mỹ Dung đụ với cháu",
      "description": "Mụ Tâm gọi điện thoại cho thằng cháu chồng nói: “Thằng Sung hả? Mày qua nhà tao gấp, thằng chồng tao nó đang chở con quỷ cái Hương đi ăn ngủ. Mày làm ơn giúp tao với!”...",
      "image": null,
      "label": null,
      "display": "text-only",
      "type": "text",
      "enable_detail": true,
      "related": {
        "url": "https://truyenx.link/truyensextv/channels/related/1733",
        "request_headers": []
      },
      "share": {
        "url": "https://truyenx.link/truyensextv/channels/share/my-dung-du-voi-chau"
      },
      "remote_data": {
        "url": "https://truyenx.link/truyensextv/channels/my-dung-du-voi-chau"
      }
    },
    {
      "id": "1732-channel",
      "name": "Chết trong sung sướng",
      "description": "Chúng tôi đã có đầy đủ bằng chứng buộc anh tội hiếp dâm, nếu muốn được khoan hồng anh hãy thành thật khai báo tất cả hành vi của mình. Tôi xin nhận tội, xin đừng bỏ tù...",
      "image": null,
      "label": null,
      "display": "text-only",
      "type": "text",
      "enable_detail": true,
      "related": {
        "url": "https://truyenx.link/truyensextv/channels/related/1732",
        "request_headers": []
      },
      "share": {
        "url": "https://truyenx.link/truyensextv/channels/share/chet-trong-sung-suong"
      },
      "remote_data": {
        "url": "https://truyenx.link/truyensextv/channels/chet-trong-sung-suong"
      }
    },
    {
      "id": "1731-channel",
      "name": "Hiếp dâm em ca sĩ",
      "description": "Máy bay từ từ hạ cánh xuống sân bay Tân Sơn Nhất, dòng người lũ lượt ùa ra các cửa đón. Tôi vẫn ngồi yên trong chiếc INNOVA màu đen chờ đợi. Đã hơn hai tuần rồi tôi chưa...",
      "image": null,
      "label": null,
      "display": "text-only",
      "type": "text",
      "enable_detail": true,
      "related": {
        "url": "https://truyenx.link/truyensextv/channels/related/1731",
        "request_headers": []
      },
      "share": {
        "url": "https://truyenx.link/truyensextv/channels/share/hiep-dam-em-ca-si"
      },
      "remote_data": {
        "url": "https://truyenx.link/truyensextv/channels/hiep-dam-em-ca-si"
      }
    },
    {
      "id": "1730-channel",
      "name": "Đánh đổi bằng thân xác của vợ",
      "description": "Không bao giờ tôi nghĩ rằng lại có ngày chính tay mình ép rượu vợ mình say sỉn để nàng phải lên giường với thằng đàn ông khác. Dìu Quỳnh Hoa lên phòng khách sạn tôi nhẹ nhàng...",
      "image": null,
      "label": null,
      "display": "text-only",
      "type": "text",
      "enable_detail": true,
      "related": {
        "url": "https://truyenx.link/truyensextv/channels/related/1730",
        "request_headers": []
      },
      "share": {
        "url": "https://truyenx.link/truyensextv/channels/share/danh-doi-bang-than-xac-cua-vo"
      },
      "remote_data": {
        "url": "https://truyenx.link/truyensextv/channels/danh-doi-bang-than-xac-cua-vo"
      }
    },
    {
      "id": "1729-channel",
      "name": "Cô giáo Nhung dâm đãng",
      "description": "Nhung là giáo viên dạy môn Sinh ở trường cấp 3, năm nay cô đã 25 và đã có chồng. Cô cũng như bao cô gái trẻ khác có 1 khuôn mặt xinh xắn, vóc dáng mảnh mai của tuổi thanh xuân. Với...",
      "image": null,
      "label": null,
      "display": "text-only",
      "type": "text",
      "enable_detail": true,
      "related": {
        "url": "https://truyenx.link/truyensextv/channels/related/1729",
        "request_headers": []
      },
      "share": {
        "url": "https://truyenx.link/truyensextv/channels/share/co-giao-nhung-dam-dang"
      },
      "remote_data": {
        "url": "https://truyenx.link/truyensextv/channels/co-giao-nhung-dam-dang"
      }
    }
  ],
  "load_more": {
    "pageInfo": {
      "current_page": 82,
      "last_page": 140,
      "per_page": 30,
      "total": 4188
    },
    "paging": {
      "page_key": "page",
      "size_key": "size"
    },
    "remote_data": {
      "url": "https://truyenx.link/truyensextv/channels"
    }
  }
}