{
  "grid_number": 1,
  "channels": [
    {
      "id": "3338-channel",
      "name": "Hậu cung trần thế",
      "description": "Sáng sớm, trong 1 ngôi biệt thự vip nhất, ở khu quan lại và quyền quý của thành phố ánh trăng . Nvc trong câu chuyện của chúng ta đang ở trong ngôi biệt thự này, hắn tên là Hạ Phong...",
      "image": null,
      "label": null,
      "display": "text-only",
      "type": "text",
      "enable_detail": true,
      "related": {
        "url": "https://truyenx.link/truyensextv/channels/related/3338",
        "request_headers": []
      },
      "share": {
        "url": "https://truyenx.link/truyensextv/channels/share/hau-cung-tran-the"
      },
      "remote_data": {
        "url": "https://truyenx.link/truyensextv/channels/hau-cung-tran-the"
      }
    },
    {
      "id": "3339-channel",
      "name": "Người chị thương nhớ",
      "description": "Từ sau lần chịch chị gái ở trạm y tế. Thấm thoát cũng 3 4 năm. Lâu lâu tôi lại nhớ về cái lồn vừa nhô cao vừa to của chị. Rồi 1 hôm biết tin chị chia tay ghệ. Tôi với chị...",
      "image": null,
      "label": null,
      "display": "text-only",
      "type": "text",
      "enable_detail": true,
      "related": {
        "url": "https://truyenx.link/truyensextv/channels/related/3339",
        "request_headers": []
      },
      "share": {
        "url": "https://truyenx.link/truyensextv/channels/share/nguoi-chi-thuong-nho"
      },
      "remote_data": {
        "url": "https://truyenx.link/truyensextv/channels/nguoi-chi-thuong-nho"
      }
    },
    {
      "id": "3337-channel",
      "name": "Cuckold bắt đầu thế nào với chúng tôi?",
      "description": "Tôi, một người đàn ông rất thích sex và hầu như đêm nào tôi cũng coi phim sex trước khi ngủ. Thiếu sex như thiếu một phần cuộc sống, bởi với tôi, sex là một trong lục dục của...",
      "image": null,
      "label": null,
      "display": "text-only",
      "type": "text",
      "enable_detail": true,
      "related": {
        "url": "https://truyenx.link/truyensextv/channels/related/3337",
        "request_headers": []
      },
      "share": {
        "url": "https://truyenx.link/truyensextv/channels/share/cuckold-bat-dau-the-nao-voi-chung-toi"
      },
      "remote_data": {
        "url": "https://truyenx.link/truyensextv/channels/cuckold-bat-dau-the-nao-voi-chung-toi"
      }
    },
    {
      "id": "3335-channel",
      "name": "Những con chó cái",
      "description": "Buổi sáng 8h như thường lệ Dũng bắt đầu 1 ngày sau khi đánh răng rửa mặt. Hắn là người thức dậy muộn nhất so với chúng nữ nhân bởi vì các nàng thường dậy sớm để đi...",
      "image": null,
      "label": null,
      "display": "text-only",
      "type": "text",
      "enable_detail": true,
      "related": {
        "url": "https://truyenx.link/truyensextv/channels/related/3335",
        "request_headers": []
      },
      "share": {
        "url": "https://truyenx.link/truyensextv/channels/share/nhung-con-cho-cai"
      },
      "remote_data": {
        "url": "https://truyenx.link/truyensextv/channels/nhung-con-cho-cai"
      }
    },
    {
      "id": "3336-channel",
      "name": "Vét sò lông",
      "description": "Tôi có một cái tật chẳng giống ai! Đó là dù ở trong nhà hay ra ngoài đường đi nữa, tôi cũng chẳng bao giờ mặc quần lót. Nó bắt đầu từ những năm tôi 12 13 tuổi gì đó. Tự...",
      "image": null,
      "label": null,
      "display": "text-only",
      "type": "text",
      "enable_detail": true,
      "related": {
        "url": "https://truyenx.link/truyensextv/channels/related/3336",
        "request_headers": []
      },
      "share": {
        "url": "https://truyenx.link/truyensextv/channels/share/vet-so-long"
      },
      "remote_data": {
        "url": "https://truyenx.link/truyensextv/channels/vet-so-long"
      }
    },
    {
      "id": "3334-channel",
      "name": "Mùa dịch Covid-19",
      "description": "Nó tên T. Tích cóp mãi qua mấy lầy đầu tư đất cùng với bạn bè và có tí cổ phiếu chốt đúng lúc nó cũng mua được căn chung cư 1 ngủ nhỏ nhắn xinh xắn lọt gọn thỏm giữa...",
      "image": null,
      "label": null,
      "display": "text-only",
      "type": "text",
      "enable_detail": true,
      "related": {
        "url": "https://truyenx.link/truyensextv/channels/related/3334",
        "request_headers": []
      },
      "share": {
        "url": "https://truyenx.link/truyensextv/channels/share/mua-dich-covid-19"
      },
      "remote_data": {
        "url": "https://truyenx.link/truyensextv/channels/mua-dich-covid-19"
      }
    },
    {
      "id": "3333-channel",
      "name": "Nàng dâu dâm đãng",
      "description": "Ông Tâm ngồi ở ghế sô pha uống trà buổi sáng, mỗi khi thức dậy ông có thói quen này đã gần mười mấy năm, ngoài kia trời đã sáng rỏ mặt trời đã lên khá cao, áng sáng chan hòa...",
      "image": null,
      "label": null,
      "display": "text-only",
      "type": "text",
      "enable_detail": true,
      "related": {
        "url": "https://truyenx.link/truyensextv/channels/related/3333",
        "request_headers": []
      },
      "share": {
        "url": "https://truyenx.link/truyensextv/channels/share/nang-dau-dam-dang"
      },
      "remote_data": {
        "url": "https://truyenx.link/truyensextv/channels/nang-dau-dam-dang"
      }
    },
    {
      "id": "3332-channel",
      "name": "Dì và chú",
      "description": "Tường và Lâm lấy nhau đã gần 6 năm nhưng chưa có con. Họ có học và theo trường phái tự do theo kiểu hiện sinh của Jean Paul Sartre. Chủ nghĩa hiện sinh là tôn trọng sự riêng biệt...",
      "image": null,
      "label": null,
      "display": "text-only",
      "type": "text",
      "enable_detail": true,
      "related": {
        "url": "https://truyenx.link/truyensextv/channels/related/3332",
        "request_headers": []
      },
      "share": {
        "url": "https://truyenx.link/truyensextv/channels/share/di-va-chu"
      },
      "remote_data": {
        "url": "https://truyenx.link/truyensextv/channels/di-va-chu"
      }
    },
    {
      "id": "3331-channel",
      "name": "Thần thám",
      "description": "Thiên thần phán xét Ngươi đã bao giờ gặp một lão bản kỳ quái, đem khách hàng băm thành thịt vụn để làm nhân bánh bao chưa? Ngươi đã bao giờ gặp một bác sĩ kỳ quái, đem tình...",
      "image": null,
      "label": null,
      "display": "text-only",
      "type": "text",
      "enable_detail": true,
      "related": {
        "url": "https://truyenx.link/truyensextv/channels/related/3331",
        "request_headers": []
      },
      "share": {
        "url": "https://truyenx.link/truyensextv/channels/share/than-tham"
      },
      "remote_data": {
        "url": "https://truyenx.link/truyensextv/channels/than-tham"
      }
    },
    {
      "id": "3330-channel",
      "name": "Hà Nhi",
      "description": "Trong đêm tĩnh lặng. Lúc này tất cả ngôi nhà trong khu phố, cả phòng của bố mẹ đều đã tắt đèn chìm vào giấc ngủ say nên không biết rằng trong một căn phòng trong nhà có một...",
      "image": null,
      "label": null,
      "display": "text-only",
      "type": "text",
      "enable_detail": true,
      "related": {
        "url": "https://truyenx.link/truyensextv/channels/related/3330",
        "request_headers": []
      },
      "share": {
        "url": "https://truyenx.link/truyensextv/channels/share/ha-nhi"
      },
      "remote_data": {
        "url": "https://truyenx.link/truyensextv/channels/ha-nhi"
      }
    },
    {
      "id": "3329-channel",
      "name": "Anh chị và cậu út",
      "description": "Anh tôi và chị dâu đều sinh năm 2000 vừa lấy nhau hơn một tháng trước. Chị dâu tôi xinh như bông hậu ấy. Gương mặt xinh đẹp tự nhiên nhìn na ná Chi Pu cơ ấy. Dáng vóc thì cao...",
      "image": null,
      "label": null,
      "display": "text-only",
      "type": "text",
      "enable_detail": true,
      "related": {
        "url": "https://truyenx.link/truyensextv/channels/related/3329",
        "request_headers": []
      },
      "share": {
        "url": "https://truyenx.link/truyensextv/channels/share/anh-chi-va-cau-ut"
      },
      "remote_data": {
        "url": "https://truyenx.link/truyensextv/channels/anh-chi-va-cau-ut"
      }
    },
    {
      "id": "3328-channel",
      "name": "Vào đời",
      "description": "Em là một cô bé được sinh ra trong gia đình khá yên ấm, là con của một chủ vựa vật liệu xây dựng khá lớn ở xã nên cũng được gọi là “con gái cưng của bố mẹ”. Sẽ...",
      "image": null,
      "label": null,
      "display": "text-only",
      "type": "text",
      "enable_detail": true,
      "related": {
        "url": "https://truyenx.link/truyensextv/channels/related/3328",
        "request_headers": []
      },
      "share": {
        "url": "https://truyenx.link/truyensextv/channels/share/vao-doi"
      },
      "remote_data": {
        "url": "https://truyenx.link/truyensextv/channels/vao-doi"
      }
    },
    {
      "id": "3327-channel",
      "name": "Nuôi sói trong nhà",
      "description": "Tên tôi là Từ Kiên, năm nay 35 tuổi, là một phóng viên truyền hình, bởi vì tôi kiên định muốn làm, cũng dám mạo hiểm chịu đựng khó khăn, vì vậy bây giờ tài sản cũng được...",
      "image": null,
      "label": null,
      "display": "text-only",
      "type": "text",
      "enable_detail": true,
      "related": {
        "url": "https://truyenx.link/truyensextv/channels/related/3327",
        "request_headers": []
      },
      "share": {
        "url": "https://truyenx.link/truyensextv/channels/share/nuoi-soi-trong-nha"
      },
      "remote_data": {
        "url": "https://truyenx.link/truyensextv/channels/nuoi-soi-trong-nha"
      }
    },
    {
      "id": "3326-channel",
      "name": "Bạn tình",
      "description": "Mối duyên thầm Mùa hè năm 1973, ở miền quê miền Nam Việt Nam. Nơi đây, nó vẫn còn thuộc chế độ Sài Gòn quản lý và điều hành nhưng quân đội Mỹ thì không còn hiện diện nữa...",
      "image": null,
      "label": null,
      "display": "text-only",
      "type": "text",
      "enable_detail": true,
      "related": {
        "url": "https://truyenx.link/truyensextv/channels/related/3326",
        "request_headers": []
      },
      "share": {
        "url": "https://truyenx.link/truyensextv/channels/share/ban-tinh"
      },
      "remote_data": {
        "url": "https://truyenx.link/truyensextv/channels/ban-tinh"
      }
    },
    {
      "id": "3324-channel",
      "name": "Lén lút cùng vợ thầy mùng 3 tết",
      "description": "Tôi chia sẻ lên đây câu chuyện có thật của chính mình vừa xảy ra hôm mùng 3 tết năm nay. Đến giờ ngồi viết lại mà cảm xúc vẫn cứ lâng lâng như đang diễn ra trở lại. Từng...",
      "image": null,
      "label": null,
      "display": "text-only",
      "type": "text",
      "enable_detail": true,
      "related": {
        "url": "https://truyenx.link/truyensextv/channels/related/3324",
        "request_headers": []
      },
      "share": {
        "url": "https://truyenx.link/truyensextv/channels/share/len-lut-cung-vo-thay-mung-3-tet"
      },
      "remote_data": {
        "url": "https://truyenx.link/truyensextv/channels/len-lut-cung-vo-thay-mung-3-tet"
      }
    },
    {
      "id": "3325-channel",
      "name": "Hai vợ chồng - Quyển 2",
      "description": "Trở về từ chuyến nghỉ mát Toàn thấy thật sảng khoái. Anh cảm giác cuộc sống thật sự tuyệt vời. 35 tuổi đời, nhưng đúng trước giờ anh toàn tư duy và hành động theo khuôn...",
      "image": null,
      "label": null,
      "display": "text-only",
      "type": "text",
      "enable_detail": true,
      "related": {
        "url": "https://truyenx.link/truyensextv/channels/related/3325",
        "request_headers": []
      },
      "share": {
        "url": "https://truyenx.link/truyensextv/channels/share/hai-vo-chong-quyen-2"
      },
      "remote_data": {
        "url": "https://truyenx.link/truyensextv/channels/hai-vo-chong-quyen-2"
      }
    },
    {
      "id": "3323-channel",
      "name": "Chụp ảnh cho gái dâm",
      "description": "Đợt đấy cao điểm một cuộc thi về bài giảng online cho giáo viên cấp 3. Do ảnh hưởng của covid nên phong trào online rất được đẩy mạnh. Vừa hay các cô giáo lại không rành mấy...",
      "image": null,
      "label": null,
      "display": "text-only",
      "type": "text",
      "enable_detail": true,
      "related": {
        "url": "https://truyenx.link/truyensextv/channels/related/3323",
        "request_headers": []
      },
      "share": {
        "url": "https://truyenx.link/truyensextv/channels/share/chup-anh-cho-gai-dam"
      },
      "remote_data": {
        "url": "https://truyenx.link/truyensextv/channels/chup-anh-cho-gai-dam"
      }
    },
    {
      "id": "3322-channel",
      "name": "Gái miền sơn cước",
      "description": "Tiếng trống cúng ma bập bùng hòa cùng mùi nhang trầm ngào ngạt khắp góc rừng khiến Phong có cảm giác như lạc vào một xã hội nguyên thủy xa xưa lắm, đám ma nơi đầu bản vẫn đang...",
      "image": null,
      "label": null,
      "display": "text-only",
      "type": "text",
      "enable_detail": true,
      "related": {
        "url": "https://truyenx.link/truyensextv/channels/related/3322",
        "request_headers": []
      },
      "share": {
        "url": "https://truyenx.link/truyensextv/channels/share/gai-mien-son-cuoc"
      },
      "remote_data": {
        "url": "https://truyenx.link/truyensextv/channels/gai-mien-son-cuoc"
      }
    },
    {
      "id": "3321-channel",
      "name": "Chuyện tình tuổi xế",
      "description": "Bà Tú Anh không ngờ gặp lại người tình ở đất Mỹ hơn 25 năm về trước khi còn ở Việt Nam. Ông ta tên Nam Phong. Trong một chuyến nghỉ hè, hai người tình cờ gặp nhau trên một bãi...",
      "image": null,
      "label": null,
      "display": "text-only",
      "type": "text",
      "enable_detail": true,
      "related": {
        "url": "https://truyenx.link/truyensextv/channels/related/3321",
        "request_headers": []
      },
      "share": {
        "url": "https://truyenx.link/truyensextv/channels/share/chuyen-tinh-tuoi-xe"
      },
      "remote_data": {
        "url": "https://truyenx.link/truyensextv/channels/chuyen-tinh-tuoi-xe"
      }
    },
    {
      "id": "3320-channel",
      "name": "Mái già mê trai",
      "description": "Mùa đông tới, tuyết ngoài trời rơi mù mịt, cảnh vật trắng xóa thật đẹp. Trong một khu phố nhỏ, nhìn qua khung cửa, những hạt tuyết trắng bay bay như một cảnh trong phim mà hắn...",
      "image": null,
      "label": null,
      "display": "text-only",
      "type": "text",
      "enable_detail": true,
      "related": {
        "url": "https://truyenx.link/truyensextv/channels/related/3320",
        "request_headers": []
      },
      "share": {
        "url": "https://truyenx.link/truyensextv/channels/share/mai-gia-me-trai"
      },
      "remote_data": {
        "url": "https://truyenx.link/truyensextv/channels/mai-gia-me-trai"
      }
    },
    {
      "id": "3319-channel",
      "name": "Bà mẹ dâm đãng",
      "description": "Tôi không rõ là mình mắc cái chứng thị dâm và phô dâm từ bao giờ nữa. Tất nhiên là tôi cũng ham muốn và thích quan hệ gái gú các kiểu, nhưng thi thoảng tôi vẫn xem phim porn, xem...",
      "image": null,
      "label": null,
      "display": "text-only",
      "type": "text",
      "enable_detail": true,
      "related": {
        "url": "https://truyenx.link/truyensextv/channels/related/3319",
        "request_headers": []
      },
      "share": {
        "url": "https://truyenx.link/truyensextv/channels/share/ba-me-dam-dang"
      },
      "remote_data": {
        "url": "https://truyenx.link/truyensextv/channels/ba-me-dam-dang"
      }
    },
    {
      "id": "3318-channel",
      "name": "Tuyết Dung",
      "description": "Tuyết Dung, một cô gái có khuôn mặt cá tính, xinh đẹp giống kiểu diễn viên Thư kỳ. Năm 1998 Dung là học sinh lớp 12A4 của một trường trung học ở Saigon. Nổi tiếng với đôi mắt...",
      "image": null,
      "label": null,
      "display": "text-only",
      "type": "text",
      "enable_detail": true,
      "related": {
        "url": "https://truyenx.link/truyensextv/channels/related/3318",
        "request_headers": []
      },
      "share": {
        "url": "https://truyenx.link/truyensextv/channels/share/tuyet-dung"
      },
      "remote_data": {
        "url": "https://truyenx.link/truyensextv/channels/tuyet-dung"
      }
    },
    {
      "id": "3317-channel",
      "name": "Vợ tôi mê chó đực",
      "description": "Vợ tôi Nguyễn Hà Phương, sinh năm 1994, tuổi Tuất, có lẽ cũng vì thế nàng khá thích nuôi Chó, một nhân viên bán hàng ở trung tâm thương mại trong thành phố, bên ngoài nàng có vẻ...",
      "image": null,
      "label": null,
      "display": "text-only",
      "type": "text",
      "enable_detail": true,
      "related": {
        "url": "https://truyenx.link/truyensextv/channels/related/3317",
        "request_headers": []
      },
      "share": {
        "url": "https://truyenx.link/truyensextv/channels/share/vo-toi-me-cho-duc"
      },
      "remote_data": {
        "url": "https://truyenx.link/truyensextv/channels/vo-toi-me-cho-duc"
      }
    },
    {
      "id": "3316-channel",
      "name": "Người chị gái",
      "description": "Trước khi vào câu chuyện tôi xin phép được giới thiệu về gia đình tôi? Nhà tôi lúc trước gồm có 5 người ba mẹ và 2 người chị gái đã mất do dịch bệnh “COVID 19”. Gia...",
      "image": null,
      "label": null,
      "display": "text-only",
      "type": "text",
      "enable_detail": true,
      "related": {
        "url": "https://truyenx.link/truyensextv/channels/related/3316",
        "request_headers": []
      },
      "share": {
        "url": "https://truyenx.link/truyensextv/channels/share/nguoi-chi-gai"
      },
      "remote_data": {
        "url": "https://truyenx.link/truyensextv/channels/nguoi-chi-gai"
      }
    },
    {
      "id": "3315-channel",
      "name": "Tâm sự của một dân chơi",
      "description": "Tôi sinh năm 84, không dám tự hào nhưng lịch sử tình trường, chăn rau hay săm máy bay cũng kha khá. Chuyện trẻ trâu thì không dám chia sẻ với anh em. Nhớ hồi 2010, yêu 1 em Tuyên Quang...",
      "image": null,
      "label": null,
      "display": "text-only",
      "type": "text",
      "enable_detail": true,
      "related": {
        "url": "https://truyenx.link/truyensextv/channels/related/3315",
        "request_headers": []
      },
      "share": {
        "url": "https://truyenx.link/truyensextv/channels/share/tam-su-cua-mot-dan-choi"
      },
      "remote_data": {
        "url": "https://truyenx.link/truyensextv/channels/tam-su-cua-mot-dan-choi"
      }
    },
    {
      "id": "3314-channel",
      "name": "Chuyện tình thời Tam Quốc",
      "description": "CỖ MÁY THỜI GIAN Trương Siêu vừa tỉnh giấc sau một đêm làm việc vất vả. Trương Phúc cậu bé 12 tuổi cũng là con trai của Trương Siêu vào phòng làm việc của bố. Trương Phúc tuy...",
      "image": null,
      "label": null,
      "display": "text-only",
      "type": "text",
      "enable_detail": true,
      "related": {
        "url": "https://truyenx.link/truyensextv/channels/related/3314",
        "request_headers": []
      },
      "share": {
        "url": "https://truyenx.link/truyensextv/channels/share/chuyen-tinh-thoi-tam-quoc"
      },
      "remote_data": {
        "url": "https://truyenx.link/truyensextv/channels/chuyen-tinh-thoi-tam-quoc"
      }
    },
    {
      "id": "3313-channel",
      "name": "Trên tình bạn dưới tình yêu",
      "description": "Tôi là Trí sinh năm 2003. Tôi sinh ra và lớn lên cùng với mẹ ở Hà Nội. Nhà tôi không giàu chỉ đủ để sống qua ngày. Hiện tại tôi đang học ở một trường Cao đẳng ở Hà nội...",
      "image": null,
      "label": null,
      "display": "text-only",
      "type": "text",
      "enable_detail": true,
      "related": {
        "url": "https://truyenx.link/truyensextv/channels/related/3313",
        "request_headers": []
      },
      "share": {
        "url": "https://truyenx.link/truyensextv/channels/share/tren-tinh-ban-duoi-tinh-yeu"
      },
      "remote_data": {
        "url": "https://truyenx.link/truyensextv/channels/tren-tinh-ban-duoi-tinh-yeu"
      }
    },
    {
      "id": "3312-channel",
      "name": "Con đường bá chủ - Quyển 13",
      "description": "“KENG, thành công mở ra Gói Quà Sử Thi.” Theo thanh âm thông báo vừa dứt, trong đầu Lạc Nam lại vang lên liên tục: “KENG, chúc mừng ký chủ nhận được một lần chỉ...",
      "image": null,
      "label": null,
      "display": "text-only",
      "type": "text",
      "enable_detail": true,
      "related": {
        "url": "https://truyenx.link/truyensextv/channels/related/3312",
        "request_headers": []
      },
      "share": {
        "url": "https://truyenx.link/truyensextv/channels/share/con-duong-ba-chu-quyen-13"
      },
      "remote_data": {
        "url": "https://truyenx.link/truyensextv/channels/con-duong-ba-chu-quyen-13"
      }
    },
    {
      "id": "3311-channel",
      "name": "Khi tình bạn trở thành bạn tình",
      "description": "Tôi và Minh biết nhau từ thời mới qua Mỹ tình cờ gặp nhau party nhà bạn, tôi đi cùng một người anh bạn gặp Minh ở đó, lúc đó tôi ấn tượng Minh trong lịch lãm có khi chất gì...",
      "image": null,
      "label": null,
      "display": "text-only",
      "type": "text",
      "enable_detail": true,
      "related": {
        "url": "https://truyenx.link/truyensextv/channels/related/3311",
        "request_headers": []
      },
      "share": {
        "url": "https://truyenx.link/truyensextv/channels/share/khi-tinh-ban-tro-thanh-ban-tinh"
      },
      "remote_data": {
        "url": "https://truyenx.link/truyensextv/channels/khi-tinh-ban-tro-thanh-ban-tinh"
      }
    },
    {
      "id": "3310-channel",
      "name": "Mang thai với muôn vật",
      "description": "Tiếng chuông tan học vang lên, Phương Ngọc bắt đầu thu dọn đồ đạc trên bàn. Một thiếu nữ đứng gần cửa sổ, ánh nắng chiều chiếu xuống người cô, khiến cả người cô như...",
      "image": null,
      "label": null,
      "display": "text-only",
      "type": "text",
      "enable_detail": true,
      "related": {
        "url": "https://truyenx.link/truyensextv/channels/related/3310",
        "request_headers": []
      },
      "share": {
        "url": "https://truyenx.link/truyensextv/channels/share/mang-thai-voi-muon-vat"
      },
      "remote_data": {
        "url": "https://truyenx.link/truyensextv/channels/mang-thai-voi-muon-vat"
      }
    }
  ],
  "load_more": {
    "pageInfo": {
      "current_page": 49,
      "last_page": 140,
      "per_page": 30,
      "total": 4188
    },
    "paging": {
      "page_key": "page",
      "size_key": "size"
    },
    "remote_data": {
      "url": "https://truyenx.link/truyensextv/channels"
    }
  }
}