{
  "grid_number": 1,
  "channels": [
    {
      "id": "13007-channel",
      "name": "Kẻ bắt nạt",
      "description": "Tôi học ở một trường giáo dục thường xuyên của huyện. Vào tháng trước có 2 thằng. Một người dáng cao cao, có một vết sẹo kéo dài từ môi xuống cằm. Một thằng thấp hơn...",
      "image": null,
      "label": null,
      "display": "text-only",
      "type": "text",
      "enable_detail": true,
      "related": {
        "url": "https://truyenx.link/truyensextv/channels/related/13007",
        "request_headers": []
      },
      "share": {
        "url": "https://truyenx.link/truyensextv/channels/share/ke-bat-nat"
      },
      "remote_data": {
        "url": "https://truyenx.link/truyensextv/channels/ke-bat-nat"
      }
    },
    {
      "id": "12583-channel",
      "name": "Vương Trường Sinh - Quyển 4",
      "description": "Vương Minh Nhân quan hệ rộng khắp Vương Hoa Phong cúi người hành lễ với Vương Trường Sinh, cung kính nói: “Tôn nhi bái kiến lão tổ tông và hai vị tiền bối.” Ngón tay Uông...",
      "image": null,
      "label": null,
      "display": "text-only",
      "type": "text",
      "enable_detail": true,
      "related": {
        "url": "https://truyenx.link/truyensextv/channels/related/12583",
        "request_headers": []
      },
      "share": {
        "url": "https://truyenx.link/truyensextv/channels/share/vuong-truong-sinh-quyen-4"
      },
      "remote_data": {
        "url": "https://truyenx.link/truyensextv/channels/vuong-truong-sinh-quyen-4"
      }
    },
    {
      "id": "12992-channel",
      "name": "Loạn thế tàn bạo",
      "description": "Khởi đầu của hỗn loạn Tháng Hai năm 2025, bầu trời vốn xanh ngắt giờ đây nhuốm màu xám tro. Tiếng hét thất thanh, tiếng nổ vang vọng khắp nơi. Ba vệt sáng rực rỡ xé toạc...",
      "image": null,
      "label": null,
      "display": "text-only",
      "type": "text",
      "enable_detail": true,
      "related": {
        "url": "https://truyenx.link/truyensextv/channels/related/12992",
        "request_headers": []
      },
      "share": {
        "url": "https://truyenx.link/truyensextv/channels/share/loan-the-tan-bao"
      },
      "remote_data": {
        "url": "https://truyenx.link/truyensextv/channels/loan-the-tan-bao"
      }
    },
    {
      "id": "4510-channel",
      "name": "Thi - Quyển 4",
      "description": "Sau khi lên xe, Nhậm Bảo cũng nhanh chóng khởi động ô tô mà lao về phía trước. Chẳng bao lâu thì đã nhìn thấy lão Phong đang đứng ở đầu phố, trong tay của cậu ấy cầm một cái...",
      "image": null,
      "label": null,
      "display": "text-only",
      "type": "text",
      "enable_detail": true,
      "related": {
        "url": "https://truyenx.link/truyensextv/channels/related/4510",
        "request_headers": []
      },
      "share": {
        "url": "https://truyenx.link/truyensextv/channels/share/thi-quyen-4"
      },
      "remote_data": {
        "url": "https://truyenx.link/truyensextv/channels/thi-quyen-4"
      }
    },
    {
      "id": "12984-channel",
      "name": "Siêu cấp hệ thống",
      "description": "Thôn nhân nghĩa huyện, điền phong... Bênh trong một giang nhà nhỏ đơn sơ nằm ở cuối thôn nhan nghĩa, tiêu thiên khuôn mặt kích động nhìn nữ nhân có chút mờ ảo trước mắt... Xin...",
      "image": null,
      "label": null,
      "display": "text-only",
      "type": "text",
      "enable_detail": true,
      "related": {
        "url": "https://truyenx.link/truyensextv/channels/related/12984",
        "request_headers": []
      },
      "share": {
        "url": "https://truyenx.link/truyensextv/channels/share/sieu-cap-he-thong"
      },
      "remote_data": {
        "url": "https://truyenx.link/truyensextv/channels/sieu-cap-he-thong"
      }
    },
    {
      "id": "12962-channel",
      "name": "Nhà nội",
      "description": "Tôi là Nam, năm nay đã 21 tuổi. Tôi có một dòng họ bên nội khá đông, tôi thì thứ 3 và những người em người cháu của tôi đều là nữ, trai thì có 3 đứa. Chuyện xảy ra lúc ấy...",
      "image": null,
      "label": null,
      "display": "text-only",
      "type": "text",
      "enable_detail": true,
      "related": {
        "url": "https://truyenx.link/truyensextv/channels/related/12962",
        "request_headers": []
      },
      "share": {
        "url": "https://truyenx.link/truyensextv/channels/share/nha-noi"
      },
      "remote_data": {
        "url": "https://truyenx.link/truyensextv/channels/nha-noi"
      }
    },
    {
      "id": "12951-channel",
      "name": "Ui da! Nhột chết người ta",
      "description": "Vinh ngồi phè ra trên ghế, con cặc nứng quá cứ dựng đứng lên trong quần, Vinh lấy tay chỉ chỉ vào đũng quần của mình. Liễu nhìn thấy hết nãy giờ cái con cặc của Vinh đang chào...",
      "image": null,
      "label": null,
      "display": "text-only",
      "type": "text",
      "enable_detail": true,
      "related": {
        "url": "https://truyenx.link/truyensextv/channels/related/12951",
        "request_headers": []
      },
      "share": {
        "url": "https://truyenx.link/truyensextv/channels/share/ui-da-nhot-chet-nguoi-ta"
      },
      "remote_data": {
        "url": "https://truyenx.link/truyensextv/channels/ui-da-nhot-chet-nguoi-ta"
      }
    },
    {
      "id": "12950-channel",
      "name": "Mẹ kế của tôi",
      "description": "Đến bây giờ thì tui chưa thể nào quên ký ức về mẹ kế của tui, khi tui 21 tuổi. Tui tên Nguyễn Trần Trung Kiên sinh ra trong một gia đình khá giả, còn ba tui tên Nguyễn Trần Trung Hậu...",
      "image": null,
      "label": null,
      "display": "text-only",
      "type": "text",
      "enable_detail": true,
      "related": {
        "url": "https://truyenx.link/truyensextv/channels/related/12950",
        "request_headers": []
      },
      "share": {
        "url": "https://truyenx.link/truyensextv/channels/share/me-ke-cua-toi"
      },
      "remote_data": {
        "url": "https://truyenx.link/truyensextv/channels/me-ke-cua-toi"
      }
    },
    {
      "id": "12947-channel",
      "name": "Cuộc đời của mẹ kế và con gái damdang",
      "description": "ĐÔI BẠN THÂN THIẾT Em là Meo và bạn em là Kitty là đôi bạn thân từ nhỏ. Tụi em học chung từ lớp 1 đến năm lớp 9. Gia đình em thì nó không như gia đình bình thường. Tía má em ly...",
      "image": null,
      "label": null,
      "display": "text-only",
      "type": "text",
      "enable_detail": true,
      "related": {
        "url": "https://truyenx.link/truyensextv/channels/related/12947",
        "request_headers": []
      },
      "share": {
        "url": "https://truyenx.link/truyensextv/channels/share/cuoc-doi-cua-me-ke-va-con-gai-damdang"
      },
      "remote_data": {
        "url": "https://truyenx.link/truyensextv/channels/cuoc-doi-cua-me-ke-va-con-gai-damdang"
      }
    },
    {
      "id": "12939-channel",
      "name": "Mẹ đẹp phải giữ lời",
      "description": "“Quân, dạo này học hành chăm chỉ quá ha, gần mười hai giờ rồi mà chưa ngủ sao?” Đêm khuya, trong ký túc xá nam, Quân đang miệt mài học bài dưới ánh đèn. Vở ghi chép và...",
      "image": null,
      "label": null,
      "display": "text-only",
      "type": "text",
      "enable_detail": true,
      "related": {
        "url": "https://truyenx.link/truyensextv/channels/related/12939",
        "request_headers": []
      },
      "share": {
        "url": "https://truyenx.link/truyensextv/channels/share/me-dep-phai-giu-loi"
      },
      "remote_data": {
        "url": "https://truyenx.link/truyensextv/channels/me-dep-phai-giu-loi"
      }
    },
    {
      "id": "4072-channel",
      "name": "Hành trình nữ thần hóa điếm",
      "description": "Em xin anh... huhuhu... anh nghĩ đến tình nghĩa bao lâu nay anh bỏ qua cho em... huhuhu... Bỏ qua ư, em làm tôi đau đớn nhục nhã tận cùng vậy em muốn tôi tha thứ tôi quên đi đc sao. Huhuhu...",
      "image": null,
      "label": null,
      "display": "text-only",
      "type": "text",
      "enable_detail": true,
      "related": {
        "url": "https://truyenx.link/truyensextv/channels/related/4072",
        "request_headers": []
      },
      "share": {
        "url": "https://truyenx.link/truyensextv/channels/share/hanh-trinh-nu-than-hoa-diem"
      },
      "remote_data": {
        "url": "https://truyenx.link/truyensextv/channels/hanh-trinh-nu-than-hoa-diem"
      }
    },
    {
      "id": "12866-channel",
      "name": "Ngày là mẹ con, tối là vợ chồng",
      "description": "Tuổi dậy thì Vũ tự sướng bị mẹ phát hiện Vũ khóa trái cửa phòng, kéo chặt rèm cửa, ánh sáng xanh từ màn hình máy tính chiếu lên khuôn mặt nóng bừng của cậu. Ngón tay cậu...",
      "image": null,
      "label": null,
      "display": "text-only",
      "type": "text",
      "enable_detail": true,
      "related": {
        "url": "https://truyenx.link/truyensextv/channels/related/12866",
        "request_headers": []
      },
      "share": {
        "url": "https://truyenx.link/truyensextv/channels/share/ngay-la-me-con-toi-la-vo-chong"
      },
      "remote_data": {
        "url": "https://truyenx.link/truyensextv/channels/ngay-la-me-con-toi-la-vo-chong"
      }
    },
    {
      "id": "4060-channel",
      "name": "Đứa con ngoan",
      "description": "Đạt là đứa con thứ 2 trong gia đình 3 chị em. Linh là chị cả đạt là anh hai và trang là em út . Đạt là đứa quậy phá nhất nhà dù đã 20 tuổi nhưng vẫn còn ăn chơi đàn đúm lêu...",
      "image": null,
      "label": null,
      "display": "text-only",
      "type": "text",
      "enable_detail": true,
      "related": {
        "url": "https://truyenx.link/truyensextv/channels/related/4060",
        "request_headers": []
      },
      "share": {
        "url": "https://truyenx.link/truyensextv/channels/share/dua-con-ngoan"
      },
      "remote_data": {
        "url": "https://truyenx.link/truyensextv/channels/dua-con-ngoan"
      }
    },
    {
      "id": "12917-channel",
      "name": "Kế hoạch trao đổi vợ",
      "description": "Xin chào tôi là Minh làm trưởng phòng kinh doanh của một công ty X. Các nhân viên cấp dưới đang làm việc thường hay truyền tai nhau về một Web trao đổi bạn tình. Bản thân tôi cũng...",
      "image": null,
      "label": null,
      "display": "text-only",
      "type": "text",
      "enable_detail": true,
      "related": {
        "url": "https://truyenx.link/truyensextv/channels/related/12917",
        "request_headers": []
      },
      "share": {
        "url": "https://truyenx.link/truyensextv/channels/share/ke-hoach-trao-doi-vo"
      },
      "remote_data": {
        "url": "https://truyenx.link/truyensextv/channels/ke-hoach-trao-doi-vo"
      }
    },
    {
      "id": "12773-channel",
      "name": "Nữ Đế Nagiga",
      "description": "Cuộc sống mới Nagi không nhớ nổi cái lạnh thấm vào xương thịt từ khi nào đã trở thành người bạn đồng hành của mình. Sinh ra đã mang thân phận mồ côi, thay vì vòng tay ấm áp...",
      "image": null,
      "label": null,
      "display": "text-only",
      "type": "text",
      "enable_detail": true,
      "related": {
        "url": "https://truyenx.link/truyensextv/channels/related/12773",
        "request_headers": []
      },
      "share": {
        "url": "https://truyenx.link/truyensextv/channels/share/nu-de-nagiga"
      },
      "remote_data": {
        "url": "https://truyenx.link/truyensextv/channels/nu-de-nagiga"
      }
    },
    {
      "id": "12897-channel",
      "name": "Dạy vợ thành một con đĩ",
      "description": "Lần đầu mình kể nên lúng túng, mong mọi người đọc bỏ qua và góp ý... Mình là Tuấn, 28t làm thợ chụp hình. Còn vợ mình tên Nhi 22t, làm thợ makeup. Vợ mình dáng người nhỏ nhắn...",
      "image": null,
      "label": null,
      "display": "text-only",
      "type": "text",
      "enable_detail": true,
      "related": {
        "url": "https://truyenx.link/truyensextv/channels/related/12897",
        "request_headers": []
      },
      "share": {
        "url": "https://truyenx.link/truyensextv/channels/share/day-vo-thanh-mot-con-di"
      },
      "remote_data": {
        "url": "https://truyenx.link/truyensextv/channels/day-vo-thanh-mot-con-di"
      }
    },
    {
      "id": "12727-channel",
      "name": "Thiên bồng nguyên soái - Quyển 2",
      "description": "Là mộng hay thực Hà Yên đang trong ác mộng cũng phải nhíu mày một cái vì ở hiện thực mình cũng đang bị một cái cặc bự chảng địt vào lồn. Đến cả phu quân Lâm Vấn Thiên...",
      "image": null,
      "label": null,
      "display": "text-only",
      "type": "text",
      "enable_detail": true,
      "related": {
        "url": "https://truyenx.link/truyensextv/channels/related/12727",
        "request_headers": []
      },
      "share": {
        "url": "https://truyenx.link/truyensextv/channels/share/thien-bong-nguyen-soai-quyen-2"
      },
      "remote_data": {
        "url": "https://truyenx.link/truyensextv/channels/thien-bong-nguyen-soai-quyen-2"
      }
    },
    {
      "id": "12757-channel",
      "name": "Yến Nhi - phận nàng Banker",
      "description": "Khởi đầu của tình yêu Sài Gòn đêm nay dịu mát dễ chịu, bầu trời đêm trong trẻo để lộ một vài ngôi sao lấp lánh. Dưới ánh đèn vàng dịu của một góc quán quen, không gian...",
      "image": null,
      "label": null,
      "display": "text-only",
      "type": "text",
      "enable_detail": true,
      "related": {
        "url": "https://truyenx.link/truyensextv/channels/related/12757",
        "request_headers": []
      },
      "share": {
        "url": "https://truyenx.link/truyensextv/channels/share/yen-nhi-phan-nang-banker"
      },
      "remote_data": {
        "url": "https://truyenx.link/truyensextv/channels/yen-nhi-phan-nang-banker"
      }
    },
    {
      "id": "12800-channel",
      "name": "Vết cắt 2",
      "description": "“Cái bóng quá khứ” Một năm đã trôi qua. Thời gian chỉ làm nỗi đau đóng vảy, nhưng dưới lớp da ấy, vết thương vẫn âm ỉ, vẫn có lúc nhức nhối, nhất là về đêm. Ba...",
      "image": null,
      "label": null,
      "display": "text-only",
      "type": "text",
      "enable_detail": true,
      "related": {
        "url": "https://truyenx.link/truyensextv/channels/related/12800",
        "request_headers": []
      },
      "share": {
        "url": "https://truyenx.link/truyensextv/channels/share/vet-cat-2"
      },
      "remote_data": {
        "url": "https://truyenx.link/truyensextv/channels/vet-cat-2"
      }
    },
    {
      "id": "4075-channel",
      "name": "Một truyện tình kỳ lạ",
      "description": "Tình cờ trong một chuyến du lịch vài ngày trên đỉnh núi Bà Nà mờ sương, tôi được gặp lại một em trai thân thiết rạo rực một thời cách đây gần chục năm của mình... Trời...",
      "image": null,
      "label": null,
      "display": "text-only",
      "type": "text",
      "enable_detail": true,
      "related": {
        "url": "https://truyenx.link/truyensextv/channels/related/4075",
        "request_headers": []
      },
      "share": {
        "url": "https://truyenx.link/truyensextv/channels/share/mot-truyen-tinh-ky-la"
      },
      "remote_data": {
        "url": "https://truyenx.link/truyensextv/channels/mot-truyen-tinh-ky-la"
      }
    },
    {
      "id": "12829-channel",
      "name": "Chuyện ông hàng xóm",
      "description": "Mai Lan là một hoa khôi của trường. Cô giấu việc mình có sugar daddy. Hôm nay cô cùng ông ta... Cùng nhau mua một căn hộ chung cư. Tới nơi là một căn hộ sang chảnh... “Em thích căn...",
      "image": null,
      "label": null,
      "display": "text-only",
      "type": "text",
      "enable_detail": true,
      "related": {
        "url": "https://truyenx.link/truyensextv/channels/related/12829",
        "request_headers": []
      },
      "share": {
        "url": "https://truyenx.link/truyensextv/channels/share/chuyen-ong-hang-xom"
      },
      "remote_data": {
        "url": "https://truyenx.link/truyensextv/channels/chuyen-ong-hang-xom"
      }
    },
    {
      "id": "12640-channel",
      "name": "Chinh phục những con đĩ dâm đãng",
      "description": "Tôi là Minh sinh ra trong 1 gia đình 3 người với ba tôi là 1 thuyền trưởng còn mẹ tôi là 1 giáo viên cấp 3. Lương từ công việc của ba tôi giúp cả gia đình sống khỏe, nhưng mỗi...",
      "image": null,
      "label": null,
      "display": "text-only",
      "type": "text",
      "enable_detail": true,
      "related": {
        "url": "https://truyenx.link/truyensextv/channels/related/12640",
        "request_headers": []
      },
      "share": {
        "url": "https://truyenx.link/truyensextv/channels/share/chinh-phuc-nhung-con-di-dam-dang"
      },
      "remote_data": {
        "url": "https://truyenx.link/truyensextv/channels/chinh-phuc-nhung-con-di-dam-dang"
      }
    },
    {
      "id": "12827-channel",
      "name": "Chó cái cosplay",
      "description": "Tú Trinh, hay còn được biết đến với cái tên Tringdam, là một cosplayer nổi tiếng với những bộ ảnh gợi cảm và đầy khêu gợi. Cô thường đăng tải những bức hình nóng bỏng...",
      "image": null,
      "label": null,
      "display": "text-only",
      "type": "text",
      "enable_detail": true,
      "related": {
        "url": "https://truyenx.link/truyensextv/channels/related/12827",
        "request_headers": []
      },
      "share": {
        "url": "https://truyenx.link/truyensextv/channels/share/cho-cai-cosplay"
      },
      "remote_data": {
        "url": "https://truyenx.link/truyensextv/channels/cho-cai-cosplay"
      }
    },
    {
      "id": "4081-channel",
      "name": "Con đường bá chủ - Quyển 17",
      "description": "Lạc Nam vừa trở về Hậu Cung đã bị các lão bà hợp lực tập kích. Các nàng đem hắn trói chặt trên ghế, Huyết Yêu Cơ và Hi Vũ trấn thủ hai bên, tay cầm Đằng Vân Tiên cướp...",
      "image": null,
      "label": null,
      "display": "text-only",
      "type": "text",
      "enable_detail": true,
      "related": {
        "url": "https://truyenx.link/truyensextv/channels/related/4081",
        "request_headers": []
      },
      "share": {
        "url": "https://truyenx.link/truyensextv/channels/share/con-duong-ba-chu-quyen-17"
      },
      "remote_data": {
        "url": "https://truyenx.link/truyensextv/channels/con-duong-ba-chu-quyen-17"
      }
    },
    {
      "id": "12817-channel",
      "name": "Cô vợ xã hội",
      "description": "Tụi em không vào đâu bà chị ơi, đừng có dụ tụi này nữa... Giọng một thằng nhóc đang nói với một người phụ nữ trong căn nhà hoang xập xệ của nó... Người phụ nữ kia nói...",
      "image": null,
      "label": null,
      "display": "text-only",
      "type": "text",
      "enable_detail": true,
      "related": {
        "url": "https://truyenx.link/truyensextv/channels/related/12817",
        "request_headers": []
      },
      "share": {
        "url": "https://truyenx.link/truyensextv/channels/share/co-vo-xa-hoi"
      },
      "remote_data": {
        "url": "https://truyenx.link/truyensextv/channels/co-vo-xa-hoi"
      }
    },
    {
      "id": "12775-channel",
      "name": "Góc khuất của mẹ",
      "description": "Mẹ tôi Trần Thị Mai, như bao bà mẹ khác, chỉ khác ở chỗ mẹ tôi khá là quyến rũ xinh đẹp, cái đẹp của mẹ tôi không phải là do tôi nhận định, mà do những người xung quanh...",
      "image": null,
      "label": null,
      "display": "text-only",
      "type": "text",
      "enable_detail": true,
      "related": {
        "url": "https://truyenx.link/truyensextv/channels/related/12775",
        "request_headers": []
      },
      "share": {
        "url": "https://truyenx.link/truyensextv/channels/share/goc-khuat-cua-me"
      },
      "remote_data": {
        "url": "https://truyenx.link/truyensextv/channels/goc-khuat-cua-me"
      }
    },
    {
      "id": "12802-channel",
      "name": "Em gái tôi thích chơi trò “Cưỡi ngựa với bạch tuộc”",
      "description": "Hôm đó, tôi vừa tan làm về, cũng đã là 4 giờ 30 phút chiều, tôi cảm thấy hơi chán nên quyết định gọi điện cho mẹ xin qua nhà con em gái chơi, em nó tên Ngọc, mới chỉ tầm 16...",
      "image": null,
      "label": null,
      "display": "text-only",
      "type": "text",
      "enable_detail": true,
      "related": {
        "url": "https://truyenx.link/truyensextv/channels/related/12802",
        "request_headers": []
      },
      "share": {
        "url": "https://truyenx.link/truyensextv/channels/share/em-gai-toi-thich-choi-tro-cuoi-ngua-voi-bach-tuoc"
      },
      "remote_data": {
        "url": "https://truyenx.link/truyensextv/channels/em-gai-toi-thich-choi-tro-cuoi-ngua-voi-bach-tuoc"
      }
    },
    {
      "id": "12799-channel",
      "name": "Vết cắt 1",
      "description": "Cơn mưa không dứt Trời mưa. Một cơn mưa nặng hạt, dai dẳng, như thể trời cũng đang thương xót cho ai đó. Hoàng đứng lặng trong phòng khách, vừa bước ra khỏi phòng tắm, chiếc...",
      "image": null,
      "label": null,
      "display": "text-only",
      "type": "text",
      "enable_detail": true,
      "related": {
        "url": "https://truyenx.link/truyensextv/channels/related/12799",
        "request_headers": []
      },
      "share": {
        "url": "https://truyenx.link/truyensextv/channels/share/vet-cat-1"
      },
      "remote_data": {
        "url": "https://truyenx.link/truyensextv/channels/vet-cat-1"
      }
    },
    {
      "id": "12797-channel",
      "name": "Mùa hè cùng mẹ",
      "description": "Tôi là Long một chàng trai 15 tuổi vừa bước qua một kỳ thi vào lớp 10 vô cùng căng thẳng nhưng tôi lại có một động lực vô cùng to lớn đó là mẹ tôi, mẹ tôi là một người phụ...",
      "image": null,
      "label": null,
      "display": "text-only",
      "type": "text",
      "enable_detail": true,
      "related": {
        "url": "https://truyenx.link/truyensextv/channels/related/12797",
        "request_headers": []
      },
      "share": {
        "url": "https://truyenx.link/truyensextv/channels/share/mua-he-cung-me"
      },
      "remote_data": {
        "url": "https://truyenx.link/truyensextv/channels/mua-he-cung-me"
      }
    },
    {
      "id": "4552-channel",
      "name": "Chinh phục mẹ xinh",
      "description": "Chinh Phục Mẹ Xinh Khó Tính Mẹ ra tay “Cộp, cộp, cộp, cộp...” Hành lang khu lớp học vang lên tiếng giày cao gót nện xuống sàn, giòn giã và vang dội. Âm thanh càng lúc càng...",
      "image": null,
      "label": null,
      "display": "text-only",
      "type": "text",
      "enable_detail": true,
      "related": {
        "url": "https://truyenx.link/truyensextv/channels/related/4552",
        "request_headers": []
      },
      "share": {
        "url": "https://truyenx.link/truyensextv/channels/share/chinh-phuc-me-xinh"
      },
      "remote_data": {
        "url": "https://truyenx.link/truyensextv/channels/chinh-phuc-me-xinh"
      }
    }
  ],
  "load_more": {
    "pageInfo": {
      "current_page": 3,
      "last_page": 140,
      "per_page": 30,
      "total": 4188
    },
    "paging": {
      "page_key": "page",
      "size_key": "size"
    },
    "remote_data": {
      "url": "https://truyenx.link/truyensextv/channels"
    }
  }
}