{
  "grid_number": 1,
  "channels": [
    {
      "id": "2515-channel",
      "name": "Những cô chị họ của tôi",
      "description": "Giới thiệu... Tuổi thơ dâm dục của tôi lớn lên cùng với những cô chị họ ở vùng quê Đồng Nai thật hạnh phúc. Kể qua một chút, tôi tên Đức là một chàng trai khá trầm tính...",
      "image": null,
      "label": null,
      "display": "text-only",
      "type": "text",
      "enable_detail": true,
      "related": {
        "url": "https://truyenx.link/truyensextv/channels/related/2515",
        "request_headers": []
      },
      "share": {
        "url": "https://truyenx.link/truyensextv/channels/share/nhung-co-chi-ho-cua-toi"
      },
      "remote_data": {
        "url": "https://truyenx.link/truyensextv/channels/nhung-co-chi-ho-cua-toi"
      }
    },
    {
      "id": "2514-channel",
      "name": "Bướm lạ",
      "description": "Hồi chưa vợ, có ông bạn trước làm cùng công ty cũ, chơi thân, hay nhậu nhẹt. Ông này có cô người yêu sinh viên mới ra trường, trẻ trung xinh đẹp, nói chung là ngon, ai nhìn cũng thòm...",
      "image": null,
      "label": null,
      "display": "text-only",
      "type": "text",
      "enable_detail": true,
      "related": {
        "url": "https://truyenx.link/truyensextv/channels/related/2514",
        "request_headers": []
      },
      "share": {
        "url": "https://truyenx.link/truyensextv/channels/share/buom-la"
      },
      "remote_data": {
        "url": "https://truyenx.link/truyensextv/channels/buom-la"
      }
    },
    {
      "id": "2513-channel",
      "name": "Thằng em trời đánh",
      "description": "Câu chuyện này tôi nghe được từ thằng bạn thân của thằng em trai tôi do chính thằng em trai tôi và nó đã tham gia chịch tôi. Tôi tên H, em trai tôi tên S và thằng G là bạn thân của em...",
      "image": null,
      "label": null,
      "display": "text-only",
      "type": "text",
      "enable_detail": true,
      "related": {
        "url": "https://truyenx.link/truyensextv/channels/related/2513",
        "request_headers": []
      },
      "share": {
        "url": "https://truyenx.link/truyensextv/channels/share/thang-em-troi-danh"
      },
      "remote_data": {
        "url": "https://truyenx.link/truyensextv/channels/thang-em-troi-danh"
      }
    },
    {
      "id": "2512-channel",
      "name": "Thèm cu lạ",
      "description": "Vợ chồng em cưới nhau đến hiện tại đã được 10 năm rồi. Giờ lâu lâu chồng vẫn cho em đi some hoặc đi khách sạn với trai lạ. Chuyện bắt đầu từ 5 năm trước... Tụi em cưới...",
      "image": null,
      "label": null,
      "display": "text-only",
      "type": "text",
      "enable_detail": true,
      "related": {
        "url": "https://truyenx.link/truyensextv/channels/related/2512",
        "request_headers": []
      },
      "share": {
        "url": "https://truyenx.link/truyensextv/channels/share/them-cu-la"
      },
      "remote_data": {
        "url": "https://truyenx.link/truyensextv/channels/them-cu-la"
      }
    },
    {
      "id": "2511-channel",
      "name": "Nốt ruồi của chị",
      "description": "Gia đình tôi không may mắn như bao gia đình khác cha mẹ mất sớm chỉ còn lại 2 chị em. Chị lớn hơn tôi 8 tuổi. Chị năm nay cũng đã 25t còn tôi 17t, chị vẫn chưa chồng con gì mặc...",
      "image": null,
      "label": null,
      "display": "text-only",
      "type": "text",
      "enable_detail": true,
      "related": {
        "url": "https://truyenx.link/truyensextv/channels/related/2511",
        "request_headers": []
      },
      "share": {
        "url": "https://truyenx.link/truyensextv/channels/share/not-ruoi-cua-chi"
      },
      "remote_data": {
        "url": "https://truyenx.link/truyensextv/channels/not-ruoi-cua-chi"
      }
    },
    {
      "id": "2510-channel",
      "name": "Những kỷ niệm về đàn bà",
      "description": "Chả hiểu sao tao lớp 7 đã thích ngắm mông ngực đàn bà rồi. Có vài người làm tao ấn tượng trong quãng thời gian cấp 2. Đâu tiên là cô Nga hàng xóm nhà tao. Tao sống cùng bố mẹ...",
      "image": null,
      "label": null,
      "display": "text-only",
      "type": "text",
      "enable_detail": true,
      "related": {
        "url": "https://truyenx.link/truyensextv/channels/related/2510",
        "request_headers": []
      },
      "share": {
        "url": "https://truyenx.link/truyensextv/channels/share/nhung-ky-niem-ve-dan-ba"
      },
      "remote_data": {
        "url": "https://truyenx.link/truyensextv/channels/nhung-ky-niem-ve-dan-ba"
      }
    },
    {
      "id": "2509-channel",
      "name": "Ba nàng thơ",
      "description": "Tôi là Định, vẫn còn là sinh viên trên ghế Đại học, tôi có bạn gái tên là Trang, chúng tôi yêu nhau từ thời cấp ba tới bây giờ, chính xác hơn thì hai đứa yêu nhau từ năm lớp...",
      "image": null,
      "label": null,
      "display": "text-only",
      "type": "text",
      "enable_detail": true,
      "related": {
        "url": "https://truyenx.link/truyensextv/channels/related/2509",
        "request_headers": []
      },
      "share": {
        "url": "https://truyenx.link/truyensextv/channels/share/ba-nang-tho"
      },
      "remote_data": {
        "url": "https://truyenx.link/truyensextv/channels/ba-nang-tho"
      }
    },
    {
      "id": "2508-channel",
      "name": "Bố cục",
      "description": "Thứ Không Tốt Ông ơi, lần này lấy một chút thôi! Giọng nói non nớt của đứa trẻ 6 tuổi cầu xin. Bên cạnh nó một ông lão tầm 60 tuổi, thân gầy gò, khuôn mặt đầy sẹo khoác...",
      "image": null,
      "label": null,
      "display": "text-only",
      "type": "text",
      "enable_detail": true,
      "related": {
        "url": "https://truyenx.link/truyensextv/channels/related/2508",
        "request_headers": []
      },
      "share": {
        "url": "https://truyenx.link/truyensextv/channels/share/bo-cuc"
      },
      "remote_data": {
        "url": "https://truyenx.link/truyensextv/channels/bo-cuc"
      }
    },
    {
      "id": "2507-channel",
      "name": "Mùng 3 Tết cùng chị họ",
      "description": "Tôi tên L năm đó tôi học lớp 7, còn chị họ của tôi tên là V bằng tuổi tôi nhưng sinh sau tôi 3 tháng, do mẹ của V là chị ruột mẹ tôi nên tôi phải kiu V bằng chị. V cùng gia đình...",
      "image": null,
      "label": null,
      "display": "text-only",
      "type": "text",
      "enable_detail": true,
      "related": {
        "url": "https://truyenx.link/truyensextv/channels/related/2507",
        "request_headers": []
      },
      "share": {
        "url": "https://truyenx.link/truyensextv/channels/share/mung-3-tet-cung-chi-ho"
      },
      "remote_data": {
        "url": "https://truyenx.link/truyensextv/channels/mung-3-tet-cung-chi-ho"
      }
    },
    {
      "id": "2506-channel",
      "name": "Mẹ chồng con dâu",
      "description": "Đang mơ màng ngủ thì tôi chợt có cảm giác như ai đó đang bế bổng tôi lên và nhẹ nhàng khẽ đặt tôi xuống một nơi nào đó. Tôi vẫn ngủ không hề biết gì đến khi tiếng...",
      "image": null,
      "label": null,
      "display": "text-only",
      "type": "text",
      "enable_detail": true,
      "related": {
        "url": "https://truyenx.link/truyensextv/channels/related/2506",
        "request_headers": []
      },
      "share": {
        "url": "https://truyenx.link/truyensextv/channels/share/me-chong-con-dau"
      },
      "remote_data": {
        "url": "https://truyenx.link/truyensextv/channels/me-chong-con-dau"
      }
    },
    {
      "id": "2505-channel",
      "name": "Con đĩ vợ tôi",
      "description": "Tôi và em quen nhau từ khi học đại học. Sau khi ra trường thì cưới nhau. Mới đó mà đã trôi qua 4 năm rồi. Đời sống vợ chồng thì không có gì đặc sắc vì em thuộc kiểu con gái...",
      "image": null,
      "label": null,
      "display": "text-only",
      "type": "text",
      "enable_detail": true,
      "related": {
        "url": "https://truyenx.link/truyensextv/channels/related/2505",
        "request_headers": []
      },
      "share": {
        "url": "https://truyenx.link/truyensextv/channels/share/con-di-vo-toi"
      },
      "remote_data": {
        "url": "https://truyenx.link/truyensextv/channels/con-di-vo-toi"
      }
    },
    {
      "id": "2504-channel",
      "name": "Chị Bảo chợ đêm",
      "description": "Tôi là C. Hiện tại tôi đang đi bộ đội, trước khi nhập ngũ tôi là sinh viên, ngày đi học tối đi làm thêm ở quán beer club trong chợ đêm Đà Lạt. Chắc hẳn nhiều bạn đi chơi Đà...",
      "image": null,
      "label": null,
      "display": "text-only",
      "type": "text",
      "enable_detail": true,
      "related": {
        "url": "https://truyenx.link/truyensextv/channels/related/2504",
        "request_headers": []
      },
      "share": {
        "url": "https://truyenx.link/truyensextv/channels/share/chi-bao-cho-dem"
      },
      "remote_data": {
        "url": "https://truyenx.link/truyensextv/channels/chi-bao-cho-dem"
      }
    },
    {
      "id": "2503-channel",
      "name": "Lần đầu của tôi và cô ấy",
      "description": "Xin chào mọi người, tôi là C là nhân vật chính trong truyện Đụ người yêu bạn thân. Hôm nay tôi lại tiếp tục kể cho các bạn nghe về lần đầu tiên của tôi và người đầu tiên...",
      "image": null,
      "label": null,
      "display": "text-only",
      "type": "text",
      "enable_detail": true,
      "related": {
        "url": "https://truyenx.link/truyensextv/channels/related/2503",
        "request_headers": []
      },
      "share": {
        "url": "https://truyenx.link/truyensextv/channels/share/lan-dau-cua-toi-va-co-ay"
      },
      "remote_data": {
        "url": "https://truyenx.link/truyensextv/channels/lan-dau-cua-toi-va-co-ay"
      }
    },
    {
      "id": "2502-channel",
      "name": "Chị thư ký dâm đãng",
      "description": "Chào các bạn, đây là lần đầu mình viết truyện nên có gì thiếu sót mong các bạn bỏ qua! Chuyện là thế này, đợt đó dịch đỡ nên chỗ mình làm có chuyến tổ chức đi Vũng Tàu...",
      "image": null,
      "label": null,
      "display": "text-only",
      "type": "text",
      "enable_detail": true,
      "related": {
        "url": "https://truyenx.link/truyensextv/channels/related/2502",
        "request_headers": []
      },
      "share": {
        "url": "https://truyenx.link/truyensextv/channels/share/chi-thu-ky-dam-dang"
      },
      "remote_data": {
        "url": "https://truyenx.link/truyensextv/channels/chi-thu-ky-dam-dang"
      }
    },
    {
      "id": "2501-channel",
      "name": "Xuyên",
      "description": "Ngồi dạng háng trước gương, một tay nó banh 2 mép lồn ra, một tay xoa xoa bầu ngực. Ngắm nghía cơ thể gợi dục của mình. Trời phú cho nó được làn da trắng muốt, bầu ngực tròn...",
      "image": null,
      "label": null,
      "display": "text-only",
      "type": "text",
      "enable_detail": true,
      "related": {
        "url": "https://truyenx.link/truyensextv/channels/related/2501",
        "request_headers": []
      },
      "share": {
        "url": "https://truyenx.link/truyensextv/channels/share/xuyen"
      },
      "remote_data": {
        "url": "https://truyenx.link/truyensextv/channels/xuyen"
      }
    },
    {
      "id": "2500-channel",
      "name": "Em người yêu lớp 12",
      "description": "Những năm cấp 3 chập chững bước vào lớp 10 có nhiều bỡ ngỡ. Trước mắt không còn là những gì quen thuộc nữa mà thay vì đó là xa lạ. Cuộc sống tẻ nhạt từ hết học kỳ 1...",
      "image": null,
      "label": null,
      "display": "text-only",
      "type": "text",
      "enable_detail": true,
      "related": {
        "url": "https://truyenx.link/truyensextv/channels/related/2500",
        "request_headers": []
      },
      "share": {
        "url": "https://truyenx.link/truyensextv/channels/share/em-nguoi-yeu-lop-12"
      },
      "remote_data": {
        "url": "https://truyenx.link/truyensextv/channels/em-nguoi-yeu-lop-12"
      }
    },
    {
      "id": "2499-channel",
      "name": "Tiếp xúc da thịt với em Trang",
      "description": "Tôi cũng không ngờ loại thuốc này tác dụng mạnh đến như vậy. Tôi rình bên cửa sổ thấy Trang bắt đầu có biểu hiện phê thuốc, mặt đỏ như say rượu, mắt đờ đẫn. Tay không...",
      "image": null,
      "label": null,
      "display": "text-only",
      "type": "text",
      "enable_detail": true,
      "related": {
        "url": "https://truyenx.link/truyensextv/channels/related/2499",
        "request_headers": []
      },
      "share": {
        "url": "https://truyenx.link/truyensextv/channels/share/tiep-xuc-da-thit-voi-em-trang"
      },
      "remote_data": {
        "url": "https://truyenx.link/truyensextv/channels/tiep-xuc-da-thit-voi-em-trang"
      }
    },
    {
      "id": "2498-channel",
      "name": "Phận hồng nhan",
      "description": "Út Thơm sửa soạn lại chiếc giường trúc, tài sản quý giá duy nhất trong căn nhà tranh vách đất này, căn nhà đã được chồng và anh em chị dựng nên được 2 năm nay, trước ngày tân...",
      "image": null,
      "label": null,
      "display": "text-only",
      "type": "text",
      "enable_detail": true,
      "related": {
        "url": "https://truyenx.link/truyensextv/channels/related/2498",
        "request_headers": []
      },
      "share": {
        "url": "https://truyenx.link/truyensextv/channels/share/phan-hong-nhan"
      },
      "remote_data": {
        "url": "https://truyenx.link/truyensextv/channels/phan-hong-nhan"
      }
    },
    {
      "id": "2497-channel",
      "name": "Tuổi dậy thì",
      "description": "Nói về kỷ niệm với phụ nữ mà đáng nhớ nhất chắc chắn phần lớn là nằm trong tuổi dậy thì. Em nghĩ xu hướng tình dục của mỗi người sẽ được định hình trong 2 giai...",
      "image": null,
      "label": null,
      "display": "text-only",
      "type": "text",
      "enable_detail": true,
      "related": {
        "url": "https://truyenx.link/truyensextv/channels/related/2497",
        "request_headers": []
      },
      "share": {
        "url": "https://truyenx.link/truyensextv/channels/share/tuoi-day-thi"
      },
      "remote_data": {
        "url": "https://truyenx.link/truyensextv/channels/tuoi-day-thi"
      }
    },
    {
      "id": "2496-channel",
      "name": "Mẹ tôi và gã hàng xóm",
      "description": "Tôi là một thiếu niên độ tuổi dậy thì có thói quen nghĩ đến mẹ mình khi thủ dâm, bởi vì mẹ tôi dù đã gần 40 nhưng body thì vẫn rất nuột nà vì mẹ tôi sở hữu vòng 3 căng...",
      "image": null,
      "label": null,
      "display": "text-only",
      "type": "text",
      "enable_detail": true,
      "related": {
        "url": "https://truyenx.link/truyensextv/channels/related/2496",
        "request_headers": []
      },
      "share": {
        "url": "https://truyenx.link/truyensextv/channels/share/me-toi-va-ga-hang-xom"
      },
      "remote_data": {
        "url": "https://truyenx.link/truyensextv/channels/me-toi-va-ga-hang-xom"
      }
    },
    {
      "id": "2495-channel",
      "name": "Điện thoại xinh",
      "description": "Gian nan tìm việc làm Sau khi ra trường, đang rất mông lung, hụt hẫng với tầm bằng khá , chưa biết làm gì, tôi lướt xe, đi lang thang, vô định giữa thành phố, chờ mong một tấm...",
      "image": null,
      "label": null,
      "display": "text-only",
      "type": "text",
      "enable_detail": true,
      "related": {
        "url": "https://truyenx.link/truyensextv/channels/related/2495",
        "request_headers": []
      },
      "share": {
        "url": "https://truyenx.link/truyensextv/channels/share/dien-thoai-xinh"
      },
      "remote_data": {
        "url": "https://truyenx.link/truyensextv/channels/dien-thoai-xinh"
      }
    },
    {
      "id": "2494-channel",
      "name": "Tấn trò đời",
      "description": "Chị họ lên ôn thi Câu chuyện của mình bắt đầu từ năm mình 7 tuổi, khi đó là năm 1997, hồi đó nhà mình có một bà chị họ lên ở nhờ ôn thi Đại học. Vì sau này không còn gặp...",
      "image": null,
      "label": null,
      "display": "text-only",
      "type": "text",
      "enable_detail": true,
      "related": {
        "url": "https://truyenx.link/truyensextv/channels/related/2494",
        "request_headers": []
      },
      "share": {
        "url": "https://truyenx.link/truyensextv/channels/share/tan-tro-doi"
      },
      "remote_data": {
        "url": "https://truyenx.link/truyensextv/channels/tan-tro-doi"
      }
    },
    {
      "id": "2493-channel",
      "name": "Sáng là mẹ tối là vợ",
      "description": "Chuyện này là do sự dâm loạn của tôi tạo ra nên tôi phải chấp nhận. Chuyện là như vầy... Tôi tên Đạt và vợ tên Hương lấy nhau khi mới 20t còn vợ 19t... Tôi và em quen nhau trên 1...",
      "image": null,
      "label": null,
      "display": "text-only",
      "type": "text",
      "enable_detail": true,
      "related": {
        "url": "https://truyenx.link/truyensextv/channels/related/2493",
        "request_headers": []
      },
      "share": {
        "url": "https://truyenx.link/truyensextv/channels/share/sang-la-me-toi-la-vo"
      },
      "remote_data": {
        "url": "https://truyenx.link/truyensextv/channels/sang-la-me-toi-la-vo"
      }
    },
    {
      "id": "2492-channel",
      "name": "Chị tôi và con chó",
      "description": "1 lần đi học về sớm tôi tình cờ tôi thấy con chó chạy ra từ phòng của chị nhưng đặt biệt là cặc nó lòi ra đỏ chét. Nhiều lần tôi thấy nên nghi ngờ nên quyết tâm cúp cua 1...",
      "image": null,
      "label": null,
      "display": "text-only",
      "type": "text",
      "enable_detail": true,
      "related": {
        "url": "https://truyenx.link/truyensextv/channels/related/2492",
        "request_headers": []
      },
      "share": {
        "url": "https://truyenx.link/truyensextv/channels/share/chi-toi-va-con-cho"
      },
      "remote_data": {
        "url": "https://truyenx.link/truyensextv/channels/chi-toi-va-con-cho"
      }
    },
    {
      "id": "2491-channel",
      "name": "Mẹ vợ tôi",
      "description": "Tôi là Cường, 28 tuổi có vợ và con 6 tháng tuổi! Mọi khi có bà vú nên vợ chồng tôi vẫn đi làm bình thường, hôm nay thứ 7 bà vú nghỉ nên phải đón mẹ vợ lên để trông cháu...",
      "image": null,
      "label": null,
      "display": "text-only",
      "type": "text",
      "enable_detail": true,
      "related": {
        "url": "https://truyenx.link/truyensextv/channels/related/2491",
        "request_headers": []
      },
      "share": {
        "url": "https://truyenx.link/truyensextv/channels/share/me-vo-toi"
      },
      "remote_data": {
        "url": "https://truyenx.link/truyensextv/channels/me-vo-toi"
      }
    },
    {
      "id": "2490-channel",
      "name": "Ngã ba đường",
      "description": "“T hai đứa mày làm gì đó, trời ơi! Trời ơi, tao coi mày như con ruột của tao mà mà, trời ơi là trời” “Má ơi! Má ơi má ơi” “Má xỉu rồi anh ơi, gọi xe cấp...",
      "image": null,
      "label": null,
      "display": "text-only",
      "type": "text",
      "enable_detail": true,
      "related": {
        "url": "https://truyenx.link/truyensextv/channels/related/2490",
        "request_headers": []
      },
      "share": {
        "url": "https://truyenx.link/truyensextv/channels/share/nga-ba-duong"
      },
      "remote_data": {
        "url": "https://truyenx.link/truyensextv/channels/nga-ba-duong"
      }
    },
    {
      "id": "2489-channel",
      "name": "Con đĩ Trúc",
      "description": "Phát triển tuổi con gái Hiiiii, tui tên là Thanh Trúc ạ. Không biết có bạn nữ nào giải phóng thú tính tình dục hết mức chưa nhỉ, chứ con gái chúng ta kìm nén vì cái gọi là nữ...",
      "image": null,
      "label": null,
      "display": "text-only",
      "type": "text",
      "enable_detail": true,
      "related": {
        "url": "https://truyenx.link/truyensextv/channels/related/2489",
        "request_headers": []
      },
      "share": {
        "url": "https://truyenx.link/truyensextv/channels/share/con-di-truc"
      },
      "remote_data": {
        "url": "https://truyenx.link/truyensextv/channels/con-di-truc"
      }
    },
    {
      "id": "2488-channel",
      "name": "Người chị tuyệt vời",
      "description": "Tôi sinh ra trong 1 gia đình khá giả ba mẹ có 1 tiệm bán tạp hóa kha khá trong chợ. Nên ba mẹ thường xuyên vắng nhà đi buôn hàng hóa. Hầu như ba đi suốt chỉ có mẹ trông coi tiệm...",
      "image": null,
      "label": null,
      "display": "text-only",
      "type": "text",
      "enable_detail": true,
      "related": {
        "url": "https://truyenx.link/truyensextv/channels/related/2488",
        "request_headers": []
      },
      "share": {
        "url": "https://truyenx.link/truyensextv/channels/share/nguoi-chi-tuyet-voi"
      },
      "remote_data": {
        "url": "https://truyenx.link/truyensextv/channels/nguoi-chi-tuyet-voi"
      }
    },
    {
      "id": "2487-channel",
      "name": "Thằng em dâm và người chị ngây thơ",
      "description": "Em là Nhung năm nay em 20 tuổi câu chuyện này diễn ra từ tháng trước. Em có 2 người em trai thằng tên Nam 18 tuổi, thằng tên Hiếu 19 tuổi, hai đứa em em vừa đẹp trai thăng hình căng...",
      "image": null,
      "label": null,
      "display": "text-only",
      "type": "text",
      "enable_detail": true,
      "related": {
        "url": "https://truyenx.link/truyensextv/channels/related/2487",
        "request_headers": []
      },
      "share": {
        "url": "https://truyenx.link/truyensextv/channels/share/thang-em-dam-va-nguoi-chi-ngay-tho"
      },
      "remote_data": {
        "url": "https://truyenx.link/truyensextv/channels/thang-em-dam-va-nguoi-chi-ngay-tho"
      }
    },
    {
      "id": "2486-channel",
      "name": "Dục vọng bất tận",
      "description": "“Ôi vãi lồn... à nhầm, vãi linh hồn” Tiếng nói bất chợt vang lên giữa một văn phòng làm việc ở một công ty thời trang mỹ phẩm. “Này có chuyện gì thế?” Đồng...",
      "image": null,
      "label": null,
      "display": "text-only",
      "type": "text",
      "enable_detail": true,
      "related": {
        "url": "https://truyenx.link/truyensextv/channels/related/2486",
        "request_headers": []
      },
      "share": {
        "url": "https://truyenx.link/truyensextv/channels/share/duc-vong-bat-tan"
      },
      "remote_data": {
        "url": "https://truyenx.link/truyensextv/channels/duc-vong-bat-tan"
      }
    }
  ],
  "load_more": {
    "pageInfo": {
      "current_page": 8,
      "last_page": 140,
      "per_page": 30,
      "total": 4188
    },
    "paging": {
      "page_key": "page",
      "size_key": "size"
    },
    "remote_data": {
      "url": "https://truyenx.link/truyensextv/channels"
    }
  }
}