{
  "grid_number": 1,
  "channels": [
    {
      "id": "3580-channel",
      "name": "Du lịch chịch gái mới quen",
      "description": "Dạo này thời tiết hơi oi nên rủ mấy anh em đồng nghiệp Thái Nguyên đi Hải Phòng chơi. Loanh quanh luẩn quẩn ăn uống ở Hải Dương thì cơn thèm pod nên phải tìm quán mua. Sau 1 hồi...",
      "image": null,
      "label": null,
      "display": "text-only",
      "type": "text",
      "enable_detail": true,
      "related": {
        "url": "https://truyenx.link/truyensextv/channels/related/3580",
        "request_headers": []
      },
      "share": {
        "url": "https://truyenx.link/truyensextv/channels/share/du-lich-chich-gai-moi-quen"
      },
      "remote_data": {
        "url": "https://truyenx.link/truyensextv/channels/du-lich-chich-gai-moi-quen"
      }
    },
    {
      "id": "3579-channel",
      "name": "Lan lỗ nhị",
      "description": "Chiều nay trong một cơn say, em được một ông bạn rủ đi check hàng TDH. Đưa cho ông bạn số em gái gọi hà nội Gia Trinh. Còn em thì tìm 1 em nào là lạ cho khác bọt. Tự nhiên thấy em...",
      "image": null,
      "label": null,
      "display": "text-only",
      "type": "text",
      "enable_detail": true,
      "related": {
        "url": "https://truyenx.link/truyensextv/channels/related/3579",
        "request_headers": []
      },
      "share": {
        "url": "https://truyenx.link/truyensextv/channels/share/lan-lo-nhi"
      },
      "remote_data": {
        "url": "https://truyenx.link/truyensextv/channels/lan-lo-nhi"
      }
    },
    {
      "id": "3578-channel",
      "name": "Cướp vợ ông hàng xóm",
      "description": "Bất ngờ có người yêu là vợ hàng xóm Xin chào các bạn. Hôm nay tôi xin kể cho các bạn nghe về câu chuyện là sự thật về sóng gió cuộc đời tôi. Tôi xin tự giới thiệu tôi tên...",
      "image": null,
      "label": null,
      "display": "text-only",
      "type": "text",
      "enable_detail": true,
      "related": {
        "url": "https://truyenx.link/truyensextv/channels/related/3578",
        "request_headers": []
      },
      "share": {
        "url": "https://truyenx.link/truyensextv/channels/share/cuop-vo-ong-hang-xom"
      },
      "remote_data": {
        "url": "https://truyenx.link/truyensextv/channels/cuop-vo-ong-hang-xom"
      }
    },
    {
      "id": "3576-channel",
      "name": "Chốn hoang lạc",
      "description": "Thằng Sơn bổ nhào từ chiếc xe Bus xuống thật nhanh, sáng nay Cô giáo bị ốm nên nó được nghỉ 2 giờ cuối và về nhà sớm hơn mọi ngày. Sơn Bước vào nhà khóa cửa lại và đi về...",
      "image": null,
      "label": null,
      "display": "text-only",
      "type": "text",
      "enable_detail": true,
      "related": {
        "url": "https://truyenx.link/truyensextv/channels/related/3576",
        "request_headers": []
      },
      "share": {
        "url": "https://truyenx.link/truyensextv/channels/share/chon-hoang-lac"
      },
      "remote_data": {
        "url": "https://truyenx.link/truyensextv/channels/chon-hoang-lac"
      }
    },
    {
      "id": "3577-channel",
      "name": "Chửa hoang",
      "description": "Hôm nay cũng như thường lệ, con Lệ tranh thủ thật sớm, vừa bán hết thúng đậu phộng thì trời cũng ngả về chiều. Con Lệ cầm xấp tiền bán được trong tay hí hửng về nhà trong...",
      "image": null,
      "label": null,
      "display": "text-only",
      "type": "text",
      "enable_detail": true,
      "related": {
        "url": "https://truyenx.link/truyensextv/channels/related/3577",
        "request_headers": []
      },
      "share": {
        "url": "https://truyenx.link/truyensextv/channels/share/chua-hoang"
      },
      "remote_data": {
        "url": "https://truyenx.link/truyensextv/channels/chua-hoang"
      }
    },
    {
      "id": "3575-channel",
      "name": "Cha nuôi, anh nuôi và em gái",
      "description": "Gia đình của tôi gặp một cuộc sóng gió mà không gia đình nào muốn nó xảy ra... Một không khí thật im lặng trong một cuộc xử tội ba nuôi của tôi tại một tòa án Family Court, Phiên...",
      "image": null,
      "label": null,
      "display": "text-only",
      "type": "text",
      "enable_detail": true,
      "related": {
        "url": "https://truyenx.link/truyensextv/channels/related/3575",
        "request_headers": []
      },
      "share": {
        "url": "https://truyenx.link/truyensextv/channels/share/cha-nuoi-anh-nuoi-va-em-gai"
      },
      "remote_data": {
        "url": "https://truyenx.link/truyensextv/channels/cha-nuoi-anh-nuoi-va-em-gai"
      }
    },
    {
      "id": "3574-channel",
      "name": "Tiết học sảng khoái",
      "description": "Hạnh bước vào lớp với bộ váy ngắn, không dây. Nhìn trông giống váy ngủ. Hạnh phụ trách một lớp học khá đặc biệt với 10 nam. Hôm nay là tiết tự học, nhưng cô lại vào lớp...",
      "image": null,
      "label": null,
      "display": "text-only",
      "type": "text",
      "enable_detail": true,
      "related": {
        "url": "https://truyenx.link/truyensextv/channels/related/3574",
        "request_headers": []
      },
      "share": {
        "url": "https://truyenx.link/truyensextv/channels/share/tiet-hoc-sang-khoai"
      },
      "remote_data": {
        "url": "https://truyenx.link/truyensextv/channels/tiet-hoc-sang-khoai"
      }
    },
    {
      "id": "3573-channel",
      "name": "Chị tôi",
      "description": "Hai chị em tôi mồ côi cha từ nhỏ, chúng tôi được mẹ nuôi lớn. Năm tôi lên 14 tuổi thì má cũng mất để lại hai chị em tôi đùm bọc lẫn nhau trong thế giới vô cùng phức tạp và...",
      "image": null,
      "label": null,
      "display": "text-only",
      "type": "text",
      "enable_detail": true,
      "related": {
        "url": "https://truyenx.link/truyensextv/channels/related/3573",
        "request_headers": []
      },
      "share": {
        "url": "https://truyenx.link/truyensextv/channels/share/chi-toi"
      },
      "remote_data": {
        "url": "https://truyenx.link/truyensextv/channels/chi-toi"
      }
    },
    {
      "id": "3572-channel",
      "name": "Căn nhà tội lỗi",
      "description": "Cường là một thanh niên khá đẹp trai ở độ tuổi 30, thân thể tráng kiện nhờ tập thể dục đều đặn mỗi buổi sáng và tham gia câu lạc bộ thể hình. Đặc biệt là “thằng...",
      "image": null,
      "label": null,
      "display": "text-only",
      "type": "text",
      "enable_detail": true,
      "related": {
        "url": "https://truyenx.link/truyensextv/channels/related/3572",
        "request_headers": []
      },
      "share": {
        "url": "https://truyenx.link/truyensextv/channels/share/can-nha-toi-loi"
      },
      "remote_data": {
        "url": "https://truyenx.link/truyensextv/channels/can-nha-toi-loi"
      }
    },
    {
      "id": "3571-channel",
      "name": "Gạ tình cô giáo Hân",
      "description": "Xin chào mọi người tôi tên Long năm nay 24 tuổi hiện tại đang là giáo viên của một trường cấp 2 trong thành phố, câu chuyện tôi kể sắp tới đây bắt nguồn vào năm 2023 lúc tôi...",
      "image": null,
      "label": null,
      "display": "text-only",
      "type": "text",
      "enable_detail": true,
      "related": {
        "url": "https://truyenx.link/truyensextv/channels/related/3571",
        "request_headers": []
      },
      "share": {
        "url": "https://truyenx.link/truyensextv/channels/share/ga-tinh-co-giao-han"
      },
      "remote_data": {
        "url": "https://truyenx.link/truyensextv/channels/ga-tinh-co-giao-han"
      }
    },
    {
      "id": "3570-channel",
      "name": "Vợ và anh thợ hồ nhà hàng xóm",
      "description": "Cũng đã bắt đầu mùa mưa, mọi người đều đua nhau xây nhà để kết cấu nhà vững chắc. Đối diện xéo nhà mình là nhà anh Quang, nay nhà anh Quang bắt đầu khởi công sửa chữa, có...",
      "image": null,
      "label": null,
      "display": "text-only",
      "type": "text",
      "enable_detail": true,
      "related": {
        "url": "https://truyenx.link/truyensextv/channels/related/3570",
        "request_headers": []
      },
      "share": {
        "url": "https://truyenx.link/truyensextv/channels/share/vo-va-anh-tho-ho-nha-hang-xom"
      },
      "remote_data": {
        "url": "https://truyenx.link/truyensextv/channels/vo-va-anh-tho-ho-nha-hang-xom"
      }
    },
    {
      "id": "3569-channel",
      "name": "Cái số của bà",
      "description": "Người ta đồn chừng Mỹ Hoa giống cha, vì cô với mẹ, bà Mỹ Trinh, khác hẳn nhau. Cô Hoa năm nay hăm bốn vừa ra trường Dược, cái tuổi đáng lẽ là nảy nở như hoa xuân trong nắng...",
      "image": null,
      "label": null,
      "display": "text-only",
      "type": "text",
      "enable_detail": true,
      "related": {
        "url": "https://truyenx.link/truyensextv/channels/related/3569",
        "request_headers": []
      },
      "share": {
        "url": "https://truyenx.link/truyensextv/channels/share/cai-so-cua-ba"
      },
      "remote_data": {
        "url": "https://truyenx.link/truyensextv/channels/cai-so-cua-ba"
      }
    },
    {
      "id": "3568-channel",
      "name": "Cô vợ ngoan hiền của tôi",
      "description": "Hôm nay ngày đẹp trời. Long tâm trạng cực kỳ vui vẻ. Long làm công việc văn phòng quen thuộc. Công việc khá nhàn mà lương cao. Long dựa lưng ra ghế sau khi gửi báo cáo cho sếp. Công...",
      "image": null,
      "label": null,
      "display": "text-only",
      "type": "text",
      "enable_detail": true,
      "related": {
        "url": "https://truyenx.link/truyensextv/channels/related/3568",
        "request_headers": []
      },
      "share": {
        "url": "https://truyenx.link/truyensextv/channels/share/co-vo-ngoan-hien-cua-toi"
      },
      "remote_data": {
        "url": "https://truyenx.link/truyensextv/channels/co-vo-ngoan-hien-cua-toi"
      }
    },
    {
      "id": "3567-channel",
      "name": "Bên bờ hồ Washington",
      "description": "Chiều nay July 4, Tôi cùng đi với người vợ sắp cưới của Tôi, Paula, ra hồ Washington chơi để tối nay xem đốt pháo bông. Tuy nhiên, Tôi dự định rằng nếu hoàn cảnh thuận tiện...",
      "image": null,
      "label": null,
      "display": "text-only",
      "type": "text",
      "enable_detail": true,
      "related": {
        "url": "https://truyenx.link/truyensextv/channels/related/3567",
        "request_headers": []
      },
      "share": {
        "url": "https://truyenx.link/truyensextv/channels/share/ben-bo-ho-washington"
      },
      "remote_data": {
        "url": "https://truyenx.link/truyensextv/channels/ben-bo-ho-washington"
      }
    },
    {
      "id": "3566-channel",
      "name": "Hệ thống tình dục",
      "description": "“Tích, đã trói định Hệ Thống Cải Tạo, kiểm tra đo lường các chỉ số của ký chủ, kết hợp với tâm nguyện của Ký chủ, hệ thống lựa chọn loại “Hệ Thống Cải...",
      "image": null,
      "label": null,
      "display": "text-only",
      "type": "text",
      "enable_detail": true,
      "related": {
        "url": "https://truyenx.link/truyensextv/channels/related/3566",
        "request_headers": []
      },
      "share": {
        "url": "https://truyenx.link/truyensextv/channels/share/he-thong-tinh-duc"
      },
      "remote_data": {
        "url": "https://truyenx.link/truyensextv/channels/he-thong-tinh-duc"
      }
    },
    {
      "id": "3564-channel",
      "name": "Bé Ti",
      "description": "Suýt tí nữa thì tôi hụt chân ở mấy bậc cầu thang. Tôi vô tình bắt gặp Anh Hai đang hôn bạn gái. Ghê quá! Tôi run lên, hai lỗ tai nóng ran. Không biết làm thế nào trong tình cảnh...",
      "image": null,
      "label": null,
      "display": "text-only",
      "type": "text",
      "enable_detail": true,
      "related": {
        "url": "https://truyenx.link/truyensextv/channels/related/3564",
        "request_headers": []
      },
      "share": {
        "url": "https://truyenx.link/truyensextv/channels/share/be-ti"
      },
      "remote_data": {
        "url": "https://truyenx.link/truyensextv/channels/be-ti"
      }
    },
    {
      "id": "3565-channel",
      "name": "Đụ chị họ",
      "description": "Đầu mùa hè oi ả, cha mẹ và em gái tôi cùng ra Hà Nội để đi thăm anh trai tôi đang học ngoài đó, vì tôi là học sinh cuối cấp 2 nên phải ở nhà để ôn thi chuyển cấp. Để cho an...",
      "image": null,
      "label": null,
      "display": "text-only",
      "type": "text",
      "enable_detail": true,
      "related": {
        "url": "https://truyenx.link/truyensextv/channels/related/3565",
        "request_headers": []
      },
      "share": {
        "url": "https://truyenx.link/truyensextv/channels/share/du-chi-ho"
      },
      "remote_data": {
        "url": "https://truyenx.link/truyensextv/channels/du-chi-ho"
      }
    },
    {
      "id": "3563-channel",
      "name": "[Truyện sex gay] Giấc mơ đầu năm",
      "description": "Dắt vội xe vào nhà, Sơn chay ngay lên phòng và đóng cửa. Đã 3 giờ sáng. Mọi ngày vào giờ này thì Sơn đã ngủ từ lâu rồi. Nhưng nay lại khác. Sơn cùng các bạn vừa đi đón giao...",
      "image": null,
      "label": null,
      "display": "text-only",
      "type": "text",
      "enable_detail": true,
      "related": {
        "url": "https://truyenx.link/truyensextv/channels/related/3563",
        "request_headers": []
      },
      "share": {
        "url": "https://truyenx.link/truyensextv/channels/share/truyen-sex-gay-giac-mo-dau-nam"
      },
      "remote_data": {
        "url": "https://truyenx.link/truyensextv/channels/truyen-sex-gay-giac-mo-dau-nam"
      }
    },
    {
      "id": "3562-channel",
      "name": "Ba mẹ con",
      "description": "Từ ngày Hùng chết, Nguyệt sống ở vậy với 2 đứa con trai lớn Dũng và Cường cũng đã hơn 2 năm. Dũng thì là con ruột của Hùng với Nguyệt năm nay cũng 26 tuổi tướng tá cũng vạm...",
      "image": null,
      "label": null,
      "display": "text-only",
      "type": "text",
      "enable_detail": true,
      "related": {
        "url": "https://truyenx.link/truyensextv/channels/related/3562",
        "request_headers": []
      },
      "share": {
        "url": "https://truyenx.link/truyensextv/channels/share/ba-me-con"
      },
      "remote_data": {
        "url": "https://truyenx.link/truyensextv/channels/ba-me-con"
      }
    },
    {
      "id": "3561-channel",
      "name": "Anh rể tôi",
      "description": "Tôi dọn đến thành phố Phoenix ở chung với chị Hằng và anh Sơn lúc tôi vừa ra trường đại học. Chị Hằng là chị thứ tư và anh Sơn là chồng của chị. Nghe anh Sơn nói ở thành...",
      "image": null,
      "label": null,
      "display": "text-only",
      "type": "text",
      "enable_detail": true,
      "related": {
        "url": "https://truyenx.link/truyensextv/channels/related/3561",
        "request_headers": []
      },
      "share": {
        "url": "https://truyenx.link/truyensextv/channels/share/anh-re-toi"
      },
      "remote_data": {
        "url": "https://truyenx.link/truyensextv/channels/anh-re-toi"
      }
    },
    {
      "id": "3560-channel",
      "name": "Amy",
      "description": "Vào một sớm mùa hè, khi con nắng vừa chấm ngang màn cửa sổ, xuyên qua những đường kẻ chiếu thẳng vào mặt tôi. Tôi vươn vai và hít một hơi thật dài để thưởng thức cái không...",
      "image": null,
      "label": null,
      "display": "text-only",
      "type": "text",
      "enable_detail": true,
      "related": {
        "url": "https://truyenx.link/truyensextv/channels/related/3560",
        "request_headers": []
      },
      "share": {
        "url": "https://truyenx.link/truyensextv/channels/share/amy"
      },
      "remote_data": {
        "url": "https://truyenx.link/truyensextv/channels/amy"
      }
    },
    {
      "id": "3559-channel",
      "name": "Chuyến đi biển của người mẹ",
      "description": "Giàu là một người phụ nữ đã ngoài 40 đã có chồng và con trai năm nay đã 18. Tuy đã có tuổi nhưng Giàu vẫn mang 1 nét đẹp mặn mà của gái 1 con. Năm nay con trai của Giàu và chồng...",
      "image": null,
      "label": null,
      "display": "text-only",
      "type": "text",
      "enable_detail": true,
      "related": {
        "url": "https://truyenx.link/truyensextv/channels/related/3559",
        "request_headers": []
      },
      "share": {
        "url": "https://truyenx.link/truyensextv/channels/share/chuyen-di-bien-cua-nguoi-me"
      },
      "remote_data": {
        "url": "https://truyenx.link/truyensextv/channels/chuyen-di-bien-cua-nguoi-me"
      }
    },
    {
      "id": "3558-channel",
      "name": "Cô bạn lớp bên",
      "description": "Truyện nói đến ham muốn thú tính hàng ngày của tôi và hành trình may mắn hiếm có khi được đánh chén người mà tôi luôn thèm khát khi đi học mỗi ngày chính là cô bạn lớp bên...",
      "image": null,
      "label": null,
      "display": "text-only",
      "type": "text",
      "enable_detail": true,
      "related": {
        "url": "https://truyenx.link/truyensextv/channels/related/3558",
        "request_headers": []
      },
      "share": {
        "url": "https://truyenx.link/truyensextv/channels/share/co-ban-lop-ben"
      },
      "remote_data": {
        "url": "https://truyenx.link/truyensextv/channels/co-ban-lop-ben"
      }
    },
    {
      "id": "3557-channel",
      "name": "Cô bạn nấm lùn",
      "description": "Cuộc đời thật tươi đẹp biết bao khi đi học là một phần trong thanh xuân của mình. Đúng vậy, thời học sinh của đời người rất là đẹp đẽ, nhất là thời cấp ba. Tôi không...",
      "image": null,
      "label": null,
      "display": "text-only",
      "type": "text",
      "enable_detail": true,
      "related": {
        "url": "https://truyenx.link/truyensextv/channels/related/3557",
        "request_headers": []
      },
      "share": {
        "url": "https://truyenx.link/truyensextv/channels/share/co-ban-nam-lun"
      },
      "remote_data": {
        "url": "https://truyenx.link/truyensextv/channels/co-ban-nam-lun"
      }
    },
    {
      "id": "3556-channel",
      "name": "Vợ và anh thợ lát gạch nhà",
      "description": "Hai vợ chồng mình mới cưới được hơn 1 năm, vợ thì trước giờ có sở thích là ở truồng mọi lúc trong nhà, kể cả khi nhà chưa đóng cửa hết, có vẻ như trong cái xóm nhỏ này...",
      "image": null,
      "label": null,
      "display": "text-only",
      "type": "text",
      "enable_detail": true,
      "related": {
        "url": "https://truyenx.link/truyensextv/channels/related/3556",
        "request_headers": []
      },
      "share": {
        "url": "https://truyenx.link/truyensextv/channels/share/vo-va-anh-tho-lat-gach-nha"
      },
      "remote_data": {
        "url": "https://truyenx.link/truyensextv/channels/vo-va-anh-tho-lat-gach-nha"
      }
    },
    {
      "id": "3555-channel",
      "name": "Tình học trò",
      "description": "Trời đang về chiều, trên trời từng đám mây đang dần dần chuyển sang màu hồng. Mặt trời đang cố núp mình sau những đám mây to, nhường sự tung hoành cho những cơn gió từ biển...",
      "image": null,
      "label": null,
      "display": "text-only",
      "type": "text",
      "enable_detail": true,
      "related": {
        "url": "https://truyenx.link/truyensextv/channels/related/3555",
        "request_headers": []
      },
      "share": {
        "url": "https://truyenx.link/truyensextv/channels/share/tinh-hoc-tro"
      },
      "remote_data": {
        "url": "https://truyenx.link/truyensextv/channels/tinh-hoc-tro"
      }
    },
    {
      "id": "3554-channel",
      "name": "Phận má hồng",
      "description": "Thế là tôi đã làm việc cho ông bà chủ được 3 năm rồi. Công việc thật ra cũng nhẹ nhàng, sáng dậy thì dọn dẹp nhà cửa và giặt đồ, sau đó đi chợ nấu cơm, chiều lại dọn...",
      "image": null,
      "label": null,
      "display": "text-only",
      "type": "text",
      "enable_detail": true,
      "related": {
        "url": "https://truyenx.link/truyensextv/channels/related/3554",
        "request_headers": []
      },
      "share": {
        "url": "https://truyenx.link/truyensextv/channels/share/phan-ma-hong"
      },
      "remote_data": {
        "url": "https://truyenx.link/truyensextv/channels/phan-ma-hong"
      }
    },
    {
      "id": "3553-channel",
      "name": "Song kiếm hợp bích",
      "description": "Bình minh vừa ló dạng để bắt đầu một ngày thứ bảy tuyệt đẹp. Mặt trời trải dài qua cửa sổ, và Tả Lãnh Khương uể oải chẳng muốn chui ra khỏi giường. Sư phụ nằm kế...",
      "image": null,
      "label": null,
      "display": "text-only",
      "type": "text",
      "enable_detail": true,
      "related": {
        "url": "https://truyenx.link/truyensextv/channels/related/3553",
        "request_headers": []
      },
      "share": {
        "url": "https://truyenx.link/truyensextv/channels/share/song-kiem-hop-bich"
      },
      "remote_data": {
        "url": "https://truyenx.link/truyensextv/channels/song-kiem-hop-bich"
      }
    },
    {
      "id": "3552-channel",
      "name": "Đổi người yêu với cu em khi đi du lịch",
      "description": "Tôi là Phong năm nay 27t tôi có chơi thân với 1 thằng cu em gần nhà Người yêu tôi thì cao 1m60 theo anh em hay gọi là nuột vú to tròn vừa tay, mông to được đôi chân trắng, khuôn mặt dễ...",
      "image": null,
      "label": null,
      "display": "text-only",
      "type": "text",
      "enable_detail": true,
      "related": {
        "url": "https://truyenx.link/truyensextv/channels/related/3552",
        "request_headers": []
      },
      "share": {
        "url": "https://truyenx.link/truyensextv/channels/share/doi-nguoi-yeu-voi-cu-em-khi-di-du-lich"
      },
      "remote_data": {
        "url": "https://truyenx.link/truyensextv/channels/doi-nguoi-yeu-voi-cu-em-khi-di-du-lich"
      }
    },
    {
      "id": "3551-channel",
      "name": "Quỳnh Hoa",
      "description": "Quỳnh Hoa là một nàng con gái đẹp. Nàng đã được công nhận là hoa khôi của lớp 12A8 mà không phải trải qua một cuộc thi nào. Đôi mắt tròn xoe và đen láy của Quỳnh Hoa đã làm cho...",
      "image": null,
      "label": null,
      "display": "text-only",
      "type": "text",
      "enable_detail": true,
      "related": {
        "url": "https://truyenx.link/truyensextv/channels/related/3551",
        "request_headers": []
      },
      "share": {
        "url": "https://truyenx.link/truyensextv/channels/share/quynh-hoa"
      },
      "remote_data": {
        "url": "https://truyenx.link/truyensextv/channels/quynh-hoa"
      }
    }
  ],
  "load_more": {
    "pageInfo": {
      "current_page": 41,
      "last_page": 140,
      "per_page": 30,
      "total": 4188
    },
    "paging": {
      "page_key": "page",
      "size_key": "size"
    },
    "remote_data": {
      "url": "https://truyenx.link/truyensextv/channels"
    }
  }
}