{
  "grid_number": 1,
  "channels": [
    {
      "id": "2425-channel",
      "name": "Heo nái",
      "description": "Nó năm nay 25 tuổi, cao hơn 1m8, thân hình vạm vỡ rắn rỏi vì chăm tập luyện hàng ngày. Không giống như lũ bạn cùng trang lứa ở lại thành phố lớn kiếm công ăn việc làm. Nó tránh...",
      "image": null,
      "label": null,
      "display": "text-only",
      "type": "text",
      "enable_detail": true,
      "related": {
        "url": "https://truyenx.link/truyensextv/channels/related/2425",
        "request_headers": []
      },
      "share": {
        "url": "https://truyenx.link/truyensextv/channels/share/heo-nai"
      },
      "remote_data": {
        "url": "https://truyenx.link/truyensextv/channels/heo-nai"
      }
    },
    {
      "id": "2424-channel",
      "name": "Bạn của chị",
      "description": "Chuyện này xảy ra cũng lâu rồi... lúc ấy mình cũng là một thằng sinh viên như bao sinh viên khác... củng xuống thành phố đi học... củng được ở nhà trọ... sinh hoạt tập thể...",
      "image": null,
      "label": null,
      "display": "text-only",
      "type": "text",
      "enable_detail": true,
      "related": {
        "url": "https://truyenx.link/truyensextv/channels/related/2424",
        "request_headers": []
      },
      "share": {
        "url": "https://truyenx.link/truyensextv/channels/share/ban-cua-chi"
      },
      "remote_data": {
        "url": "https://truyenx.link/truyensextv/channels/ban-cua-chi"
      }
    },
    {
      "id": "2423-channel",
      "name": "Ép nô lệ ăn cứt",
      "description": "Lại một ngày đầu tuần... Ngày nghỉ trôi qua thật nhanh. Hạnh lại mang cái tâm trạng uể oải của mình đến công ty. Cũng bình thường thôi. Đầu tuần, rồi sẽ lại phải đối...",
      "image": null,
      "label": null,
      "display": "text-only",
      "type": "text",
      "enable_detail": true,
      "related": {
        "url": "https://truyenx.link/truyensextv/channels/related/2423",
        "request_headers": []
      },
      "share": {
        "url": "https://truyenx.link/truyensextv/channels/share/ep-no-le-an-cut"
      },
      "remote_data": {
        "url": "https://truyenx.link/truyensextv/channels/ep-no-le-an-cut"
      }
    },
    {
      "id": "2422-channel",
      "name": "Chuyện tình sinh viên ở trọ",
      "description": "Tình hình dịch bệnh đang phát triển mạnh, vì lên thành phố học nên Phong không thể về quê được đành phải ở trọ trên thành phố và nhận cứu trợ từ gia đình. Kế phòng Phong...",
      "image": null,
      "label": null,
      "display": "text-only",
      "type": "text",
      "enable_detail": true,
      "related": {
        "url": "https://truyenx.link/truyensextv/channels/related/2422",
        "request_headers": []
      },
      "share": {
        "url": "https://truyenx.link/truyensextv/channels/share/chuyen-tinh-sinh-vien-o-tro"
      },
      "remote_data": {
        "url": "https://truyenx.link/truyensextv/channels/chuyen-tinh-sinh-vien-o-tro"
      }
    },
    {
      "id": "2421-channel",
      "name": "Vợ dâm lăng loàn với hiệu trưởng",
      "description": "Tôi 38 tuổi, vợ tôi 35 tuổi tên Ngọc Ly, chúng tôi cưới nhau được 12 năm. Vợ tôi sinh ra trong một gia đình nghèo, rất hiền lành và lối sống nghiêm túc. Sau khi tốt nghiệp CĐSP...",
      "image": null,
      "label": null,
      "display": "text-only",
      "type": "text",
      "enable_detail": true,
      "related": {
        "url": "https://truyenx.link/truyensextv/channels/related/2421",
        "request_headers": []
      },
      "share": {
        "url": "https://truyenx.link/truyensextv/channels/share/vo-dam-lang-loan-voi-hieu-truong"
      },
      "remote_data": {
        "url": "https://truyenx.link/truyensextv/channels/vo-dam-lang-loan-voi-hieu-truong"
      }
    },
    {
      "id": "2420-channel",
      "name": "Đánh thức tình thu",
      "description": "Tôi là Khải Phong, năm nay 17 tuổi, cái tuổi mà người ta hay nói “17 bẻ gãy sừng trâu”, nhưng khi tôi nhìn thấy một con trâu đực lực lưỡng, với cặp sừng đen dài, nhọn...",
      "image": null,
      "label": null,
      "display": "text-only",
      "type": "text",
      "enable_detail": true,
      "related": {
        "url": "https://truyenx.link/truyensextv/channels/related/2420",
        "request_headers": []
      },
      "share": {
        "url": "https://truyenx.link/truyensextv/channels/share/danh-thuc-tinh-thu"
      },
      "remote_data": {
        "url": "https://truyenx.link/truyensextv/channels/danh-thuc-tinh-thu"
      }
    },
    {
      "id": "2419-channel",
      "name": "Chuyến du lịch khó quên",
      "description": "Mùa hè năm ngoái tôi và hai người bạn nữ có chuyến đi cắm trại ngoài đảo cùng nhau. Vì 3 đứa tôi chơi rất thân từ khi còn đi học cho đến bây giờ nên rất cởi mở với nhau...",
      "image": null,
      "label": null,
      "display": "text-only",
      "type": "text",
      "enable_detail": true,
      "related": {
        "url": "https://truyenx.link/truyensextv/channels/related/2419",
        "request_headers": []
      },
      "share": {
        "url": "https://truyenx.link/truyensextv/channels/share/chuyen-du-lich-kho-quen"
      },
      "remote_data": {
        "url": "https://truyenx.link/truyensextv/channels/chuyen-du-lich-kho-quen"
      }
    },
    {
      "id": "2418-channel",
      "name": "Khoái cảm khi nhìn mẹ quyến rũ người khác",
      "description": "Tôi đang nhìn cảnh mẹ tôi bú cu cho tôi từ trên xuống thật là gợi dục làm sao. Tôi và mẹ bắt đầu mối quan hệ này từ lúc tôi nhận thấy được vẻ đẹp của mẹ. Mẹ tôi là...",
      "image": null,
      "label": null,
      "display": "text-only",
      "type": "text",
      "enable_detail": true,
      "related": {
        "url": "https://truyenx.link/truyensextv/channels/related/2418",
        "request_headers": []
      },
      "share": {
        "url": "https://truyenx.link/truyensextv/channels/share/khoai-cam-khi-nhin-me-quyen-ru-nguoi-khac"
      },
      "remote_data": {
        "url": "https://truyenx.link/truyensextv/channels/khoai-cam-khi-nhin-me-quyen-ru-nguoi-khac"
      }
    },
    {
      "id": "2417-channel",
      "name": "Chuyện người mẹ hoang dâm",
      "description": "Tôi sinh ra và lớn lên tại một thị trấn khá sầm uất tại tỉnh vĩnh phúc, gia đình tôi hiện tại có 2 người tôi và mẹ tôi. Bố tôi đã mất từ lúc tôi mới học lớp 9 do một...",
      "image": null,
      "label": null,
      "display": "text-only",
      "type": "text",
      "enable_detail": true,
      "related": {
        "url": "https://truyenx.link/truyensextv/channels/related/2417",
        "request_headers": []
      },
      "share": {
        "url": "https://truyenx.link/truyensextv/channels/share/chuyen-nguoi-me-hoang-dam"
      },
      "remote_data": {
        "url": "https://truyenx.link/truyensextv/channels/chuyen-nguoi-me-hoang-dam"
      }
    },
    {
      "id": "2416-channel",
      "name": "Em Ly bị sờ lồn",
      "description": "Mình và Hà bạn gái mình quen nhau được khoảng 1 năm thì bỗng một hôm như thường lệ vào mỗi buổi trưa mình lại đón bạn gái sau giờ học thì thấy đi cùng Hà là 1 cô bé nhìn khá...",
      "image": null,
      "label": null,
      "display": "text-only",
      "type": "text",
      "enable_detail": true,
      "related": {
        "url": "https://truyenx.link/truyensextv/channels/related/2416",
        "request_headers": []
      },
      "share": {
        "url": "https://truyenx.link/truyensextv/channels/share/em-ly-bi-so-lon"
      },
      "remote_data": {
        "url": "https://truyenx.link/truyensextv/channels/em-ly-bi-so-lon"
      }
    },
    {
      "id": "2415-channel",
      "name": "Vợ cũ bị ông bạn địt",
      "description": "Chuyện của mình thì buồn nhưng dẫu sao qua lá đơn ly hôn giờ đã thành người lạ. Chuyện xảy ra cũng gần 6 tháng rồi vợ chồng mình ly hôn gần hai năm. Nên ảnh trong zalo và facebook...",
      "image": null,
      "label": null,
      "display": "text-only",
      "type": "text",
      "enable_detail": true,
      "related": {
        "url": "https://truyenx.link/truyensextv/channels/related/2415",
        "request_headers": []
      },
      "share": {
        "url": "https://truyenx.link/truyensextv/channels/share/vo-cu-bi-ong-ban-dit"
      },
      "remote_data": {
        "url": "https://truyenx.link/truyensextv/channels/vo-cu-bi-ong-ban-dit"
      }
    },
    {
      "id": "2414-channel",
      "name": "Truyện sex les thuần",
      "description": "Vy sinh ra trong một gia đình giàu có. Học xong thạc sĩ quản trị kinh doanh, cô bắt đầu nối nghiệp cha, thừa hưởng điều hành một công ty cung cấp mỹ phẩm nhỏ khoảng 2 chục nhân...",
      "image": null,
      "label": null,
      "display": "text-only",
      "type": "text",
      "enable_detail": true,
      "related": {
        "url": "https://truyenx.link/truyensextv/channels/related/2414",
        "request_headers": []
      },
      "share": {
        "url": "https://truyenx.link/truyensextv/channels/share/truyen-sex-les-thuan"
      },
      "remote_data": {
        "url": "https://truyenx.link/truyensextv/channels/truyen-sex-les-thuan"
      }
    },
    {
      "id": "2413-channel",
      "name": "Bà Năm hàng xóm",
      "description": "Dốc lòng trồng hoa, hoa không nở... Vô tình cắm liễu, liễu xum xuê... Số là gần nhà mình có một bà cô già, năm nay cũng 52t rồi, đó giờ không bồ bịch chồng con gì, mình cũng đã...",
      "image": null,
      "label": null,
      "display": "text-only",
      "type": "text",
      "enable_detail": true,
      "related": {
        "url": "https://truyenx.link/truyensextv/channels/related/2413",
        "request_headers": []
      },
      "share": {
        "url": "https://truyenx.link/truyensextv/channels/share/ba-nam-hang-xom"
      },
      "remote_data": {
        "url": "https://truyenx.link/truyensextv/channels/ba-nam-hang-xom"
      }
    },
    {
      "id": "2412-channel",
      "name": "Chịch em gái một con",
      "description": "Đợt tết vừa rồi vô tình chịch được em này gái một con . Tết năm nào xóm mình cũng đánh tài xỉu từ trước tết đông và đánh cũng tương đối lớn. Tối mùng 2 tết cũng tầm...",
      "image": null,
      "label": null,
      "display": "text-only",
      "type": "text",
      "enable_detail": true,
      "related": {
        "url": "https://truyenx.link/truyensextv/channels/related/2412",
        "request_headers": []
      },
      "share": {
        "url": "https://truyenx.link/truyensextv/channels/share/chich-em-gai-mot-con"
      },
      "remote_data": {
        "url": "https://truyenx.link/truyensextv/channels/chich-em-gai-mot-con"
      }
    },
    {
      "id": "2411-channel",
      "name": "Cậu chủ nhỏ",
      "description": "Câu chuyện là vào hôm ấy gia đình tôi đi về quê và tôi thì chọn ở lại để trông coi cửa hàng. Đến tối hôm ấy khi dọn cửa hàng thì tôi có ngỏ ý với chị nhân viên là đi ăn...",
      "image": null,
      "label": null,
      "display": "text-only",
      "type": "text",
      "enable_detail": true,
      "related": {
        "url": "https://truyenx.link/truyensextv/channels/related/2411",
        "request_headers": []
      },
      "share": {
        "url": "https://truyenx.link/truyensextv/channels/share/cau-chu-nho"
      },
      "remote_data": {
        "url": "https://truyenx.link/truyensextv/channels/cau-chu-nho"
      }
    },
    {
      "id": "2410-channel",
      "name": "Chị chủ quán cà phê",
      "description": "Ở quê em có quen máy bay này. Hai vợ chồng cũng có số má. Em thì dân thư sinh nhát gan lắm. Cơ mà hôm đó vào mùa mưa, trời mưa to tầm tã luôn, chị có rủ vào quán cà phê của chị...",
      "image": null,
      "label": null,
      "display": "text-only",
      "type": "text",
      "enable_detail": true,
      "related": {
        "url": "https://truyenx.link/truyensextv/channels/related/2410",
        "request_headers": []
      },
      "share": {
        "url": "https://truyenx.link/truyensextv/channels/share/chi-chu-quan-ca-phe"
      },
      "remote_data": {
        "url": "https://truyenx.link/truyensextv/channels/chi-chu-quan-ca-phe"
      }
    },
    {
      "id": "2409-channel",
      "name": "Thằng nhóc",
      "description": "Trần Thành Tâm. Đây là tên gọi của 1 thằng nhóc gầy gò ốm yếu. Nói về hơn 10 năm trước, nó và cha đã lưu lạc tới vùng đất này nơi gọi là Củ Chi. Năm đó nó mới 4 tuổi. 2...",
      "image": null,
      "label": null,
      "display": "text-only",
      "type": "text",
      "enable_detail": true,
      "related": {
        "url": "https://truyenx.link/truyensextv/channels/related/2409",
        "request_headers": []
      },
      "share": {
        "url": "https://truyenx.link/truyensextv/channels/share/thang-nhoc"
      },
      "remote_data": {
        "url": "https://truyenx.link/truyensextv/channels/thang-nhoc"
      }
    },
    {
      "id": "2408-channel",
      "name": "Loạn luân với cô ruột",
      "description": "Cô là y tá, hay đi trực, năm đó có 1 con rồi, Chồng là bộ đội, đóng quân ở cách nhà 300 km, tuần về tuần không... Năm đó m mới lớp 10, nhà cô ở gần trường mình học lên hay...",
      "image": null,
      "label": null,
      "display": "text-only",
      "type": "text",
      "enable_detail": true,
      "related": {
        "url": "https://truyenx.link/truyensextv/channels/related/2408",
        "request_headers": []
      },
      "share": {
        "url": "https://truyenx.link/truyensextv/channels/share/loan-luan-voi-co-ruot"
      },
      "remote_data": {
        "url": "https://truyenx.link/truyensextv/channels/loan-luan-voi-co-ruot"
      }
    },
    {
      "id": "2407-channel",
      "name": "Con và mẹ là con đĩ và bồn chứa tinh của bố và anh hai",
      "description": "“Ơ... ưmmm... á... đụ... em... nát... lồn... đi” tiếng rên ưm ửm từ phòng bên cạnh làm cho Minh không ngủ được. Minh lén bật dậy chạy qua coi. Thì thấy mẹ đang nằm banh...",
      "image": null,
      "label": null,
      "display": "text-only",
      "type": "text",
      "enable_detail": true,
      "related": {
        "url": "https://truyenx.link/truyensextv/channels/related/2407",
        "request_headers": []
      },
      "share": {
        "url": "https://truyenx.link/truyensextv/channels/share/con-va-me-la-con-di-va-bon-chua-tinh-cua-bo-va-anh-hai"
      },
      "remote_data": {
        "url": "https://truyenx.link/truyensextv/channels/con-va-me-la-con-di-va-bon-chua-tinh-cua-bo-va-anh-hai"
      }
    },
    {
      "id": "2406-channel",
      "name": "Mộng tưởng của bệnh nhân ung thư",
      "description": "Trước tiên thì tôi xin kể về gia đình của tôi trước. Bố tôi thì nghiện ngập cờ bạc, mẹ tôi ngoại tình, bà nội tôi thì không làm đòi có ăn và không quan tâm con cháu. Còn tôi...",
      "image": null,
      "label": null,
      "display": "text-only",
      "type": "text",
      "enable_detail": true,
      "related": {
        "url": "https://truyenx.link/truyensextv/channels/related/2406",
        "request_headers": []
      },
      "share": {
        "url": "https://truyenx.link/truyensextv/channels/share/mong-tuong-cua-benh-nhan-ung-thu"
      },
      "remote_data": {
        "url": "https://truyenx.link/truyensextv/channels/mong-tuong-cua-benh-nhan-ung-thu"
      }
    },
    {
      "id": "2405-channel",
      "name": "Căn phòng dục vọng",
      "description": "Mơ màng tỉnh dậy, Sang vỗ nhẹ cái đầu còn đang đau của mình, nó chỉ nhớ hôm qua đang đi chợ cùng mẹ thì đột nhiên có 2 người đàn ông xuất hiện đánh ngất hai người họ...",
      "image": null,
      "label": null,
      "display": "text-only",
      "type": "text",
      "enable_detail": true,
      "related": {
        "url": "https://truyenx.link/truyensextv/channels/related/2405",
        "request_headers": []
      },
      "share": {
        "url": "https://truyenx.link/truyensextv/channels/share/can-phong-duc-vong"
      },
      "remote_data": {
        "url": "https://truyenx.link/truyensextv/channels/can-phong-duc-vong"
      }
    },
    {
      "id": "2404-channel",
      "name": "Chuyện loạn luân nhà cô Lan",
      "description": "Nhìn vào nhà cô Lan, cả hàng xóm, bạn bè ai cũng biết là nhà có văn hóa, nó đúng cả nghĩa đen lẫn nghĩa bóng vì cô Lan thì dạy văn, còn chồng cô thì dạy hóa. Hai vợ chồng có hai...",
      "image": null,
      "label": null,
      "display": "text-only",
      "type": "text",
      "enable_detail": true,
      "related": {
        "url": "https://truyenx.link/truyensextv/channels/related/2404",
        "request_headers": []
      },
      "share": {
        "url": "https://truyenx.link/truyensextv/channels/share/chuyen-loan-luan-nha-co-lan"
      },
      "remote_data": {
        "url": "https://truyenx.link/truyensextv/channels/chuyen-loan-luan-nha-co-lan"
      }
    },
    {
      "id": "2403-channel",
      "name": "Ép cuckold",
      "description": "Tôi xin giới thiệu tôi tên Huy 29 tuổi, có quen với 1 em tên là Hạnh nhỏ hơn tôi 1 tuổi. Hai chúng tôi cũng đã quen được khoảng 1 năm chuyện gì tới cũng sẽ tới, 1 lần tôi và...",
      "image": null,
      "label": null,
      "display": "text-only",
      "type": "text",
      "enable_detail": true,
      "related": {
        "url": "https://truyenx.link/truyensextv/channels/related/2403",
        "request_headers": []
      },
      "share": {
        "url": "https://truyenx.link/truyensextv/channels/share/ep-cuckold"
      },
      "remote_data": {
        "url": "https://truyenx.link/truyensextv/channels/ep-cuckold"
      }
    },
    {
      "id": "2402-channel",
      "name": "Bạch tuộc chui vào lồn",
      "description": "Nắng ấm, trời quang, gió mát, sóng vỗ rì rào vào bờ cát, trong một khung cảnh như thế này thì ai ai cũng cảm thấy vui vẻ, dễ chịu. Nhưng trên bãi tắm lúc này, có một người không...",
      "image": null,
      "label": null,
      "display": "text-only",
      "type": "text",
      "enable_detail": true,
      "related": {
        "url": "https://truyenx.link/truyensextv/channels/related/2402",
        "request_headers": []
      },
      "share": {
        "url": "https://truyenx.link/truyensextv/channels/share/bach-tuoc-chui-vao-lon"
      },
      "remote_data": {
        "url": "https://truyenx.link/truyensextv/channels/bach-tuoc-chui-vao-lon"
      }
    },
    {
      "id": "2401-channel",
      "name": "Bí mật về vợ tôi",
      "description": "Xin chào mọi người đây là câu chuyện có thật mà tôi là người trải qua. Tôi không hề biết chuyện này đã xảy ra từ bao lâu nhưng do vô tình tôi đọc được nhật ký của em. Câu...",
      "image": null,
      "label": null,
      "display": "text-only",
      "type": "text",
      "enable_detail": true,
      "related": {
        "url": "https://truyenx.link/truyensextv/channels/related/2401",
        "request_headers": []
      },
      "share": {
        "url": "https://truyenx.link/truyensextv/channels/share/bi-mat-ve-vo-toi"
      },
      "remote_data": {
        "url": "https://truyenx.link/truyensextv/channels/bi-mat-ve-vo-toi"
      }
    },
    {
      "id": "2400-channel",
      "name": "Cưỡng dâm cô giáo",
      "description": "Hưng hí ha hí hửng ngồi vào bàn, khởi động máy tính, mấy ngày trước, sau khi trải qua muôn vàn khó khăn, nó đã lắp được cái camera bé tí xíu vào nhà vệ sinh nữ của giáo viên...",
      "image": null,
      "label": null,
      "display": "text-only",
      "type": "text",
      "enable_detail": true,
      "related": {
        "url": "https://truyenx.link/truyensextv/channels/related/2400",
        "request_headers": []
      },
      "share": {
        "url": "https://truyenx.link/truyensextv/channels/share/cuong-dam-co-giao"
      },
      "remote_data": {
        "url": "https://truyenx.link/truyensextv/channels/cuong-dam-co-giao"
      }
    },
    {
      "id": "2399-channel",
      "name": "Đôi bạn thân",
      "description": "San Diego, California. Sau bữa hợp mặt hàng tháng từ nhà An và Thu, ngồi trong xe trên đường về nhà Nga và Hoàng chìm lắng trong im lặng. Mỗi đứa theo đuổi tâm sự riêng. Nga và Thu là...",
      "image": null,
      "label": null,
      "display": "text-only",
      "type": "text",
      "enable_detail": true,
      "related": {
        "url": "https://truyenx.link/truyensextv/channels/related/2399",
        "request_headers": []
      },
      "share": {
        "url": "https://truyenx.link/truyensextv/channels/share/doi-ban-than"
      },
      "remote_data": {
        "url": "https://truyenx.link/truyensextv/channels/doi-ban-than"
      }
    },
    {
      "id": "2398-channel",
      "name": "Chồng nhỏ của mẹ",
      "description": "Ôi! Hình như mình lại tăng cân rồi! Như nhìn vào bụng mình, nắn nắn lớp mỡ bụng mà thở dài, một bà nội trợ 42 tuổi, 2 con và vô số việc nhà đã cuốn đi mất tuổi xuân xinh...",
      "image": null,
      "label": null,
      "display": "text-only",
      "type": "text",
      "enable_detail": true,
      "related": {
        "url": "https://truyenx.link/truyensextv/channels/related/2398",
        "request_headers": []
      },
      "share": {
        "url": "https://truyenx.link/truyensextv/channels/share/chong-nho-cua-me"
      },
      "remote_data": {
        "url": "https://truyenx.link/truyensextv/channels/chong-nho-cua-me"
      }
    },
    {
      "id": "2397-channel",
      "name": "Mất vợ",
      "description": "Tôi, Minh 35 tuổi. Nhân viên văn phòng, tôi không kiếm được nhiều tiền nhưng tôi đang làm hết sức mình để lo cho gia đình, cho vợ và cho con. Tăng ca là chuyện thường tình. Gần đây...",
      "image": null,
      "label": null,
      "display": "text-only",
      "type": "text",
      "enable_detail": true,
      "related": {
        "url": "https://truyenx.link/truyensextv/channels/related/2397",
        "request_headers": []
      },
      "share": {
        "url": "https://truyenx.link/truyensextv/channels/share/mat-vo"
      },
      "remote_data": {
        "url": "https://truyenx.link/truyensextv/channels/mat-vo"
      }
    },
    {
      "id": "2396-channel",
      "name": "Ông thợ hồ dâm dục",
      "description": "Hôm nay mình sẽ kể cho các bạn nghe về câu chuyện đã xảy ra cách đây vài tuần, đó là lần đầu mình được biết đến mùi vị đê mê sung sướng tột cùng. Mình xin tự giới...",
      "image": null,
      "label": null,
      "display": "text-only",
      "type": "text",
      "enable_detail": true,
      "related": {
        "url": "https://truyenx.link/truyensextv/channels/related/2396",
        "request_headers": []
      },
      "share": {
        "url": "https://truyenx.link/truyensextv/channels/share/ong-tho-ho-dam-duc"
      },
      "remote_data": {
        "url": "https://truyenx.link/truyensextv/channels/ong-tho-ho-dam-duc"
      }
    }
  ],
  "load_more": {
    "pageInfo": {
      "current_page": 11,
      "last_page": 140,
      "per_page": 30,
      "total": 4188
    },
    "paging": {
      "page_key": "page",
      "size_key": "size"
    },
    "remote_data": {
      "url": "https://truyenx.link/truyensextv/channels"
    }
  }
}