{"grid_number":1,"channels":[{"id":"2738-channel","name":"Cao thủ kiếm hiệp - Quyển 5","description":"Muội lần này tới đây chính là vì muốn nói cho tỷ biết chút ít sự tình đấy... Hoàn Nhan Bình gấp gáp nói... Vừa rồi muội đã đến thiên lao cướp ngục... Cướp ngục? Ca Bích...","image":null,"label":null,"display":"text-only","type":"text","enable_detail":true,"related":{"url":"https://truyenx.link/truyensextv/channels/related/2738","request_headers":[]},"share":{"url":"https://truyenx.link/truyensextv/channels/share/cao-thu-kiem-hiep-quyen-5"},"remote_data":{"url":"https://truyenx.link/truyensextv/channels/cao-thu-kiem-hiep-quyen-5"}},{"id":"2737-channel","name":"Lồn già còn ra nước","description":"Vợ chồng bà Tư Hướng định cư ở Mỹ. Bà Tư Hướng vài tháng nửa là 50 năm tuổi. Người đàn bà 50 thường nhìn già, nhưng bà Tư Hướng nhìn trẻ, tuy có hai con, trời cho, da thịt...","image":null,"label":null,"display":"text-only","type":"text","enable_detail":true,"related":{"url":"https://truyenx.link/truyensextv/channels/related/2737","request_headers":[]},"share":{"url":"https://truyenx.link/truyensextv/channels/share/lon-gia-con-ra-nuoc"},"remote_data":{"url":"https://truyenx.link/truyensextv/channels/lon-gia-con-ra-nuoc"}},{"id":"2736-channel","name":"Nước mắt của suối","description":"Ánh trăng trên ngọn cây Từ lâu lắm rồi từ hồi còn nhỏ mỗi khi mẹ Ánh bế nó trên tay ngồi ở đầu sân ngắm trăng nó đã được nghe mẹ kể rằng nhà cũ của mình là một ngôi...","image":null,"label":null,"display":"text-only","type":"text","enable_detail":true,"related":{"url":"https://truyenx.link/truyensextv/channels/related/2736","request_headers":[]},"share":{"url":"https://truyenx.link/truyensextv/channels/share/nuoc-mat-cua-suoi"},"remote_data":{"url":"https://truyenx.link/truyensextv/channels/nuoc-mat-cua-suoi"}},{"id":"2735-channel","name":"Diễm Hân và bố chồng","description":"Tóm tắt sơ lược tác phẩm: Mẹ chồng của Diễm Hân đã qua đời từ nửa năm trước, bố chồng liên tục tìm đến men rượu vì quá cô đơn. Chồng của Diễm Hân thấy vậy nên đã...","image":null,"label":null,"display":"text-only","type":"text","enable_detail":true,"related":{"url":"https://truyenx.link/truyensextv/channels/related/2735","request_headers":[]},"share":{"url":"https://truyenx.link/truyensextv/channels/share/diem-han-va-bo-chong"},"remote_data":{"url":"https://truyenx.link/truyensextv/channels/diem-han-va-bo-chong"}},{"id":"2734-channel","name":"Hướng Nhật - Quyển 6","description":"Thiếu một cái? Nhìn toa ăn trống không, trong mắt cô tiếp viên hàng không tóc bạch kim hiện lên chút bối rối. Không có dù, tức là ngay cả hy vọng sống sót nàng cũng không có...","image":null,"label":null,"display":"text-only","type":"text","enable_detail":true,"related":{"url":"https://truyenx.link/truyensextv/channels/related/2734","request_headers":[]},"share":{"url":"https://truyenx.link/truyensextv/channels/share/huong-nhat-quyen-6"},"remote_data":{"url":"https://truyenx.link/truyensextv/channels/huong-nhat-quyen-6"}},{"id":"2733-channel","name":"Đụ mẹ bạn","description":"Xin chào tôi là V năm nay 18 tuổi! Tôi sinh ra và lớn lên trong một làng quê yên bình vì thế nên cũng có vài đứa bạn thân. Năm tôi lên lớp 10 đó là năm mà đã xảy ra sự kiện khiến...","image":null,"label":null,"display":"text-only","type":"text","enable_detail":true,"related":{"url":"https://truyenx.link/truyensextv/channels/related/2733","request_headers":[]},"share":{"url":"https://truyenx.link/truyensextv/channels/share/du-me-ban"},"remote_data":{"url":"https://truyenx.link/truyensextv/channels/du-me-ban"}},{"id":"2732-channel","name":"Đụ con chó cái","description":"Khi tôi lên 18 tuổi, tính tự lập được hình thành từ bé nên tôi đã chuyển ra ngoài sống, đi làm rồi về, đi làm rồi về, cuộc sống vô cùng nhàm chán. Vì vậy tôi quyết định mua...","image":null,"label":null,"display":"text-only","type":"text","enable_detail":true,"related":{"url":"https://truyenx.link/truyensextv/channels/related/2732","request_headers":[]},"share":{"url":"https://truyenx.link/truyensextv/channels/share/du-con-cho-cai"},"remote_data":{"url":"https://truyenx.link/truyensextv/channels/du-con-cho-cai"}},{"id":"2731-channel","name":"Cô gia sư","description":"Ấn tượng đầu tiên. Tôi là học sinh sắp thi đại học. Nhà giàu có bố mẹ làm ra tiền. Tuy hai ông bà rất bận nhưng cực kỳ quan tâm đến con cái. Cần gì có đấy. Tôi từ bé đã...","image":null,"label":null,"display":"text-only","type":"text","enable_detail":true,"related":{"url":"https://truyenx.link/truyensextv/channels/related/2731","request_headers":[]},"share":{"url":"https://truyenx.link/truyensextv/channels/share/co-gia-su"},"remote_data":{"url":"https://truyenx.link/truyensextv/channels/co-gia-su"}},{"id":"2730-channel","name":"Chị Thủy","description":"“Hôm đó cũng đã trễ, do em bỏ quên điện thoại trong cơ quan nên phải quay lại lấy. Tình cờ em thấy phòng chị Thủy còn sáng đèn, định sang hỏi thăm tám chuyện với chị sao...","image":null,"label":null,"display":"text-only","type":"text","enable_detail":true,"related":{"url":"https://truyenx.link/truyensextv/channels/related/2730","request_headers":[]},"share":{"url":"https://truyenx.link/truyensextv/channels/share/chi-thuy"},"remote_data":{"url":"https://truyenx.link/truyensextv/channels/chi-thuy"}},{"id":"2729-channel","name":"Tôi và cô giáo chủ nhiệm","description":"Chào mọi người, hôm nay tôi sẽ kể về hành trình khiến cô chủ nhiệm xinh đẹp của tôi thành con đĩ của riêng tôi như thế nào. Tôi sinh ra và lớn lên tại Miền Nam, còn em bé của...","image":null,"label":null,"display":"text-only","type":"text","enable_detail":true,"related":{"url":"https://truyenx.link/truyensextv/channels/related/2729","request_headers":[]},"share":{"url":"https://truyenx.link/truyensextv/channels/share/toi-va-co-giao-chu-nhiem"},"remote_data":{"url":"https://truyenx.link/truyensextv/channels/toi-va-co-giao-chu-nhiem"}},{"id":"2728-channel","name":"12 nữ thần - Quyển 2","description":"“Hữu thực vô danh... Có tài mà lại không ai biết...” Liêu Thiên Ý rời khỏi tay Dương, ánh mắt nàng nhìn hắn bớt hẳn tò mò và thay bằng một chút khinh bỉ: “Hóa ra...","image":null,"label":null,"display":"text-only","type":"text","enable_detail":true,"related":{"url":"https://truyenx.link/truyensextv/channels/related/2728","request_headers":[]},"share":{"url":"https://truyenx.link/truyensextv/channels/share/12-nu-than-quyen-2"},"remote_data":{"url":"https://truyenx.link/truyensextv/channels/12-nu-than-quyen-2"}},{"id":"2727-channel","name":"Cha con chung vợ","description":"Giới thiệu một chút về bản thân, tôi là Phong, 29 tuổi, thăng chức đến giám đốc của một công ty nước ngoài. Có nhà có xe, vợ con đề huề, gia đình hạnh phúc. Vợ tôi tên là...","image":null,"label":null,"display":"text-only","type":"text","enable_detail":true,"related":{"url":"https://truyenx.link/truyensextv/channels/related/2727","request_headers":[]},"share":{"url":"https://truyenx.link/truyensextv/channels/share/cha-con-chung-vo"},"remote_data":{"url":"https://truyenx.link/truyensextv/channels/cha-con-chung-vo"}},{"id":"2726-channel","name":"Rồng đỏ","description":"Hôm ấy là một ngày trời mưa tầm tã, mưa mãi không ngớt từ sáng đến đêm, tiết trời thì thật là lạnh lẽo, một ngày vốn dĩ cũng bình thường như bao ngày khác nếu như chuyện...","image":null,"label":null,"display":"text-only","type":"text","enable_detail":true,"related":{"url":"https://truyenx.link/truyensextv/channels/related/2726","request_headers":[]},"share":{"url":"https://truyenx.link/truyensextv/channels/share/rong-do"},"remote_data":{"url":"https://truyenx.link/truyensextv/channels/rong-do"}},{"id":"2725-channel","name":"Người mẹ dâm","description":"Tôi là Thu, năm nay tôi 34 tuổi, là một mẹ đơn thân. Tôi có một đứa con trai năm nay vừa tròn 16 tuổi. Thằng bé tuy chỉ mới 16 nhưng vóc dáng lại vô cùng cao to. Thương con nên tôi...","image":null,"label":null,"display":"text-only","type":"text","enable_detail":true,"related":{"url":"https://truyenx.link/truyensextv/channels/related/2725","request_headers":[]},"share":{"url":"https://truyenx.link/truyensextv/channels/share/nguoi-me-dam"},"remote_data":{"url":"https://truyenx.link/truyensextv/channels/nguoi-me-dam"}},{"id":"2724-channel","name":"Cô vợ mê Gym","description":"Tuấn và Nhung là cặp vợ chồng mới cưới tại Sài Gòn, cả hai có cuộc sống thoải mái ở một căn hộ nhỏ. Tuấn nhỏ người, ốm, học thức kiểu mọt sách. Anh làm nhân viên văn...","image":null,"label":null,"display":"text-only","type":"text","enable_detail":true,"related":{"url":"https://truyenx.link/truyensextv/channels/related/2724","request_headers":[]},"share":{"url":"https://truyenx.link/truyensextv/channels/share/co-vo-me-gym"},"remote_data":{"url":"https://truyenx.link/truyensextv/channels/co-vo-me-gym"}},{"id":"2723-channel","name":"Những cuộc tình đã qua","description":"Chiếc xe lắc lư đi chầm chậm qua con đường đèo nguy hiểm, hình như năm nào cũng có xe du lịch gặp tai nạn tại đây, trên xe mọi người trong đoàn từ thiện của tôi đều đang...","image":null,"label":null,"display":"text-only","type":"text","enable_detail":true,"related":{"url":"https://truyenx.link/truyensextv/channels/related/2723","request_headers":[]},"share":{"url":"https://truyenx.link/truyensextv/channels/share/nhung-cuoc-tinh-da-qua"},"remote_data":{"url":"https://truyenx.link/truyensextv/channels/nhung-cuoc-tinh-da-qua"}},{"id":"2722-channel","name":"Chung chồng","description":"Tôi ngồi chờ chồng với cái bụng khệ nệ. Ông đã hẹn lên đây sớm để đưa tôi đi bệnh viện sinh đứa con đầu lòng, kết quả của tình yêu chúng tôi dành cho nhau 10 năm nay. Bà...","image":null,"label":null,"display":"text-only","type":"text","enable_detail":true,"related":{"url":"https://truyenx.link/truyensextv/channels/related/2722","request_headers":[]},"share":{"url":"https://truyenx.link/truyensextv/channels/share/chung-chong"},"remote_data":{"url":"https://truyenx.link/truyensextv/channels/chung-chong"}},{"id":"2721-channel","name":"Chén gái cơ quan, chơi bồ thằng bạn","description":"Đợt sinh viên mới ra trường đi làm thuê, công ty có 3 nhập khẩu 2 nữ 1 nam với 1 dàn kế toán nữ. Được cái đẹp zai cũng thông thạo máy tính với lặt vặt chị em hay nhờ. Bọn em...","image":null,"label":null,"display":"text-only","type":"text","enable_detail":true,"related":{"url":"https://truyenx.link/truyensextv/channels/related/2721","request_headers":[]},"share":{"url":"https://truyenx.link/truyensextv/channels/share/chen-gai-co-quan-choi-bo-thang-ban"},"remote_data":{"url":"https://truyenx.link/truyensextv/channels/chen-gai-co-quan-choi-bo-thang-ban"}},{"id":"2720-channel","name":"Nhật ký ngoại tình nơi công sở","description":"Ngày 30 5 2015 Công ty thì mới thành lập được 1 năm, nhân sự không nhiều, nên tôi gần như các dự án quan trọng toàn tự mình đứng ra trình bày và gặp khách hàng trực tiếp. Hôm nay...","image":null,"label":null,"display":"text-only","type":"text","enable_detail":true,"related":{"url":"https://truyenx.link/truyensextv/channels/related/2720","request_headers":[]},"share":{"url":"https://truyenx.link/truyensextv/channels/share/nhat-ky-ngoai-tinh-noi-cong-so"},"remote_data":{"url":"https://truyenx.link/truyensextv/channels/nhat-ky-ngoai-tinh-noi-cong-so"}},{"id":"2719-channel","name":"Cơ quan vợ dâm đi du lịch","description":"Chào các bác, tôi kể ra chuyện này không hy vọng là các bác tin nó là sự thật 100% , tôi chỉ kể lại để chia sẻ câu chuyện mà tôi đã gặp phải để giải tỏa những cảm giác tù...","image":null,"label":null,"display":"text-only","type":"text","enable_detail":true,"related":{"url":"https://truyenx.link/truyensextv/channels/related/2719","request_headers":[]},"share":{"url":"https://truyenx.link/truyensextv/channels/share/co-quan-vo-dam-di-du-lich"},"remote_data":{"url":"https://truyenx.link/truyensextv/channels/co-quan-vo-dam-di-du-lich"}},{"id":"2718-channel","name":"Vẽ tranh","description":"“Cộc... cộc... cộc!” Những tiếng động của 2 miếng gỗ phát ra, tất cả 25 sinh viên nhìn về phía Vân, cô giáo dạy vẽ, người đang cầm cây thước gỗ gõ lên tấm bảng...","image":null,"label":null,"display":"text-only","type":"text","enable_detail":true,"related":{"url":"https://truyenx.link/truyensextv/channels/related/2718","request_headers":[]},"share":{"url":"https://truyenx.link/truyensextv/channels/share/ve-tranh"},"remote_data":{"url":"https://truyenx.link/truyensextv/channels/ve-tranh"}},{"id":"2717-channel","name":"Lối xưa","description":"Dòng sông uốn lượn như dải lụa mượt mà mềm mại xuyên dài qua những cánh đồng bát ngát, những vườn cây xanh tươi nép mình đón dòng phù sa màu mỡ như dòng sữa mẹ thiên nhiên...","image":null,"label":null,"display":"text-only","type":"text","enable_detail":true,"related":{"url":"https://truyenx.link/truyensextv/channels/related/2717","request_headers":[]},"share":{"url":"https://truyenx.link/truyensextv/channels/share/loi-xua"},"remote_data":{"url":"https://truyenx.link/truyensextv/channels/loi-xua"}},{"id":"2716-channel","name":"Bí mật một cuộc tình","description":"Tặng riêng anh của em... ... Đó là tiêu đề ghi trên trang nhất của cuốn sổ nhỏ mà tôi nhận được từ Lan gửi cùng gói quà từ Đức chuyển về qua bưu điện. Tôi là chú ruột của...","image":null,"label":null,"display":"text-only","type":"text","enable_detail":true,"related":{"url":"https://truyenx.link/truyensextv/channels/related/2716","request_headers":[]},"share":{"url":"https://truyenx.link/truyensextv/channels/share/bi-mat-mot-cuoc-tinh"},"remote_data":{"url":"https://truyenx.link/truyensextv/channels/bi-mat-mot-cuoc-tinh"}},{"id":"2715-channel","name":"Tội lỗi hay hạnh phúc","description":"Mặc cho hàng xóm hay thiên hạ chê bai, dè bỉu mẹ con tôi với tội nọ, lỗi kia rằng con tôi là thằng đàn ông ham của, còn tôi là đứa đàn bà lẳng lơ câu trai trẻ. Tôi cũng chẳng...","image":null,"label":null,"display":"text-only","type":"text","enable_detail":true,"related":{"url":"https://truyenx.link/truyensextv/channels/related/2715","request_headers":[]},"share":{"url":"https://truyenx.link/truyensextv/channels/share/toi-loi-hay-hanh-phuc"},"remote_data":{"url":"https://truyenx.link/truyensextv/channels/toi-loi-hay-hanh-phuc"}},{"id":"2714-channel","name":"Chuyện tình tại trung tâm tiếng Anh","description":"Tôi sẽ kể các bạn nghe câu chuyện tình thật của tôi với một cô giáo dạy IELTS tại trung tâm tiếng Anh có tiếng tại TP. HCM, bên Quận 10. Tuy mối tình nảy sinh trong thời gian ngắn...","image":null,"label":null,"display":"text-only","type":"text","enable_detail":true,"related":{"url":"https://truyenx.link/truyensextv/channels/related/2714","request_headers":[]},"share":{"url":"https://truyenx.link/truyensextv/channels/share/chuyen-tinh-tai-trung-tam-tieng-anh"},"remote_data":{"url":"https://truyenx.link/truyensextv/channels/chuyen-tinh-tai-trung-tam-tieng-anh"}},{"id":"2713-channel","name":"Hội nghị các bô lão","description":"Khởi đầu và sự điên rồ sung sướng Hội nghị các bô lão là 1 hoạt động thường xuyên của một 5 người, nhóm gồm các ông bạn trung niên đứng đầu và cũng là người thành...","image":null,"label":null,"display":"text-only","type":"text","enable_detail":true,"related":{"url":"https://truyenx.link/truyensextv/channels/related/2713","request_headers":[]},"share":{"url":"https://truyenx.link/truyensextv/channels/share/hoi-nghi-cac-bo-lao"},"remote_data":{"url":"https://truyenx.link/truyensextv/channels/hoi-nghi-cac-bo-lao"}},{"id":"2712-channel","name":"Vợ dâm","description":"Tôi là Nhân, 25 tuổi, nhân viên thiết kế của một công ty ở Sài Gòn. Đã có vợ và 1 cô con gái năm nay được 2 tuổi. Tôi đam mê truyện sex từ năm 14 tuổi, đến hôm nay có thời...","image":null,"label":null,"display":"text-only","type":"text","enable_detail":true,"related":{"url":"https://truyenx.link/truyensextv/channels/related/2712","request_headers":[]},"share":{"url":"https://truyenx.link/truyensextv/channels/share/vo-dam"},"remote_data":{"url":"https://truyenx.link/truyensextv/channels/vo-dam"}},{"id":"2711-channel","name":"Hai trong một","description":"Nghe ông thở dài trong khi ngủ, tôi xót xa vì thương. Ông đã vì tôi và cho tôi tất cả để bây giờ ở tuổi 64 mà già nua đến thế. Tôi mua thuốc về nhuộm tóc cho ông nhưng những...","image":null,"label":null,"display":"text-only","type":"text","enable_detail":true,"related":{"url":"https://truyenx.link/truyensextv/channels/related/2711","request_headers":[]},"share":{"url":"https://truyenx.link/truyensextv/channels/share/hai-trong-mot"},"remote_data":{"url":"https://truyenx.link/truyensextv/channels/hai-trong-mot"}},{"id":"2710-channel","name":"Tình đầu là như vậy","description":"Quả thật, Hoàng là mối tình đầu của tôi. Có Hoàng tôi mới biết đến hương vị của tình yêu giữa đàn ông với đàn bà. Có Hoàng tôi mới biết thế nào là niềm vui & hạnh...","image":null,"label":null,"display":"text-only","type":"text","enable_detail":true,"related":{"url":"https://truyenx.link/truyensextv/channels/related/2710","request_headers":[]},"share":{"url":"https://truyenx.link/truyensextv/channels/share/tinh-dau-la-nhu-vay"},"remote_data":{"url":"https://truyenx.link/truyensextv/channels/tinh-dau-la-nhu-vay"}},{"id":"2709-channel","name":"Đụ em My dâm đãng","description":"Tôi là D đang là sinh viên, ngoại hình ưa nhìn trông thư sinh, cũng như anh em biết đến sex từ rất sớm, đặc biệt là truyện sex, ngày ngày quay tay, ước ao kiếm được một eny ngon...","image":null,"label":null,"display":"text-only","type":"text","enable_detail":true,"related":{"url":"https://truyenx.link/truyensextv/channels/related/2709","request_headers":[]},"share":{"url":"https://truyenx.link/truyensextv/channels/share/du-em-my-dam-dang"},"remote_data":{"url":"https://truyenx.link/truyensextv/channels/du-em-my-dam-dang"}}],"load_more":{"pageInfo":{"current_page":69,"last_page":140,"per_page":30,"total":4188},"paging":{"page_key":"page","size_key":"size"},"remote_data":{"url":"https://truyenx.link/truyensextv/channels"}}}