{"grid_number":1,"channels":[{"id":"2035-channel","name":"Trai quê","description":"Cái nắng oi ả của tiết trời mùa hạ, thời tiết hanh khô nóng bức của một làng quê nghèo khó thường tạo cho ta cảm giác nhớ về tuổi thơ, trải dài trên con đường làng ấy bó...","image":null,"label":null,"display":"text-only","type":"text","enable_detail":true,"related":{"url":"https://truyenx.link/truyensextv/channels/related/2035","request_headers":[]},"share":{"url":"https://truyenx.link/truyensextv/channels/share/trai-que"},"remote_data":{"url":"https://truyenx.link/truyensextv/channels/trai-que"}},{"id":"2033-channel","name":"Nước mắt mùa thu","description":"Cô bán cho cháu chục trứng! Nó đang lui cui sắp lại mấy giỏ hàng ở phía trong, thì nghe tiếng gọi ấy... Làm nó chợt dạ nghĩ thầm: “Mình đội nón sùm sụp thế này, chắc nó...","image":null,"label":null,"display":"text-only","type":"text","enable_detail":true,"related":{"url":"https://truyenx.link/truyensextv/channels/related/2033","request_headers":[]},"share":{"url":"https://truyenx.link/truyensextv/channels/share/nuoc-mat-mua-thu"},"remote_data":{"url":"https://truyenx.link/truyensextv/channels/nuoc-mat-mua-thu"}},{"id":"2034-channel","name":"Ngôi nhà hạnh phúc","description":"Nhịn nứng Quỳnh và Hiền là bạn với nhau từ tấm bé, cả 2 cùng sinh ra và lớn lên ở thị trấn ven biển của tỉnh Quảng Ninh. Suốt 12 năm đi học cùng nhau, đôi bạn càng trở nên...","image":null,"label":null,"display":"text-only","type":"text","enable_detail":true,"related":{"url":"https://truyenx.link/truyensextv/channels/related/2034","request_headers":[]},"share":{"url":"https://truyenx.link/truyensextv/channels/share/ngoi-nha-hanh-phuc"},"remote_data":{"url":"https://truyenx.link/truyensextv/channels/ngoi-nha-hanh-phuc"}},{"id":"2032-channel","name":"Tiến hóa","description":"Sex là một trạng thái nó trừu tượng cho tất cả cảm xúc của con người gộp lại. Nó diễn tả thay cho hành động và trạng thái của con người. Từ xa xưa khi mà những người tối...","image":null,"label":null,"display":"text-only","type":"text","enable_detail":true,"related":{"url":"https://truyenx.link/truyensextv/channels/related/2032","request_headers":[]},"share":{"url":"https://truyenx.link/truyensextv/channels/share/tien-hoa"},"remote_data":{"url":"https://truyenx.link/truyensextv/channels/tien-hoa"}},{"id":"2031-channel","name":"Đụ vợ ông anh họ 2","description":"2 tuần từ bữa chị bị phát hiện, cả 2 án binh bất động. Chị gọi mình vào phòng họp. “T ơi, chuyện hôm trước rất nghiêm trọng, may là em cũng ráng xử lý cho được nhưng...","image":null,"label":null,"display":"text-only","type":"text","enable_detail":true,"related":{"url":"https://truyenx.link/truyensextv/channels/related/2031","request_headers":[]},"share":{"url":"https://truyenx.link/truyensextv/channels/share/du-vo-ong-anh-ho-2"},"remote_data":{"url":"https://truyenx.link/truyensextv/channels/du-vo-ong-anh-ho-2"}},{"id":"2030-channel","name":"Loạn luân mẹ và con","description":"Vừa xuống trạm xe bus, Ngọc đã cau có nhìn Vũ: Có xe mà không đi, đi cái xe quỷ này chen lấn làm chi cho mệt nữa không biết! Thì ai bắt Ngọc đi đâu, tự dưng đi theo tui giờ còn nói...","image":null,"label":null,"display":"text-only","type":"text","enable_detail":true,"related":{"url":"https://truyenx.link/truyensextv/channels/related/2030","request_headers":[]},"share":{"url":"https://truyenx.link/truyensextv/channels/share/loan-luan-me-va-con"},"remote_data":{"url":"https://truyenx.link/truyensextv/channels/loan-luan-me-va-con"}},{"id":"2029-channel","name":"Thằng Đức - Quyển 1","description":"Lần đầu tiên Tuy là khu vườn nhà mình nhưng Đức vẫn kín đáo nhìn trước nhìn sau, thấy chung quanh không ai, nó bước nhanh vào nhà tắm gài chốt cửa rồi kiên nhẫn đứng chờ...","image":null,"label":null,"display":"text-only","type":"text","enable_detail":true,"related":{"url":"https://truyenx.link/truyensextv/channels/related/2029","request_headers":[]},"share":{"url":"https://truyenx.link/truyensextv/channels/share/thang-duc-quyen-1"},"remote_data":{"url":"https://truyenx.link/truyensextv/channels/thang-duc-quyen-1"}},{"id":"2028-channel","name":"Bất ngờ được cô vợ cho","description":"Buổi chiều 22 3 2020 mình bắt xe về quê vợ ăn đám cưới. Vợ với con mình về từ sáng mình phải đi làm nên về sau. Mình xuống xe thì vợ ra đón về. Về muộn nên ở đám không còn...","image":null,"label":null,"display":"text-only","type":"text","enable_detail":true,"related":{"url":"https://truyenx.link/truyensextv/channels/related/2028","request_headers":[]},"share":{"url":"https://truyenx.link/truyensextv/channels/share/bat-ngo-duoc-co-vo-cho"},"remote_data":{"url":"https://truyenx.link/truyensextv/channels/bat-ngo-duoc-co-vo-cho"}},{"id":"2026-channel","name":"Kỷ niệm đẹp thời cấp 3","description":"Xin chào mọi người, sau đây tôi xin kể một câu chuyện quan hệ với người yêu cũ và là bà con xa, chuyện là có thật vài năm trước của tôi và em. Tôi là một chàng trai miền Trung...","image":null,"label":null,"display":"text-only","type":"text","enable_detail":true,"related":{"url":"https://truyenx.link/truyensextv/channels/related/2026","request_headers":[]},"share":{"url":"https://truyenx.link/truyensextv/channels/share/ky-niem-dep-thoi-cap-3"},"remote_data":{"url":"https://truyenx.link/truyensextv/channels/ky-niem-dep-thoi-cap-3"}},{"id":"2027-channel","name":"Sáng ăn chị hai, chiều ăn em gái","description":"Trước khi bắt đầu thì mình xin nói trước, truyện sử dụng rất nhiều thuật tâm lý. Những thuật tâm lý bình thường một tí thì mình có thể kể chi tiết còn một vài thuật tâm...","image":null,"label":null,"display":"text-only","type":"text","enable_detail":true,"related":{"url":"https://truyenx.link/truyensextv/channels/related/2027","request_headers":[]},"share":{"url":"https://truyenx.link/truyensextv/channels/share/sang-an-chi-hai-chieu-an-em-gai"},"remote_data":{"url":"https://truyenx.link/truyensextv/channels/sang-an-chi-hai-chieu-an-em-gai"}},{"id":"2025-channel","name":"Hương Tràm","description":"Những người bạn Hương Tràm xoay xoay người ngắm nghĩa mình trong gương với vẻ mặt rất hài lòng. Đã mấy tháng nay nàng tập gym rất chăm chỉ, kết quả là bây giờ nàng sở hữu...","image":null,"label":null,"display":"text-only","type":"text","enable_detail":true,"related":{"url":"https://truyenx.link/truyensextv/channels/related/2025","request_headers":[]},"share":{"url":"https://truyenx.link/truyensextv/channels/share/huong-tram"},"remote_data":{"url":"https://truyenx.link/truyensextv/channels/huong-tram"}},{"id":"2024-channel","name":"Em người yêu thích ngoại tình","description":"Yêu nhau 2 năm chia tay, xong nửa năm quay lại, những tưởng bình thường cho đến khi log zalo, imessage và facebook messenger của người yêu thì đã cho thằng khác bắn vào trong từ trước hôm...","image":null,"label":null,"display":"text-only","type":"text","enable_detail":true,"related":{"url":"https://truyenx.link/truyensextv/channels/related/2024","request_headers":[]},"share":{"url":"https://truyenx.link/truyensextv/channels/share/em-nguoi-yeu-thich-ngoai-tinh"},"remote_data":{"url":"https://truyenx.link/truyensextv/channels/em-nguoi-yeu-thich-ngoai-tinh"}},{"id":"2023-channel","name":"Mấy em hàng xóm của tôi","description":"Tôi là T nay 18 tuổi, cái tuổi mà còn đang ăn đang ngủ nhưng tôi đã trải qua 3 người con gái. Tất cả đều là hàng xóm của tôi, nói chắc chẳng ai tin rằng tôi đã biết địt nhau...","image":null,"label":null,"display":"text-only","type":"text","enable_detail":true,"related":{"url":"https://truyenx.link/truyensextv/channels/related/2023","request_headers":[]},"share":{"url":"https://truyenx.link/truyensextv/channels/share/may-em-hang-xom-cua-toi"},"remote_data":{"url":"https://truyenx.link/truyensextv/channels/may-em-hang-xom-cua-toi"}},{"id":"2022-channel","name":"Tuổi trẻ của con Lan","description":"Con Lan là một đứa con gái lớn lên trong một gia đình trung lưu bình thường. Ba Mẹ nó là dân kinh doanh nông sản và có một nông trại lớn ở tỉnh Lâm Đồng. Con Lan có một người...","image":null,"label":null,"display":"text-only","type":"text","enable_detail":true,"related":{"url":"https://truyenx.link/truyensextv/channels/related/2022","request_headers":[]},"share":{"url":"https://truyenx.link/truyensextv/channels/share/tuoi-tre-cua-con-lan"},"remote_data":{"url":"https://truyenx.link/truyensextv/channels/tuoi-tre-cua-con-lan"}},{"id":"2021-channel","name":"Sông quê","description":"Tôi sinh ra và lớn lên trong một gia đình không mấy khá giả. Ba tôi mất vì tai nạn khi tôi còn nằm trong bụng mẹ ở tháng thứ 8. Vì thế tôi chẳng biết gương mặt thật của ông ấy...","image":null,"label":null,"display":"text-only","type":"text","enable_detail":true,"related":{"url":"https://truyenx.link/truyensextv/channels/related/2021","request_headers":[]},"share":{"url":"https://truyenx.link/truyensextv/channels/share/song-que"},"remote_data":{"url":"https://truyenx.link/truyensextv/channels/song-que"}},{"id":"2001-channel","name":"Cô bé giúp việc","description":"Đi đâu mà ăn mặc đẹp thế? Em đi chợ! Hồi trước chú chả bảo là ra thành phố phải ăn mặc đàng hoàng một tí là gì, mà bộ này chú mua cho em chứ ai! Con bé vừa nói vừa chu cái...","image":null,"label":null,"display":"text-only","type":"text","enable_detail":true,"related":{"url":"https://truyenx.link/truyensextv/channels/related/2001","request_headers":[]},"share":{"url":"https://truyenx.link/truyensextv/channels/share/co-be-giup-viec"},"remote_data":{"url":"https://truyenx.link/truyensextv/channels/co-be-giup-viec"}},{"id":"2020-channel","name":"Cô con dâu không mặc quần lót","description":"Người đàn ông khoảng chừng 30 tuổi ăn vận lịch sự đạp xe theo con đường bê tông nhỏ hẹp, trên gương mặt có nét gì đó vui vẻ và tự hào. Anh đạp xe qua hàng rào hoa dâm bụt...","image":null,"label":null,"display":"text-only","type":"text","enable_detail":true,"related":{"url":"https://truyenx.link/truyensextv/channels/related/2020","request_headers":[]},"share":{"url":"https://truyenx.link/truyensextv/channels/share/co-con-dau-khong-mac-quan-lot"},"remote_data":{"url":"https://truyenx.link/truyensextv/channels/co-con-dau-khong-mac-quan-lot"}},{"id":"2019-channel","name":"Trang trại nhỏ","description":"Làm ơn đừng dừng lại, hãy đâm con cặc khổng lồ của con vào sâu hơn nữa đi, hãy phá nát cái lồn của cô đi, hãy thụ thai cho cô điiiii!!! Thảo hét gào thét trong sự sung sướng...","image":null,"label":null,"display":"text-only","type":"text","enable_detail":true,"related":{"url":"https://truyenx.link/truyensextv/channels/related/2019","request_headers":[]},"share":{"url":"https://truyenx.link/truyensextv/channels/share/trang-trai-nho"},"remote_data":{"url":"https://truyenx.link/truyensextv/channels/trang-trai-nho"}},{"id":"2018-channel","name":"Chuyện làm tình của đứa em","description":"Tôi và Phương Anh là 2 đứa bạn chơi rất thân với nhau. Chúng tôi quen nhau do tình cờ đi chung xe để đến chỗ học bơi. Trường chúng tôi năm nào cũng tổ chức cho học sinh toàn...","image":null,"label":null,"display":"text-only","type":"text","enable_detail":true,"related":{"url":"https://truyenx.link/truyensextv/channels/related/2018","request_headers":[]},"share":{"url":"https://truyenx.link/truyensextv/channels/share/chuyen-lam-tinh-cua-dua-em"},"remote_data":{"url":"https://truyenx.link/truyensextv/channels/chuyen-lam-tinh-cua-dua-em"}},{"id":"2017-channel","name":"Sao thời gian đi chậm thế","description":"Tác giả: Vu Sơn Trước bàn thờ khói hương nghi ngút, Thu vái lạy và thì thầm trong miệng một hồi lâu, cuối cùng mới nói thành lời: Anh sống khôn thác thiêng, tha thứ cho em. Anh không...","image":null,"label":null,"display":"text-only","type":"text","enable_detail":true,"related":{"url":"https://truyenx.link/truyensextv/channels/related/2017","request_headers":[]},"share":{"url":"https://truyenx.link/truyensextv/channels/share/sao-thoi-gian-di-cham-the"},"remote_data":{"url":"https://truyenx.link/truyensextv/channels/sao-thoi-gian-di-cham-the"}},{"id":"2016-channel","name":"Chồng đi công tác","description":"Tôi làm phó giám đốc cho một công ty nước ngoài có trụ sở tại Việt Nam. Tuy mới hai sáu tuổi nhưng năng lực cũng khá lên tôi vừa làm phó giám đốc vừa làm trợ lý cho giám đốc...","image":null,"label":null,"display":"text-only","type":"text","enable_detail":true,"related":{"url":"https://truyenx.link/truyensextv/channels/related/2016","request_headers":[]},"share":{"url":"https://truyenx.link/truyensextv/channels/share/chong-di-cong-tac"},"remote_data":{"url":"https://truyenx.link/truyensextv/channels/chong-di-cong-tac"}},{"id":"2015-channel","name":"Hành trình huấn luyện nô lệ","description":"Tác giả: PQStyle Tôi là Kiên, hiện là sinh viên năm cuối của một trường Đại học tại Tp Hcm. Nhà tôi thì chỉ có mình tôi và cũng thuộc dạng khá giả có điều kiện nên rất...","image":null,"label":null,"display":"text-only","type":"text","enable_detail":true,"related":{"url":"https://truyenx.link/truyensextv/channels/related/2015","request_headers":[]},"share":{"url":"https://truyenx.link/truyensextv/channels/share/hanh-trinh-huan-luyen-no-le"},"remote_data":{"url":"https://truyenx.link/truyensextv/channels/hanh-trinh-huan-luyen-no-le"}},{"id":"2014-channel","name":"Nữ diễn viên","description":"Nàng chỉ là một người con gái yếu đuối, lớn lên trong vòng tay yêu thương của cha mẹ. Nàng từng mặc cảm vì hình thể khác thường của mình, vì sự cô độc của bản thân ngay...","image":null,"label":null,"display":"text-only","type":"text","enable_detail":true,"related":{"url":"https://truyenx.link/truyensextv/channels/related/2014","request_headers":[]},"share":{"url":"https://truyenx.link/truyensextv/channels/share/nu-dien-vien"},"remote_data":{"url":"https://truyenx.link/truyensextv/channels/nu-dien-vien"}},{"id":"2013-channel","name":"Đụ gái cơ quan","description":"Ai cũng có một thời trẻ trai, một thời thanh xuân của cuộc đời. Khi đó cuộc chiến giữa phần con và phần người đang ác liệt. Năm tôi mới ra trường đại học, nhận công tác...","image":null,"label":null,"display":"text-only","type":"text","enable_detail":true,"related":{"url":"https://truyenx.link/truyensextv/channels/related/2013","request_headers":[]},"share":{"url":"https://truyenx.link/truyensextv/channels/share/du-gai-co-quan"},"remote_data":{"url":"https://truyenx.link/truyensextv/channels/du-gai-co-quan"}},{"id":"2012-channel","name":"Quà sinh nhật","description":"Hai vợ chồng tôi cưới nhau được 5 năm. Đã có một bé gái. Có lẽ do thời thanh niên tôi chơi bời nhiều, và cưới nhau một thời gian nên chuyện chăn gối càng ngày càng thấy nhạt...","image":null,"label":null,"display":"text-only","type":"text","enable_detail":true,"related":{"url":"https://truyenx.link/truyensextv/channels/related/2012","request_headers":[]},"share":{"url":"https://truyenx.link/truyensextv/channels/share/qua-sinh-nhat"},"remote_data":{"url":"https://truyenx.link/truyensextv/channels/qua-sinh-nhat"}},{"id":"2011-channel","name":"Tình yêu online","description":"Mình cũng là 1 thành viên lâu năm của truyensextv2.cc rồi. Nhưng hôm nay mới dám mạo muội kể 1 câu chuyện của chính bản thân mình cho anh em đọc. Mình vẫn còn ít tuổi, chưa có nhiều...","image":null,"label":null,"display":"text-only","type":"text","enable_detail":true,"related":{"url":"https://truyenx.link/truyensextv/channels/related/2011","request_headers":[]},"share":{"url":"https://truyenx.link/truyensextv/channels/share/tinh-yeu-online"},"remote_data":{"url":"https://truyenx.link/truyensextv/channels/tinh-yeu-online"}},{"id":"2010-channel","name":"Cha con ông bảo vệ","description":"Scandal tại Trường Xuân Mai làm cả nước sửng sốt trong suốt một tháng. Ngành báo chí cũng bận rộn biết bao nhiêu giấy mực. Các nhà tâm lý học nổi tiếng nhăn mày, bóp trán phân...","image":null,"label":null,"display":"text-only","type":"text","enable_detail":true,"related":{"url":"https://truyenx.link/truyensextv/channels/related/2010","request_headers":[]},"share":{"url":"https://truyenx.link/truyensextv/channels/share/cha-con-ong-bao-ve"},"remote_data":{"url":"https://truyenx.link/truyensextv/channels/cha-con-ong-bao-ve"}},{"id":"2009-channel","name":"Chuyện đời tôi","description":"Tôi xoay tròn trên hạ bộ của bố chồng mình, con cặc của ông đâm chọt tứ lung tung bên trong cái lồn dâm đãng của tôi. Năm nay tôi vừa hai lăm tuổi, cái tuổi mà đáng nhẽ ra phải...","image":null,"label":null,"display":"text-only","type":"text","enable_detail":true,"related":{"url":"https://truyenx.link/truyensextv/channels/related/2009","request_headers":[]},"share":{"url":"https://truyenx.link/truyensextv/channels/share/chuyen-doi-toi"},"remote_data":{"url":"https://truyenx.link/truyensextv/channels/chuyen-doi-toi"}},{"id":"2008-channel","name":"Những cô bạn gái của tôi","description":"Anh Thi Tôi bấy giờ là một thằng học sinh cấp 3 cao ráo, nhưng nhan sắc lại thuộc dạng bình thường, chẳng có gì nổi bật suốt những năm học trước đó, nàng lúc này lại là tổ...","image":null,"label":null,"display":"text-only","type":"text","enable_detail":true,"related":{"url":"https://truyenx.link/truyensextv/channels/related/2008","request_headers":[]},"share":{"url":"https://truyenx.link/truyensextv/channels/share/nhung-co-ban-gai-cua-toi"},"remote_data":{"url":"https://truyenx.link/truyensextv/channels/nhung-co-ban-gai-cua-toi"}},{"id":"2007-channel","name":"Em Dung dâm đãng","description":"10 giờ tối, Khôi ngồi rê chuột trước màn hình máy tính, thỉnh thoảng lại gắp một đũa mì tôm cho vào miệng. Khôi năm nay 27 tuổi, là chủ một tiệm ảnh, hắn ăn mì gói không...","image":null,"label":null,"display":"text-only","type":"text","enable_detail":true,"related":{"url":"https://truyenx.link/truyensextv/channels/related/2007","request_headers":[]},"share":{"url":"https://truyenx.link/truyensextv/channels/share/em-dung-dam-dang"},"remote_data":{"url":"https://truyenx.link/truyensextv/channels/em-dung-dam-dang"}}],"load_more":{"pageInfo":{"current_page":24,"last_page":140,"per_page":30,"total":4188},"paging":{"page_key":"page","size_key":"size"},"remote_data":{"url":"https://truyenx.link/truyensextv/channels"}}}