{"grid_number":1,"channels":[{"id":"648-channel","name":"Tản mạn về em rau","description":"Những ngày đi làm việc mệt mỏi cùng những chuyến công tác kéo dài, hôm nay ngồi uống cafe sáng cùng với cái gió se lạnh cuối năm ở Sài Gòn, mình lại nhớ em người con gái nhỏ...","image":null,"label":null,"display":"text-only","type":"text","enable_detail":true,"related":{"url":"https://truyenx.link/truyensextv/channels/related/648","request_headers":[]},"share":{"url":"https://truyenx.link/truyensextv/channels/share/tan-man-ve-em-rau"},"remote_data":{"url":"https://truyenx.link/truyensextv/channels/tan-man-ve-em-rau"}},{"id":"647-channel","name":"Đêm động phòng","description":"Yêu nhau 1 khoảng thời gian khá dài, anh tôn trọng và giữ gìn cho em dù anh nghĩ có thể người sau này em lấy chẳng phải là anh! Một tình yêu đích thực đôi lúc chẳng cần đến thân...","image":null,"label":null,"display":"text-only","type":"text","enable_detail":true,"related":{"url":"https://truyenx.link/truyensextv/channels/related/647","request_headers":[]},"share":{"url":"https://truyenx.link/truyensextv/channels/share/dem-dong-phong"},"remote_data":{"url":"https://truyenx.link/truyensextv/channels/dem-dong-phong"}},{"id":"646-channel","name":"Bị hiếp dâm","description":"Một buổi chiều như bao buổi chiều khác, em đang ngồi săn bắt hái lượm rau củ quả trên zalo thì có tin nhắn của ông anh bảo có em rau này múp, vú to, căng, bóp sướng mà dâm lắm...","image":null,"label":null,"display":"text-only","type":"text","enable_detail":true,"related":{"url":"https://truyenx.link/truyensextv/channels/related/646","request_headers":[]},"share":{"url":"https://truyenx.link/truyensextv/channels/share/bi-hiep-dam"},"remote_data":{"url":"https://truyenx.link/truyensextv/channels/bi-hiep-dam"}},{"id":"645-channel","name":"Bắn tinh lên mặt chị","description":"Sáng nay đang ngủ thì điện thoại reo. Trong lòng thầm chửi đéo biết đứa nào gọi giờ này... Mắt nhắm mắt mở nghe điện thoại. Làm gì đó kưng.. rảnh không, ra đây chơi, chị...","image":null,"label":null,"display":"text-only","type":"text","enable_detail":true,"related":{"url":"https://truyenx.link/truyensextv/channels/related/645","request_headers":[]},"share":{"url":"https://truyenx.link/truyensextv/channels/share/ban-tinh-len-mat-chi"},"remote_data":{"url":"https://truyenx.link/truyensextv/channels/ban-tinh-len-mat-chi"}},{"id":"644-channel","name":"Trai tân địt gái trinh","description":"Biết xem sex năm lớp 5 nhưng đủ biết xem kín và rình lúc không có ai ở nhà. Lớn hơn 1 tí thì biết đọc truyện sex của trang truyensextv2.cc. Rồi thì có vụ scandal Vàng Anh, lúc ấy nhớ...","image":null,"label":null,"display":"text-only","type":"text","enable_detail":true,"related":{"url":"https://truyenx.link/truyensextv/channels/related/644","request_headers":[]},"share":{"url":"https://truyenx.link/truyensextv/channels/share/trai-tan-dit-gai-trinh"},"remote_data":{"url":"https://truyenx.link/truyensextv/channels/trai-tan-dit-gai-trinh"}},{"id":"643-channel","name":"Đào tạo nữ sinh","description":"Tôi năm nay 27, là con thứ trong 1 gia đình hạnh phúc, tuy khi xưa bản thân có chút lười học ham chơi nhưng cũng đỗ được khoa Công nghệ thông tin ở Đà Nẵng. Tôi có người yêu từ...","image":null,"label":null,"display":"text-only","type":"text","enable_detail":true,"related":{"url":"https://truyenx.link/truyensextv/channels/related/643","request_headers":[]},"share":{"url":"https://truyenx.link/truyensextv/channels/share/dao-tao-nu-sinh"},"remote_data":{"url":"https://truyenx.link/truyensextv/channels/dao-tao-nu-sinh"}},{"id":"642-channel","name":"Liên minh nữ thần","description":"Đàm Tuấn Khải là một cậu bé mồ côi, cậu vốn dĩ là một cậu ấm sống trong nhung lụa, với sự yêu thương của bố mẹ, nhưng cậu đâu biết rằng, tai hoạ đang sắp giáng xuống...","image":null,"label":null,"display":"text-only","type":"text","enable_detail":true,"related":{"url":"https://truyenx.link/truyensextv/channels/related/642","request_headers":[]},"share":{"url":"https://truyenx.link/truyensextv/channels/share/lien-minh-nu-than"},"remote_data":{"url":"https://truyenx.link/truyensextv/channels/lien-minh-nu-than"}},{"id":"641-channel","name":"Không cho sờ vú, lại cho bú lồn","description":"Năm đó lâu rùi, mình vừa mới đi làm, 1 công việc trái nghành học nhưng mình biết cuộc sống đâu dễ kiếm việc như ý, nên xác định làm một thời gian để chờ thời cơ đến. Vào...","image":null,"label":null,"display":"text-only","type":"text","enable_detail":true,"related":{"url":"https://truyenx.link/truyensextv/channels/related/641","request_headers":[]},"share":{"url":"https://truyenx.link/truyensextv/channels/share/khong-cho-so-vu-lai-cho-bu-lon"},"remote_data":{"url":"https://truyenx.link/truyensextv/channels/khong-cho-so-vu-lai-cho-bu-lon"}},{"id":"640-channel","name":"Địt gấu nhà","description":"Lang thang trên đường phố đông đúc, Hà Nội giờ tan tầm tắc đường tiếng còi xe inh ỏi chen chúc nhau nhích từng tý 1 giữa dòng người đông đúc, thật khiến con người ta mệt mỏi...","image":null,"label":null,"display":"text-only","type":"text","enable_detail":true,"related":{"url":"https://truyenx.link/truyensextv/channels/related/640","request_headers":[]},"share":{"url":"https://truyenx.link/truyensextv/channels/share/dit-gau-nha"},"remote_data":{"url":"https://truyenx.link/truyensextv/channels/dit-gau-nha"}},{"id":"639-channel","name":"Bắn tinh vào lồn vợ người","description":"Cặp vợ chồng chồng Lâm & Dung tôi đã từng some vài lần trước và sau tết 2016, anh chồng làm bên điện lanh còn bà vợ nội trợ, trong vài lần đầu có some chung với 1 anh bạn...","image":null,"label":null,"display":"text-only","type":"text","enable_detail":true,"related":{"url":"https://truyenx.link/truyensextv/channels/related/639","request_headers":[]},"share":{"url":"https://truyenx.link/truyensextv/channels/share/ban-tinh-vao-lon-vo-nguoi"},"remote_data":{"url":"https://truyenx.link/truyensextv/channels/ban-tinh-vao-lon-vo-nguoi"}},{"id":"638-channel","name":"Đụ nát lồn cả hai mẹ con","description":"Năm ấy sau khi tốt nghiệp cao đẳng, chờ mãi không được tuyển dụng mình đành nộp hồ sơ vào công ty tư nhân của ông anh chuyên về môi giới việc làm, cho thuê lao động thời vụ...","image":null,"label":null,"display":"text-only","type":"text","enable_detail":true,"related":{"url":"https://truyenx.link/truyensextv/channels/related/638","request_headers":[]},"share":{"url":"https://truyenx.link/truyensextv/channels/share/du-nat-lon-ca-hai-me-con"},"remote_data":{"url":"https://truyenx.link/truyensextv/channels/du-nat-lon-ca-hai-me-con"}},{"id":"637-channel","name":"Tâm sự cuối năm","description":"Tôi và em học cùng cấp 3, suốt 3 năm học cùng nhau không có ấn tượng gì về em, em không xinh, không chân dài, lực học bình thường, ít hòa đồng với các bạn cùng lớp. Sau gần 20...","image":null,"label":null,"display":"text-only","type":"text","enable_detail":true,"related":{"url":"https://truyenx.link/truyensextv/channels/related/637","request_headers":[]},"share":{"url":"https://truyenx.link/truyensextv/channels/share/tam-su-cuoi-nam"},"remote_data":{"url":"https://truyenx.link/truyensextv/channels/tam-su-cuoi-nam"}},{"id":"636-channel","name":"Cô giáo chủ nhiệm","description":"Tôi còn nhớ, hôm ấy là một ngay khá đẹp trời, chúng tôi đang trong giờ thể dục của ngày đầu tiên bước vào lớp 10. Nghĩ nghĩ nhiều khi lớp 10 mà tôi cứ như học sinh tiểu...","image":null,"label":null,"display":"text-only","type":"text","enable_detail":true,"related":{"url":"https://truyenx.link/truyensextv/channels/related/636","request_headers":[]},"share":{"url":"https://truyenx.link/truyensextv/channels/share/co-giao-chu-nhiem"},"remote_data":{"url":"https://truyenx.link/truyensextv/channels/co-giao-chu-nhiem"}},{"id":"635-channel","name":"Con đụ mẹ","description":"Ba tôi bị tai nạn qua đời không lâu thì tôi mới bất đầu quan tâm để ý đến mẹ tôi nhiều hơn, hôm ấy tôi đi học về sớm, chạy lên phòng thì nghe mẹ gọi: Con mới đi học về...","image":null,"label":null,"display":"text-only","type":"text","enable_detail":true,"related":{"url":"https://truyenx.link/truyensextv/channels/related/635","request_headers":[]},"share":{"url":"https://truyenx.link/truyensextv/channels/share/con-du-me"},"remote_data":{"url":"https://truyenx.link/truyensextv/channels/con-du-me"}},{"id":"634-channel","name":"Không trọn vẹn","description":"Nhà nó có hai anh em, 1 trai và 1 gái, nó là anh cả trong nhà, vì thế nên từ nhỏ đã sớm xốc vác việc trong gia đình. Ở cái Thành phố nghèo vùng trung du này, nhà nó cũng thuộc diện...","image":null,"label":null,"display":"text-only","type":"text","enable_detail":true,"related":{"url":"https://truyenx.link/truyensextv/channels/related/634","request_headers":[]},"share":{"url":"https://truyenx.link/truyensextv/channels/share/khong-tron-ven"},"remote_data":{"url":"https://truyenx.link/truyensextv/channels/khong-tron-ven"}},{"id":"633-channel","name":"Ỷ thiên đồ long ký - Quyển 1","description":"008… 008, mục tiêu ở hướng Đông Nam, tọa độ 43, kinh độ và vĩ độ xx, nghe được xin trả lời! Nghe được xin trả lời! Bên trong bộ đàm truyền đến giọng nói trẻ trung của...","image":null,"label":null,"display":"text-only","type":"text","enable_detail":true,"related":{"url":"https://truyenx.link/truyensextv/channels/related/633","request_headers":[]},"share":{"url":"https://truyenx.link/truyensextv/channels/share/y-thien-do-long-ky-quyen-1"},"remote_data":{"url":"https://truyenx.link/truyensextv/channels/y-thien-do-long-ky-quyen-1"}},{"id":"632-channel","name":"Một buổi some đáng nhớ","description":"21h45′ Điện thoại reo ... reng reng reng... Lúc này mình đang làm đêm tại công ty. Alo anh ... hả, anh chị khoẻ chứ? Anh chị khoẻ em, em đang làm gì vậy? Dạ em đang làm đêm ở công...","image":null,"label":null,"display":"text-only","type":"text","enable_detail":true,"related":{"url":"https://truyenx.link/truyensextv/channels/related/632","request_headers":[]},"share":{"url":"https://truyenx.link/truyensextv/channels/share/mot-buoi-some-dang-nho"},"remote_data":{"url":"https://truyenx.link/truyensextv/channels/mot-buoi-some-dang-nho"}},{"id":"631-channel","name":"Dưới ánh trăng soi","description":"Tôi tốt nghiệp ra trường đúng vào cái dịp Hà Nội đang hứng chịu đợt lũ lụt lịch sử, vì thế mà thật là đáng nhớ... Hôm tôi bảo vệ đồ án, nước còn ngập trắng sân...","image":null,"label":null,"display":"text-only","type":"text","enable_detail":true,"related":{"url":"https://truyenx.link/truyensextv/channels/related/631","request_headers":[]},"share":{"url":"https://truyenx.link/truyensextv/channels/share/duoi-anh-trang-soi"},"remote_data":{"url":"https://truyenx.link/truyensextv/channels/duoi-anh-trang-soi"}},{"id":"630-channel","name":"Chút kỷ niệm xưa","description":"Tôi, 1 người đàn ông đã có gia đình. Vợ tôi không thật xinh nhưng cũng không phải xấu, công việc ổn định, gia đình lại khá, nhiều người vẫn thầm mong ước lấy làm vợ, làm...","image":null,"label":null,"display":"text-only","type":"text","enable_detail":true,"related":{"url":"https://truyenx.link/truyensextv/channels/related/630","request_headers":[]},"share":{"url":"https://truyenx.link/truyensextv/channels/share/chut-ky-niem-xua"},"remote_data":{"url":"https://truyenx.link/truyensextv/channels/chut-ky-niem-xua"}},{"id":"629-channel","name":"Ăn gấu của thằng em","description":"Chuyện là thế này, hồi đó thằng em với gấu nó giận nhau thế éo nào đấy thì mình cũng chẳng biết, cơ mà con gấu nó tìm mình tâm sự, chả là mấy anh em cũng thân. Thì tối đó, 2...","image":null,"label":null,"display":"text-only","type":"text","enable_detail":true,"related":{"url":"https://truyenx.link/truyensextv/channels/related/629","request_headers":[]},"share":{"url":"https://truyenx.link/truyensextv/channels/share/an-gau-cua-thang-em"},"remote_data":{"url":"https://truyenx.link/truyensextv/channels/an-gau-cua-thang-em"}},{"id":"628-channel","name":"Lần đầu chịch bà xã","description":"Số là vợ chồng em quen nhau cũng được hơn 2 năm rồi, ngày đó nhìn bà xã hay hay nên cũng hên xui tìm cách lấy số rồi nhắn tin nói chuyện à ơi, được 1 thời gian thì giở mánh rủ...","image":null,"label":null,"display":"text-only","type":"text","enable_detail":true,"related":{"url":"https://truyenx.link/truyensextv/channels/related/628","request_headers":[]},"share":{"url":"https://truyenx.link/truyensextv/channels/share/lan-dau-chich-ba-xa"},"remote_data":{"url":"https://truyenx.link/truyensextv/channels/lan-dau-chich-ba-xa"}},{"id":"627-channel","name":"Ngoại tình với mẹ vợ","description":"Mình sinh năm 1986 hiện nay đã có một gia đình êm ấm, nhưng thực sự câu chuyện đã diễn ra chưa bao giờ làm mình quên.Nó luôn là điều gì đó đeo đẳng và làm mình không sao quên...","image":null,"label":null,"display":"text-only","type":"text","enable_detail":true,"related":{"url":"https://truyenx.link/truyensextv/channels/related/627","request_headers":[]},"share":{"url":"https://truyenx.link/truyensextv/channels/share/ngoai-tinh-voi-me-vo"},"remote_data":{"url":"https://truyenx.link/truyensextv/channels/ngoai-tinh-voi-me-vo"}},{"id":"626-channel","name":"Em Dung nứng lồn thèm đụ","description":"Dung dướn người, nhấn sâu hai ngón tay vào trong, chân quíu lại. Nàng cảm nhận được nước nhờn tuôn ướt trên ngón tay và nhiễu cả ra ngoài. Nàng rút tay ra khỏi quần xìlíp, thả...","image":null,"label":null,"display":"text-only","type":"text","enable_detail":true,"related":{"url":"https://truyenx.link/truyensextv/channels/related/626","request_headers":[]},"share":{"url":"https://truyenx.link/truyensextv/channels/share/em-dung-nung-lon-them-du"},"remote_data":{"url":"https://truyenx.link/truyensextv/channels/em-dung-nung-lon-them-du"}},{"id":"625-channel","name":"Tội lỗi và dục vọng","description":"Dăm năm trước, mình còn là một thanh niên trẻ mới ra trường, chân ướt chân ráo kiếm cơm ở Sài Gòn. Thật may, chỉ sau một thời gian ngắn, mình được tuyển vào một tập đoàn...","image":null,"label":null,"display":"text-only","type":"text","enable_detail":true,"related":{"url":"https://truyenx.link/truyensextv/channels/related/625","request_headers":[]},"share":{"url":"https://truyenx.link/truyensextv/channels/share/toi-loi-va-duc-vong"},"remote_data":{"url":"https://truyenx.link/truyensextv/channels/toi-loi-va-duc-vong"}},{"id":"624-channel","name":"Món nợ không thể trả","description":"Chuyện của em xin kể... Dịp tết năm ngoái, em có đi về nhà thằng bạn thân chí cốt chơi... Nhân tiệc rượu thằng bạn hơi quá chén.. Con vợ nó càu nhàu, rồi giận dỗi vì không...","image":null,"label":null,"display":"text-only","type":"text","enable_detail":true,"related":{"url":"https://truyenx.link/truyensextv/channels/related/624","request_headers":[]},"share":{"url":"https://truyenx.link/truyensextv/channels/share/mon-no-khong-the-tra"},"remote_data":{"url":"https://truyenx.link/truyensextv/channels/mon-no-khong-the-tra"}},{"id":"623-channel","name":"Cực phẩm dâm dục 3","description":"Đây là Quyển thứ 3 trong bộ “Cực phẩm dâm dục”, anh em nào chưa đọc hai Quyển trước có thể đọc ở link phía dưới. Cực phẩm dâm dục 1 Cực phẩm dâm dục 2 Ông Lâm...","image":null,"label":null,"display":"text-only","type":"text","enable_detail":true,"related":{"url":"https://truyenx.link/truyensextv/channels/related/623","request_headers":[]},"share":{"url":"https://truyenx.link/truyensextv/channels/share/cuc-pham-dam-duc-3"},"remote_data":{"url":"https://truyenx.link/truyensextv/channels/cuc-pham-dam-duc-3"}},{"id":"622-channel","name":"Hai năm yêu nhau","description":"Em là mối tình đầu của tôi và tôi cũng là mối tình đầu của em... Dĩ nhiên nói về sex tôi và em cũng là người đầu tiên của nhau! Lần đầu tiên tôi đưa tay vào ngực em, đó là 1...","image":null,"label":null,"display":"text-only","type":"text","enable_detail":true,"related":{"url":"https://truyenx.link/truyensextv/channels/related/622","request_headers":[]},"share":{"url":"https://truyenx.link/truyensextv/channels/share/hai-nam-yeu-nhau"},"remote_data":{"url":"https://truyenx.link/truyensextv/channels/hai-nam-yeu-nhau"}},{"id":"621-channel","name":"Hòn đá chữ thập","description":"Nè Vy ơi!!! Coi chừng... Hả... !!!!!!Á á á!!!! Con bạn kia chạy lại. Mắt mũi để đâu thế hả!!! Vấp phải hòn đá mà không biết. Huhu! Tại nó đâu phải tại tớ!! Hai đứa cùng...","image":null,"label":null,"display":"text-only","type":"text","enable_detail":true,"related":{"url":"https://truyenx.link/truyensextv/channels/related/621","request_headers":[]},"share":{"url":"https://truyenx.link/truyensextv/channels/share/hon-da-chu-thap"},"remote_data":{"url":"https://truyenx.link/truyensextv/channels/hon-da-chu-thap"}},{"id":"620-channel","name":"Phá trinh em Giang","description":"Anh đè Giang xuống giường, bàn tay anh lần mò từng chiếc cúc áo của cô trong lúc môi anh gắn chặt lấy môi cô không rời, anh hôn ngấu nghiến lên cặp môi xinh xắn của cô... Phía...","image":null,"label":null,"display":"text-only","type":"text","enable_detail":true,"related":{"url":"https://truyenx.link/truyensextv/channels/related/620","request_headers":[]},"share":{"url":"https://truyenx.link/truyensextv/channels/share/pha-trinh-em-giang"},"remote_data":{"url":"https://truyenx.link/truyensextv/channels/pha-trinh-em-giang"}},{"id":"619-channel","name":"Dòng nhật ký buồn","description":"Màn đêm buông xuống, nhìn người chồng đang nằm liệt giường trong bệnh viện với các vết băng bó trên đầu sau một vụ tai nạn giao thông cách đây gần nửa tháng, Thùy, vợ của...","image":null,"label":null,"display":"text-only","type":"text","enable_detail":true,"related":{"url":"https://truyenx.link/truyensextv/channels/related/619","request_headers":[]},"share":{"url":"https://truyenx.link/truyensextv/channels/share/dong-nhat-ky-buon"},"remote_data":{"url":"https://truyenx.link/truyensextv/channels/dong-nhat-ky-buon"}}],"load_more":{"pageInfo":{"current_page":119,"last_page":140,"per_page":30,"total":4188},"paging":{"page_key":"page","size_key":"size"},"remote_data":{"url":"https://truyenx.link/truyensextv/channels"}}}