{
  "grid_number": 1,
  "channels": [
    {
      "id": "3188-channel",
      "name": "Căn gác xép",
      "description": "Hà rủ Chi lên lầu vì ở dưới nhà trống trơn, không có chỗ để nằm. Căn gác gỗ chỉ độc mỗi chiếc chiếu đơn, một người nằm. Nhưng chẳng hề chi, có chỗ để có thể chơi...",
      "image": null,
      "label": null,
      "display": "text-only",
      "type": "text",
      "enable_detail": true,
      "related": {
        "url": "https://truyenx.link/truyensextv/channels/related/3188",
        "request_headers": []
      },
      "share": {
        "url": "https://truyenx.link/truyensextv/channels/share/can-gac-xep"
      },
      "remote_data": {
        "url": "https://truyenx.link/truyensextv/channels/can-gac-xep"
      }
    },
    {
      "id": "3187-channel",
      "name": "Loạn luân trong dòng họ",
      "description": "Tôi năm nay 17 tuổi, tôi có 2 người em họ tên Tú và Vy nhà ngay cạnh nhà tôi, nói là em nhưng mà Tú lớn hơn tôi tận 4 tuổi còn Vy thì lớn hơn tôi 2 tuổi, do mẹ tôi là chị của mẹ...",
      "image": null,
      "label": null,
      "display": "text-only",
      "type": "text",
      "enable_detail": true,
      "related": {
        "url": "https://truyenx.link/truyensextv/channels/related/3187",
        "request_headers": []
      },
      "share": {
        "url": "https://truyenx.link/truyensextv/channels/share/loan-luan-trong-dong-ho"
      },
      "remote_data": {
        "url": "https://truyenx.link/truyensextv/channels/loan-luan-trong-dong-ho"
      }
    },
    {
      "id": "3186-channel",
      "name": "Mẹ kế tuổi đôi mươi",
      "description": "Tiếng trống vang lên báo hiệu giờ tan học. Cuối lớp, một thằng nhóc lớp sáu đang lúi húi gom sách vở vô cặp, nó đeo vội chiếc cặp lên vai rồi tiến ra khỏi cửa lớp học...",
      "image": null,
      "label": null,
      "display": "text-only",
      "type": "text",
      "enable_detail": true,
      "related": {
        "url": "https://truyenx.link/truyensextv/channels/related/3186",
        "request_headers": []
      },
      "share": {
        "url": "https://truyenx.link/truyensextv/channels/share/me-ke-tuoi-doi-muoi"
      },
      "remote_data": {
        "url": "https://truyenx.link/truyensextv/channels/me-ke-tuoi-doi-muoi"
      }
    },
    {
      "id": "3185-channel",
      "name": "Con đường bá chủ - Quyển 12",
      "description": "Kiếm Đan Sơn Trang... Bên trong phòng nghị sự, bầu không khí trở nên có chút nặng nề và áp lực. Ngồi ở vị trí chủ vị là một nam tử trung niên diện mạo đường đường mặc...",
      "image": null,
      "label": null,
      "display": "text-only",
      "type": "text",
      "enable_detail": true,
      "related": {
        "url": "https://truyenx.link/truyensextv/channels/related/3185",
        "request_headers": []
      },
      "share": {
        "url": "https://truyenx.link/truyensextv/channels/share/con-duong-ba-chu-quyen-12"
      },
      "remote_data": {
        "url": "https://truyenx.link/truyensextv/channels/con-duong-ba-chu-quyen-12"
      }
    },
    {
      "id": "3184-channel",
      "name": "Mẹ và cô giáo",
      "description": "Cái nắng oi bức của tháng 4 chiếu vào lớp khiến thằng Phúc khó chịu, trời thì nắng nóng, lại vừa ăn ngay con điểm 2 môn hóa khiến tâm trạng nó bực bội, không muốn học hành...",
      "image": null,
      "label": null,
      "display": "text-only",
      "type": "text",
      "enable_detail": true,
      "related": {
        "url": "https://truyenx.link/truyensextv/channels/related/3184",
        "request_headers": []
      },
      "share": {
        "url": "https://truyenx.link/truyensextv/channels/share/me-va-co-giao"
      },
      "remote_data": {
        "url": "https://truyenx.link/truyensextv/channels/me-va-co-giao"
      }
    },
    {
      "id": "3183-channel",
      "name": "Gái bán hoa",
      "description": "Triệu Đường Diên từ trong túi rút một điếu thuốc lá dành cho phụ nữ, châm lửa lên. Cô mở cửa kính ban công, đứng dựa sang bên cạnh, khói thuốc bay lơ lửng lượn lờ xuyên qua...",
      "image": null,
      "label": null,
      "display": "text-only",
      "type": "text",
      "enable_detail": true,
      "related": {
        "url": "https://truyenx.link/truyensextv/channels/related/3183",
        "request_headers": []
      },
      "share": {
        "url": "https://truyenx.link/truyensextv/channels/share/gai-ban-hoa"
      },
      "remote_data": {
        "url": "https://truyenx.link/truyensextv/channels/gai-ban-hoa"
      }
    },
    {
      "id": "3182-channel",
      "name": "Nghĩa địa vùng ven đô",
      "description": "Quán nhỏ ven rừng, bên cạnh là bãi tha ma. Mưa rừng nghe rào rào trên mái lá. Quán nhỏ đìu hiu, tắt đèn đi ngủ sớm. Hai người chồng hờ nằm hai bên, bà góa chồng nằm giữa. Bà...",
      "image": null,
      "label": null,
      "display": "text-only",
      "type": "text",
      "enable_detail": true,
      "related": {
        "url": "https://truyenx.link/truyensextv/channels/related/3182",
        "request_headers": []
      },
      "share": {
        "url": "https://truyenx.link/truyensextv/channels/share/nghia-dia-vung-ven-do"
      },
      "remote_data": {
        "url": "https://truyenx.link/truyensextv/channels/nghia-dia-vung-ven-do"
      }
    },
    {
      "id": "3181-channel",
      "name": "Hai vợ",
      "description": "Hai vợ ơi! Đi ngủ nào. Kính nghe bên ngoài thì thầm: Chị nghe gì không, ảnh kêu hai đứa hả? Ừ, để xem ảnh cư xử làm sao? Cả hai người vợ cùng dạ rõ to: Hai bà vợ cùng lúc...",
      "image": null,
      "label": null,
      "display": "text-only",
      "type": "text",
      "enable_detail": true,
      "related": {
        "url": "https://truyenx.link/truyensextv/channels/related/3181",
        "request_headers": []
      },
      "share": {
        "url": "https://truyenx.link/truyensextv/channels/share/hai-vo"
      },
      "remote_data": {
        "url": "https://truyenx.link/truyensextv/channels/hai-vo"
      }
    },
    {
      "id": "3180-channel",
      "name": "The BEAST - Quái thú",
      "description": "Chồng to, cao như con bò mộng... Vợ nhỏ nhắn, thanh mảnh như cây tre miễu. Xem ra nồi với vung bất cân xứng. Blue hết sức chú ý tránh những tư thế nằm đè lên người vợ. Hai vợ...",
      "image": null,
      "label": null,
      "display": "text-only",
      "type": "text",
      "enable_detail": true,
      "related": {
        "url": "https://truyenx.link/truyensextv/channels/related/3180",
        "request_headers": []
      },
      "share": {
        "url": "https://truyenx.link/truyensextv/channels/share/the-beast-quai-thu"
      },
      "remote_data": {
        "url": "https://truyenx.link/truyensextv/channels/the-beast-quai-thu"
      }
    },
    {
      "id": "3179-channel",
      "name": "Bà chị họ ngon nước",
      "description": "Hello ace đây là chuyện đầu tay của em nên có gì sai sót mong mn đóng góp ý kiến bên dưới ạ... Xin chào mọi người em tên là Hải 16 tuổi... Em có 1 bà chị họ chơi với em rất thân...",
      "image": null,
      "label": null,
      "display": "text-only",
      "type": "text",
      "enable_detail": true,
      "related": {
        "url": "https://truyenx.link/truyensextv/channels/related/3179",
        "request_headers": []
      },
      "share": {
        "url": "https://truyenx.link/truyensextv/channels/share/ba-chi-ho-ngon-nuoc"
      },
      "remote_data": {
        "url": "https://truyenx.link/truyensextv/channels/ba-chi-ho-ngon-nuoc"
      }
    },
    {
      "id": "3178-channel",
      "name": "Người tình",
      "description": "Lời nói đầu: Bộ truyện ngắn này kể về cuộc tình vụng trộm giữa nữ bác sĩ xinh đẹp trẻ tuổi có chồng nhưng chưa có con với cậu học sinh lớp 9. Cậu ấy tên là Hùng, năm nay...",
      "image": null,
      "label": null,
      "display": "text-only",
      "type": "text",
      "enable_detail": true,
      "related": {
        "url": "https://truyenx.link/truyensextv/channels/related/3178",
        "request_headers": []
      },
      "share": {
        "url": "https://truyenx.link/truyensextv/channels/share/nguoi-tinh"
      },
      "remote_data": {
        "url": "https://truyenx.link/truyensextv/channels/nguoi-tinh"
      }
    },
    {
      "id": "3177-channel",
      "name": "Cô vợ cảnh sát",
      "description": "Mười giờ rưỡi đêm thành phố Giang. Ánh trăng màu bạc tô điểm cho bầu trời xanh đậm, quảng trường huyên náo suốt một ngày lúc này cũng bắt đầu thưa thớt dần, dưới ánh...",
      "image": null,
      "label": null,
      "display": "text-only",
      "type": "text",
      "enable_detail": true,
      "related": {
        "url": "https://truyenx.link/truyensextv/channels/related/3177",
        "request_headers": []
      },
      "share": {
        "url": "https://truyenx.link/truyensextv/channels/share/co-vo-canh-sat"
      },
      "remote_data": {
        "url": "https://truyenx.link/truyensextv/channels/co-vo-canh-sat"
      }
    },
    {
      "id": "3176-channel",
      "name": "Chuyến du lịch của hai vợ chồng",
      "description": "Chuyến du lịch Nha Trang năm đó là một chuyến đi nhiều kỷ niệm tuyệt vời đối với Thanh. Vợ chồng Thanh nghe nói có tour đi Nha Trang 4 ngày 3 đêm của một số bạn hàng ở chợ...",
      "image": null,
      "label": null,
      "display": "text-only",
      "type": "text",
      "enable_detail": true,
      "related": {
        "url": "https://truyenx.link/truyensextv/channels/related/3176",
        "request_headers": []
      },
      "share": {
        "url": "https://truyenx.link/truyensextv/channels/share/chuyen-du-lich-cua-hai-vo-chong"
      },
      "remote_data": {
        "url": "https://truyenx.link/truyensextv/channels/chuyen-du-lich-cua-hai-vo-chong"
      }
    },
    {
      "id": "3175-channel",
      "name": "Bữa ăn dâm loạn",
      "description": "Sơn mở mắt ra thì đã là ngày hôm sau, bên ngoài trời đã sáng tỏ, ánh nắng xuyên qua tấm kính chiếu thẳng vào dâm huyệt của Linh Chi mơi mà đang có một cây dương vật to dài trú...",
      "image": null,
      "label": null,
      "display": "text-only",
      "type": "text",
      "enable_detail": true,
      "related": {
        "url": "https://truyenx.link/truyensextv/channels/related/3175",
        "request_headers": []
      },
      "share": {
        "url": "https://truyenx.link/truyensextv/channels/share/bua-an-dam-loan"
      },
      "remote_data": {
        "url": "https://truyenx.link/truyensextv/channels/bua-an-dam-loan"
      }
    },
    {
      "id": "3174-channel",
      "name": "Yếu sinh lý",
      "description": "Hai chúng ta có duyên mà không nợ. Kết đôi vợ chồng mấy năm rồi, mà mãi vẫn không có con. Hay là mình chia tay nhau đi, trả lại tự do cho nhau. Đường ai nấy đi, hãy lưu lại chút...",
      "image": null,
      "label": null,
      "display": "text-only",
      "type": "text",
      "enable_detail": true,
      "related": {
        "url": "https://truyenx.link/truyensextv/channels/related/3174",
        "request_headers": []
      },
      "share": {
        "url": "https://truyenx.link/truyensextv/channels/share/yeu-sinh-ly"
      },
      "remote_data": {
        "url": "https://truyenx.link/truyensextv/channels/yeu-sinh-ly"
      }
    },
    {
      "id": "3173-channel",
      "name": "Làm nô lệ tình dục cho dượng",
      "description": "Tôi vốn dĩ dâm đãng, nhiều lần thấy bố dượng mình địt mẹ tôi lại càng nứng hơn. Nhìn con cặc to lớn của dượng mà tôi phát thèm, không biết khi đút vào mồm lồn tôi thì...",
      "image": null,
      "label": null,
      "display": "text-only",
      "type": "text",
      "enable_detail": true,
      "related": {
        "url": "https://truyenx.link/truyensextv/channels/related/3173",
        "request_headers": []
      },
      "share": {
        "url": "https://truyenx.link/truyensextv/channels/share/lam-no-le-tinh-duc-cho-duong"
      },
      "remote_data": {
        "url": "https://truyenx.link/truyensextv/channels/lam-no-le-tinh-duc-cho-duong"
      }
    },
    {
      "id": "3171-channel",
      "name": "Làm tình mùa thu",
      "description": "Mùa thu lạnh lá vàng rơi khiến tôi và anh càng nhớ nhau và muốn ôm ấm sưởi ấm khi trời lạnh rét bên ngoài, chúng tôi luôn tơ tưởng và nhớ về nhau và nhắn tin nói yêu thương mong...",
      "image": null,
      "label": null,
      "display": "text-only",
      "type": "text",
      "enable_detail": true,
      "related": {
        "url": "https://truyenx.link/truyensextv/channels/related/3171",
        "request_headers": []
      },
      "share": {
        "url": "https://truyenx.link/truyensextv/channels/share/lam-tinh-mua-thu"
      },
      "remote_data": {
        "url": "https://truyenx.link/truyensextv/channels/lam-tinh-mua-thu"
      }
    },
    {
      "id": "3172-channel",
      "name": "Khai cu em chồng",
      "description": "Huệ đang ngồi nhặt rau muống thì Thái hấp tấp bước tới cửa toilet, kéo vội khóa kéo xuống, chỉ kịp vạch quần lót cho hở cu ra, may mà kịp đái ngay, không thôi đái ra quần mất...",
      "image": null,
      "label": null,
      "display": "text-only",
      "type": "text",
      "enable_detail": true,
      "related": {
        "url": "https://truyenx.link/truyensextv/channels/related/3172",
        "request_headers": []
      },
      "share": {
        "url": "https://truyenx.link/truyensextv/channels/share/khai-cu-em-chong"
      },
      "remote_data": {
        "url": "https://truyenx.link/truyensextv/channels/khai-cu-em-chong"
      }
    },
    {
      "id": "3170-channel",
      "name": "Hoán đổi vợ chồng",
      "description": "Tóm tắt truyện ngắn: Vợ tôi tên Haruko, năm nay 23 tuổi. Cô ấy xinh đẹp dịu dàng và đằm thắm, cô ấy còn khoác lên vẻ kiêu sa lộng lẫy nếu được mặc những bộ trang phục...",
      "image": null,
      "label": null,
      "display": "text-only",
      "type": "text",
      "enable_detail": true,
      "related": {
        "url": "https://truyenx.link/truyensextv/channels/related/3170",
        "request_headers": []
      },
      "share": {
        "url": "https://truyenx.link/truyensextv/channels/share/hoan-doi-vo-chong"
      },
      "remote_data": {
        "url": "https://truyenx.link/truyensextv/channels/hoan-doi-vo-chong"
      }
    },
    {
      "id": "3169-channel",
      "name": "Ước gì",
      "description": "Tâm tự vọc cặc mình cả 15′ mà cặc Tâm vẫn không sao cương lên được. Xưa. Tâm không hề bị yếu sinh lý. Sở dĩ Tâm khổ sở như ngày hôm nay, chỉ vì những cuộc mây mưa...",
      "image": null,
      "label": null,
      "display": "text-only",
      "type": "text",
      "enable_detail": true,
      "related": {
        "url": "https://truyenx.link/truyensextv/channels/related/3169",
        "request_headers": []
      },
      "share": {
        "url": "https://truyenx.link/truyensextv/channels/share/uoc-gi"
      },
      "remote_data": {
        "url": "https://truyenx.link/truyensextv/channels/uoc-gi"
      }
    },
    {
      "id": "3167-channel",
      "name": "Lồn già vẫn nứng",
      "description": "Thấy Chín Cựa qua chơi, bà Tư nài nỉ: Bà đau mỏi thắt lưng quá Chín, bây đấm lưng giùm bà, đây chỗ này nè Chín, nằm cũng đau, ngồi cũng đau, đi khom khom cũng đau, hổng ai đấm...",
      "image": null,
      "label": null,
      "display": "text-only",
      "type": "text",
      "enable_detail": true,
      "related": {
        "url": "https://truyenx.link/truyensextv/channels/related/3167",
        "request_headers": []
      },
      "share": {
        "url": "https://truyenx.link/truyensextv/channels/share/lon-gia-van-nung"
      },
      "remote_data": {
        "url": "https://truyenx.link/truyensextv/channels/lon-gia-van-nung"
      }
    },
    {
      "id": "3168-channel",
      "name": "Số hưởng",
      "description": "Cần gì phải tới hotel chi cho xa, mình chơi nhau ngay trong xe luôn đi, em đang nứng lồn quá anh Tư! Bà chủ chờ chút! Để anh Tư cho xe vào khuất trong rừng, rồi anh Tư giúp em giải nứng...",
      "image": null,
      "label": null,
      "display": "text-only",
      "type": "text",
      "enable_detail": true,
      "related": {
        "url": "https://truyenx.link/truyensextv/channels/related/3168",
        "request_headers": []
      },
      "share": {
        "url": "https://truyenx.link/truyensextv/channels/share/so-huong"
      },
      "remote_data": {
        "url": "https://truyenx.link/truyensextv/channels/so-huong"
      }
    },
    {
      "id": "3165-channel",
      "name": "Lạc thú nhà cô giáo",
      "description": "Chiếc quạt chạy hết công suất khiến cho chiếc váy Linh đang mặc phấp phới tốc lên cao. Linh cảm thấy dễ chịu khi luồng gió mát thổi vào giữa hai háng. Nàng cố tình nằm dạng...",
      "image": null,
      "label": null,
      "display": "text-only",
      "type": "text",
      "enable_detail": true,
      "related": {
        "url": "https://truyenx.link/truyensextv/channels/related/3165",
        "request_headers": []
      },
      "share": {
        "url": "https://truyenx.link/truyensextv/channels/share/lac-thu-nha-co-giao"
      },
      "remote_data": {
        "url": "https://truyenx.link/truyensextv/channels/lac-thu-nha-co-giao"
      }
    },
    {
      "id": "3166-channel",
      "name": "Vô cực",
      "description": "Thế giới mà chúng ta đang sống vẫn còn tồn tại nhiều bí ẩn. Kim tự tháp được xây dựng như thế nào? Hình vẽ khổng lồ ở Nazca? Những phù thủy thời Trung Cổ? Vũ trụ bao la...",
      "image": null,
      "label": null,
      "display": "text-only",
      "type": "text",
      "enable_detail": true,
      "related": {
        "url": "https://truyenx.link/truyensextv/channels/related/3166",
        "request_headers": []
      },
      "share": {
        "url": "https://truyenx.link/truyensextv/channels/share/vo-cuc"
      },
      "remote_data": {
        "url": "https://truyenx.link/truyensextv/channels/vo-cuc"
      }
    },
    {
      "id": "3164-channel",
      "name": "Được mẹ dạy sex",
      "description": "Kể sơ qua cuộc sống của tôi. Tôi là trai 18, vừa kết năm nhất đại học, cao 1m68, không đẹp trai quá gọi là đủ dùng. Gia đình 4 người, ngoài tôi ra còn có bố mẹ và em gái. Bố...",
      "image": null,
      "label": null,
      "display": "text-only",
      "type": "text",
      "enable_detail": true,
      "related": {
        "url": "https://truyenx.link/truyensextv/channels/related/3164",
        "request_headers": []
      },
      "share": {
        "url": "https://truyenx.link/truyensextv/channels/share/duoc-me-day-sex"
      },
      "remote_data": {
        "url": "https://truyenx.link/truyensextv/channels/duoc-me-day-sex"
      }
    },
    {
      "id": "3163-channel",
      "name": "Nỗi đau",
      "description": "Bụp... bụp... Hự... hự... hự... hự... Nó chỉ kêu lên được mấy tiếng rồi lăn vào góc tường ánh mắt nó trừng lên căm phẫn tuy nhiên không dám nhìn kẻ đánh nó, và rồi cũng...",
      "image": null,
      "label": null,
      "display": "text-only",
      "type": "text",
      "enable_detail": true,
      "related": {
        "url": "https://truyenx.link/truyensextv/channels/related/3163",
        "request_headers": []
      },
      "share": {
        "url": "https://truyenx.link/truyensextv/channels/share/noi-dau"
      },
      "remote_data": {
        "url": "https://truyenx.link/truyensextv/channels/noi-dau"
      }
    },
    {
      "id": "3162-channel",
      "name": "Gái Sài Gòn",
      "description": "Tôi và chị vô tình gặp nhau tại sân bay Nội Bài, lúc đang xếp hàng để vào ký gửi hành lý. Chuyến đi này tôi đặt hết hy vọng vào nó, khi mà từ ngày hôm nay tôi sẽ bỏ lại...",
      "image": null,
      "label": null,
      "display": "text-only",
      "type": "text",
      "enable_detail": true,
      "related": {
        "url": "https://truyenx.link/truyensextv/channels/related/3162",
        "request_headers": []
      },
      "share": {
        "url": "https://truyenx.link/truyensextv/channels/share/gai-sai-gon"
      },
      "remote_data": {
        "url": "https://truyenx.link/truyensextv/channels/gai-sai-gon"
      }
    },
    {
      "id": "3161-channel",
      "name": "Cô dâu dâm đãng",
      "description": "Ngồi trong một sảnh cưới cùng những đồng nghiệp trong công ty. Bỗng ánh đèn vụt tắt và điệu nhạc Piano du dương vang lên, ánh đèn sân khấu chiếu vào phía cuối hội trường...",
      "image": null,
      "label": null,
      "display": "text-only",
      "type": "text",
      "enable_detail": true,
      "related": {
        "url": "https://truyenx.link/truyensextv/channels/related/3161",
        "request_headers": []
      },
      "share": {
        "url": "https://truyenx.link/truyensextv/channels/share/co-dau-dam-dang"
      },
      "remote_data": {
        "url": "https://truyenx.link/truyensextv/channels/co-dau-dam-dang"
      }
    },
    {
      "id": "3160-channel",
      "name": "Tình nhân khác",
      "description": "Buổi chiều cuối tuần tại phố thị phồn hoa, tôi đưa con gái với con trai và Trúc Ly đi dạo bằng chiếc xe ô tô bảy chỗ. Ở nơi thành phố hoa lệ này có rất nhiều phương tiện...",
      "image": null,
      "label": null,
      "display": "text-only",
      "type": "text",
      "enable_detail": true,
      "related": {
        "url": "https://truyenx.link/truyensextv/channels/related/3160",
        "request_headers": []
      },
      "share": {
        "url": "https://truyenx.link/truyensextv/channels/share/tinh-nhan-khac"
      },
      "remote_data": {
        "url": "https://truyenx.link/truyensextv/channels/tinh-nhan-khac"
      }
    },
    {
      "id": "3159-channel",
      "name": "Tuyết Vân",
      "description": "Bà Vân năm nay đã bước qua cái tuổi 52. Bà tuy không đẹp sắc nước hương trời, không khêu gợi, quyến rũ theo kiểu xác thịt. Nhưng cái duyên ngầm, nụ cười dịu dàng, lời ăn...",
      "image": null,
      "label": null,
      "display": "text-only",
      "type": "text",
      "enable_detail": true,
      "related": {
        "url": "https://truyenx.link/truyensextv/channels/related/3159",
        "request_headers": []
      },
      "share": {
        "url": "https://truyenx.link/truyensextv/channels/share/tuyet-van"
      },
      "remote_data": {
        "url": "https://truyenx.link/truyensextv/channels/tuyet-van"
      }
    }
  ],
  "load_more": {
    "pageInfo": {
      "current_page": 54,
      "last_page": 140,
      "per_page": 30,
      "total": 4188
    },
    "paging": {
      "page_key": "page",
      "size_key": "size"
    },
    "remote_data": {
      "url": "https://truyenx.link/truyensextv/channels"
    }
  }
}