{
  "grid_number": 1,
  "channels": [
    {
      "id": "228-channel",
      "name": "Xuất tinh lên váy",
      "description": "Tôi hẹn em vào một đêm Valentine. Gió lạnh luồn vào áo làm tôi cảm thấy trống trải. Tôi đưa điếu thuốc lá lên miệng , kéo một hơi dài rồi nhìn về phía cuối xóm. Con nít nhỏ...",
      "image": null,
      "label": null,
      "display": "text-only",
      "type": "text",
      "enable_detail": true,
      "related": {
        "url": "https://truyenx.link/truyensextv/channels/related/228",
        "request_headers": []
      },
      "share": {
        "url": "https://truyenx.link/truyensextv/channels/share/xuat-tinh-len-vay"
      },
      "remote_data": {
        "url": "https://truyenx.link/truyensextv/channels/xuat-tinh-len-vay"
      }
    },
    {
      "id": "227-channel",
      "name": "Hiếp dâm tại nhà Ga",
      "description": "Mưa... Trời vẫn mưa. Những cơn mưa tầm tã trút xuống đường, ngập cả lối đi. Ở một góc sân ga, con Ngọc nằm co ro trong cái bao bố cũ mèm, rách nát. Nó thút thít khóc. Ngồi cạnh...",
      "image": null,
      "label": null,
      "display": "text-only",
      "type": "text",
      "enable_detail": true,
      "related": {
        "url": "https://truyenx.link/truyensextv/channels/related/227",
        "request_headers": []
      },
      "share": {
        "url": "https://truyenx.link/truyensextv/channels/share/hiep-dam-tai-nha-ga"
      },
      "remote_data": {
        "url": "https://truyenx.link/truyensextv/channels/hiep-dam-tai-nha-ga"
      }
    },
    {
      "id": "226-channel",
      "name": "Bị hiếp trong đêm tân hôn",
      "description": "Cuối cùng thì bữa tiệc cưới tàn. Quan khách và họ hàng đã về hết chỉ còn lại Vân và Nam cũng vừa trở về nhà mệt nhoài sau bữa tiệc cưới thật linh đình. Chú rể Nam đang say...",
      "image": null,
      "label": null,
      "display": "text-only",
      "type": "text",
      "enable_detail": true,
      "related": {
        "url": "https://truyenx.link/truyensextv/channels/related/226",
        "request_headers": []
      },
      "share": {
        "url": "https://truyenx.link/truyensextv/channels/share/bi-hiep-trong-dem-tan-hon"
      },
      "remote_data": {
        "url": "https://truyenx.link/truyensextv/channels/bi-hiep-trong-dem-tan-hon"
      }
    },
    {
      "id": "225-channel",
      "name": "Bỏ qua đạo đức",
      "description": "Đứa bé chập chững trên bãi cỏ rồi ngã sóng soài, cô gái trẻ lật đật bế nó vào lòng, bàn tay tí hon của nó sờ soạng và túm chặt lấy ngực mẹ làm cho nàng đỏ mặt gỡ...",
      "image": null,
      "label": null,
      "display": "text-only",
      "type": "text",
      "enable_detail": true,
      "related": {
        "url": "https://truyenx.link/truyensextv/channels/related/225",
        "request_headers": []
      },
      "share": {
        "url": "https://truyenx.link/truyensextv/channels/share/bo-qua-dao-duc"
      },
      "remote_data": {
        "url": "https://truyenx.link/truyensextv/channels/bo-qua-dao-duc"
      }
    },
    {
      "id": "224-channel",
      "name": "Gái một con dâm đãng",
      "description": "Nam hẩy cái mông to tướng, nắc mạnh như trời giáng vào hạ bộ của Trâm. Cái dương vật như cái chày giã gạo cứng ngắc thọc sâu vào ra liên tục làm nàng phải bật lên những...",
      "image": null,
      "label": null,
      "display": "text-only",
      "type": "text",
      "enable_detail": true,
      "related": {
        "url": "https://truyenx.link/truyensextv/channels/related/224",
        "request_headers": []
      },
      "share": {
        "url": "https://truyenx.link/truyensextv/channels/share/gai-mot-con-dam-dang"
      },
      "remote_data": {
        "url": "https://truyenx.link/truyensextv/channels/gai-mot-con-dam-dang"
      }
    },
    {
      "id": "223-channel",
      "name": "Hiếp dâm em vũ nữ",
      "description": "Những tia nắng ban mai len qua khung cửa sổ tràn vào khiến căn phòng bừng sáng hẳn lên. Thu Huyền chợt tỉnh giấc. Nàng chớp chớp đôi mi cong vút vài lần, rồi mở hẳn mắt ra. Nàng...",
      "image": null,
      "label": null,
      "display": "text-only",
      "type": "text",
      "enable_detail": true,
      "related": {
        "url": "https://truyenx.link/truyensextv/channels/related/223",
        "request_headers": []
      },
      "share": {
        "url": "https://truyenx.link/truyensextv/channels/share/hiep-dam-em-vu-nu"
      },
      "remote_data": {
        "url": "https://truyenx.link/truyensextv/channels/hiep-dam-em-vu-nu"
      }
    },
    {
      "id": "222-channel",
      "name": "Bạo lực tình dục",
      "description": "Đứng trước gương Trang đau lòng, nhìn cái thân thể của mình. Cô khóc sướt mướt, khắp thân thể cô chỉ trừ những chỗ lòi ra ngoài quần...",
      "image": null,
      "label": null,
      "display": "text-only",
      "type": "text",
      "enable_detail": true,
      "related": {
        "url": "https://truyenx.link/truyensextv/channels/related/222",
        "request_headers": []
      },
      "share": {
        "url": "https://truyenx.link/truyensextv/channels/share/bao-luc-tinh-duc"
      },
      "remote_data": {
        "url": "https://truyenx.link/truyensextv/channels/bao-luc-tinh-duc"
      }
    },
    {
      "id": "221-channel",
      "name": "Bảy ngày với con dâu",
      "description": "Tiếng của Minh từ phòng máy tính vọng ra: Trâm ơi! Xong chưa em, ra xem cái này nè, hay lắm. Có tiếng của Trâm vọng lại từ phòng tắm. Chờ một chút, honey! Em đang gài nút áo lẹ đây...",
      "image": null,
      "label": null,
      "display": "text-only",
      "type": "text",
      "enable_detail": true,
      "related": {
        "url": "https://truyenx.link/truyensextv/channels/related/221",
        "request_headers": []
      },
      "share": {
        "url": "https://truyenx.link/truyensextv/channels/share/bay-ngay-voi-con-dau"
      },
      "remote_data": {
        "url": "https://truyenx.link/truyensextv/channels/bay-ngay-voi-con-dau"
      }
    },
    {
      "id": "220-channel",
      "name": "Bố dượng bú lồn con riêng",
      "description": "Khi tôi cưới Nhung hai năm trước, lúc đó Trang con bé con riêng của Nhung mới mười bốn và bắt đầu nẩy nở. Bây giờ nó mười sáu nhưng trông như hai sáu, có lúc lại có cử chỉ...",
      "image": null,
      "label": null,
      "display": "text-only",
      "type": "text",
      "enable_detail": true,
      "related": {
        "url": "https://truyenx.link/truyensextv/channels/related/220",
        "request_headers": []
      },
      "share": {
        "url": "https://truyenx.link/truyensextv/channels/share/bo-duong-bu-lon-con-rieng"
      },
      "remote_data": {
        "url": "https://truyenx.link/truyensextv/channels/bo-duong-bu-lon-con-rieng"
      }
    },
    {
      "id": "219-channel",
      "name": "Hiếp dâm tập thể em nữ sinh xinh đẹp",
      "description": "Chi năm nay bước vào tuổi 16 và bắt đầu lên học cấp 3, trường Minh Khai, cấp học cuối cùng của phổ thông. Vào độ tuổi rực rỡ nhất của người con gái nên Chi hết sức xinh...",
      "image": null,
      "label": null,
      "display": "text-only",
      "type": "text",
      "enable_detail": true,
      "related": {
        "url": "https://truyenx.link/truyensextv/channels/related/219",
        "request_headers": []
      },
      "share": {
        "url": "https://truyenx.link/truyensextv/channels/share/hiep-dam-tap-the-em-nu-sinh-xinh-dep"
      },
      "remote_data": {
        "url": "https://truyenx.link/truyensextv/channels/hiep-dam-tap-the-em-nu-sinh-xinh-dep"
      }
    },
    {
      "id": "218-channel",
      "name": "Em Ngọc nứng lồn",
      "description": "Ngọc lấy chồng lúc 25 tuổi, năm này nàng tròn 29 và đã có một đứa con trai hai tuổi. Nàng rất trẻ trung vui tính, chồng nàng hiền lành, nên được tất cả bạn bè thương mến...",
      "image": null,
      "label": null,
      "display": "text-only",
      "type": "text",
      "enable_detail": true,
      "related": {
        "url": "https://truyenx.link/truyensextv/channels/related/218",
        "request_headers": []
      },
      "share": {
        "url": "https://truyenx.link/truyensextv/channels/share/em-ngoc-nung-lon"
      },
      "remote_data": {
        "url": "https://truyenx.link/truyensextv/channels/em-ngoc-nung-lon"
      }
    },
    {
      "id": "217-channel",
      "name": "Hiếp dâm khách du lịch",
      "description": "Mùa hè qua tôi và vợ tôi quyết định mua một chuyến du lịch ở một đảo nhỏ thuộc quần đảo Caribbean. Tụi tôi đem theo Khánh Huyền cô em vợ, gọi là quà đậu đại học. Tưởng...",
      "image": null,
      "label": null,
      "display": "text-only",
      "type": "text",
      "enable_detail": true,
      "related": {
        "url": "https://truyenx.link/truyensextv/channels/related/217",
        "request_headers": []
      },
      "share": {
        "url": "https://truyenx.link/truyensextv/channels/share/hiep-dam-khach-du-lich"
      },
      "remote_data": {
        "url": "https://truyenx.link/truyensextv/channels/hiep-dam-khach-du-lich"
      }
    },
    {
      "id": "216-channel",
      "name": "Phá trinh chị em hàng xóm",
      "description": "Lúc đó tôi hơn 16 tuổi một chút, tôi được hưởng thú làm tình lần đầu tiên với hai cô bạn trong xóm. Linh và Huyền là hai chị em ruột, Linh là chị, lớn hơn tôi hai tuổi, dáng...",
      "image": null,
      "label": null,
      "display": "text-only",
      "type": "text",
      "enable_detail": true,
      "related": {
        "url": "https://truyenx.link/truyensextv/channels/related/216",
        "request_headers": []
      },
      "share": {
        "url": "https://truyenx.link/truyensextv/channels/share/pha-trinh-chi-em-hang-xom"
      },
      "remote_data": {
        "url": "https://truyenx.link/truyensextv/channels/pha-trinh-chi-em-hang-xom"
      }
    },
    {
      "id": "215-channel",
      "name": "Gái đẹp đụ với chó",
      "description": "Hiếu năm nay mới có hai năm tuổi, Hiếu và Tuấn lấy nhau đã gần hai năm, nhưng chưa có con mặc dù cả hai đi khám bác sĩ, họ đều bảo là không có bệnh gì ở hai người có thể gây...",
      "image": null,
      "label": null,
      "display": "text-only",
      "type": "text",
      "enable_detail": true,
      "related": {
        "url": "https://truyenx.link/truyensextv/channels/related/215",
        "request_headers": []
      },
      "share": {
        "url": "https://truyenx.link/truyensextv/channels/share/gai-dep-du-voi-cho"
      },
      "remote_data": {
        "url": "https://truyenx.link/truyensextv/channels/gai-dep-du-voi-cho"
      }
    },
    {
      "id": "214-channel",
      "name": "Hiếp dâm gái nhà lành",
      "description": "Hôm nay cũng như thường lệ, con Nhàn đi chợ thật sớm, vừa bán hết thúng đậu phộng thì ttrời cũng ngã về chiều. Con Nhàn cầm xấp tiền bán được trong tay hí hửng về nhà trong...",
      "image": null,
      "label": null,
      "display": "text-only",
      "type": "text",
      "enable_detail": true,
      "related": {
        "url": "https://truyenx.link/truyensextv/channels/related/214",
        "request_headers": []
      },
      "share": {
        "url": "https://truyenx.link/truyensextv/channels/share/hiep-dam-gai-nha-lanh"
      },
      "remote_data": {
        "url": "https://truyenx.link/truyensextv/channels/hiep-dam-gai-nha-lanh"
      }
    },
    {
      "id": "213-channel",
      "name": "Đụ bồ của Anh Hai",
      "description": "Suýt tí nữa thì tôi bước hụt ở mấy bậc cầu thang. Tôi vô tình bắt gặp Anh Hai đang hôn bạn gái. Ghê quá! Tôi run lên, hai lỗ tai nóng ran. Không biết làm thế nào trong tình cảnh...",
      "image": null,
      "label": null,
      "display": "text-only",
      "type": "text",
      "enable_detail": true,
      "related": {
        "url": "https://truyenx.link/truyensextv/channels/related/213",
        "request_headers": []
      },
      "share": {
        "url": "https://truyenx.link/truyensextv/channels/share/du-bo-cua-anh-hai"
      },
      "remote_data": {
        "url": "https://truyenx.link/truyensextv/channels/du-bo-cua-anh-hai"
      }
    },
    {
      "id": "212-channel",
      "name": "Phá trinh em vợ",
      "description": "Gia đình người yêu Nam có ba anh chị em. Người anh cả đã đi lấy vợ... Ngân là người yêu Nam và dưới Ngân còn có Thúy là cô em út…khi Nam và Ngân yêu nhau, bé Thúy mới có mười...",
      "image": null,
      "label": null,
      "display": "text-only",
      "type": "text",
      "enable_detail": true,
      "related": {
        "url": "https://truyenx.link/truyensextv/channels/related/212",
        "request_headers": []
      },
      "share": {
        "url": "https://truyenx.link/truyensextv/channels/share/pha-trinh-em-vo"
      },
      "remote_data": {
        "url": "https://truyenx.link/truyensextv/channels/pha-trinh-em-vo"
      }
    },
    {
      "id": "211-channel",
      "name": "Hậu quả của ngoại tình",
      "description": "Tại một căn nhà nằm khiêm nhường trong ngõ nhỏ, nơi đó là mái ấm hạnh phúc của vợ chồng Tuấn và Hương. Hàng xóm chiều chiều như vui lây với họ trong niềm hạnh phúc đơn sơ...",
      "image": null,
      "label": null,
      "display": "text-only",
      "type": "text",
      "enable_detail": true,
      "related": {
        "url": "https://truyenx.link/truyensextv/channels/related/211",
        "request_headers": []
      },
      "share": {
        "url": "https://truyenx.link/truyensextv/channels/share/hau-qua-cua-ngoai-tinh"
      },
      "remote_data": {
        "url": "https://truyenx.link/truyensextv/channels/hau-qua-cua-ngoai-tinh"
      }
    },
    {
      "id": "210-channel",
      "name": "Máy bay siêu dâm",
      "description": "Buổi trưa, sau khi ăn uống, các bà trong sòng bài nhà bà Vi nằm trên chiếu vừa xỉa răng vừa nói chuyện. Bà Vi dẫn Báu đến trình diện. Xin giới thiệu với các chị. Đây là em Báu...",
      "image": null,
      "label": null,
      "display": "text-only",
      "type": "text",
      "enable_detail": true,
      "related": {
        "url": "https://truyenx.link/truyensextv/channels/related/210",
        "request_headers": []
      },
      "share": {
        "url": "https://truyenx.link/truyensextv/channels/share/may-bay-sieu-dam"
      },
      "remote_data": {
        "url": "https://truyenx.link/truyensextv/channels/may-bay-sieu-dam"
      }
    },
    {
      "id": "209-channel",
      "name": "Hiếp dâm em Oanh",
      "description": "Con Oanh đặt cái gánh đậu phộng xuống, cầm cái nón lá quạt quạt và ngẩng đầu hỏi tôi: Hôm nay anh mua mấy gói? Mua dùm em nhiều đi, hôm nay trời nóng quá em bán ế còn cả thúng...",
      "image": null,
      "label": null,
      "display": "text-only",
      "type": "text",
      "enable_detail": true,
      "related": {
        "url": "https://truyenx.link/truyensextv/channels/related/209",
        "request_headers": []
      },
      "share": {
        "url": "https://truyenx.link/truyensextv/channels/share/hiep-dam-em-oanh"
      },
      "remote_data": {
        "url": "https://truyenx.link/truyensextv/channels/hiep-dam-em-oanh"
      }
    },
    {
      "id": "208-channel",
      "name": "Thằng cu nhỏ",
      "description": "Bị đám bạn đặt cho cái tên “cu nhỏ”, thằng Toàn thấy ngại vô cùng. Quả thực con cu của nó hơi nhỏ so với đám trai đồng lứa, ngắn nhất chỉ hai phân, lúc cương lên độ 4...",
      "image": null,
      "label": null,
      "display": "text-only",
      "type": "text",
      "enable_detail": true,
      "related": {
        "url": "https://truyenx.link/truyensextv/channels/related/208",
        "request_headers": []
      },
      "share": {
        "url": "https://truyenx.link/truyensextv/channels/share/thang-cu-nho"
      },
      "remote_data": {
        "url": "https://truyenx.link/truyensextv/channels/thang-cu-nho"
      }
    },
    {
      "id": "207-channel",
      "name": "Đụ gái theo đạo",
      "description": "Nhỏ Hiền hồi đó mới mười hai tuổi, nhà ở ngay bên nhà thờ đạo gần Biên Hòa. Mẹ mất sớm, nhà chỉ có hai bố con. Bố nó lái xe chở khách du lịch cho bà Bảy, đi vắng cả...",
      "image": null,
      "label": null,
      "display": "text-only",
      "type": "text",
      "enable_detail": true,
      "related": {
        "url": "https://truyenx.link/truyensextv/channels/related/207",
        "request_headers": []
      },
      "share": {
        "url": "https://truyenx.link/truyensextv/channels/share/du-gai-theo-dao"
      },
      "remote_data": {
        "url": "https://truyenx.link/truyensextv/channels/du-gai-theo-dao"
      }
    },
    {
      "id": "206-channel",
      "name": "Cô giáo đi khách",
      "description": "Ôi chết... Ôi chết mất... Khôi liên tục quặn mình như con rắn. 10 đầu ngón chân và 10 đầu ngón tay của cô quýu lại. Khôi rên xít, kêu ré, khoa tay xin thôi, mà miệng thì cứ thốt...",
      "image": null,
      "label": null,
      "display": "text-only",
      "type": "text",
      "enable_detail": true,
      "related": {
        "url": "https://truyenx.link/truyensextv/channels/related/206",
        "request_headers": []
      },
      "share": {
        "url": "https://truyenx.link/truyensextv/channels/share/co-giao-di-khach"
      },
      "remote_data": {
        "url": "https://truyenx.link/truyensextv/channels/co-giao-di-khach"
      }
    },
    {
      "id": "205-channel",
      "name": "Cave tàu nhanh",
      "description": "Tiếng chuông điện thoại reo vang tại bàn tiếp tân của khách sạn Á Châu trên đường Lê Lai Alô! Khách sạn Á Châu đây đây, xin lỗi chúng tôi giúp gí được cho ông? Ừm ... tôi không...",
      "image": null,
      "label": null,
      "display": "text-only",
      "type": "text",
      "enable_detail": true,
      "related": {
        "url": "https://truyenx.link/truyensextv/channels/related/205",
        "request_headers": []
      },
      "share": {
        "url": "https://truyenx.link/truyensextv/channels/share/cave-tau-nhanh"
      },
      "remote_data": {
        "url": "https://truyenx.link/truyensextv/channels/cave-tau-nhanh"
      }
    },
    {
      "id": "204-channel",
      "name": "Xuất tinh trọng miệng em Dung",
      "description": "Con Dung lại lên xóm trên làm đĩ. Bữa nay nó đi sớm, nhưng trời lúc này cũng đã 5, 6 giờ chiều. Hôm nay nó thấy chán chán sao đó, mấy hôm này gặp toàn mấy thằng khỉ gì đâu...",
      "image": null,
      "label": null,
      "display": "text-only",
      "type": "text",
      "enable_detail": true,
      "related": {
        "url": "https://truyenx.link/truyensextv/channels/related/204",
        "request_headers": []
      },
      "share": {
        "url": "https://truyenx.link/truyensextv/channels/share/xuat-tinh-trong-mieng-em-dung"
      },
      "remote_data": {
        "url": "https://truyenx.link/truyensextv/channels/xuat-tinh-trong-mieng-em-dung"
      }
    },
    {
      "id": "203-channel",
      "name": "Sông Hương",
      "description": "Con Linh đứng trên cầu Trường Tiền ngắm lại mình trong cái gương tròn tròn nho nhỏ trong bóp của nó. Trời về khuya càng tối ù, bóng đen vằng vặc như thế này mà không biết sao nó...",
      "image": null,
      "label": null,
      "display": "text-only",
      "type": "text",
      "enable_detail": true,
      "related": {
        "url": "https://truyenx.link/truyensextv/channels/related/203",
        "request_headers": []
      },
      "share": {
        "url": "https://truyenx.link/truyensextv/channels/share/song-huong"
      },
      "remote_data": {
        "url": "https://truyenx.link/truyensextv/channels/song-huong"
      }
    },
    {
      "id": "202-channel",
      "name": "Chơi đĩ bến Hạ",
      "description": "Người ta cứ luôn nhắc tới “bến Hạ” là nới lắm “ma” xuất hiện về đêm. Cái loại “ma” mà người ta thường nhắc đến không phải là cái loài ma mà...",
      "image": null,
      "label": null,
      "display": "text-only",
      "type": "text",
      "enable_detail": true,
      "related": {
        "url": "https://truyenx.link/truyensextv/channels/related/202",
        "request_headers": []
      },
      "share": {
        "url": "https://truyenx.link/truyensextv/channels/share/choi-di-ben-ha"
      },
      "remote_data": {
        "url": "https://truyenx.link/truyensextv/channels/choi-di-ben-ha"
      }
    },
    {
      "id": "201-channel",
      "name": "Hiến dâng trinh tiết",
      "description": "Rổ mía vẫn còn hơn một nửa, con Huyền ngước nhìn bầu trời đã về chiều, khách xuống đò đã bắt đầu thưa thớt, con nhỏ nhìn lại rổ mía mà ngán ngẩm. Con Huyền buồn cho thân...",
      "image": null,
      "label": null,
      "display": "text-only",
      "type": "text",
      "enable_detail": true,
      "related": {
        "url": "https://truyenx.link/truyensextv/channels/related/201",
        "request_headers": []
      },
      "share": {
        "url": "https://truyenx.link/truyensextv/channels/share/hien-dang-trinh-tiet"
      },
      "remote_data": {
        "url": "https://truyenx.link/truyensextv/channels/hien-dang-trinh-tiet"
      }
    },
    {
      "id": "200-channel",
      "name": "Con đĩ đi bán trinh",
      "description": "Con đĩ đứng run như cầy sấy dưới gốc cây lớn nằm sát bên lề của đường Huyền Trân. Hai hàm răng của nó va và nhau kêu cộp cộp. Mưa, mưa tầm tã, mưa lớn như chẳng bao giờ...",
      "image": null,
      "label": null,
      "display": "text-only",
      "type": "text",
      "enable_detail": true,
      "related": {
        "url": "https://truyenx.link/truyensextv/channels/related/200",
        "request_headers": []
      },
      "share": {
        "url": "https://truyenx.link/truyensextv/channels/share/con-di-di-ban-trinh"
      },
      "remote_data": {
        "url": "https://truyenx.link/truyensextv/channels/con-di-di-ban-trinh"
      }
    },
    {
      "id": "199-channel",
      "name": "Xé rách màng trinh",
      "description": "Sau khi li dị vợ, tôi luôn ở trong tình trạng thèm được đụ. Hầu như ngày nào thằng nhỏ trong quần tôi đã cũng căng phồng tối đa. Đôi khi nó muốn đâm thủng quần để tìm 1 cái...",
      "image": null,
      "label": null,
      "display": "text-only",
      "type": "text",
      "enable_detail": true,
      "related": {
        "url": "https://truyenx.link/truyensextv/channels/related/199",
        "request_headers": []
      },
      "share": {
        "url": "https://truyenx.link/truyensextv/channels/share/xe-rach-mang-trinh"
      },
      "remote_data": {
        "url": "https://truyenx.link/truyensextv/channels/xe-rach-mang-trinh"
      }
    }
  ],
  "load_more": {
    "pageInfo": {
      "current_page": 133,
      "last_page": 140,
      "per_page": 30,
      "total": 4188
    },
    "paging": {
      "page_key": "page",
      "size_key": "size"
    },
    "remote_data": {
      "url": "https://truyenx.link/truyensextv/channels"
    }
  }
}