{"grid_number":1,"channels":[{"id":"1578-channel","name":"Công Dung Ngôn Hạnh","description":"Thằng Phát điều chỉnh ống nhòm cho được rõ tối đa. Ở bên kia một thiếu nữ khoảng chừng đôi mươi vừa hát, vừa tắm. Con Dung, tên của cô gái không hề hay biết toàn bộ thân...","image":null,"label":null,"display":"text-only","type":"text","enable_detail":true,"related":{"url":"https://truyenx.link/truyensextv/channels/related/1578","request_headers":[]},"share":{"url":"https://truyenx.link/truyensextv/channels/share/cong-dung-ngon-hanh"},"remote_data":{"url":"https://truyenx.link/truyensextv/channels/cong-dung-ngon-hanh"}},{"id":"1577-channel","name":"Thơ ngây","description":"Vậy là lại thêm một cái xuân nữa về, thằng Khấu đã 20, cái tuổi phải lấy vợ. Lão Tín đắn đo suy nghĩ, chọn lựa vợ cho con. Con trai lão hiền lành, chân chất nhưng lại nhu...","image":null,"label":null,"display":"text-only","type":"text","enable_detail":true,"related":{"url":"https://truyenx.link/truyensextv/channels/related/1577","request_headers":[]},"share":{"url":"https://truyenx.link/truyensextv/channels/share/tho-ngay"},"remote_data":{"url":"https://truyenx.link/truyensextv/channels/tho-ngay"}},{"id":"1576-channel","name":"Cháu gái mới lớn","description":"Tôi là con út trong một gia đình nông dân ở miền Tây sông nước. Tôi có 1 cô cháu gái gọi tôi là cậu nhỏ hơn mình 4 tuổi và là cháu ngoại của một người dì trong gia đình bên...","image":null,"label":null,"display":"text-only","type":"text","enable_detail":true,"related":{"url":"https://truyenx.link/truyensextv/channels/related/1576","request_headers":[]},"share":{"url":"https://truyenx.link/truyensextv/channels/share/chau-gai-moi-lon"},"remote_data":{"url":"https://truyenx.link/truyensextv/channels/chau-gai-moi-lon"}},{"id":"1575-channel","name":"Gã Lý","description":"Lan ơi xong chưa em? Nhanh lên, sắp đến giờ mình hẹn người ta rồi. Anh đợi em chút, xong ngay đây ạ. Lan vừa đáp với ra cửa vừa nhanh tay cài nốt một bên khuyên lên tai. Nàng năm...","image":null,"label":null,"display":"text-only","type":"text","enable_detail":true,"related":{"url":"https://truyenx.link/truyensextv/channels/related/1575","request_headers":[]},"share":{"url":"https://truyenx.link/truyensextv/channels/share/ga-ly"},"remote_data":{"url":"https://truyenx.link/truyensextv/channels/ga-ly"}},{"id":"1574-channel","name":"Con bé nhà bên","description":"Con bé ngồi dạng háng hết cỡ sát mép bàn ăn, trên người nó không còn một mảnh vải che thân, Đứng dưới đất là ông già hàng xóm trạc tuổi lục tuần, cũng trần truồng như...","image":null,"label":null,"display":"text-only","type":"text","enable_detail":true,"related":{"url":"https://truyenx.link/truyensextv/channels/related/1574","request_headers":[]},"share":{"url":"https://truyenx.link/truyensextv/channels/share/con-be-nha-ben"},"remote_data":{"url":"https://truyenx.link/truyensextv/channels/con-be-nha-ben"}},{"id":"1573-channel","name":"Lần đầu đụ chị họ","description":"Chuyện này mình xin đảm bảo thật 100%, xảy ra mấy năm trước rồi. Dừng chuyện đó hơn năm trời rồi nên mới dám kể cho anh em chứ còn abcxyz thì chắc không dám đưa lên đâu...","image":null,"label":null,"display":"text-only","type":"text","enable_detail":true,"related":{"url":"https://truyenx.link/truyensextv/channels/related/1573","request_headers":[]},"share":{"url":"https://truyenx.link/truyensextv/channels/share/lan-dau-du-chi-ho"},"remote_data":{"url":"https://truyenx.link/truyensextv/channels/lan-dau-du-chi-ho"}},{"id":"1572-channel","name":"Bị mỹ đen hiếp dâm tập thể","description":"Nghe tiếng bấm chuông, bà Lan trạc tuổi 35, từ sau nhà bếp hối hả chạy ra mở. “Lại bỏ quên chìa khóa nữa rồi” bà lầu bầu. Cửa mở, trước mặt bà xuất hiện bốn gã...","image":null,"label":null,"display":"text-only","type":"text","enable_detail":true,"related":{"url":"https://truyenx.link/truyensextv/channels/related/1572","request_headers":[]},"share":{"url":"https://truyenx.link/truyensextv/channels/share/bi-my-den-hiep-dam-tap-the"},"remote_data":{"url":"https://truyenx.link/truyensextv/channels/bi-my-den-hiep-dam-tap-the"}},{"id":"1571-channel","name":"Bến gỗ","description":"Tôi lần theo đám thợ rừng, trôi dạt về Cao Thạch. Vì kiếm miếng cơm sinh sống mà chui vào xó xỉnh nơi góc rừng này, không mong gì ngóc đầu lên nổi. Cái xóm đìu hiu hẻo lánh...","image":null,"label":null,"display":"text-only","type":"text","enable_detail":true,"related":{"url":"https://truyenx.link/truyensextv/channels/related/1571","request_headers":[]},"share":{"url":"https://truyenx.link/truyensextv/channels/share/ben-go"},"remote_data":{"url":"https://truyenx.link/truyensextv/channels/ben-go"}},{"id":"1570-channel","name":"Thị trấn đầy cám giỗ","description":"Một con đường ngắn chỉ bằng một ngón tay trên bản đồ, ngắn đến buồn cười, nhưng hắn lại phải ngồi bằng ô tô đê đến thành phố, quãng đường gập ghềnh khiến mọi...","image":null,"label":null,"display":"text-only","type":"text","enable_detail":true,"related":{"url":"https://truyenx.link/truyensextv/channels/related/1570","request_headers":[]},"share":{"url":"https://truyenx.link/truyensextv/channels/share/thi-tran-day-cam-gio"},"remote_data":{"url":"https://truyenx.link/truyensextv/channels/thi-tran-day-cam-gio"}},{"id":"1569-channel","name":"Những con cặc của em","description":"Em là 1 cô gái xinh đẹp, với 3 vòng rõ ràng trong làn da trắng, có mái tóc dài đen nhánh và nụ cười duyên chết người. Em vừa tròn 18t, cái tuổi đẹp như mộng, em vẫn còn ngây thơ...","image":null,"label":null,"display":"text-only","type":"text","enable_detail":true,"related":{"url":"https://truyenx.link/truyensextv/channels/related/1569","request_headers":[]},"share":{"url":"https://truyenx.link/truyensextv/channels/share/nhung-con-cac-cua-em"},"remote_data":{"url":"https://truyenx.link/truyensextv/channels/nhung-con-cac-cua-em"}},{"id":"1568-channel","name":"Em gái cùng cha khác mẹ","description":"Tôi có một người em tên là Ngọc Vân, còn tôi là Ngọc Tuấn, tôi thì đang học lớp 12 còn Vân lớp 9. Chúng tôi là 2 anh em cùng cha khác mẹ, sống chung một nhà. Nhà tôi cũng chẳng khá...","image":null,"label":null,"display":"text-only","type":"text","enable_detail":true,"related":{"url":"https://truyenx.link/truyensextv/channels/related/1568","request_headers":[]},"share":{"url":"https://truyenx.link/truyensextv/channels/share/em-gai-cung-cha-khac-me"},"remote_data":{"url":"https://truyenx.link/truyensextv/channels/em-gai-cung-cha-khac-me"}},{"id":"1567-channel","name":"Đổi sex lấy điểm","description":"Quỳnh nhận lại bài kiểm của mình mà choáng váng mặt mày... 79 điểm, là con... “C”. Đối với người học trò giỏi, chăm chỉ, siêng năng như Quỳnh thì con “C” không...","image":null,"label":null,"display":"text-only","type":"text","enable_detail":true,"related":{"url":"https://truyenx.link/truyensextv/channels/related/1567","request_headers":[]},"share":{"url":"https://truyenx.link/truyensextv/channels/share/doi-sex-lay-diem"},"remote_data":{"url":"https://truyenx.link/truyensextv/channels/doi-sex-lay-diem"}},{"id":"1566-channel","name":"Hòa - Thuận","description":"Chiếc xe Mercedes rề tới trước cửa chợ rồi ngừng lại, Trung mở đèn khẩn cấp, rồi vòng ra phía sau mở cốp xe, chờ đợi. Hòa đẩy chiếc xe mua thực phẩm đầy ngập những đồ...","image":null,"label":null,"display":"text-only","type":"text","enable_detail":true,"related":{"url":"https://truyenx.link/truyensextv/channels/related/1566","request_headers":[]},"share":{"url":"https://truyenx.link/truyensextv/channels/share/hoa-thuan"},"remote_data":{"url":"https://truyenx.link/truyensextv/channels/hoa-thuan"}},{"id":"1565-channel","name":"Hương đàn bà","description":"Cơn mưa hè càng khiến cho con đường đất trở nên lầy lội. Hai người phụ nữ một tuổi mới lớn, một hãy vừa ngoài 30 đang khó nhọc che chiếc dù nhỏ cố bước qua những hố...","image":null,"label":null,"display":"text-only","type":"text","enable_detail":true,"related":{"url":"https://truyenx.link/truyensextv/channels/related/1565","request_headers":[]},"share":{"url":"https://truyenx.link/truyensextv/channels/share/huong-dan-ba"},"remote_data":{"url":"https://truyenx.link/truyensextv/channels/huong-dan-ba"}},{"id":"1564-channel","name":"Bị cướp đụ","description":"Nghĩ lại chuyện xảy ra của buổi tối hôm qua mà tôi vẫn còn thấy rạo rực và ngây ngất. Có lẽ kể từ ngày theo chồng sang Úc đến giờ, tôi mới tìm lại được cái cảm giác bay...","image":null,"label":null,"display":"text-only","type":"text","enable_detail":true,"related":{"url":"https://truyenx.link/truyensextv/channels/related/1564","request_headers":[]},"share":{"url":"https://truyenx.link/truyensextv/channels/share/bi-cuop-du"},"remote_data":{"url":"https://truyenx.link/truyensextv/channels/bi-cuop-du"}},{"id":"1563-channel","name":"Quán nét đáng nhớ","description":"Tác giả: Huyền Vú Xệ Quê tôi ở nông thôn, nghèo và bình dị. Điều kiện kinh tế nơi đây còn khó khăn và lạc hậu lắm. Trường cấp 3 tôi học cũng vậy, cơ sở chưa được đầu...","image":null,"label":null,"display":"text-only","type":"text","enable_detail":true,"related":{"url":"https://truyenx.link/truyensextv/channels/related/1563","request_headers":[]},"share":{"url":"https://truyenx.link/truyensextv/channels/share/quan-net-dang-nho"},"remote_data":{"url":"https://truyenx.link/truyensextv/channels/quan-net-dang-nho"}},{"id":"1562-channel","name":"Em Vy dâm đãng","description":"Vy khép nép bước từng bước từ khu chòi ra bãi tắm biển. Hôm nay trường của Vy tổ chức đi dã ngoại, tắm biển ở Hồ Cốc. Học sinh cả trường vui vẻ lắm. Bình thường trong...","image":null,"label":null,"display":"text-only","type":"text","enable_detail":true,"related":{"url":"https://truyenx.link/truyensextv/channels/related/1562","request_headers":[]},"share":{"url":"https://truyenx.link/truyensextv/channels/share/em-vy-dam-dang"},"remote_data":{"url":"https://truyenx.link/truyensextv/channels/em-vy-dam-dang"}},{"id":"1561-channel","name":"Cô giáo Dung","description":"Sáng thức dậy, hôm nay là thứ 7. Dù đêm qua đã cùng chị Phương đi chơi về hơi khuya, sáng nay tôi có lười biếng kéo dài giấc ngủ, vẫn không sao nhắm mắt được. Vẫn đắp chăn...","image":null,"label":null,"display":"text-only","type":"text","enable_detail":true,"related":{"url":"https://truyenx.link/truyensextv/channels/related/1561","request_headers":[]},"share":{"url":"https://truyenx.link/truyensextv/channels/share/co-giao-dung"},"remote_data":{"url":"https://truyenx.link/truyensextv/channels/co-giao-dung"}},{"id":"1560-channel","name":"Sex hiện đại","description":"Sài gòn giờ tan tầm người xe như kiến, Tuấn chở vợ đến nhà bạn chơi. Một cuộc hẹn trước cách đây vài ngày, anh Lợi, quản lý một phòng ban trong ngân hàng vợ Tuấn đã mời...","image":null,"label":null,"display":"text-only","type":"text","enable_detail":true,"related":{"url":"https://truyenx.link/truyensextv/channels/related/1560","request_headers":[]},"share":{"url":"https://truyenx.link/truyensextv/channels/share/sex-hien-dai"},"remote_data":{"url":"https://truyenx.link/truyensextv/channels/sex-hien-dai"}},{"id":"1559-channel","name":"Em Ngọc bị bác sĩ địt tung lồn","description":"Ngày mai là ngày vợ chồng Ngọc đi khám hiếm muộn ở bệnh viện lớn của tp. Đó là đôi vợ chồng trẻ mới lấy nhau được 3 năm. Ngọc đang làm nhân viên văn phòng ở một công ty...","image":null,"label":null,"display":"text-only","type":"text","enable_detail":true,"related":{"url":"https://truyenx.link/truyensextv/channels/related/1559","request_headers":[]},"share":{"url":"https://truyenx.link/truyensextv/channels/share/em-ngoc-bi-bac-si-dit-tung-lon"},"remote_data":{"url":"https://truyenx.link/truyensextv/channels/em-ngoc-bi-bac-si-dit-tung-lon"}},{"id":"1558-channel","name":"Đứng ngoài nắng","description":"Đây là một thế giới khác... Tôi nghĩ vậy, mà thực tế nó là vậy, chứ tđn nào ở đây toàn là phụ nữ? Và tôi bị bắt giam khi đang quay tay cơ chứ, mọi chuyện có lẽ vừa bắt...","image":null,"label":null,"display":"text-only","type":"text","enable_detail":true,"related":{"url":"https://truyenx.link/truyensextv/channels/related/1558","request_headers":[]},"share":{"url":"https://truyenx.link/truyensextv/channels/share/dung-ngoai-nang"},"remote_data":{"url":"https://truyenx.link/truyensextv/channels/dung-ngoai-nang"}},{"id":"1557-channel","name":"Gạ anh hàng xóm","description":"Tui có con bạn thân hơn 10 năm . Thật thì anh Duy lớn hơn tụi tui không nhìu lắm có 3 tuổi nên chơi cũng khá thân. Hôm nọ tui qua nhà Nhi đưa ít đồ bữa nó để quên nhà tui, qua nhà...","image":null,"label":null,"display":"text-only","type":"text","enable_detail":true,"related":{"url":"https://truyenx.link/truyensextv/channels/related/1557","request_headers":[]},"share":{"url":"https://truyenx.link/truyensextv/channels/share/ga-anh-hang-xom"},"remote_data":{"url":"https://truyenx.link/truyensextv/channels/ga-anh-hang-xom"}},{"id":"1556-channel","name":"Cô giáo Thu","description":"Hoàng vừa bước vào nhà đã nghe tiếng khóc thút thít. Nó nhìn thấy cô Thu đang ngồi bệt dưới sàn ở phía góc phòng khách. Hoàng vội vàng chạy lại hỏi han. Có chuyện gì vậy cô...","image":null,"label":null,"display":"text-only","type":"text","enable_detail":true,"related":{"url":"https://truyenx.link/truyensextv/channels/related/1556","request_headers":[]},"share":{"url":"https://truyenx.link/truyensextv/channels/share/co-giao-thu"},"remote_data":{"url":"https://truyenx.link/truyensextv/channels/co-giao-thu"}},{"id":"1555-channel","name":"Phá trinh crush","description":"Tôi crush một bạn nữ rất xinh, nó tên Ngân, nó cũng thích tôi, nên chúng tôi nói chuyện rất thân với nhau. Tôi quen nó từ khi tôi học võ, nó nhỏ hơn tôi 2 tuổi nhưng láo lắm... Hay...","image":null,"label":null,"display":"text-only","type":"text","enable_detail":true,"related":{"url":"https://truyenx.link/truyensextv/channels/related/1555","request_headers":[]},"share":{"url":"https://truyenx.link/truyensextv/channels/share/pha-trinh-crush"},"remote_data":{"url":"https://truyenx.link/truyensextv/channels/pha-trinh-crush"}},{"id":"1554-channel","name":"Ngày ấy","description":"Sao cô lại về quê dạy ạ? Có lẽ câu hỏi của tôi làm cô buồn, cô lặng im, đưa mắt chìm trong màn mưa trắng xóa... ánh mắt thoáng hiện lên một nỗi niềm nào đó, cô nhìn tôi...","image":null,"label":null,"display":"text-only","type":"text","enable_detail":true,"related":{"url":"https://truyenx.link/truyensextv/channels/related/1554","request_headers":[]},"share":{"url":"https://truyenx.link/truyensextv/channels/share/ngay-ay"},"remote_data":{"url":"https://truyenx.link/truyensextv/channels/ngay-ay"}},{"id":"1553-channel","name":"Mẹ con loạn luân","description":"Hương bước vào phòng bằng những bước chân của người mộng du. Chả là hôm nay vô tình lúc dọn dẹp phòng cho Tuấn con trai mình, Hương vô tình bắt gặp nhật ký của con trai mình...","image":null,"label":null,"display":"text-only","type":"text","enable_detail":true,"related":{"url":"https://truyenx.link/truyensextv/channels/related/1553","request_headers":[]},"share":{"url":"https://truyenx.link/truyensextv/channels/share/me-con-loan-luan"},"remote_data":{"url":"https://truyenx.link/truyensextv/channels/me-con-loan-luan"}},{"id":"1552-channel","name":"Lá thư của cậu học trò nhân ngày 20-11","description":"11 em kính chúc cô được nhiều niềm vui, hạnh phúc trong cuộc sống và luôn luôn trẻ trung xinh đẹp mỗi ngày đến lớp. Em là một học trò nghèo nên không có gì nhiều để tặng cô...","image":null,"label":null,"display":"text-only","type":"text","enable_detail":true,"related":{"url":"https://truyenx.link/truyensextv/channels/related/1552","request_headers":[]},"share":{"url":"https://truyenx.link/truyensextv/channels/share/la-thu-cua-cau-hoc-tro-nhan-ngay-20-11"},"remote_data":{"url":"https://truyenx.link/truyensextv/channels/la-thu-cua-cau-hoc-tro-nhan-ngay-20-11"}},{"id":"1551-channel","name":"Bắn tinh vào lồn con dâu","description":"Ngọc là một cô gái xinh đẹp, cái nét đẹp mặn mà đằm thắm của cô gái miền Dũng, với khuôn mặt xinh đẹp, làn da trắng mịn màng, mái tóc đen nhánh dài ngang vai, thân hình nóng...","image":null,"label":null,"display":"text-only","type":"text","enable_detail":true,"related":{"url":"https://truyenx.link/truyensextv/channels/related/1551","request_headers":[]},"share":{"url":"https://truyenx.link/truyensextv/channels/share/ban-tinh-vao-lon-con-dau"},"remote_data":{"url":"https://truyenx.link/truyensextv/channels/ban-tinh-vao-lon-con-dau"}},{"id":"1550-channel","name":"Thiên Long","description":"Ngày hôm đó gió êm dịu mặt trời rực sáng, một chiếc Ferrari màu đỏ chậm rãi lái vào cư xá Kim Vịnh, đến trước một tòa nhà thì dừng lại, từ nơi tay lái cửa xe mở ra, một...","image":null,"label":null,"display":"text-only","type":"text","enable_detail":true,"related":{"url":"https://truyenx.link/truyensextv/channels/related/1550","request_headers":[]},"share":{"url":"https://truyenx.link/truyensextv/channels/share/thien-long"},"remote_data":{"url":"https://truyenx.link/truyensextv/channels/thien-long"}},{"id":"1549-channel","name":"Thế giới gái ngon","description":"Ngưu Đại Bức mơ hồ tỉnh lại, hắn phát hiện bản thân biến thành một đứa bé sơ sinh! Lúc đầu có hơi bối rối, nhưng sau đó hắn đã dần dần tiếp thu được chuyện này và...","image":null,"label":null,"display":"text-only","type":"text","enable_detail":true,"related":{"url":"https://truyenx.link/truyensextv/channels/related/1549","request_headers":[]},"share":{"url":"https://truyenx.link/truyensextv/channels/share/the-gioi-gai-ngon"},"remote_data":{"url":"https://truyenx.link/truyensextv/channels/the-gioi-gai-ngon"}}],"load_more":{"pageInfo":{"current_page":88,"last_page":140,"per_page":30,"total":4188},"paging":{"page_key":"page","size_key":"size"},"remote_data":{"url":"https://truyenx.link/truyensextv/channels"}}}