{
  "grid_number": 1,
  "channels": [
    {
      "id": "2365-channel",
      "name": "49 chưa qua, 53 đã tới",
      "description": "Em vào đi, nhớ cẩn thận. Vâng, anh đi làm về sớm nha. Biết rồi! Bye vợ yêu. Nói xong thì Tuấn cũng chịu ấn nút cho thang máy đóng cửa đi xuống, anh mỉm cười mãn nguyện với...",
      "image": null,
      "label": null,
      "display": "text-only",
      "type": "text",
      "enable_detail": true,
      "related": {
        "url": "https://truyenx.link/truyensextv/channels/related/2365",
        "request_headers": []
      },
      "share": {
        "url": "https://truyenx.link/truyensextv/channels/share/49-chua-qua-53-da-toi"
      },
      "remote_data": {
        "url": "https://truyenx.link/truyensextv/channels/49-chua-qua-53-da-toi"
      }
    },
    {
      "id": "2364-channel",
      "name": "Hãm Hiếp Thành Hàm Dương",
      "description": "Lưu Bang chiếm thành Hàm Dương Cuối đời nhà Tần, nhân dân cả nước thay nhau nổi loạn khắp nơi trước triều đình mục nát. Hoàng đế nhà Tần lúc này là Tần Nhị Thế chỉ lo...",
      "image": null,
      "label": null,
      "display": "text-only",
      "type": "text",
      "enable_detail": true,
      "related": {
        "url": "https://truyenx.link/truyensextv/channels/related/2364",
        "request_headers": []
      },
      "share": {
        "url": "https://truyenx.link/truyensextv/channels/share/ham-hiep-thanh-ham-duong"
      },
      "remote_data": {
        "url": "https://truyenx.link/truyensextv/channels/ham-hiep-thanh-ham-duong"
      }
    },
    {
      "id": "2363-channel",
      "name": "Cô giáo chủ nhiệm của tôi",
      "description": "Kỳ thi đại học sắp tới cũng là lúc mà tôi và những cô cậu học sinh khác tập trung hết sức và lực vào kỳ thi quyết định cho 12 năm học. Tôi là một cậu bé khá trầm tính và...",
      "image": null,
      "label": null,
      "display": "text-only",
      "type": "text",
      "enable_detail": true,
      "related": {
        "url": "https://truyenx.link/truyensextv/channels/related/2363",
        "request_headers": []
      },
      "share": {
        "url": "https://truyenx.link/truyensextv/channels/share/co-giao-chu-nhiem-cua-toi"
      },
      "remote_data": {
        "url": "https://truyenx.link/truyensextv/channels/co-giao-chu-nhiem-cua-toi"
      }
    },
    {
      "id": "2362-channel",
      "name": "Đụ Vy",
      "description": "Vy năm nay 23 tuổi, đã lấy chồng nhưng đó chỉ là bức bình phong che mắt thiên hạ. Vy vì cha mẹ mình vỡ nợ nên phải lấy Thắng con trai của chủ nợ để xóa nợ và cũng như là...",
      "image": null,
      "label": null,
      "display": "text-only",
      "type": "text",
      "enable_detail": true,
      "related": {
        "url": "https://truyenx.link/truyensextv/channels/related/2362",
        "request_headers": []
      },
      "share": {
        "url": "https://truyenx.link/truyensextv/channels/share/du-vy"
      },
      "remote_data": {
        "url": "https://truyenx.link/truyensextv/channels/du-vy"
      }
    },
    {
      "id": "2361-channel",
      "name": "Chú rể phụ đụ cô dâu chính",
      "description": "Tôi xin giới thiệu sơ về nhân vật, Tôi tên Hoàng năm nay 25 tuổi, và Tuấn 27 tuổi em trai tôi cũng là chồng của Quế Trân 22 tuổi nhân vật chính trong câu chuyện này. Câu chuyện này...",
      "image": null,
      "label": null,
      "display": "text-only",
      "type": "text",
      "enable_detail": true,
      "related": {
        "url": "https://truyenx.link/truyensextv/channels/related/2361",
        "request_headers": []
      },
      "share": {
        "url": "https://truyenx.link/truyensextv/channels/share/chu-re-phu-du-co-dau-chinh"
      },
      "remote_data": {
        "url": "https://truyenx.link/truyensextv/channels/chu-re-phu-du-co-dau-chinh"
      }
    },
    {
      "id": "2360-channel",
      "name": "Sở thích biến thái",
      "description": "Cô vợ xinh đẹp Đã bao giờ các bạn dám thú nhận với người khác sở thích thầm kín của bản thân không? Dũng cảm để thể hiện nó và chia sẻ với người mình yêu thương? Ai...",
      "image": null,
      "label": null,
      "display": "text-only",
      "type": "text",
      "enable_detail": true,
      "related": {
        "url": "https://truyenx.link/truyensextv/channels/related/2360",
        "request_headers": []
      },
      "share": {
        "url": "https://truyenx.link/truyensextv/channels/share/so-thich-bien-thai"
      },
      "remote_data": {
        "url": "https://truyenx.link/truyensextv/channels/so-thich-bien-thai"
      }
    },
    {
      "id": "2359-channel",
      "name": "Người dì dâm dục",
      "description": "Tôi tên D, tôi xin kể chuyện của tôi cách đây vài năm lúc đấy tôi cũng lớp 10 rồi như bao người khác độ tuổi dậy thì đang rạo rực, cứ nhìn thấy gái là nứng hết lên. Hôm...",
      "image": null,
      "label": null,
      "display": "text-only",
      "type": "text",
      "enable_detail": true,
      "related": {
        "url": "https://truyenx.link/truyensextv/channels/related/2359",
        "request_headers": []
      },
      "share": {
        "url": "https://truyenx.link/truyensextv/channels/share/nguoi-di-dam-duc"
      },
      "remote_data": {
        "url": "https://truyenx.link/truyensextv/channels/nguoi-di-dam-duc"
      }
    },
    {
      "id": "2358-channel",
      "name": "Chuyện quán Net",
      "description": "Một hồi trống vang lên, báo hiệu kỳ thi tuyển sinh vào 10 đã kết thúc. Các thí sinh trong lớp đứng dậy và lần lượt nộp bài, xong thì ra khỏi lớp. Tôi là người cuối cùng còn...",
      "image": null,
      "label": null,
      "display": "text-only",
      "type": "text",
      "enable_detail": true,
      "related": {
        "url": "https://truyenx.link/truyensextv/channels/related/2358",
        "request_headers": []
      },
      "share": {
        "url": "https://truyenx.link/truyensextv/channels/share/chuyen-quan-net"
      },
      "remote_data": {
        "url": "https://truyenx.link/truyensextv/channels/chuyen-quan-net"
      }
    },
    {
      "id": "2357-channel",
      "name": "Lão Thọt",
      "description": "Chuyện về một làng ven biển ở một tỉnh lẻ miền tây, những năm 1995... ... Bạn đang đọc truyện Lão Thọt tại nguồn: http://truyensextv2.cc/lao-thot/ Ê, chia cái này ra làm hai đi... Bà...",
      "image": null,
      "label": null,
      "display": "text-only",
      "type": "text",
      "enable_detail": true,
      "related": {
        "url": "https://truyenx.link/truyensextv/channels/related/2357",
        "request_headers": []
      },
      "share": {
        "url": "https://truyenx.link/truyensextv/channels/share/lao-thot"
      },
      "remote_data": {
        "url": "https://truyenx.link/truyensextv/channels/lao-thot"
      }
    },
    {
      "id": "2356-channel",
      "name": "Cuộc sống thăng hoa",
      "description": "“Anh có vấn đề gì không?” *Buổi sáng: Ngày 9/8/2019 7: 15 AM... Anh Quân, dậy đi mấy giờ rồi? Ngày nào cũng phải gọi như gọi đò thế này em mất kiên nhẫn rồi đấy. Vy lay...",
      "image": null,
      "label": null,
      "display": "text-only",
      "type": "text",
      "enable_detail": true,
      "related": {
        "url": "https://truyenx.link/truyensextv/channels/related/2356",
        "request_headers": []
      },
      "share": {
        "url": "https://truyenx.link/truyensextv/channels/share/cuoc-song-thang-hoa"
      },
      "remote_data": {
        "url": "https://truyenx.link/truyensextv/channels/cuoc-song-thang-hoa"
      }
    },
    {
      "id": "2355-channel",
      "name": "Câu chuyện cuộc đời",
      "description": "Tập thủ dâm Mai Anh sinh ra trong một gia đình khá giả ở An Giang. Ba mẹ làm công việc phân phối hàng sỉ đến các tiệm tạp hóa trong vùng. Sơ sơ thì gia đình có 2 anh em. Vốn được...",
      "image": null,
      "label": null,
      "display": "text-only",
      "type": "text",
      "enable_detail": true,
      "related": {
        "url": "https://truyenx.link/truyensextv/channels/related/2355",
        "request_headers": []
      },
      "share": {
        "url": "https://truyenx.link/truyensextv/channels/share/cau-chuyen-cuoc-doi"
      },
      "remote_data": {
        "url": "https://truyenx.link/truyensextv/channels/cau-chuyen-cuoc-doi"
      }
    },
    {
      "id": "2354-channel",
      "name": "Thời Cô Vy",
      "description": "Xin giới thiệu một chút về bản thân, mình là một bác sĩ mới ra trường đúng lúc dịch Covid 19 đang hoành hành. Thế là sau 1 tháng chống dịch cùng anh em chiến hữu, mình về lại...",
      "image": null,
      "label": null,
      "display": "text-only",
      "type": "text",
      "enable_detail": true,
      "related": {
        "url": "https://truyenx.link/truyensextv/channels/related/2354",
        "request_headers": []
      },
      "share": {
        "url": "https://truyenx.link/truyensextv/channels/share/thoi-co-vy"
      },
      "remote_data": {
        "url": "https://truyenx.link/truyensextv/channels/thoi-co-vy"
      }
    },
    {
      "id": "2353-channel",
      "name": "Đụ cô vợ ở quê",
      "description": "Hồi còn chưa lấy vợ thì tôi hay đi chơi đây đó, đi ngắm cảnh và đi phượt. Tôi rất thích đi lên Tây Bắc vì yêu thích nếp sống văn hóa nơi đây. Vợ tôi là người dân tộc...",
      "image": null,
      "label": null,
      "display": "text-only",
      "type": "text",
      "enable_detail": true,
      "related": {
        "url": "https://truyenx.link/truyensextv/channels/related/2353",
        "request_headers": []
      },
      "share": {
        "url": "https://truyenx.link/truyensextv/channels/share/du-co-vo-o-que"
      },
      "remote_data": {
        "url": "https://truyenx.link/truyensextv/channels/du-co-vo-o-que"
      }
    },
    {
      "id": "2352-channel",
      "name": "Cho tôi một lần gặp lại em",
      "description": "Tuổi thơ không êm đẹp Nó ngồi trong lớp nhìn ra ngoài sân trường, thấy con Phương, con Thụy, con Mai chơi nhảy dây cặp vú đang bắt đầu trưởng thành nảy lên, nảy xuống theo...",
      "image": null,
      "label": null,
      "display": "text-only",
      "type": "text",
      "enable_detail": true,
      "related": {
        "url": "https://truyenx.link/truyensextv/channels/related/2352",
        "request_headers": []
      },
      "share": {
        "url": "https://truyenx.link/truyensextv/channels/share/cho-toi-mot-lan-gap-lai-em"
      },
      "remote_data": {
        "url": "https://truyenx.link/truyensextv/channels/cho-toi-mot-lan-gap-lai-em"
      }
    },
    {
      "id": "2351-channel",
      "name": "Tình yêu của vợ",
      "description": "Vợ tôi, Vy, năm nay 29 tuổi, cái tuổi cận kề 30 đầy sức hút. Nàng thực sự rất đẹp. Ngày xưa đi học thì nàng là hotgirl ở trường. Còn giờ đây, nàng luôn là tâm điểm chú ý...",
      "image": null,
      "label": null,
      "display": "text-only",
      "type": "text",
      "enable_detail": true,
      "related": {
        "url": "https://truyenx.link/truyensextv/channels/related/2351",
        "request_headers": []
      },
      "share": {
        "url": "https://truyenx.link/truyensextv/channels/share/tinh-yeu-cua-vo"
      },
      "remote_data": {
        "url": "https://truyenx.link/truyensextv/channels/tinh-yeu-cua-vo"
      }
    },
    {
      "id": "2350-channel",
      "name": "Bị ngạn lục sắc",
      "description": "Lá thư tình Tại một ngôi trường nhỏ ở thôn quê, âm thanh xào xạc của hàng lá cổ thụ hợp cùng làn gió mát nhẹ nhàng lay động, ríu rít tiếng chim hót trên những cành phượng...",
      "image": null,
      "label": null,
      "display": "text-only",
      "type": "text",
      "enable_detail": true,
      "related": {
        "url": "https://truyenx.link/truyensextv/channels/related/2350",
        "request_headers": []
      },
      "share": {
        "url": "https://truyenx.link/truyensextv/channels/share/bi-ngan-luc-sac"
      },
      "remote_data": {
        "url": "https://truyenx.link/truyensextv/channels/bi-ngan-luc-sac"
      }
    },
    {
      "id": "2349-channel",
      "name": "Tiếng chim hót trong bụi mận gai",
      "description": "Màn đêm tĩnh lặng cộng thêm khói sương mù làm cho cánh rừng hoang trở lên thật đáng sợ với những người yếu bóng vía hay là sợ ma. Ấy thế mà bỗng từ đằng xa đột nhiên...",
      "image": null,
      "label": null,
      "display": "text-only",
      "type": "text",
      "enable_detail": true,
      "related": {
        "url": "https://truyenx.link/truyensextv/channels/related/2349",
        "request_headers": []
      },
      "share": {
        "url": "https://truyenx.link/truyensextv/channels/share/tieng-chim-hot-trong-bui-man-gai"
      },
      "remote_data": {
        "url": "https://truyenx.link/truyensextv/channels/tieng-chim-hot-trong-bui-man-gai"
      }
    },
    {
      "id": "2348-channel",
      "name": "Cuối con đường",
      "description": "Mở Đầu Reng... reng... reng! Âm thanh chết tiệt từ chiếc đồng hồ báo thức kéo tôi ra khỏi giấc mộng đẹp. Nếu là mấy ngày trước, tôi đã không thèm để ý đến nó mà ngủ...",
      "image": null,
      "label": null,
      "display": "text-only",
      "type": "text",
      "enable_detail": true,
      "related": {
        "url": "https://truyenx.link/truyensextv/channels/related/2348",
        "request_headers": []
      },
      "share": {
        "url": "https://truyenx.link/truyensextv/channels/share/cuoi-con-duong"
      },
      "remote_data": {
        "url": "https://truyenx.link/truyensextv/channels/cuoi-con-duong"
      }
    },
    {
      "id": "2347-channel",
      "name": "Hàng xóm bạo dâm em Phương Vy nát lồn",
      "description": "20 tuổi và mua được căn hộ đầu tiên. Tôi là Phương Vy và mới chuyển đến căn nhà mới của mình. Tôi chỉ là một cô gái trẻ bình thường, có giáo dục, có nhiều bạn bè xung...",
      "image": null,
      "label": null,
      "display": "text-only",
      "type": "text",
      "enable_detail": true,
      "related": {
        "url": "https://truyenx.link/truyensextv/channels/related/2347",
        "request_headers": []
      },
      "share": {
        "url": "https://truyenx.link/truyensextv/channels/share/hang-xom-bao-dam-em-phuong-vy-nat-lon"
      },
      "remote_data": {
        "url": "https://truyenx.link/truyensextv/channels/hang-xom-bao-dam-em-phuong-vy-nat-lon"
      }
    },
    {
      "id": "2346-channel",
      "name": "Vỏ sò lật ngược",
      "description": "Có thể bạn biết đến nó hoặc không, con Sò nhỏ trong Đại Dương bao la ngoài kia. Vì Đại Dương thì rộng lớn mà Sò thì nhỏ nhoi, đó là một sự lẻ loi rất thường... Nhưng có...",
      "image": null,
      "label": null,
      "display": "text-only",
      "type": "text",
      "enable_detail": true,
      "related": {
        "url": "https://truyenx.link/truyensextv/channels/related/2346",
        "request_headers": []
      },
      "share": {
        "url": "https://truyenx.link/truyensextv/channels/share/vo-so-lat-nguoc"
      },
      "remote_data": {
        "url": "https://truyenx.link/truyensextv/channels/vo-so-lat-nguoc"
      }
    },
    {
      "id": "2345-channel",
      "name": "Cậu em chồng",
      "description": "Khi bắt đầu bước vào làm dâu trong dòng tộc, Kim cũng không biết được dòng họ nhà này lại nhiều nam nhân đến như vậy. Đếm đi đếm lại ba đời chỉ được hai ba cô con gái...",
      "image": null,
      "label": null,
      "display": "text-only",
      "type": "text",
      "enable_detail": true,
      "related": {
        "url": "https://truyenx.link/truyensextv/channels/related/2345",
        "request_headers": []
      },
      "share": {
        "url": "https://truyenx.link/truyensextv/channels/share/cau-em-chong"
      },
      "remote_data": {
        "url": "https://truyenx.link/truyensextv/channels/cau-em-chong"
      }
    },
    {
      "id": "2344-channel",
      "name": "Vườn hồng",
      "description": "Ngày Ấy Chiều “Thu” thoang thoảng, lá vàng rơi... Bóng “Hồng” lả lướt, khuất xa vời. Có người thanh niên cưỡi ngựa gió... Lướt ngang tiện tay ngắt khóm hoa. Sắc...",
      "image": null,
      "label": null,
      "display": "text-only",
      "type": "text",
      "enable_detail": true,
      "related": {
        "url": "https://truyenx.link/truyensextv/channels/related/2344",
        "request_headers": []
      },
      "share": {
        "url": "https://truyenx.link/truyensextv/channels/share/vuon-hong"
      },
      "remote_data": {
        "url": "https://truyenx.link/truyensextv/channels/vuon-hong"
      }
    },
    {
      "id": "2343-channel",
      "name": "Tu viện dâm tình",
      "description": "Mỗi con người đều có ham muốn, ham muốn tiền tài, danh vọng, quyền lực... Một đứa trẻ muốn có được nhiều đồ chơi đẹp, nhiều món ăn ngon, phụ nữ thì muốn chồng giàu...",
      "image": null,
      "label": null,
      "display": "text-only",
      "type": "text",
      "enable_detail": true,
      "related": {
        "url": "https://truyenx.link/truyensextv/channels/related/2343",
        "request_headers": []
      },
      "share": {
        "url": "https://truyenx.link/truyensextv/channels/share/tu-vien-dam-tinh"
      },
      "remote_data": {
        "url": "https://truyenx.link/truyensextv/channels/tu-vien-dam-tinh"
      }
    },
    {
      "id": "2342-channel",
      "name": "Chuyện một làng quê",
      "description": "Làng quê yên bình Nửa sau thập niên 90 của thế kỷ trước, tại một ngôi làng thuộc vùng đồng bằng bắc bộ của Việt Nam, một ngôi làng thanh bình, với con sông nhỏ uốn khúc...",
      "image": null,
      "label": null,
      "display": "text-only",
      "type": "text",
      "enable_detail": true,
      "related": {
        "url": "https://truyenx.link/truyensextv/channels/related/2342",
        "request_headers": []
      },
      "share": {
        "url": "https://truyenx.link/truyensextv/channels/share/chuyen-mot-lang-que"
      },
      "remote_data": {
        "url": "https://truyenx.link/truyensextv/channels/chuyen-mot-lang-que"
      }
    },
    {
      "id": "2341-channel",
      "name": "Những kỷ niệm vào đời",
      "description": "Minh ơi, Minh! Hú hú... Chim sẻ gọi Đại bàng nghe rõ trả lời! Nghe thấy giọng thằng Ộp, thằng bạn ruột của tôi sẽ cùng tôi kề vai sát cánh những trải nghiệm đầu đời. Vào...",
      "image": null,
      "label": null,
      "display": "text-only",
      "type": "text",
      "enable_detail": true,
      "related": {
        "url": "https://truyenx.link/truyensextv/channels/related/2341",
        "request_headers": []
      },
      "share": {
        "url": "https://truyenx.link/truyensextv/channels/share/nhung-ky-niem-vao-doi"
      },
      "remote_data": {
        "url": "https://truyenx.link/truyensextv/channels/nhung-ky-niem-vao-doi"
      }
    },
    {
      "id": "2340-channel",
      "name": "Đời sống tình dục của Hạ Nghiên",
      "description": "Tiếng la hét của con bạn thân ở đầu dây bên kia khiến cô bất giác tỉnh giấc: ” Hạ Nghiên, đêm qua, đêm... qua, tao đã ngủ cùng một thằng đàn ông lạ mặt, tình một đêm...",
      "image": null,
      "label": null,
      "display": "text-only",
      "type": "text",
      "enable_detail": true,
      "related": {
        "url": "https://truyenx.link/truyensextv/channels/related/2340",
        "request_headers": []
      },
      "share": {
        "url": "https://truyenx.link/truyensextv/channels/share/doi-song-tinh-duc-cua-ha-nghien"
      },
      "remote_data": {
        "url": "https://truyenx.link/truyensextv/channels/doi-song-tinh-duc-cua-ha-nghien"
      }
    },
    {
      "id": "2339-channel",
      "name": "Gia đình nhà vợ",
      "description": "Tôi là Nhân, năm nay 23 tuổi, là chủ tiệm cà phê ở Sài Gòn, năm ngoái tôi may mắn kiếm được cô vợ hơn mình 9 tuổi, cô ấy tên Lan, 32 tuổi và là mẹ đơn thân. Cô ấy bị người...",
      "image": null,
      "label": null,
      "display": "text-only",
      "type": "text",
      "enable_detail": true,
      "related": {
        "url": "https://truyenx.link/truyensextv/channels/related/2339",
        "request_headers": []
      },
      "share": {
        "url": "https://truyenx.link/truyensextv/channels/share/gia-dinh-nha-vo"
      },
      "remote_data": {
        "url": "https://truyenx.link/truyensextv/channels/gia-dinh-nha-vo"
      }
    },
    {
      "id": "2338-channel",
      "name": "Con ma mọc sừng",
      "description": "Tai nạn? Đêm đầu hạ thanh vắng, cả thành phố đang dần chìm vào giấc ngủ sau một ngày tấp nập hối hả. Không khí lúc này đã bớt oi ả. Anh đèn vẫn còn le lói trong căn hộ...",
      "image": null,
      "label": null,
      "display": "text-only",
      "type": "text",
      "enable_detail": true,
      "related": {
        "url": "https://truyenx.link/truyensextv/channels/related/2338",
        "request_headers": []
      },
      "share": {
        "url": "https://truyenx.link/truyensextv/channels/share/con-ma-moc-sung"
      },
      "remote_data": {
        "url": "https://truyenx.link/truyensextv/channels/con-ma-moc-sung"
      }
    },
    {
      "id": "2337-channel",
      "name": "Phò",
      "description": "Xin chào, tôi là Kim Phượng. Nằm vùng ở đây đã lâu. Nay tôi kể về câu chuyện cuộc đời tôi nhân dịp Hà Nội dỡ bỏ chỉ thị 16. Không để mọi người đợi lâu. Tôi bắt đầu...",
      "image": null,
      "label": null,
      "display": "text-only",
      "type": "text",
      "enable_detail": true,
      "related": {
        "url": "https://truyenx.link/truyensextv/channels/related/2337",
        "request_headers": []
      },
      "share": {
        "url": "https://truyenx.link/truyensextv/channels/share/pho"
      },
      "remote_data": {
        "url": "https://truyenx.link/truyensextv/channels/pho"
      }
    },
    {
      "id": "2336-channel",
      "name": "Những mảnh vụn ký ức",
      "description": "Bỡ ngỡ Tua ngược lại khoảng giữa năm lớp 9, hắn và em học khác lớp, không hề quen biết nhau, thậm chí chắc nhiều đứa còn không biết hắn và em có nói chuyện với nhau nữa...",
      "image": null,
      "label": null,
      "display": "text-only",
      "type": "text",
      "enable_detail": true,
      "related": {
        "url": "https://truyenx.link/truyensextv/channels/related/2336",
        "request_headers": []
      },
      "share": {
        "url": "https://truyenx.link/truyensextv/channels/share/nhung-manh-vun-ky-uc"
      },
      "remote_data": {
        "url": "https://truyenx.link/truyensextv/channels/nhung-manh-vun-ky-uc"
      }
    }
  ],
  "load_more": {
    "pageInfo": {
      "current_page": 13,
      "last_page": 140,
      "per_page": 30,
      "total": 4188
    },
    "paging": {
      "page_key": "page",
      "size_key": "size"
    },
    "remote_data": {
      "url": "https://truyenx.link/truyensextv/channels"
    }
  }
}