{"grid_number":1,"channels":[{"id":"3309-channel","name":"Về quê ngoại","description":"Mùa hè năm nay thằng Lâm được ba má nó cho về quê ngoại nghỉ hè một chuyến. Số là nó vừa tốt nghiệp cấp 3 và đậu vào 1 trường đại học. Vì vậy khi có kết quả, ba má nó...","image":null,"label":null,"display":"text-only","type":"text","enable_detail":true,"related":{"url":"https://truyenx.link/truyensextv/channels/related/3309","request_headers":[]},"share":{"url":"https://truyenx.link/truyensextv/channels/share/ve-que-ngoai"},"remote_data":{"url":"https://truyenx.link/truyensextv/channels/ve-que-ngoai"}},{"id":"3308-channel","name":"Gái dâm tự truyện","description":"Tên tôi là Hiên... Và tôi nghĩ tôi là 1 cô gái dâm đãng... Tôi tin sẽ không ai nhận ra vì khi ở trước mặt người nhà họ hàng tôi khá bình thường dù có vẻ ăn chơi xíu nhưng chắc...","image":null,"label":null,"display":"text-only","type":"text","enable_detail":true,"related":{"url":"https://truyenx.link/truyensextv/channels/related/3308","request_headers":[]},"share":{"url":"https://truyenx.link/truyensextv/channels/share/gai-dam-tu-truyen"},"remote_data":{"url":"https://truyenx.link/truyensextv/channels/gai-dam-tu-truyen"}},{"id":"3307-channel","name":"Dụ dỗ mẹ vào con đường loạn luân","description":"Tôi tên là Phúc 17 tuổi, tôi có vẻ là một cậu trai may mắn khi có người mẹ rất xinh đẹp, bà ấy tên là Như đã 36 tuổi rồi mẹ đã từng rất nổi tiếng khi là hoa khôi của xóm...","image":null,"label":null,"display":"text-only","type":"text","enable_detail":true,"related":{"url":"https://truyenx.link/truyensextv/channels/related/3307","request_headers":[]},"share":{"url":"https://truyenx.link/truyensextv/channels/share/du-do-me-vao-con-duong-loan-luan"},"remote_data":{"url":"https://truyenx.link/truyensextv/channels/du-do-me-vao-con-duong-loan-luan"}},{"id":"3306-channel","name":"Mộng hồi xuân","description":"Tôi vẫn nhớ như in 2 lần khó thở khi cuộc hôn nhân đi đến hồi kết. Linh cảm của phụ nữ chẳng bao giờ sai. Khi người đàn ông bắt đầu nhạt nhẽo, không quan tâm đến cảm xúc...","image":null,"label":null,"display":"text-only","type":"text","enable_detail":true,"related":{"url":"https://truyenx.link/truyensextv/channels/related/3306","request_headers":[]},"share":{"url":"https://truyenx.link/truyensextv/channels/share/mong-hoi-xuan"},"remote_data":{"url":"https://truyenx.link/truyensextv/channels/mong-hoi-xuan"}},{"id":"3305-channel","name":"Những cái màng trinh dâm đãng","description":"Linh đã dâm đãng từ nhỏ. Nàng biết mình thèm khát con cặc đến mức nào. Chỉ là cha Linh muốn giữ trinh tiết của cô ấy cho đến khi cô ấy 18 tuổi để bán trinh của nàng, vì vậy...","image":null,"label":null,"display":"text-only","type":"text","enable_detail":true,"related":{"url":"https://truyenx.link/truyensextv/channels/related/3305","request_headers":[]},"share":{"url":"https://truyenx.link/truyensextv/channels/share/nhung-cai-mang-trinh-dam-dang"},"remote_data":{"url":"https://truyenx.link/truyensextv/channels/nhung-cai-mang-trinh-dam-dang"}},{"id":"3304-channel","name":"Chinh phục gái đẹp - Chương 11","description":"Vậy thì phiền toái rồi, trước kia tôi cũng biết tên Đinh Trường Sinh này không phải là người hiền lành, hắn có mạng lưới quan hệ rất lớn, nhưng không nghĩ tới hắn lại có...","image":null,"label":null,"display":"text-only","type":"text","enable_detail":true,"related":{"url":"https://truyenx.link/truyensextv/channels/related/3304","request_headers":[]},"share":{"url":"https://truyenx.link/truyensextv/channels/share/chinh-phuc-gai-dep-chuong-11"},"remote_data":{"url":"https://truyenx.link/truyensextv/channels/chinh-phuc-gai-dep-chuong-11"}},{"id":"3303-channel","name":"Nữ lớp trưởng","description":"Xin chào, xin tự giới thiệu mình là Yến, đang học năm thứ 2 của 1 trường đại học ở thành phố. Nhờ thành tích học tập 12 năm cũng như điểm thi đầu vào tốt tôi được bầu...","image":null,"label":null,"display":"text-only","type":"text","enable_detail":true,"related":{"url":"https://truyenx.link/truyensextv/channels/related/3303","request_headers":[]},"share":{"url":"https://truyenx.link/truyensextv/channels/share/nu-lop-truong"},"remote_data":{"url":"https://truyenx.link/truyensextv/channels/nu-lop-truong"}},{"id":"3302-channel","name":"Nhật ký của Nhi","description":"Tụi mày uống tiếp nha. Tao mệt quá vô nằm ngủ xíu. * Ọeee * Nhi loạng choạng bước vào phòng đóng cửa, tay thì như thói quen lột hết đồ lót vứt bừa ra sàn rồi nằm lên giường...","image":null,"label":null,"display":"text-only","type":"text","enable_detail":true,"related":{"url":"https://truyenx.link/truyensextv/channels/related/3302","request_headers":[]},"share":{"url":"https://truyenx.link/truyensextv/channels/share/nhat-ky-cua-nhi"},"remote_data":{"url":"https://truyenx.link/truyensextv/channels/nhat-ky-cua-nhi"}},{"id":"3301-channel","name":"Cô giáo và người mẹ xinh đẹp","description":"Tôi tên Lưu Hữu Thiên, 16 tuổi cao 1, 78 mét cũng coi là cường tráng, thích chơi bóng rổ, vừa học hết năm đầu trung học giờ đang có một tận hưởng kỳ nghỉ hè ở nhà. Gia đình...","image":null,"label":null,"display":"text-only","type":"text","enable_detail":true,"related":{"url":"https://truyenx.link/truyensextv/channels/related/3301","request_headers":[]},"share":{"url":"https://truyenx.link/truyensextv/channels/share/co-giao-va-nguoi-me-xinh-dep"},"remote_data":{"url":"https://truyenx.link/truyensextv/channels/co-giao-va-nguoi-me-xinh-dep"}},{"id":"3300-channel","name":"Tìm lại bầu trời","description":"Câu chuyện đầu tiên của tôi VỀ EM thật khó lý giải, thời gian đã trôi xa lắm rồi nhưng có lẽ bây giờ, khi tôi đã trưởng thành, khi tâm hồn đã chai sạn bên dòng đời hối hả...","image":null,"label":null,"display":"text-only","type":"text","enable_detail":true,"related":{"url":"https://truyenx.link/truyensextv/channels/related/3300","request_headers":[]},"share":{"url":"https://truyenx.link/truyensextv/channels/share/tim-lai-bau-troi"},"remote_data":{"url":"https://truyenx.link/truyensextv/channels/tim-lai-bau-troi"}},{"id":"3299-channel","name":"Phá trinh gái tơ","description":"Dương vật đâm vào âm đạo gái trinh đau điếng, anh nhấp được vài cái Hà Anh đau quá đẩy anh ra. Anh cũng bị đau chim, ôm chim quằn quại do âm đạo chật quá . Hai người nghỉ...","image":null,"label":null,"display":"text-only","type":"text","enable_detail":true,"related":{"url":"https://truyenx.link/truyensextv/channels/related/3299","request_headers":[]},"share":{"url":"https://truyenx.link/truyensextv/channels/share/pha-trinh-gai-to"},"remote_data":{"url":"https://truyenx.link/truyensextv/channels/pha-trinh-gai-to"}},{"id":"3298-channel","name":"Thầy giáo cùng các cô trò","description":"Chiều nay Minh có hẹn với người thầy cũ của mình, anh là Võ Tuấn Minh năm nay 29 tuổi đang làm giám đốc một bệnh viện tư, nhớ tới ngày xưa còn đi học anh là một đứa phá...","image":null,"label":null,"display":"text-only","type":"text","enable_detail":true,"related":{"url":"https://truyenx.link/truyensextv/channels/related/3298","request_headers":[]},"share":{"url":"https://truyenx.link/truyensextv/channels/share/thay-giao-cung-cac-co-tro"},"remote_data":{"url":"https://truyenx.link/truyensextv/channels/thay-giao-cung-cac-co-tro"}},{"id":"3297-channel","name":"Hồi ký mưa","description":"Reng... Reng... Reng... Hưng is Calling!!! Alo, đợi tí đang đi rồi, gọi đé* gì gọi lắm thế! Hê Hê nhanh lên nhá, xong ra cô chỗ cô Huế lấy mấy điếu thuốc lát nữa tao trả, vừa xin...","image":null,"label":null,"display":"text-only","type":"text","enable_detail":true,"related":{"url":"https://truyenx.link/truyensextv/channels/related/3297","request_headers":[]},"share":{"url":"https://truyenx.link/truyensextv/channels/share/hoi-ky-mua"},"remote_data":{"url":"https://truyenx.link/truyensextv/channels/hoi-ky-mua"}},{"id":"3296-channel","name":"Vợ dâm và những người bạn của chồng","description":"Đã gần 10g30 mà chồng vẫn chưa nhậu về, làm An bực mình. An gọi chồng nhưng để chắc ăn, An gọi facetime cho chồng. Hôm nay bên phòng trọ người bạn có tiệc nên Khánh đi nhậu...","image":null,"label":null,"display":"text-only","type":"text","enable_detail":true,"related":{"url":"https://truyenx.link/truyensextv/channels/related/3296","request_headers":[]},"share":{"url":"https://truyenx.link/truyensextv/channels/share/vo-dam-va-nhung-nguoi-ban-cua-chong"},"remote_data":{"url":"https://truyenx.link/truyensextv/channels/vo-dam-va-nhung-nguoi-ban-cua-chong"}},{"id":"3295-channel","name":"Tâm sự của 9x sắp lấy chồng","description":"Chào các anh chị em trên truyensextv2.cc... Mình là 9x đời giữa, chuẩn bị sang năm sẽ lấy chồng, có một vài tâm sự mà chắc chỉ có thể chia sẻ trên đây chứ không thể nói được...","image":null,"label":null,"display":"text-only","type":"text","enable_detail":true,"related":{"url":"https://truyenx.link/truyensextv/channels/related/3295","request_headers":[]},"share":{"url":"https://truyenx.link/truyensextv/channels/share/tam-su-cua-9x-sap-lay-chong"},"remote_data":{"url":"https://truyenx.link/truyensextv/channels/tam-su-cua-9x-sap-lay-chong"}},{"id":"3294-channel","name":"Mao Sơn ngoại môn","description":"Giáo phái Mao Sơn là tên của một giáo phái Đạo giáo, lấy núi Mao Sơn . Sau 10 năm ẩn dật ở núi Mậu Sơn, ông đã thành lập Giáo phái Mao Sơn...","image":null,"label":null,"display":"text-only","type":"text","enable_detail":true,"related":{"url":"https://truyenx.link/truyensextv/channels/related/3294","request_headers":[]},"share":{"url":"https://truyenx.link/truyensextv/channels/share/mao-son-ngoai-mon"},"remote_data":{"url":"https://truyenx.link/truyensextv/channels/mao-son-ngoai-mon"}},{"id":"3293-channel","name":"4 tiếng mây mưa cùng em vắng chồng","description":"2019 tôi được ông anh đồng nghiệp rủ đi chơi. Hôm đó ông anh đồng nghiệp của tôi có hẹn với cô người yêu của ảnh và cô người yêu của ảnh cũng dẫn theo một em đi chung...","image":null,"label":null,"display":"text-only","type":"text","enable_detail":true,"related":{"url":"https://truyenx.link/truyensextv/channels/related/3293","request_headers":[]},"share":{"url":"https://truyenx.link/truyensextv/channels/share/4-tieng-may-mua-cung-em-vang-chong"},"remote_data":{"url":"https://truyenx.link/truyensextv/channels/4-tieng-may-mua-cung-em-vang-chong"}},{"id":"3292-channel","name":"Ngoại tình với bạn thân chồng","description":"Ở thành phố Kyoto, nơi vùng ngoại ô nọ. Nơi đây, có một cặp vợ chồng mới cưới được hai năm nhưng mà chưa có con. Đôi vợ chồng son mở cửa hàng quán ăn, cà phê, nước giải...","image":null,"label":null,"display":"text-only","type":"text","enable_detail":true,"related":{"url":"https://truyenx.link/truyensextv/channels/related/3292","request_headers":[]},"share":{"url":"https://truyenx.link/truyensextv/channels/share/ngoai-tinh-voi-ban-than-chong"},"remote_data":{"url":"https://truyenx.link/truyensextv/channels/ngoai-tinh-voi-ban-than-chong"}},{"id":"3291-channel","name":"Em được sếp bú lồn","description":"Cái biệt thự sân vườn 3 tầng gồm 1 trệt 2 lầu được thuê dài hạn làm văn phòng công ty, Tầng trệt và tầng thứ nhất là các phòng ban... Tầng thứ hai là văn phòng của sếp ở...","image":null,"label":null,"display":"text-only","type":"text","enable_detail":true,"related":{"url":"https://truyenx.link/truyensextv/channels/related/3291","request_headers":[]},"share":{"url":"https://truyenx.link/truyensextv/channels/share/em-duoc-sep-bu-lon"},"remote_data":{"url":"https://truyenx.link/truyensextv/channels/em-duoc-sep-bu-lon"}},{"id":"3290-channel","name":"Cô em vợ tủi thân","description":"Tôi tuổi Tuất, vợ tôi tuổi Ngọ, cô em vợ tuổi Thân, nghĩa là tôi hơn cô em vợ đúng 10 tuổi. Năm 18 tuổi vợ tôi về làm dâu, được vài tháng thì gia đình tôi sang Mỹ theo diện...","image":null,"label":null,"display":"text-only","type":"text","enable_detail":true,"related":{"url":"https://truyenx.link/truyensextv/channels/related/3290","request_headers":[]},"share":{"url":"https://truyenx.link/truyensextv/channels/share/co-em-vo-tui-than"},"remote_data":{"url":"https://truyenx.link/truyensextv/channels/co-em-vo-tui-than"}},{"id":"3289-channel","name":"Dì tôi","description":"Hello mọi người, lại là tôi đây. Lần này tôi tiếp tục kể cho mọi người về chuyện loạn luân của tôi nhưng lần này không phải là mợ của tôi nữa mà là lần này là dì của...","image":null,"label":null,"display":"text-only","type":"text","enable_detail":true,"related":{"url":"https://truyenx.link/truyensextv/channels/related/3289","request_headers":[]},"share":{"url":"https://truyenx.link/truyensextv/channels/share/di-toi"},"remote_data":{"url":"https://truyenx.link/truyensextv/channels/di-toi"}},{"id":"3288-channel","name":"ĐỊT… ĐÉO… ĐỤ gì cũng được","description":"Nghe Bào nói thằng Dương đã nhận được giấy báo đi học đi học nước ngoài. Trưa mai sẽ tổ chức liên hoan chia tay bạn bè. Dung bàng hoàng lặng người, rồi nhanh chóng rời khỏi...","image":null,"label":null,"display":"text-only","type":"text","enable_detail":true,"related":{"url":"https://truyenx.link/truyensextv/channels/related/3288","request_headers":[]},"share":{"url":"https://truyenx.link/truyensextv/channels/share/dit-deo-du-gi-cung-duoc"},"remote_data":{"url":"https://truyenx.link/truyensextv/channels/dit-deo-du-gi-cung-duoc"}},{"id":"3286-channel","name":"Cứu cánh lúc nửa đêm","description":"Tôi là sinh viên mới ra trường sống thành phố ở trọ. Vì là người miền tây nên tôi há thân thiện à tốt tính. Mỗi sáng tôi thường dắt xe giúp một chị gái vì chúng tôi thường...","image":null,"label":null,"display":"text-only","type":"text","enable_detail":true,"related":{"url":"https://truyenx.link/truyensextv/channels/related/3286","request_headers":[]},"share":{"url":"https://truyenx.link/truyensextv/channels/share/cuu-canh-luc-nua-dem"},"remote_data":{"url":"https://truyenx.link/truyensextv/channels/cuu-canh-luc-nua-dem"}},{"id":"3287-channel","name":"Bàn tay mộng dục","description":"* Xẹt... rẹt... rẹt...* AAAAA... Tiếng la thất thanh của Khanh vì bị giật điện khi rút chui cắm của cái tủ lạnh. Lúc này chị gái của Khanh là Thủy chạy đến em trai đang ngồi bệt...","image":null,"label":null,"display":"text-only","type":"text","enable_detail":true,"related":{"url":"https://truyenx.link/truyensextv/channels/related/3287","request_headers":[]},"share":{"url":"https://truyenx.link/truyensextv/channels/share/ban-tay-mong-duc"},"remote_data":{"url":"https://truyenx.link/truyensextv/channels/ban-tay-mong-duc"}},{"id":"3285-channel","name":"Chịch Anh rể","description":"Thôi nôi con trai đầu lòng, chị tôi muốn tổ chức bữa tiệc xôm xôm mời gia đình hai bên cùng tham dự. Tôi rủ thêm con bạn cùng lớp đến phụ mấy khoản cắm hoa, làm bánh. Lúc hai...","image":null,"label":null,"display":"text-only","type":"text","enable_detail":true,"related":{"url":"https://truyenx.link/truyensextv/channels/related/3285","request_headers":[]},"share":{"url":"https://truyenx.link/truyensextv/channels/share/chich-anh-re"},"remote_data":{"url":"https://truyenx.link/truyensextv/channels/chich-anh-re"}},{"id":"3284-channel","name":"Ác mộng khỏa thân","description":"Trong một căn hộ sang trọng ở chung cư X, Cô gái xinh đẹp có mái tóc dài màu hạt dẻ phủ qua vai, cô mang một vẻ thanh tú không khác gì một bông hoa trong sương sớm, cô tên là Tú Vy...","image":null,"label":null,"display":"text-only","type":"text","enable_detail":true,"related":{"url":"https://truyenx.link/truyensextv/channels/related/3284","request_headers":[]},"share":{"url":"https://truyenx.link/truyensextv/channels/share/ac-mong-khoa-than"},"remote_data":{"url":"https://truyenx.link/truyensextv/channels/ac-mong-khoa-than"}},{"id":"3283-channel","name":"Cuộc đời","description":"Lê Thu Trang sinh năm 1995 thuộc thế hệ của 9x, nàng là một cô gái đẹp. Nàng có nước da trắng muốt láng mịn, tóc nàng để dài đen và dày, nàng cao hơn so với những bạn cùng lứa...","image":null,"label":null,"display":"text-only","type":"text","enable_detail":true,"related":{"url":"https://truyenx.link/truyensextv/channels/related/3283","request_headers":[]},"share":{"url":"https://truyenx.link/truyensextv/channels/share/cuoc-doi"},"remote_data":{"url":"https://truyenx.link/truyensextv/channels/cuoc-doi"}},{"id":"3282-channel","name":"Phố hoa","description":"Buổi chiều, ngày cuối năm ở nơi thành phố hoa lệ với rất nhiều ánh đèn đầy màu sắc. Nơi đây, nơi công viên bên bến sông buồn, nó có nhiều cặp đôi vui chơi đi dạo quanh...","image":null,"label":null,"display":"text-only","type":"text","enable_detail":true,"related":{"url":"https://truyenx.link/truyensextv/channels/related/3282","request_headers":[]},"share":{"url":"https://truyenx.link/truyensextv/channels/share/pho-hoa"},"remote_data":{"url":"https://truyenx.link/truyensextv/channels/pho-hoa"}},{"id":"3281-channel","name":"Không hồi kết","description":"“Hừ Ahhhh... Em yêu... em cảm thấy thế nào... Thật thoải mái! Ahhhh Hừ” 9h tối trong một căn phòng nhỏ ở thành phố, thiếu ánh sáng, không khí mát lạnh của mùa xuân... Một...","image":null,"label":null,"display":"text-only","type":"text","enable_detail":true,"related":{"url":"https://truyenx.link/truyensextv/channels/related/3281","request_headers":[]},"share":{"url":"https://truyenx.link/truyensextv/channels/share/khong-hoi-ket"},"remote_data":{"url":"https://truyenx.link/truyensextv/channels/khong-hoi-ket"}},{"id":"3280-channel","name":"Họa sĩ đa tài","description":"Nam là một họa sĩ có đa tài, nổi tiếng trong giới nghệ thuật, giành được nhiều danh hiệu. Sau 20 năm làm nghệ thuật, anh khao khát một thử thách mới để mở rộng hơn nữa tầm...","image":null,"label":null,"display":"text-only","type":"text","enable_detail":true,"related":{"url":"https://truyenx.link/truyensextv/channels/related/3280","request_headers":[]},"share":{"url":"https://truyenx.link/truyensextv/channels/share/hoa-si-da-tai"},"remote_data":{"url":"https://truyenx.link/truyensextv/channels/hoa-si-da-tai"}}],"load_more":{"pageInfo":{"current_page":50,"last_page":140,"per_page":30,"total":4188},"paging":{"page_key":"page","size_key":"size"},"remote_data":{"url":"https://truyenx.link/truyensextv/channels"}}}