{"grid_number":1,"channels":[{"id":"2245-channel","name":"Những bà hàng xóm dâm đãng","description":"Chào các ông! Đàn ông tụi mình thằng nào chả có 1 tuổi thơ giữ dội... công nhận không? Và tôi cũng thế đấy. Tôi còn nhớ lần đầu tiên tôi xuất tinh là hồi nghỉ hè năm lớp 9...","image":null,"label":null,"display":"text-only","type":"text","enable_detail":true,"related":{"url":"https://truyenx.link/truyensextv/channels/related/2245","request_headers":[]},"share":{"url":"https://truyenx.link/truyensextv/channels/share/nhung-ba-hang-xom-dam-dang"},"remote_data":{"url":"https://truyenx.link/truyensextv/channels/nhung-ba-hang-xom-dam-dang"}},{"id":"2244-channel","name":"Chuyện tình thời cấp ba","description":"Tôi tên là Minh hiện là sinh viên năm nhất của một trường đại học ở Cần Thơ. Quê tôi thì ở Kiên Giang sau khi tốt nghiệp xong thì tôi lên Cần Thơ tiếp tục con đường học vấn...","image":null,"label":null,"display":"text-only","type":"text","enable_detail":true,"related":{"url":"https://truyenx.link/truyensextv/channels/related/2244","request_headers":[]},"share":{"url":"https://truyenx.link/truyensextv/channels/share/chuyen-tinh-thoi-cap-ba"},"remote_data":{"url":"https://truyenx.link/truyensextv/channels/chuyen-tinh-thoi-cap-ba"}},{"id":"2243-channel","name":"Được đụ hai mẹ con bà chủ trọ","description":"Đây là câu chuyện thật của tôi, tôi xin kể lại cho các bạn nghe và rút kinh nghiệm nhé, nhưng truyện thật 100%. Tôi tên Trung năm nay 22t, cao 1m68, ưa nhìn, có tập gym nên được làn da...","image":null,"label":null,"display":"text-only","type":"text","enable_detail":true,"related":{"url":"https://truyenx.link/truyensextv/channels/related/2243","request_headers":[]},"share":{"url":"https://truyenx.link/truyensextv/channels/share/duoc-du-hai-me-con-ba-chu-tro"},"remote_data":{"url":"https://truyenx.link/truyensextv/channels/duoc-du-hai-me-con-ba-chu-tro"}},{"id":"2242-channel","name":"Cứu gái bị tai nạn","description":"Hành lang kìa, hành lang... Địt mẹ mày... im bố bắn. Chả là tui với mấy thằng bạn đang làm trận war clan CF, cái game mà tui chơi được 4 năm trời. Quay qua quay lại con chuột thì...","image":null,"label":null,"display":"text-only","type":"text","enable_detail":true,"related":{"url":"https://truyenx.link/truyensextv/channels/related/2242","request_headers":[]},"share":{"url":"https://truyenx.link/truyensextv/channels/share/cuu-gai-bi-tai-nan"},"remote_data":{"url":"https://truyenx.link/truyensextv/channels/cuu-gai-bi-tai-nan"}},{"id":"2241-channel","name":"Bác ăn xin và cô gái ngọt ngào","description":"Nằm ngay vùng trung tâm của Thành phố Gia Nghĩa, Đắk Nông là một shop mỹ phẩm dành cho chị em phụ nữ, cả shop được quản lý bởi Nhi, một cô nàng mới 19t vừa bước qua cái thời...","image":null,"label":null,"display":"text-only","type":"text","enable_detail":true,"related":{"url":"https://truyenx.link/truyensextv/channels/related/2241","request_headers":[]},"share":{"url":"https://truyenx.link/truyensextv/channels/share/bac-an-xin-va-co-gai-ngot-ngao"},"remote_data":{"url":"https://truyenx.link/truyensextv/channels/bac-an-xin-va-co-gai-ngot-ngao"}},{"id":"2240-channel","name":"Cuộc sống mới của hai mẹ con","description":"DỤC VỌNG TRỖI DẬY Cuộc sống ai chẳng muốn được vui vẻ bên người thân và gia đình, luôn muốn có được sự hạnh phúc và bảo vệ của cha mẹ mình. Tôi tên Nguyễn Tấn Minh sinh...","image":null,"label":null,"display":"text-only","type":"text","enable_detail":true,"related":{"url":"https://truyenx.link/truyensextv/channels/related/2240","request_headers":[]},"share":{"url":"https://truyenx.link/truyensextv/channels/share/cuoc-song-moi-cua-hai-me-con"},"remote_data":{"url":"https://truyenx.link/truyensextv/channels/cuoc-song-moi-cua-hai-me-con"}},{"id":"2239-channel","name":"Mẫu thượng công lược","description":"“Đát, đát, đát, đát...” Tiếng giày cao gót vang lên ngoài hành lang của lớp học, thanh thúy mà vang dội. Âm thanh càng ngày càng gần, trái tim của ta nhảy lên cũng càng lúc...","image":null,"label":null,"display":"text-only","type":"text","enable_detail":true,"related":{"url":"https://truyenx.link/truyensextv/channels/related/2239","request_headers":[]},"share":{"url":"https://truyenx.link/truyensextv/channels/share/mau-thuong-cong-luoc"},"remote_data":{"url":"https://truyenx.link/truyensextv/channels/mau-thuong-cong-luoc"}},{"id":"2238-channel","name":"Mẹ vợ khổ dâm bị cuồng yêu","description":"Tôi tên Doanh, một kỹ sư xây dựng và đã lập gia đình được 2 năm, tuy đã 30 tuổi nhưng tôi may mắn cưới được 1 cô gái trẻ chỉ 18 tuổi tên Vân. Vấn đề nghề nghiệp và cô...","image":null,"label":null,"display":"text-only","type":"text","enable_detail":true,"related":{"url":"https://truyenx.link/truyensextv/channels/related/2238","request_headers":[]},"share":{"url":"https://truyenx.link/truyensextv/channels/share/me-vo-kho-dam-bi-cuong-yeu"},"remote_data":{"url":"https://truyenx.link/truyensextv/channels/me-vo-kho-dam-bi-cuong-yeu"}},{"id":"2237-channel","name":"Những người mợ của tôi","description":"Tôi tên là Hoàng, năm nay 17 tuổi, đang là học sinh lớp 11. Bên ngoại tôi có tổng cộng ba người, trong đó mẹ tôi là chị cả, dưới mẹ tôi còn có hai người cậu, cả hai đều đã...","image":null,"label":null,"display":"text-only","type":"text","enable_detail":true,"related":{"url":"https://truyenx.link/truyensextv/channels/related/2237","request_headers":[]},"share":{"url":"https://truyenx.link/truyensextv/channels/share/nhung-nguoi-mo-cua-toi"},"remote_data":{"url":"https://truyenx.link/truyensextv/channels/nhung-nguoi-mo-cua-toi"}},{"id":"2236-channel","name":"Cô chủ nhiệm","description":"Còn nhớ ngày xưa ấy, ngày đầu tiên đi học của năm cuối cấp, tôi được gặp cô cô Phượng giáo dạy anh văn của tôi đồng thời cũng là giáo viên chủ nhiệm. Có thể khẳng...","image":null,"label":null,"display":"text-only","type":"text","enable_detail":true,"related":{"url":"https://truyenx.link/truyensextv/channels/related/2236","request_headers":[]},"share":{"url":"https://truyenx.link/truyensextv/channels/share/co-chu-nhiem"},"remote_data":{"url":"https://truyenx.link/truyensextv/channels/co-chu-nhiem"}},{"id":"2235-channel","name":"Đấu đá trong 1 gia đình","description":"Bắc hít mạnh một hơi thật sâu, cảm giác mệt mỏi đến mức gần như là bải hoải hết cả chân tay chợt ập đến khiến cho Bắc chợt nhận ra là mình chưa có gì vào bụng từ...","image":null,"label":null,"display":"text-only","type":"text","enable_detail":true,"related":{"url":"https://truyenx.link/truyensextv/channels/related/2235","request_headers":[]},"share":{"url":"https://truyenx.link/truyensextv/channels/share/dau-da-trong-1-gia-dinh"},"remote_data":{"url":"https://truyenx.link/truyensextv/channels/dau-da-trong-1-gia-dinh"}},{"id":"2234-channel","name":"Cô Hằng","description":"Hồi đó tao đang ĐH năm thứ 2, không có người yêu, chỉ có cơn nứng là luôn trào dâng một cách bất chợt. Lần gần nhất và cũng là lần đầu tao được thưởng hơi đàn bà là...","image":null,"label":null,"display":"text-only","type":"text","enable_detail":true,"related":{"url":"https://truyenx.link/truyensextv/channels/related/2234","request_headers":[]},"share":{"url":"https://truyenx.link/truyensextv/channels/share/co-hang"},"remote_data":{"url":"https://truyenx.link/truyensextv/channels/co-hang"}},{"id":"2233-channel","name":"Được mẹ cho địt","description":"Tôi năm nay 16 tuổi và có một thói quen khó bỏ là quay tay. Giống như kiểu là ăn vào máu rồi ấy mà mẹ tôi cứ bắt tôi phải bỏ. Tôi nhân cơ hội ấy mà xin được loạn luân với...","image":null,"label":null,"display":"text-only","type":"text","enable_detail":true,"related":{"url":"https://truyenx.link/truyensextv/channels/related/2233","request_headers":[]},"share":{"url":"https://truyenx.link/truyensextv/channels/share/duoc-me-cho-dit"},"remote_data":{"url":"https://truyenx.link/truyensextv/channels/duoc-me-cho-dit"}},{"id":"2232-channel","name":"Thầy dạy đàn may mắn","description":"Sau bao năm vất vả, đến giờ vợ chồng Nga đã có cơ ngơi khá hoành tráng. Ngôi biệt thự nằm ở khu Thảo Điền quận 2, chỉ có bọn đại gia mới dám nghỉ tới. Nhờ thế lực cùng...","image":null,"label":null,"display":"text-only","type":"text","enable_detail":true,"related":{"url":"https://truyenx.link/truyensextv/channels/related/2232","request_headers":[]},"share":{"url":"https://truyenx.link/truyensextv/channels/share/thay-day-dan-may-man"},"remote_data":{"url":"https://truyenx.link/truyensextv/channels/thay-day-dan-may-man"}},{"id":"2231-channel","name":"Mẹ! Vợ yêu của chồng","description":"Tôi là Phong, một chàng trai cực kỳ may mắn khi được mẹ làm vợ. Mẹ tôi là Linh, 35 tuổi và hiện đang làm nội trợ. Mẹ trước đây là nhân viên văn phòng nhưng từ khi sinh tôi ra...","image":null,"label":null,"display":"text-only","type":"text","enable_detail":true,"related":{"url":"https://truyenx.link/truyensextv/channels/related/2231","request_headers":[]},"share":{"url":"https://truyenx.link/truyensextv/channels/share/me-vo-yeu-cua-chong"},"remote_data":{"url":"https://truyenx.link/truyensextv/channels/me-vo-yeu-cua-chong"}},{"id":"2230-channel","name":"Đất và người","description":"Cánh cửa phòng mở ra, người đồng nghiệp nói với Hậu: Anh Tiến bảo em nộp báo cáo đấy... Vâng... Hậu thu dọn đống sổ sách trên bàn, tìm lựa đống báo cáo mà nàng đã chuẩn...","image":null,"label":null,"display":"text-only","type":"text","enable_detail":true,"related":{"url":"https://truyenx.link/truyensextv/channels/related/2230","request_headers":[]},"share":{"url":"https://truyenx.link/truyensextv/channels/share/dat-va-nguoi"},"remote_data":{"url":"https://truyenx.link/truyensextv/channels/dat-va-nguoi"}},{"id":"2229-channel","name":"Mẹ ruột dễ dãi","description":"Em xin được kể câu chuyện về mẹ ruột của em. Mẹ em năm nay được 49 gần 50 tuổi, da trắng trẻo, mặt hơi xấu nhưng bù phần ngực lại rất to. Mẹ em thì một thân một mình nuôi...","image":null,"label":null,"display":"text-only","type":"text","enable_detail":true,"related":{"url":"https://truyenx.link/truyensextv/channels/related/2229","request_headers":[]},"share":{"url":"https://truyenx.link/truyensextv/channels/share/me-ruot-de-dai"},"remote_data":{"url":"https://truyenx.link/truyensextv/channels/me-ruot-de-dai"}},{"id":"2228-channel","name":"3 người phụ nữ","description":"Câu chuyện số 1 Tôi 38 tuổi, cái tuổi không còn trẻ và sung mãn nhưng lại có thừa kinh nghiệm trong chuyện chăn gối. Một ngày nọ, tôi nhận được một tấm thiệp mời từ đối...","image":null,"label":null,"display":"text-only","type":"text","enable_detail":true,"related":{"url":"https://truyenx.link/truyensextv/channels/related/2228","request_headers":[]},"share":{"url":"https://truyenx.link/truyensextv/channels/share/3-nguoi-phu-nu"},"remote_data":{"url":"https://truyenx.link/truyensextv/channels/3-nguoi-phu-nu"}},{"id":"2226-channel","name":"Chuyện năm 13 tuổi","description":"Đây là 1 câu chuyện sex có thật về năm em 13 tuổi... Câu chuyện như sau: Tôi tên là Thiện, sinh 2007, có 1 người chị gái hơn 3 tuổi và em gái kém mình 2 tuổi. Tôi vẫn nhớ vào lần...","image":null,"label":null,"display":"text-only","type":"text","enable_detail":true,"related":{"url":"https://truyenx.link/truyensextv/channels/related/2226","request_headers":[]},"share":{"url":"https://truyenx.link/truyensextv/channels/share/chuyen-nam-13-tuoi"},"remote_data":{"url":"https://truyenx.link/truyensextv/channels/chuyen-nam-13-tuoi"}},{"id":"2227-channel","name":"Vợ sếp","description":"Hiện tôi đang làm cho một công ty chuyên về thi công công trình chiếu sáng công cộng. Sau 5 năm ở Tây Nguyên nắng, gió, mưa mùa mà vẫn trắng tay, tôi quyết định về tìm việc ở Hà...","image":null,"label":null,"display":"text-only","type":"text","enable_detail":true,"related":{"url":"https://truyenx.link/truyensextv/channels/related/2227","request_headers":[]},"share":{"url":"https://truyenx.link/truyensextv/channels/share/vo-sep"},"remote_data":{"url":"https://truyenx.link/truyensextv/channels/vo-sep"}},{"id":"2225-channel","name":"Chị tôi","description":"Chắc hẳn ai trong số chúng ta cũng có những sai lầm, và tất nhiên, có những sai lầm có thể sửa chữa được, nhưng cũng có những sai lầm khiến người ta hối hận và day dứt cả...","image":null,"label":null,"display":"text-only","type":"text","enable_detail":true,"related":{"url":"https://truyenx.link/truyensextv/channels/related/2225","request_headers":[]},"share":{"url":"https://truyenx.link/truyensextv/channels/share/chi-toi"},"remote_data":{"url":"https://truyenx.link/truyensextv/channels/chi-toi"}},{"id":"2224-channel","name":"Dĩ vãng nhạt nhòa","description":"2009. Một ngày như mọi ngày, chỉ khác là hôm nay cô nhận lời mời của Hà, một anh chàng đồng hương Miền Trung đi café để biết nhau. Cũng chỉ là quen qua chit chat yahoo, nên thôi đi...","image":null,"label":null,"display":"text-only","type":"text","enable_detail":true,"related":{"url":"https://truyenx.link/truyensextv/channels/related/2224","request_headers":[]},"share":{"url":"https://truyenx.link/truyensextv/channels/share/di-vang-nhat-nhoa"},"remote_data":{"url":"https://truyenx.link/truyensextv/channels/di-vang-nhat-nhoa"}},{"id":"2223-channel","name":"Hồi ký ngoại tình","description":"2011... Một ngày bận rộn, khắp người nhức mỏi hết cả, từ sáng tới giờ trả lời gần 50 cái email, chiều nay lại có cuộc họp cuối cùng với bên đối tác, chẳng muốn làm gì...","image":null,"label":null,"display":"text-only","type":"text","enable_detail":true,"related":{"url":"https://truyenx.link/truyensextv/channels/related/2223","request_headers":[]},"share":{"url":"https://truyenx.link/truyensextv/channels/share/hoi-ky-ngoai-tinh"},"remote_data":{"url":"https://truyenx.link/truyensextv/channels/hoi-ky-ngoai-tinh"}},{"id":"2222-channel","name":"Ta muốn về quê nuôi cá và trồng rau","description":"Về quê a!!! Ánh nắng chói chang, không khí oi bức làm cho người ta cảm giác có chút thở không nổi, từ đầu tháng bảy đến nay, Hà Nội đã hơn một tuần lễ này luôn bảo trì mức...","image":null,"label":null,"display":"text-only","type":"text","enable_detail":true,"related":{"url":"https://truyenx.link/truyensextv/channels/related/2222","request_headers":[]},"share":{"url":"https://truyenx.link/truyensextv/channels/share/ta-muon-ve-que-nuoi-ca-va-trong-rau"},"remote_data":{"url":"https://truyenx.link/truyensextv/channels/ta-muon-ve-que-nuoi-ca-va-trong-rau"}},{"id":"2221-channel","name":"Đạt số hưởng","description":"Năm nay Vy mới lên lớp 12. Cô có một thân hình đầy đặn cao 1m62, biết bao chàng trai trong lớp mơ ước có được cô. Nhưng tính tình của Vy kiêu ngạo thích khoe thân hình cho trai thèm...","image":null,"label":null,"display":"text-only","type":"text","enable_detail":true,"related":{"url":"https://truyenx.link/truyensextv/channels/related/2221","request_headers":[]},"share":{"url":"https://truyenx.link/truyensextv/channels/share/dat-so-huong"},"remote_data":{"url":"https://truyenx.link/truyensextv/channels/dat-so-huong"}},{"id":"2220-channel","name":"Thằng Tâm - Quyển 2","description":"Tiếng động khẽ vang lên bên cạnh làm nó mở mắt ra. Tâm ngạc nhiên, Thảo Nguyên vậy mà đang đứng cạnh nó. Tâm liếc nhìn cặp lồng bên cạnh, mùi cháo thơm nức bay ra. Tâm nhìn...","image":null,"label":null,"display":"text-only","type":"text","enable_detail":true,"related":{"url":"https://truyenx.link/truyensextv/channels/related/2220","request_headers":[]},"share":{"url":"https://truyenx.link/truyensextv/channels/share/thang-tam-quyen-2"},"remote_data":{"url":"https://truyenx.link/truyensextv/channels/thang-tam-quyen-2"}},{"id":"2219-channel","name":"Ngọc Như","description":"Say rượu bị hiếp dâm Ngọc Như cầm chiếc que thử thai trên tay người rung lên bần bật nhưng vẫn cố gắng giữ bình tĩnh liếc mắt nhìn vào kết quả trên chiếc que thử thai, khi...","image":null,"label":null,"display":"text-only","type":"text","enable_detail":true,"related":{"url":"https://truyenx.link/truyensextv/channels/related/2219","request_headers":[]},"share":{"url":"https://truyenx.link/truyensextv/channels/share/ngoc-nhu"},"remote_data":{"url":"https://truyenx.link/truyensextv/channels/ngoc-nhu"}},{"id":"2218-channel","name":"Lý Hàn","description":"Ưm, đây là ở đâu? TẦN HẠO THIÊN mở mắt và nhìn xung quanh. Nơi hắn đang nằm xung quanh toàn là cây, kế bên là một dòng suối. Hắn nhớ là hắn đang quay lén chị hàng xóm tắm thì...","image":null,"label":null,"display":"text-only","type":"text","enable_detail":true,"related":{"url":"https://truyenx.link/truyensextv/channels/related/2218","request_headers":[]},"share":{"url":"https://truyenx.link/truyensextv/channels/share/ly-han"},"remote_data":{"url":"https://truyenx.link/truyensextv/channels/ly-han"}},{"id":"2217-channel","name":"Chị gái dâm của tôi","description":"Em có một người chị gái rất dâm, chị ấy là Như. Chị gái hơn em tới 10 tuổi, nay đã 26 tuổi. Chị Như và em quan hệ với em từ năm cuối của đại học và mặc dù chị đã có...","image":null,"label":null,"display":"text-only","type":"text","enable_detail":true,"related":{"url":"https://truyenx.link/truyensextv/channels/related/2217","request_headers":[]},"share":{"url":"https://truyenx.link/truyensextv/channels/share/chi-gai-dam-cua-toi"},"remote_data":{"url":"https://truyenx.link/truyensextv/channels/chi-gai-dam-cua-toi"}},{"id":"2216-channel","name":"Tâm sự của mẹ","description":"Mẹ sinh ra bên bờ Tam Giang nước mặn, với gia thế có chút khác biệt so với nhiều người, ông bà ngoại là người có chút quyền thế dù không quá lớn, nhưng cũng đủ để có của...","image":null,"label":null,"display":"text-only","type":"text","enable_detail":true,"related":{"url":"https://truyenx.link/truyensextv/channels/related/2216","request_headers":[]},"share":{"url":"https://truyenx.link/truyensextv/channels/share/tam-su-cua-me"},"remote_data":{"url":"https://truyenx.link/truyensextv/channels/tam-su-cua-me"}}],"load_more":{"pageInfo":{"current_page":17,"last_page":140,"per_page":30,"total":4188},"paging":{"page_key":"page","size_key":"size"},"remote_data":{"url":"https://truyenx.link/truyensextv/channels"}}}