{"grid_number":1,"channels":[{"id":"3068-channel","name":"Chồng của tôi","description":"Hồi ấy học lớp 10 là hết cấp 3 . Lượng sức học thấy khó đỗ Đại học nên tôi viết đơn xin học sư phạm 10+3. Gái nông thôn lần đầu xa nhà, mọi thứ đều lạ lẫm và đều...","image":null,"label":null,"display":"text-only","type":"text","enable_detail":true,"related":{"url":"https://truyenx.link/truyensextv/channels/related/3068","request_headers":[]},"share":{"url":"https://truyenx.link/truyensextv/channels/share/chong-cua-toi"},"remote_data":{"url":"https://truyenx.link/truyensextv/channels/chong-cua-toi"}},{"id":"3067-channel","name":"Tây Lương nữ quốc","description":"Tô Định đứng ngẩn ngơ hồi lâu, trước mặt hắn là 1 thảo nguyên rộng lớn, trù phú với rất nhiều bò sữa đang chậm rãi gặm cỏ. Trên mặt đất nở đầy những bông hoa đủ...","image":null,"label":null,"display":"text-only","type":"text","enable_detail":true,"related":{"url":"https://truyenx.link/truyensextv/channels/related/3067","request_headers":[]},"share":{"url":"https://truyenx.link/truyensextv/channels/share/tay-luong-nu-quoc"},"remote_data":{"url":"https://truyenx.link/truyensextv/channels/tay-luong-nu-quoc"}},{"id":"3066-channel","name":"Bán vợ","description":"Một đêm thật khó ngủ và không thể tập trung vào việc gì cả. Lang thang trên có phố ở Hải Phòng hút 1 điếu thuốc để có thể tĩnh tâm lại. 23h07p đêm tin nhắn cuối cùng mà vợ...","image":null,"label":null,"display":"text-only","type":"text","enable_detail":true,"related":{"url":"https://truyenx.link/truyensextv/channels/related/3066","request_headers":[]},"share":{"url":"https://truyenx.link/truyensextv/channels/share/ban-vo"},"remote_data":{"url":"https://truyenx.link/truyensextv/channels/ban-vo"}},{"id":"3065-channel","name":"Tình một đêm","description":"Tôi và em quen nhau qua Tinder. Đó là thời điểm mà cả hai đang cảm thấy cô đơn nhất. Tôi thì đã cô đơn được hơn 2 năm còn em thì chỉ vừa chia tay người yêu 2 ngày. Qua vài câu...","image":null,"label":null,"display":"text-only","type":"text","enable_detail":true,"related":{"url":"https://truyenx.link/truyensextv/channels/related/3065","request_headers":[]},"share":{"url":"https://truyenx.link/truyensextv/channels/share/tinh-mot-dem"},"remote_data":{"url":"https://truyenx.link/truyensextv/channels/tinh-mot-dem"}},{"id":"3064-channel","name":"Những em gái thèm đụ - Quyển 3","description":"Tôi trở về đón tết bên gia đình, một cái tết đông vui nhưng thiếu đi gì đó, ngày đi chơi tối về gọi điện nói chuyện với Ly rồi lại nằm nhắn tin tâm sự với Hoa. Có hôm...","image":null,"label":null,"display":"text-only","type":"text","enable_detail":true,"related":{"url":"https://truyenx.link/truyensextv/channels/related/3064","request_headers":[]},"share":{"url":"https://truyenx.link/truyensextv/channels/share/nhung-em-gai-them-du-quyen-3"},"remote_data":{"url":"https://truyenx.link/truyensextv/channels/nhung-em-gai-them-du-quyen-3"}},{"id":"3063-channel","name":"Chuyện không ngờ","description":"Trong đêm đó tôi đụ cả hai chị em Hạnh. Sau khi nhà ông Lạc ra về, vì cả buổi chiều đâu có ăn gì ngoài vài cái chả nem, lại uống khá nhiều bia nên cái bụng hơi đói. Lúc này...","image":null,"label":null,"display":"text-only","type":"text","enable_detail":true,"related":{"url":"https://truyenx.link/truyensextv/channels/related/3063","request_headers":[]},"share":{"url":"https://truyenx.link/truyensextv/channels/share/chuyen-khong-ngo"},"remote_data":{"url":"https://truyenx.link/truyensextv/channels/chuyen-khong-ngo"}},{"id":"3062-channel","name":"Người yêu của tôi","description":"Tôi tên A vừa đậu lên một trường Đại học, trường cũng là trường có danh tiếng ở miền Tây này! Vừa lên tôi có quen được 1 bạn và sau thời gian tìm hiểu thì chúng tôi đã...","image":null,"label":null,"display":"text-only","type":"text","enable_detail":true,"related":{"url":"https://truyenx.link/truyensextv/channels/related/3062","request_headers":[]},"share":{"url":"https://truyenx.link/truyensextv/channels/share/nguoi-yeu-cua-toi"},"remote_data":{"url":"https://truyenx.link/truyensextv/channels/nguoi-yeu-cua-toi"}},{"id":"3061-channel","name":"Con đường bá chủ - Quyển 11","description":"Nhìn bóng lưng lão già Hộ Pháp xách theo Thiên Bằng khuất xa, Lạc Nam trong vai Tam Nhãn Thánh Đế thở phào một hơi nhẹ nhõm. Móa nó, cũng may Ngân Ảnh Áo Choàng còn có tác dụng mô...","image":null,"label":null,"display":"text-only","type":"text","enable_detail":true,"related":{"url":"https://truyenx.link/truyensextv/channels/related/3061","request_headers":[]},"share":{"url":"https://truyenx.link/truyensextv/channels/share/con-duong-ba-chu-quyen-11"},"remote_data":{"url":"https://truyenx.link/truyensextv/channels/con-duong-ba-chu-quyen-11"}},{"id":"3060-channel","name":"Chuyện Quỳnh Chi và dượng","description":"Ngày... tháng... Hôm nay dự sinh nhật của Quỳnh Hoa xong cả bọn đi hát Karaoke đã đời. Cả nhóm Ngũ Quỳnh lần đầu có mặt đầy đủ, bình thường thì chỉ có tứ Quỳnh, lúc nào...","image":null,"label":null,"display":"text-only","type":"text","enable_detail":true,"related":{"url":"https://truyenx.link/truyensextv/channels/related/3060","request_headers":[]},"share":{"url":"https://truyenx.link/truyensextv/channels/share/chuyen-quynh-chi-va-duong"},"remote_data":{"url":"https://truyenx.link/truyensextv/channels/chuyen-quynh-chi-va-duong"}},{"id":"3059-channel","name":"Đau bụng","description":"Ngày 22 tháng 8... Dượng cạo gió cho con với Vừa đi vào nhà QA vừa nói với mình. Uh, con tắm và ăn tối đi rồi cạo mình trả lời, trong bụng mừng khấp khởi vì đã mong điều này...","image":null,"label":null,"display":"text-only","type":"text","enable_detail":true,"related":{"url":"https://truyenx.link/truyensextv/channels/related/3059","request_headers":[]},"share":{"url":"https://truyenx.link/truyensextv/channels/share/dau-bung"},"remote_data":{"url":"https://truyenx.link/truyensextv/channels/dau-bung"}},{"id":"3058-channel","name":"Ý loạn tình mê","description":"Tiểu Long Nữ dắt con ngựa hãn huyết đi loạn một hồi trong hoang cốc, nghĩ đi ngẫm lại, không biết nên làm thế nào. Nàng đã hơn hai mươi tuổi, nhưng cả đời sống trong...","image":null,"label":null,"display":"text-only","type":"text","enable_detail":true,"related":{"url":"https://truyenx.link/truyensextv/channels/related/3058","request_headers":[]},"share":{"url":"https://truyenx.link/truyensextv/channels/share/y-loan-tinh-me"},"remote_data":{"url":"https://truyenx.link/truyensextv/channels/y-loan-tinh-me"}},{"id":"3057-channel","name":"Nữ chính truyện H","description":"Ta là Tô Phương, tác giả truyện H+ nổi danh toàn cõi mạng. Chắc tại ta tạo nghiệp lớn quá mà bị đẩy một phát vô chính bộ truyện ta viết. Cay đắng thế nào mà lại đi làm nữ...","image":null,"label":null,"display":"text-only","type":"text","enable_detail":true,"related":{"url":"https://truyenx.link/truyensextv/channels/related/3057","request_headers":[]},"share":{"url":"https://truyenx.link/truyensextv/channels/share/nu-chinh-truyen-h"},"remote_data":{"url":"https://truyenx.link/truyensextv/channels/nu-chinh-truyen-h"}},{"id":"3056-channel","name":"Những thợ hớt tóc nữ","description":"Tôi là thằng đàn ông khá dâm dục. Tôi thích cho phụ nữ xem cặc mình cho nó sướng! Chứ họ có cho đụ đâu mà muốn! Mỗi lần nứng cặc quá tôi liền thủ dâm cho đã cặc! Nhiều...","image":null,"label":null,"display":"text-only","type":"text","enable_detail":true,"related":{"url":"https://truyenx.link/truyensextv/channels/related/3056","request_headers":[]},"share":{"url":"https://truyenx.link/truyensextv/channels/share/nhung-tho-hot-toc-nu"},"remote_data":{"url":"https://truyenx.link/truyensextv/channels/nhung-tho-hot-toc-nu"}},{"id":"3055-channel","name":"Những cái lồn dâm dục 3","description":"Nhà trọ 1 tháng Chuyện là tôi nghỉ việc sắp ra khởi nghiệp, tôi có một tháng dư để chuẩn bị công việc, nhà trọ cũ thì hết hợp đồng cũng không xin thêm được nên phải thuê...","image":null,"label":null,"display":"text-only","type":"text","enable_detail":true,"related":{"url":"https://truyenx.link/truyensextv/channels/related/3055","request_headers":[]},"share":{"url":"https://truyenx.link/truyensextv/channels/share/nhung-cai-lon-dam-duc-3"},"remote_data":{"url":"https://truyenx.link/truyensextv/channels/nhung-cai-lon-dam-duc-3"}},{"id":"3054-channel","name":"Vừa địt con vợ vừa chơi mai thuý","description":"Vợ chồng tôi mới cưới được 1 năm, tôi thì có tính tình dục bạo lực, vợ tôi thì dâm đãng hết chỗ nói, vú to, mông căng bự, eo thon, chân dài, đặc biệt giỏi bú cu liếm trứng...","image":null,"label":null,"display":"text-only","type":"text","enable_detail":true,"related":{"url":"https://truyenx.link/truyensextv/channels/related/3054","request_headers":[]},"share":{"url":"https://truyenx.link/truyensextv/channels/share/vua-dit-con-vo-vua-choi-mai-thuy"},"remote_data":{"url":"https://truyenx.link/truyensextv/channels/vua-dit-con-vo-vua-choi-mai-thuy"}},{"id":"3053-channel","name":"Cô Tiên hàng xóm","description":"Tôi tên Minh, năm nay 18 tuổi, đang là học sinh lớp 12, vì chơi thể thao và tập gym nên nhìn tôi cao và khỏe hơn mấy đứa bằng tuổi, Tôi thích chơi game và coi phim sex để thủ dâm...","image":null,"label":null,"display":"text-only","type":"text","enable_detail":true,"related":{"url":"https://truyenx.link/truyensextv/channels/related/3053","request_headers":[]},"share":{"url":"https://truyenx.link/truyensextv/channels/share/co-tien-hang-xom"},"remote_data":{"url":"https://truyenx.link/truyensextv/channels/co-tien-hang-xom"}},{"id":"3052-channel","name":"Nắc lồn Thu Hường","description":"Thằng Ba Thương là con người tài xế của gia đình bà Thu Hường ở một tỉnh miền Trung Việt Nam. Sau khi gia đình bà Thu Hường qua Mỹ định cư thì họ hết làm tài xế, nhưng riêng...","image":null,"label":null,"display":"text-only","type":"text","enable_detail":true,"related":{"url":"https://truyenx.link/truyensextv/channels/related/3052","request_headers":[]},"share":{"url":"https://truyenx.link/truyensextv/channels/share/nac-lon-thu-huong"},"remote_data":{"url":"https://truyenx.link/truyensextv/channels/nac-lon-thu-huong"}},{"id":"3051-channel","name":"Nhật kí của con đĩ mới lớn","description":"Nín đái Hôm nay là ngày xx tháng xx năm xxxx... Chào mọi người, tôi tên là Nhu. Năm nay vừa tròn 17 tuổi. Tôi tuổi đang dậy thì, cặp vú tôi hiện tại đang phát triển rất tốt, cùng...","image":null,"label":null,"display":"text-only","type":"text","enable_detail":true,"related":{"url":"https://truyenx.link/truyensextv/channels/related/3051","request_headers":[]},"share":{"url":"https://truyenx.link/truyensextv/channels/share/nhat-ki-cua-con-di-moi-lon"},"remote_data":{"url":"https://truyenx.link/truyensextv/channels/nhat-ki-cua-con-di-moi-lon"}},{"id":"3050-channel","name":"Biến em vợ thành đĩ","description":"Vào những ngày cuối năm 2022, khi kinh tế có nhiều biến động, làm ăn buôn bán khó khăn, công nhân viên chức nghỉ việc nhiều. Tài chính kinh tế bất ổn kéo theo thị trường BĐS bị...","image":null,"label":null,"display":"text-only","type":"text","enable_detail":true,"related":{"url":"https://truyenx.link/truyensextv/channels/related/3050","request_headers":[]},"share":{"url":"https://truyenx.link/truyensextv/channels/share/bien-em-vo-thanh-di"},"remote_data":{"url":"https://truyenx.link/truyensextv/channels/bien-em-vo-thanh-di"}},{"id":"3049-channel","name":"Con là vợ - Vợ là con","description":"Tôi là phụ nữ Tôi là Phú Minh thì tôi là người viết những câu chuyện dưới tên giả Phượng Phò. Tôi năm nay 25 tuổi. Từ nhỏ, tôi cũng không biết mẹ tôi là ai mà tôi chỉ biết...","image":null,"label":null,"display":"text-only","type":"text","enable_detail":true,"related":{"url":"https://truyenx.link/truyensextv/channels/related/3049","request_headers":[]},"share":{"url":"https://truyenx.link/truyensextv/channels/share/con-la-vo-vo-la-con"},"remote_data":{"url":"https://truyenx.link/truyensextv/channels/con-la-vo-vo-la-con"}},{"id":"3048-channel","name":"Cô cháu vợ","description":"Cô a. Cháu thấy thực tế chồng vợ lấy nhau chẳng qua cũng vì sinh hoạt tình dục, mà chia tay ly dị cũng do sinh lý tình dục. ... Bạn đang đọc truyện Cô cháu vợ tại nguồn...","image":null,"label":null,"display":"text-only","type":"text","enable_detail":true,"related":{"url":"https://truyenx.link/truyensextv/channels/related/3048","request_headers":[]},"share":{"url":"https://truyenx.link/truyensextv/channels/share/co-chau-vo"},"remote_data":{"url":"https://truyenx.link/truyensextv/channels/co-chau-vo"}},{"id":"3047-channel","name":"Người vợ đa tình","description":"Bác sĩ Luân trầm tư, nhưng thật ra bên trong đang vô cùng kích thích bởi câu chuyện mà Lâm vừa chia sẻ. Luân chậm rãi hỏi Lâm. Luân: Em thật sự để cho lão Sáu và Thủy đi như vậy...","image":null,"label":null,"display":"text-only","type":"text","enable_detail":true,"related":{"url":"https://truyenx.link/truyensextv/channels/related/3047","request_headers":[]},"share":{"url":"https://truyenx.link/truyensextv/channels/share/nguoi-vo-da-tinh"},"remote_data":{"url":"https://truyenx.link/truyensextv/channels/nguoi-vo-da-tinh"}},{"id":"3046-channel","name":"Tôi và gia đình vợ","description":"Thật sự cảm giác tội lỗi đã bị khoái cảm trong tôi lấn át, nhẹ thôi con... tiếng mẹ vợ thỏ thẻ bên tai, quá sướng vì cái lồn đã 10 năm nay chưa được 1 con cu nào chọc vào...","image":null,"label":null,"display":"text-only","type":"text","enable_detail":true,"related":{"url":"https://truyenx.link/truyensextv/channels/related/3046","request_headers":[]},"share":{"url":"https://truyenx.link/truyensextv/channels/share/toi-va-gia-dinh-vo"},"remote_data":{"url":"https://truyenx.link/truyensextv/channels/toi-va-gia-dinh-vo"}},{"id":"3045-channel","name":"Cô nhân tình dâm đãng","description":"Văn phòng với 1 mớ đàn ông, ngày nào cũng lặp đi lặp lại những công việc nhàm chán. Bọn kinh doanh thì chia thành 2 nhóm đấu đá nhau tranh giành địa bàn, tranh nhau doanh số và...","image":null,"label":null,"display":"text-only","type":"text","enable_detail":true,"related":{"url":"https://truyenx.link/truyensextv/channels/related/3045","request_headers":[]},"share":{"url":"https://truyenx.link/truyensextv/channels/share/co-nhan-tinh-dam-dang"},"remote_data":{"url":"https://truyenx.link/truyensextv/channels/co-nhan-tinh-dam-dang"}},{"id":"3044-channel","name":"Chị Mây - O Lài","description":"Chiến tranh, máy bay bắn phá, mọi cơ quan nhà máy xí nghiệp, dân chúng phải sơ tán về các vùng xa xôi, lên chốn rừng rú, hoặc di dời đến những vùng không bị oanh tạc. Xí nghiệp...","image":null,"label":null,"display":"text-only","type":"text","enable_detail":true,"related":{"url":"https://truyenx.link/truyensextv/channels/related/3044","request_headers":[]},"share":{"url":"https://truyenx.link/truyensextv/channels/share/chi-may-o-lai"},"remote_data":{"url":"https://truyenx.link/truyensextv/channels/chi-may-o-lai"}},{"id":"3043-channel","name":"Buổi chơi bida đáng nhớ","description":"Tôi với người yêu có sở thích chung là chơi bida lỗ. Như mọi tuần thì tối t4 chúng tôi đi chơi, hôm nay đổi quán khác. Vào quán này thì khá vắng khách, chỉ có một đôi nam nữ...","image":null,"label":null,"display":"text-only","type":"text","enable_detail":true,"related":{"url":"https://truyenx.link/truyensextv/channels/related/3043","request_headers":[]},"share":{"url":"https://truyenx.link/truyensextv/channels/share/buoi-choi-bida-dang-nho"},"remote_data":{"url":"https://truyenx.link/truyensextv/channels/buoi-choi-bida-dang-nho"}},{"id":"3042-channel","name":"Người tình kỳ ảo","description":"Hưng về đến nhà, lập tức nằm vật lên ghế sofa, chẳng muốn nhúc nhích. Cảm giác như người vô hình như 1 hố đen muốn nuốt chửng lấy hắn. Sinh ra trong gia đình chỉ được gọi...","image":null,"label":null,"display":"text-only","type":"text","enable_detail":true,"related":{"url":"https://truyenx.link/truyensextv/channels/related/3042","request_headers":[]},"share":{"url":"https://truyenx.link/truyensextv/channels/share/nguoi-tinh-ky-ao"},"remote_data":{"url":"https://truyenx.link/truyensextv/channels/nguoi-tinh-ky-ao"}},{"id":"3040-channel","name":"Ông bố chồng nát rượu","description":"Tóm tắt nội dung Mẹ chồng Khả Uyên đã qua đời từ nửa năm trước, bố chồng cô thì liên tục tìm đến men rượu vì quá cô đơn. Chồng Khả Uyên thấy vậy nên đã đón bố về...","image":null,"label":null,"display":"text-only","type":"text","enable_detail":true,"related":{"url":"https://truyenx.link/truyensextv/channels/related/3040","request_headers":[]},"share":{"url":"https://truyenx.link/truyensextv/channels/share/ong-bo-chong-nat-ruou"},"remote_data":{"url":"https://truyenx.link/truyensextv/channels/ong-bo-chong-nat-ruou"}},{"id":"3041-channel","name":"Lần đầu được làm chuyện ấy với người yêu","description":"Xin chào mọi người, mình là Minh hiếu sinh năm 2000 còn người yêu mình tên T sinh năm 2002 hiện tại bọn mình đang sinh sống và theo học tại hà nội... Bọn mình thì quen nhau qua game, nói...","image":null,"label":null,"display":"text-only","type":"text","enable_detail":true,"related":{"url":"https://truyenx.link/truyensextv/channels/related/3041","request_headers":[]},"share":{"url":"https://truyenx.link/truyensextv/channels/share/lan-dau-duoc-lam-chuyen-ay-voi-nguoi-yeu"},"remote_data":{"url":"https://truyenx.link/truyensextv/channels/lan-dau-duoc-lam-chuyen-ay-voi-nguoi-yeu"}},{"id":"3038-channel","name":"Loạn lạc với em gái Cần Thơ","description":"Chào mọi người tôi năm nay ngót nghét lên tuổi 17 rồi độ tuổi khỏe mạnh và vô cùng sung mãn tiện nay chia sẻ các bạn câu chuyện có lẽ là đáng nhớ và đầy khoái lạc của tôi...","image":null,"label":null,"display":"text-only","type":"text","enable_detail":true,"related":{"url":"https://truyenx.link/truyensextv/channels/related/3038","request_headers":[]},"share":{"url":"https://truyenx.link/truyensextv/channels/share/loan-lac-voi-em-gai-can-tho"},"remote_data":{"url":"https://truyenx.link/truyensextv/channels/loan-lac-voi-em-gai-can-tho"}}],"load_more":{"pageInfo":{"current_page":58,"last_page":140,"per_page":30,"total":4188},"paging":{"page_key":"page","size_key":"size"},"remote_data":{"url":"https://truyenx.link/truyensextv/channels"}}}