{"grid_number":1,"channels":[{"id":"2768-channel","name":"Người vợ ngoại tình","description":"Tôi tên Dương, tôi và Nguyệt đã kết hôn được 13 năm và có với nhau một bé trai. Giờ chúng tôi đang ngồi quanh cái bàn ở phòng khách, vợ tôi đang ừng ực lon bia như chết khát...","image":null,"label":null,"display":"text-only","type":"text","enable_detail":true,"related":{"url":"https://truyenx.link/truyensextv/channels/related/2768","request_headers":[]},"share":{"url":"https://truyenx.link/truyensextv/channels/share/nguoi-vo-ngoai-tinh"},"remote_data":{"url":"https://truyenx.link/truyensextv/channels/nguoi-vo-ngoai-tinh"}},{"id":"2767-channel","name":"Bí mật của gia đình","description":"Lời nói đầu Ông đã vào tuổi 70. Vào ngày sinh nhật ông, cả nhà làm bữa ăn thịnh soạn để chúc mừng người đàn ông lớn tuổi nhất nhà. Ông vui lắm. Da dẻ như đỏ hồng hơn...","image":null,"label":null,"display":"text-only","type":"text","enable_detail":true,"related":{"url":"https://truyenx.link/truyensextv/channels/related/2767","request_headers":[]},"share":{"url":"https://truyenx.link/truyensextv/channels/share/bi-mat-cua-gia-dinh"},"remote_data":{"url":"https://truyenx.link/truyensextv/channels/bi-mat-cua-gia-dinh"}},{"id":"2766-channel","name":"Hoàng Dược","description":"Một buổi xế trưa cuối tuần, ngoài trời mưa phùn nhẹ, tại một quán nước sang trọng có một người đàn ông cao to trong bộ đồ vest đầy lịch lãm đang khoan thai rít từng hơi...","image":null,"label":null,"display":"text-only","type":"text","enable_detail":true,"related":{"url":"https://truyenx.link/truyensextv/channels/related/2766","request_headers":[]},"share":{"url":"https://truyenx.link/truyensextv/channels/share/hoang-duoc"},"remote_data":{"url":"https://truyenx.link/truyensextv/channels/hoang-duoc"}},{"id":"2765-channel","name":"Mẹ muốn ăn tinh dịch của con","description":"Người mẹ khát tình Biệt thự Ngân An gần một đường phố rộng rãi, trong phòng làm việc có một người đàn bà mặc bộ váy công sở màu xám ngồi trước cửa sổ, đôi mắt sáng...","image":null,"label":null,"display":"text-only","type":"text","enable_detail":true,"related":{"url":"https://truyenx.link/truyensextv/channels/related/2765","request_headers":[]},"share":{"url":"https://truyenx.link/truyensextv/channels/share/me-muon-an-tinh-dich-cua-con"},"remote_data":{"url":"https://truyenx.link/truyensextv/channels/me-muon-an-tinh-dich-cua-con"}},{"id":"2764-channel","name":"Em gái sinh đôi","description":"Chú thích: Futanari là gái có vú có lồn bình thường nhưng có thêm cả cặc. Trong bồn tắm của gia đình, hai anh em sinh đôi tôi và Mai 8 tuổi đang tắm trong bồn. Hai đứa đang đứng...","image":null,"label":null,"display":"text-only","type":"text","enable_detail":true,"related":{"url":"https://truyenx.link/truyensextv/channels/related/2764","request_headers":[]},"share":{"url":"https://truyenx.link/truyensextv/channels/share/em-gai-sinh-doi"},"remote_data":{"url":"https://truyenx.link/truyensextv/channels/em-gai-sinh-doi"}},{"id":"2763-channel","name":"Dì Dung, người đưa tôi vào đời","description":"Năm 2007, ở đầu hẻm nhà tôi có một gia đình nhỏ đang sống rất hạnh phúc, thì bất ngờ ông chồng qua đời vì tai nạn giao thông để lại bà vợ và 2 đứa con. Sau khi người...","image":null,"label":null,"display":"text-only","type":"text","enable_detail":true,"related":{"url":"https://truyenx.link/truyensextv/channels/related/2763","request_headers":[]},"share":{"url":"https://truyenx.link/truyensextv/channels/share/di-dung-nguoi-dua-toi-vao-doi"},"remote_data":{"url":"https://truyenx.link/truyensextv/channels/di-dung-nguoi-dua-toi-vao-doi"}},{"id":"2762-channel","name":"Hương Giang","description":"Mạnh hơn nữa anh ơi. Sâu hơn, đút sâu hơn nữa. Tôi đang nhấp hông bằng hết sức mình. Hương Giang nằm ngửa ra, hai chân em đặt trên vai tôi, dương vật tôi đang ở bên trong cái âm...","image":null,"label":null,"display":"text-only","type":"text","enable_detail":true,"related":{"url":"https://truyenx.link/truyensextv/channels/related/2762","request_headers":[]},"share":{"url":"https://truyenx.link/truyensextv/channels/share/huong-giang"},"remote_data":{"url":"https://truyenx.link/truyensextv/channels/huong-giang"}},{"id":"2761-channel","name":"Vợ là người tình của con","description":"Tiếng chuông báo thức vang lên. Mở mắt thức dậy, Hoàn nhìn sang bên cạnh mình. Vợ anh không có ở đấy. Quẹt nước miếng bên mồm mình khi ngủ, Hoàn vươn vai khi đứng dậy từ...","image":null,"label":null,"display":"text-only","type":"text","enable_detail":true,"related":{"url":"https://truyenx.link/truyensextv/channels/related/2761","request_headers":[]},"share":{"url":"https://truyenx.link/truyensextv/channels/share/vo-la-nguoi-tinh-cua-con"},"remote_data":{"url":"https://truyenx.link/truyensextv/channels/vo-la-nguoi-tinh-cua-con"}},{"id":"2760-channel","name":"Chuỗi ngày làm đĩ của Tường Vy","description":"Tôi tên Huy cũng giống như mọi người đều đi học và có vài người bạn, tôi có 1 cô bạn thân tên Tường Vy nói về Vy thì là 1 người chăm học ngoan hiền biết giúp đỡ mọi...","image":null,"label":null,"display":"text-only","type":"text","enable_detail":true,"related":{"url":"https://truyenx.link/truyensextv/channels/related/2760","request_headers":[]},"share":{"url":"https://truyenx.link/truyensextv/channels/share/chuoi-ngay-lam-di-cua-tuong-vy"},"remote_data":{"url":"https://truyenx.link/truyensextv/channels/chuoi-ngay-lam-di-cua-tuong-vy"}},{"id":"2759-channel","name":"Mẹ tôi làm nô lệ cho cặc da đen","description":"Hường lấy một anh chàng da trắng đẹp trai năm 23 tuổi. Hai vợ chồng rất hạnh phúc, định cư ở Việt Nam, sinh được một bé trai kháu khỉnh. Cô đặt tên cậu nhóc là An. Mọi...","image":null,"label":null,"display":"text-only","type":"text","enable_detail":true,"related":{"url":"https://truyenx.link/truyensextv/channels/related/2759","request_headers":[]},"share":{"url":"https://truyenx.link/truyensextv/channels/share/me-toi-lam-no-le-cho-cac-da-den"},"remote_data":{"url":"https://truyenx.link/truyensextv/channels/me-toi-lam-no-le-cho-cac-da-den"}},{"id":"2758-channel","name":"Địt chị hàng xóm tuổi thơ","description":"Tôi là Phong năm nay 18t thì câu chuyện của tôi cũng khá là éo le loằng ngoằng. Thì năm tôi 8t phải chuyển ra miền nam sống với gia đình. Vì mới chuyển vào đây nên tôi không có quen...","image":null,"label":null,"display":"text-only","type":"text","enable_detail":true,"related":{"url":"https://truyenx.link/truyensextv/channels/related/2758","request_headers":[]},"share":{"url":"https://truyenx.link/truyensextv/channels/share/dit-chi-hang-xom-tuoi-tho"},"remote_data":{"url":"https://truyenx.link/truyensextv/channels/dit-chi-hang-xom-tuoi-tho"}},{"id":"2757-channel","name":"Bí mật của bạn thân","description":"Đang chán nản vì vừa chia tay mối tình 5 năm say đắm của mình. Đau lòng vì mất người mình yêu là một phần. Một phần chán nản vì không còn ai để Khang xả tinh mỗi khi cơn dục...","image":null,"label":null,"display":"text-only","type":"text","enable_detail":true,"related":{"url":"https://truyenx.link/truyensextv/channels/related/2757","request_headers":[]},"share":{"url":"https://truyenx.link/truyensextv/channels/share/bi-mat-cua-ban-than"},"remote_data":{"url":"https://truyenx.link/truyensextv/channels/bi-mat-cua-ban-than"}},{"id":"2756-channel","name":"Cặp đôi hiếm muộn","description":"Cầm tờ xét nghiệm tinh dịch đồ trên tay, tôi không khỏi lo lắng. Nồng độ tinh trùng tuy thấp nhưng không đến mức vô sinh, bác sĩ bảo rằng tử cung vợ tôi thuộc loại khó có con...","image":null,"label":null,"display":"text-only","type":"text","enable_detail":true,"related":{"url":"https://truyenx.link/truyensextv/channels/related/2756","request_headers":[]},"share":{"url":"https://truyenx.link/truyensextv/channels/share/cap-doi-hiem-muon"},"remote_data":{"url":"https://truyenx.link/truyensextv/channels/cap-doi-hiem-muon"}},{"id":"2755-channel","name":"Đồ đàn bà đĩ cái dâm đãng","description":"Tôi tên Bình, 25 tuổi đang làm thư ký cho một công ty, tôi có một người chồng và một đứa con trai nhỏ năm tuổi. Tôi cũng như bao người phụ nữ bình thường khác, thương chồng...","image":null,"label":null,"display":"text-only","type":"text","enable_detail":true,"related":{"url":"https://truyenx.link/truyensextv/channels/related/2755","request_headers":[]},"share":{"url":"https://truyenx.link/truyensextv/channels/share/do-dan-ba-di-cai-dam-dang"},"remote_data":{"url":"https://truyenx.link/truyensextv/channels/do-dan-ba-di-cai-dam-dang"}},{"id":"2754-channel","name":"Vợ và con gái thân yêu của tôi","description":"Tôi vốn dĩ chỉ là một nhân viên làm công ăn lương bình thường, sống một cuộc sống hạnh phúc với vợ và con gái mình. Chỉ vì một phút nông nổi, tôi đã biển thủ một phần...","image":null,"label":null,"display":"text-only","type":"text","enable_detail":true,"related":{"url":"https://truyenx.link/truyensextv/channels/related/2754","request_headers":[]},"share":{"url":"https://truyenx.link/truyensextv/channels/share/vo-va-con-gai-than-yeu-cua-toi"},"remote_data":{"url":"https://truyenx.link/truyensextv/channels/vo-va-con-gai-than-yeu-cua-toi"}},{"id":"2753-channel","name":"Cô vợ biến thái","description":"Ngồi đọc sách ở phòng khách, nghe thấy tiếng cửa mở, tôi ngước lên nhìn. Chồng tôi vừa đi làm về, cất tiếng hỏi: Em đọc gì đấy. Chạng vạng anh ạ. Anh chẳng có hứng thú...","image":null,"label":null,"display":"text-only","type":"text","enable_detail":true,"related":{"url":"https://truyenx.link/truyensextv/channels/related/2753","request_headers":[]},"share":{"url":"https://truyenx.link/truyensextv/channels/share/co-vo-bien-thai"},"remote_data":{"url":"https://truyenx.link/truyensextv/channels/co-vo-bien-thai"}},{"id":"2752-channel","name":"Những cái lồn dâm dục 2","description":"Khóa luận tốt nghiệp của Ngọc anh Như các bạn đã biết trước đây tôi đã có dịp chiêm ngưỡng thân thể của Ngọc anh qua ô cửa bí mật, sau này chúng tôi cũng không gặp lại...","image":null,"label":null,"display":"text-only","type":"text","enable_detail":true,"related":{"url":"https://truyenx.link/truyensextv/channels/related/2752","request_headers":[]},"share":{"url":"https://truyenx.link/truyensextv/channels/share/nhung-cai-lon-dam-duc-2"},"remote_data":{"url":"https://truyenx.link/truyensextv/channels/nhung-cai-lon-dam-duc-2"}},{"id":"2751-channel","name":"Người yêu tôi là đĩ","description":"Tôi tên Huy năm nay 24 tuổi tôi có cô người yêu tên Trinh 22 và Huy 16 tuổi . Giới thiệu sơ qua thì thân hình của người yêu tôi thuộc dạng ưa nhìn với chiều cao 1m55 mông nảy nở...","image":null,"label":null,"display":"text-only","type":"text","enable_detail":true,"related":{"url":"https://truyenx.link/truyensextv/channels/related/2751","request_headers":[]},"share":{"url":"https://truyenx.link/truyensextv/channels/share/nguoi-yeu-toi-la-di"},"remote_data":{"url":"https://truyenx.link/truyensextv/channels/nguoi-yeu-toi-la-di"}},{"id":"2750-channel","name":"Vợ chưa cưới của tôi là con đĩ thèm cặc","description":"Tôi là Quang, 28 tuổi, vài tháng tới sẽ kết hôn cùng với bạn gái 3 năm của mình, Chloe, 27 tuổi. Chloe sinh ra và lớn lên ở Thụy Điển, tôi gặp nàng ở Mỹ trong lúc cả hai vừa...","image":null,"label":null,"display":"text-only","type":"text","enable_detail":true,"related":{"url":"https://truyenx.link/truyensextv/channels/related/2750","request_headers":[]},"share":{"url":"https://truyenx.link/truyensextv/channels/share/vo-chua-cuoi-cua-toi-la-con-di-them-cac"},"remote_data":{"url":"https://truyenx.link/truyensextv/channels/vo-chua-cuoi-cua-toi-la-con-di-them-cac"}},{"id":"2749-channel","name":"Trải nghiệm nhớ đời","description":"Đã là truyện thì có vài phần ảo trong đó, mình cũng chém gió chút cho sướng cái mắt, một số anh em đừng có học theo đấy nhé... Chuyện này kể ra cũng lâu rồi, hồi đó mình còn...","image":null,"label":null,"display":"text-only","type":"text","enable_detail":true,"related":{"url":"https://truyenx.link/truyensextv/channels/related/2749","request_headers":[]},"share":{"url":"https://truyenx.link/truyensextv/channels/share/trai-nghiem-nho-doi"},"remote_data":{"url":"https://truyenx.link/truyensextv/channels/trai-nghiem-nho-doi"}},{"id":"2748-channel","name":"Đụ lén thím","description":"Đụ lén Anh Tũn ơi dậy ăn sáng đi. Kèm theo tiếng gọi là tiếng đập cửa thùng thùng của thằng cu Tí cháu tôi năm nay 6t. Tôi thằng sinh viên năm nhất được bố mẹ gửi gắm lên...","image":null,"label":null,"display":"text-only","type":"text","enable_detail":true,"related":{"url":"https://truyenx.link/truyensextv/channels/related/2748","request_headers":[]},"share":{"url":"https://truyenx.link/truyensextv/channels/share/du-len-thim"},"remote_data":{"url":"https://truyenx.link/truyensextv/channels/du-len-thim"}},{"id":"2747-channel","name":"Nàng công chúa thích cưỡi ngựa","description":"Tiếng chuông mừng chiến thắng trở về anh khắp nẻo đường trong kinh đô. Đó là khúc khải hoàn của Đức vua. Cuộc chinh phạt kéo dài 3 tháng, nhờ tài nghệ cầm quân của ngài mà...","image":null,"label":null,"display":"text-only","type":"text","enable_detail":true,"related":{"url":"https://truyenx.link/truyensextv/channels/related/2747","request_headers":[]},"share":{"url":"https://truyenx.link/truyensextv/channels/share/nang-cong-chua-thich-cuoi-ngua"},"remote_data":{"url":"https://truyenx.link/truyensextv/channels/nang-cong-chua-thich-cuoi-ngua"}},{"id":"2746-channel","name":"Kế hoạch chim tu hú","description":"Vào những năm 2025 2030, một dịch bệnh lạ nổi lên khắp thế giới. Căn bệnh này không gây nguy hiểm đến tính mạng, tuy nhiên hậu quả nó để lại là khiến cho nam giới nhiễm phải...","image":null,"label":null,"display":"text-only","type":"text","enable_detail":true,"related":{"url":"https://truyenx.link/truyensextv/channels/related/2746","request_headers":[]},"share":{"url":"https://truyenx.link/truyensextv/channels/share/ke-hoach-chim-tu-hu"},"remote_data":{"url":"https://truyenx.link/truyensextv/channels/ke-hoach-chim-tu-hu"}},{"id":"2745-channel","name":"Gia đình hạnh phúc","description":"“Oe... Oe... Oe...” Tiếng trẻ con khóc chợt vang lên. Hương vội bước tới cái nôi ôm con. “Mẹ đây mẹ đây... Chó con của mẹ dậy rồi à... Dậy ngoan nào...” Thằng...","image":null,"label":null,"display":"text-only","type":"text","enable_detail":true,"related":{"url":"https://truyenx.link/truyensextv/channels/related/2745","request_headers":[]},"share":{"url":"https://truyenx.link/truyensextv/channels/share/gia-dinh-hanh-phuc"},"remote_data":{"url":"https://truyenx.link/truyensextv/channels/gia-dinh-hanh-phuc"}},{"id":"2744-channel","name":"Yêu nhầm chị vợ","description":"Tiếc gì một vòng tay ôm cuộc đời bão tố... Hơn 30t, tao nghĩ rằng bản thân tao đã vui vẻ với những gì đang có ở hiện tại, vui vẻ với những điều đã đạt được, với những...","image":null,"label":null,"display":"text-only","type":"text","enable_detail":true,"related":{"url":"https://truyenx.link/truyensextv/channels/related/2744","request_headers":[]},"share":{"url":"https://truyenx.link/truyensextv/channels/share/yeu-nham-chi-vo"},"remote_data":{"url":"https://truyenx.link/truyensextv/channels/yeu-nham-chi-vo"}},{"id":"2743-channel","name":"Nhật ký của vợ","description":"07/2020... Chuyến tàu SNT2 chuẩn bị rời ga để đưa quý khách đến Nha Trang. Xin quý khách nhanh chóng lên tàu để tránh lỡ tàu. Vậy là gần 5 năm rồi mình mới trở lại quê hương...","image":null,"label":null,"display":"text-only","type":"text","enable_detail":true,"related":{"url":"https://truyenx.link/truyensextv/channels/related/2743","request_headers":[]},"share":{"url":"https://truyenx.link/truyensextv/channels/share/nhat-ky-cua-vo"},"remote_data":{"url":"https://truyenx.link/truyensextv/channels/nhat-ky-cua-vo"}},{"id":"2742-channel","name":"Hai cái lồn trước mắt","description":"“Đùng... choảng!” Tiếng húc của chiếc xe từ phía sau vào xe của bà Khiêm, lúc đang dừng bảng Stop. Cái cản sau bể, nhưng bà không sao. Lúc xuống xe thì thấy một khuôn mặt...","image":null,"label":null,"display":"text-only","type":"text","enable_detail":true,"related":{"url":"https://truyenx.link/truyensextv/channels/related/2742","request_headers":[]},"share":{"url":"https://truyenx.link/truyensextv/channels/share/hai-cai-lon-truoc-mat"},"remote_data":{"url":"https://truyenx.link/truyensextv/channels/hai-cai-lon-truoc-mat"}},{"id":"2741-channel","name":"Lễ thành hôn","description":"“Anh hả? Em được nhận vào làm trợ lý cho Công ty Truyền thông FD rồi nha.” Quỳnh nhấc máy lên, gọi cho chồng sắp cưới của mình, các ngón tay của cô đang đều đặn gõ...","image":null,"label":null,"display":"text-only","type":"text","enable_detail":true,"related":{"url":"https://truyenx.link/truyensextv/channels/related/2741","request_headers":[]},"share":{"url":"https://truyenx.link/truyensextv/channels/share/le-thanh-hon"},"remote_data":{"url":"https://truyenx.link/truyensextv/channels/le-thanh-hon"}},{"id":"2740-channel","name":"Em Linh cùng lớp","description":"Nhớ lại cái hồi còn đi học, chẳng hiểu sao tôi học dốt kinh khủng. Có gương mặt thông minh sáng láng hết cỡ luôn, vậy mà khi bà má nghe ai hỏi: Nhìn nó vầy chắc học hành giỏi...","image":null,"label":null,"display":"text-only","type":"text","enable_detail":true,"related":{"url":"https://truyenx.link/truyensextv/channels/related/2740","request_headers":[]},"share":{"url":"https://truyenx.link/truyensextv/channels/share/em-linh-cung-lop"},"remote_data":{"url":"https://truyenx.link/truyensextv/channels/em-linh-cung-lop"}},{"id":"2739-channel","name":"Thằng nhóc da đen","description":"Từ lúc có cô cháu dâu về ở chung ông bà Kiệt Xuân giữ ý tứ hơn. Số là cô cháu dâu, chồng qua đời đột ngột một tai nạn, cô không thích ở nhà cũ vì nói nhớ bóng dáng chồng...","image":null,"label":null,"display":"text-only","type":"text","enable_detail":true,"related":{"url":"https://truyenx.link/truyensextv/channels/related/2739","request_headers":[]},"share":{"url":"https://truyenx.link/truyensextv/channels/share/thang-nhoc-da-den"},"remote_data":{"url":"https://truyenx.link/truyensextv/channels/thang-nhoc-da-den"}}],"load_more":{"pageInfo":{"current_page":68,"last_page":140,"per_page":30,"total":4188},"paging":{"page_key":"page","size_key":"size"},"remote_data":{"url":"https://truyenx.link/truyensextv/channels"}}}