{"grid_number":1,"channels":[{"id":"2335-channel","name":"Địt được em gái của vợ","description":"Tôi quen Ngọc từ đầu năm 2020. Tôi còn trẻ và đã dành 1 tình yêu say đắm, nồng cháy dành cho Ngọc. Chúng tôi đã tiến tới hôn nhân sau 1 năm yêu nhau. Có lẽ vì sự vội vàng của...","image":null,"label":null,"display":"text-only","type":"text","enable_detail":true,"related":{"url":"https://truyenx.link/truyensextv/channels/related/2335","request_headers":[]},"share":{"url":"https://truyenx.link/truyensextv/channels/share/dit-duoc-em-gai-cua-vo"},"remote_data":{"url":"https://truyenx.link/truyensextv/channels/dit-duoc-em-gai-cua-vo"}},{"id":"2334-channel","name":"Giang hồ gác kiếm","description":"Hồi Ức Hoa... Hoa đừng bỏ bố con anh... Xin lỗi em phải đi rồi... hãy hứa với em... hãy chăm sóc các con... anh đừng chém giết nữa... ở bên kia em sẽ luôn dõi theo, bảo vệ anh và...","image":null,"label":null,"display":"text-only","type":"text","enable_detail":true,"related":{"url":"https://truyenx.link/truyensextv/channels/related/2334","request_headers":[]},"share":{"url":"https://truyenx.link/truyensextv/channels/share/giang-ho-gac-kiem"},"remote_data":{"url":"https://truyenx.link/truyensextv/channels/giang-ho-gac-kiem"}},{"id":"2333-channel","name":"Cuộc sống tươi đẹp","description":"Vy, vợ tôi, là một cô gái rất dâm, tôi biết điều đó vì thời đại học, chính em đã cắm sừng thằng bạn trai mình để mà theo tôi. Thời thanh niên, tôi cũng là một thằng khá...","image":null,"label":null,"display":"text-only","type":"text","enable_detail":true,"related":{"url":"https://truyenx.link/truyensextv/channels/related/2333","request_headers":[]},"share":{"url":"https://truyenx.link/truyensextv/channels/share/cuoc-song-tuoi-dep"},"remote_data":{"url":"https://truyenx.link/truyensextv/channels/cuoc-song-tuoi-dep"}},{"id":"2332-channel","name":"Nữ Sinh","description":"Tôi là Phú Minh. Hiện đang là nữ sinh Đại Học Huflit năm thứ 2. Đây là câu chuyện có thật của tôi. Không để mọi người chờ lâu thì tôi bắt đầu ngay đây. Từ nhỏ, tôi đã là...","image":null,"label":null,"display":"text-only","type":"text","enable_detail":true,"related":{"url":"https://truyenx.link/truyensextv/channels/related/2332","request_headers":[]},"share":{"url":"https://truyenx.link/truyensextv/channels/share/nu-sinh"},"remote_data":{"url":"https://truyenx.link/truyensextv/channels/nu-sinh"}},{"id":"2331-channel","name":"Đỉnh cấp gian tình","description":"Tại một thị trấn nhỏ bên thành phố Hà Bắc, trong một căn gác nhỏ của quán ăn bốn tầng, một thiếu niên trừng 16 tuổi đang nằm trên giường vươn vai thức dậy. Chuông đồng...","image":null,"label":null,"display":"text-only","type":"text","enable_detail":true,"related":{"url":"https://truyenx.link/truyensextv/channels/related/2331","request_headers":[]},"share":{"url":"https://truyenx.link/truyensextv/channels/share/dinh-cap-gian-tinh"},"remote_data":{"url":"https://truyenx.link/truyensextv/channels/dinh-cap-gian-tinh"}},{"id":"2330-channel","name":"Nàng y tá dâm đãng","description":"“Phạch, phạch, phạch...” Những âm thanh dâm dục phát ra phòng ngủ 1 căn hộ sang trọng. Trong phòng ngủ, Thảo đang bị 2 tay đàn ông thay phiên nhau đụ tới tấp. Nàng chổng...","image":null,"label":null,"display":"text-only","type":"text","enable_detail":true,"related":{"url":"https://truyenx.link/truyensextv/channels/related/2330","request_headers":[]},"share":{"url":"https://truyenx.link/truyensextv/channels/share/nang-y-ta-dam-dang"},"remote_data":{"url":"https://truyenx.link/truyensextv/channels/nang-y-ta-dam-dang"}},{"id":"2329-channel","name":"Chúng tôi địt nhau với chó","description":"Chúng tôi cưới nhau đã 3 năm rồi, có 1 con gái ở với ông bà nội. Cuộc sống tình dục vô cùng thoải mái cởi mở, ngày nào chúng tôi cũng đụ nhau ít thì 1 khi thì 2 3 cái 1 đêm...","image":null,"label":null,"display":"text-only","type":"text","enable_detail":true,"related":{"url":"https://truyenx.link/truyensextv/channels/related/2329","request_headers":[]},"share":{"url":"https://truyenx.link/truyensextv/channels/share/chung-toi-dit-nhau-voi-cho"},"remote_data":{"url":"https://truyenx.link/truyensextv/channels/chung-toi-dit-nhau-voi-cho"}},{"id":"2328-channel","name":"Sau giờ thể dục","description":"Tôi là Hoàng, 17 tuổi. Sinh ra và lớn lên trong một gia đình cũng gọi là khá giả đủ ăn đủ mặc. Nhà tôi có 3 người đó là ba mẹ và tôi. Từ nhỏ đã phải gắn bó với ruộng...","image":null,"label":null,"display":"text-only","type":"text","enable_detail":true,"related":{"url":"https://truyenx.link/truyensextv/channels/related/2328","request_headers":[]},"share":{"url":"https://truyenx.link/truyensextv/channels/share/sau-gio-the-duc"},"remote_data":{"url":"https://truyenx.link/truyensextv/channels/sau-gio-the-duc"}},{"id":"2327-channel","name":"Chinh phục","description":"Để bắt đầu cho seri truyện này thì tôi muốn giới thiệu bản thân một chút, để sau này tác phẩm có gì không hợp lí hay bị ngưng một khoảng thời gian thì mọi người cũng hiểu...","image":null,"label":null,"display":"text-only","type":"text","enable_detail":true,"related":{"url":"https://truyenx.link/truyensextv/channels/related/2327","request_headers":[]},"share":{"url":"https://truyenx.link/truyensextv/channels/share/chinh-phuc"},"remote_data":{"url":"https://truyenx.link/truyensextv/channels/chinh-phuc"}},{"id":"2326-channel","name":"Khuyết","description":"Đôi lời gửi đến đọc giả! Tôi là Dương, còn được bạn bè gọi với cái tên Liệt Dương... À lộn Cương Dương vì độ khủng bố của thằng nhỏ trong tôi khi nó ngóc đầu dậy...","image":null,"label":null,"display":"text-only","type":"text","enable_detail":true,"related":{"url":"https://truyenx.link/truyensextv/channels/related/2326","request_headers":[]},"share":{"url":"https://truyenx.link/truyensextv/channels/share/khuyet"},"remote_data":{"url":"https://truyenx.link/truyensextv/channels/khuyet"}},{"id":"2325-channel","name":"Ký ức khó quên","description":"Cách đây cũng gần chục năm. Lúc đó mình mới mới vô làm còn cô ấy là nhân viên lâu năm. Tính mình thì hay bay nhảy nên ít khi làm hoài 1 chỗ. Cô ấy thuộc dạng đẹp sang chảnh nên...","image":null,"label":null,"display":"text-only","type":"text","enable_detail":true,"related":{"url":"https://truyenx.link/truyensextv/channels/related/2325","request_headers":[]},"share":{"url":"https://truyenx.link/truyensextv/channels/share/ky-uc-kho-quen"},"remote_data":{"url":"https://truyenx.link/truyensextv/channels/ky-uc-kho-quen"}},{"id":"2324-channel","name":"Dòng sông xưa","description":"18 tuổi phải vác ba lô lên đường nhập ngũ, cũng nhờ thân quen nên được chuyển qua làm vệ binh nhàn nhã, rồi cái tuổi ham chơi, nổi loạn. Sau cuộc sương sương ra ngoài tán gái...","image":null,"label":null,"display":"text-only","type":"text","enable_detail":true,"related":{"url":"https://truyenx.link/truyensextv/channels/related/2324","request_headers":[]},"share":{"url":"https://truyenx.link/truyensextv/channels/share/dong-song-xua"},"remote_data":{"url":"https://truyenx.link/truyensextv/channels/dong-song-xua"}},{"id":"2323-channel","name":"Cô giáo dâm đãng của tôi","description":"Ngày xưa trước khi thích cô giáo thì mình đã thích một cô bé khác vú cực to, thích đến mức điên đảo. Nhưng cưa cẩm mãi không được, cũng chỉ tại cái đồn ấy khi đó đã có...","image":null,"label":null,"display":"text-only","type":"text","enable_detail":true,"related":{"url":"https://truyenx.link/truyensextv/channels/related/2323","request_headers":[]},"share":{"url":"https://truyenx.link/truyensextv/channels/share/co-giao-dam-dang-cua-toi"},"remote_data":{"url":"https://truyenx.link/truyensextv/channels/co-giao-dam-dang-cua-toi"}},{"id":"2322-channel","name":"Cuộc đời của tôi","description":"Xin chào các bạn đọc. Tôi xin tự giới thiệu tôi Nam. Sau đây tôi sẽ kể về cuộc đời thời học sinh, sinh viên của mình. Tôi sinh ra ở vùng quê nông thôn nghèo. Gia đình có 5...","image":null,"label":null,"display":"text-only","type":"text","enable_detail":true,"related":{"url":"https://truyenx.link/truyensextv/channels/related/2322","request_headers":[]},"share":{"url":"https://truyenx.link/truyensextv/channels/share/cuoc-doi-cua-toi"},"remote_data":{"url":"https://truyenx.link/truyensextv/channels/cuoc-doi-cua-toi"}},{"id":"2321-channel","name":"Hành trình xuyên không","description":"4 giờ chiều tại thành phố Hà Nội, một thanh niên đang chán nản rời khỏi công ty với khuôn mặt ủ rũ không khác gì nhà có tang. Hắn ta là nhân viên cho một công ty công nghệ lập...","image":null,"label":null,"display":"text-only","type":"text","enable_detail":true,"related":{"url":"https://truyenx.link/truyensextv/channels/related/2321","request_headers":[]},"share":{"url":"https://truyenx.link/truyensextv/channels/share/hanh-trinh-xuyen-khong"},"remote_data":{"url":"https://truyenx.link/truyensextv/channels/hanh-trinh-xuyen-khong"}},{"id":"2320-channel","name":"Tuổi mới lớn","description":"Khi tôi học lớp 10, nhà thím út tôi đang xây nhà. Nhà thím út ở kế bên nhà tôi nên chó nhà tôi thường chạy lên nhà thím. Mọi chuyện không có gì khác thường cho đến một hôm...","image":null,"label":null,"display":"text-only","type":"text","enable_detail":true,"related":{"url":"https://truyenx.link/truyensextv/channels/related/2320","request_headers":[]},"share":{"url":"https://truyenx.link/truyensextv/channels/share/tuoi-moi-lon"},"remote_data":{"url":"https://truyenx.link/truyensextv/channels/tuoi-moi-lon"}},{"id":"2319-channel","name":"Cô Hoa","description":"Tôi ở chung cư một mình, có nuôi một con chó xúc xích để bầu bạn. Trong chung cư thì ai cũng thích nó cả, từ già tới trẻ, nhưng nhất là cô Hoa nhà bên. Tôi đi làm là cho chó sang...","image":null,"label":null,"display":"text-only","type":"text","enable_detail":true,"related":{"url":"https://truyenx.link/truyensextv/channels/related/2319","request_headers":[]},"share":{"url":"https://truyenx.link/truyensextv/channels/share/co-hoa"},"remote_data":{"url":"https://truyenx.link/truyensextv/channels/co-hoa"}},{"id":"2318-channel","name":"Em gái bên lề","description":"ĐỤ MÁ MÀY NGON VÀO ĐÂY... Ừ Ừ LÁT RA SOLO MÀY, THẰNG CHÓ ĐẺ! Tiếng thằng em tôi la thất thanh ở trong phòng vọng ra trước khiến tôi giật mình xém làm đổ tô cơm đang ăn dang dở...","image":null,"label":null,"display":"text-only","type":"text","enable_detail":true,"related":{"url":"https://truyenx.link/truyensextv/channels/related/2318","request_headers":[]},"share":{"url":"https://truyenx.link/truyensextv/channels/share/em-gai-ben-le"},"remote_data":{"url":"https://truyenx.link/truyensextv/channels/em-gai-ben-le"}},{"id":"2317-channel","name":"Mùi khói thuốc","description":"Ngồi trong chiếc phòng ngủ của căn hộ, tôi nhìn ra cửa sổ nhìn bầu trời đang dần đen kịt và bắt đầu đổ cơn mưa. Không khí cũng lạnh dần, vội cầm chiếc điều khiển để...","image":null,"label":null,"display":"text-only","type":"text","enable_detail":true,"related":{"url":"https://truyenx.link/truyensextv/channels/related/2317","request_headers":[]},"share":{"url":"https://truyenx.link/truyensextv/channels/share/mui-khoi-thuoc"},"remote_data":{"url":"https://truyenx.link/truyensextv/channels/mui-khoi-thuoc"}},{"id":"2316-channel","name":"Chiều vợ dâm","description":"Tôi tên là Quang, là một nhân viên công sở bình thường như bao người khác nhưng trái với tên gọi của tôi, tôi có một sự đen tối đến tột cùng ẩn náu trong con người của mình...","image":null,"label":null,"display":"text-only","type":"text","enable_detail":true,"related":{"url":"https://truyenx.link/truyensextv/channels/related/2316","request_headers":[]},"share":{"url":"https://truyenx.link/truyensextv/channels/share/chieu-vo-dam"},"remote_data":{"url":"https://truyenx.link/truyensextv/channels/chieu-vo-dam"}},{"id":"2315-channel","name":"Dục vọng đen tối","description":"Dục vọng là bản năng Dục vọng là mộ thứ nhu cầu của con người, nó là một thứ nhu cầu thuộc về bản năng, ai cũng có. Bất kỳ ai cũng muốn được thỏa mãn nhu cầu tình dục...","image":null,"label":null,"display":"text-only","type":"text","enable_detail":true,"related":{"url":"https://truyenx.link/truyensextv/channels/related/2315","request_headers":[]},"share":{"url":"https://truyenx.link/truyensextv/channels/share/duc-vong-den-toi"},"remote_data":{"url":"https://truyenx.link/truyensextv/channels/duc-vong-den-toi"}},{"id":"2314-channel","name":"Mời cưới","description":"Đỗ xe trước ngõ ở một chỗ khá vắng và tối quen thuộc của hai người. Chồng sắp cưới của Linh ôm Linh và hôn hít. Chỗ này khá quen của hai người, vắng, tối dù ai đi qua cũng...","image":null,"label":null,"display":"text-only","type":"text","enable_detail":true,"related":{"url":"https://truyenx.link/truyensextv/channels/related/2314","request_headers":[]},"share":{"url":"https://truyenx.link/truyensextv/channels/share/moi-cuoi"},"remote_data":{"url":"https://truyenx.link/truyensextv/channels/moi-cuoi"}},{"id":"2313-channel","name":"Đụ em Giang người yêu bạn thân","description":"Đây là câu chuyện có thật. Giới thiệu sơ về mình, mình hiện là sinh viên của 1 trường đại học ở Sài Gòn, người yêu và thằng bạn thân của mình học ở bên làng đại học...","image":null,"label":null,"display":"text-only","type":"text","enable_detail":true,"related":{"url":"https://truyenx.link/truyensextv/channels/related/2313","request_headers":[]},"share":{"url":"https://truyenx.link/truyensextv/channels/share/du-em-giang-nguoi-yeu-ban-than"},"remote_data":{"url":"https://truyenx.link/truyensextv/channels/du-em-giang-nguoi-yeu-ban-than"}},{"id":"2312-channel","name":"Khát vọng tuổi trẻ","description":"Tôi tỉnh giấc, nhận ra mình đã ngủ một giấc thật ngon suốt hành trình, nhìn ra ngoài, hãy còn sớm, tiết trời se lạnh, vẫn còn sương mờ, xe đến Biên Hòa, nhiều người đã bắt...","image":null,"label":null,"display":"text-only","type":"text","enable_detail":true,"related":{"url":"https://truyenx.link/truyensextv/channels/related/2312","request_headers":[]},"share":{"url":"https://truyenx.link/truyensextv/channels/share/khat-vong-tuoi-tre"},"remote_data":{"url":"https://truyenx.link/truyensextv/channels/khat-vong-tuoi-tre"}},{"id":"2311-channel","name":"Hồi ức về mẹ","description":"À ơi... Tôi lớn lên bờ Tam Giang nước mặn... Những chiều không mây trắng lững lờ trôi... Huế, những ngày mưa buồn mà người ta vẫn gọi là mưa thối trời thối đất, tôi chọn...","image":null,"label":null,"display":"text-only","type":"text","enable_detail":true,"related":{"url":"https://truyenx.link/truyensextv/channels/related/2311","request_headers":[]},"share":{"url":"https://truyenx.link/truyensextv/channels/share/hoi-uc-ve-me"},"remote_data":{"url":"https://truyenx.link/truyensextv/channels/hoi-uc-ve-me"}},{"id":"2310-channel","name":"Lần đầu tiên cuối cùng","description":"Bản Hợp Đồng Định Mệnh Sáng nay Tuyết Minh đến công ty với tâm trạng hồi hộp và lo lắng không yên. Cả đêm qua nàng cứ trằn trọc thao thức không ngủ được. Mặc dù đã...","image":null,"label":null,"display":"text-only","type":"text","enable_detail":true,"related":{"url":"https://truyenx.link/truyensextv/channels/related/2310","request_headers":[]},"share":{"url":"https://truyenx.link/truyensextv/channels/share/lan-dau-tien-cuoi-cung"},"remote_data":{"url":"https://truyenx.link/truyensextv/channels/lan-dau-tien-cuoi-cung"}},{"id":"2309-channel","name":"Chuyện tình của Nhu Nhi","description":"Một đêm, nhiều lần La Duy ám ảnh nàng bằng bài hát Make It Rain của Ed Sheeran. Từ lúc đọc được đoạn miêu tả, nàng không thể nào dứt tâm trí mình ra khỏi khung cảnh đó. Phòng...","image":null,"label":null,"display":"text-only","type":"text","enable_detail":true,"related":{"url":"https://truyenx.link/truyensextv/channels/related/2309","request_headers":[]},"share":{"url":"https://truyenx.link/truyensextv/channels/share/chuyen-tinh-cua-nhu-nhi"},"remote_data":{"url":"https://truyenx.link/truyensextv/channels/chuyen-tinh-cua-nhu-nhi"}},{"id":"2308-channel","name":"Siêu thị","description":"Truyện này xảy ra đã lâu, từ lúc đợt dịch thứ 3 bắt đầu. Mẹ tôi lo nên rủ tôi đi mua đồ từ sáng sớm. Tuy sáng sớm nhưng rất đông người đứng ở siêu thị. Già có, trẻ...","image":null,"label":null,"display":"text-only","type":"text","enable_detail":true,"related":{"url":"https://truyenx.link/truyensextv/channels/related/2308","request_headers":[]},"share":{"url":"https://truyenx.link/truyensextv/channels/share/sieu-thi"},"remote_data":{"url":"https://truyenx.link/truyensextv/channels/sieu-thi"}},{"id":"2307-channel","name":"Góc khuất","description":"Đan Thy “Được sinh ra trên đời đã là một niềm hạnh phúc...” Một câu nói đơn giản nhưng nói lên giá trị đích thực của sinh mệnh... Rất nhiều người quanh chúng ta...","image":null,"label":null,"display":"text-only","type":"text","enable_detail":true,"related":{"url":"https://truyenx.link/truyensextv/channels/related/2307","request_headers":[]},"share":{"url":"https://truyenx.link/truyensextv/channels/share/goc-khuat"},"remote_data":{"url":"https://truyenx.link/truyensextv/channels/goc-khuat"}},{"id":"2306-channel","name":"Câu chuyện có thật","description":"Sau bao nhiêu năm xem sex và đọc truyện thì tôi mới có lần đầu tiên được địt. Chẳng là hôm đó tôi có sang xin mấy quả ớt nhà bà Hằng bên cạnh. Gọi mãi không thấy ai nên tôi...","image":null,"label":null,"display":"text-only","type":"text","enable_detail":true,"related":{"url":"https://truyenx.link/truyensextv/channels/related/2306","request_headers":[]},"share":{"url":"https://truyenx.link/truyensextv/channels/share/cau-chuyen-co-that"},"remote_data":{"url":"https://truyenx.link/truyensextv/channels/cau-chuyen-co-that"}}],"load_more":{"pageInfo":{"current_page":14,"last_page":140,"per_page":30,"total":4188},"paging":{"page_key":"page","size_key":"size"},"remote_data":{"url":"https://truyenx.link/truyensextv/channels"}}}