{
  "grid_number": 1,
  "channels": [
    {
      "id": "2485-channel",
      "name": "Đụ người yêu bạn thân",
      "description": "Đây là câu chuyện có thật của bản thân tôi. Tôi tên C, 21 tuổi câu chuyện của tôi diễn ra vào năm tôi 19 tuổi. Ngày đó tôi còn là sinh viên ngày đi học tối đi làm thêm kiếm...",
      "image": null,
      "label": null,
      "display": "text-only",
      "type": "text",
      "enable_detail": true,
      "related": {
        "url": "https://truyenx.link/truyensextv/channels/related/2485",
        "request_headers": []
      },
      "share": {
        "url": "https://truyenx.link/truyensextv/channels/share/du-nguoi-yeu-ban-than"
      },
      "remote_data": {
        "url": "https://truyenx.link/truyensextv/channels/du-nguoi-yeu-ban-than"
      }
    },
    {
      "id": "2484-channel",
      "name": "Thím Thủy",
      "description": "Tôi, thằng nhóc năm nay học lớp 9. Bệnh tật từ nhỏ, cơ thể gầy guộc, yếu đuối. So với đám bạn trang lứa luôn là thằng nhóc nhỏ con, hay bị bắt nạt nhất. Cũng lười thể...",
      "image": null,
      "label": null,
      "display": "text-only",
      "type": "text",
      "enable_detail": true,
      "related": {
        "url": "https://truyenx.link/truyensextv/channels/related/2484",
        "request_headers": []
      },
      "share": {
        "url": "https://truyenx.link/truyensextv/channels/share/thim-thuy"
      },
      "remote_data": {
        "url": "https://truyenx.link/truyensextv/channels/thim-thuy"
      }
    },
    {
      "id": "2483-channel",
      "name": "Trái tim người mẹ",
      "description": "Cây keo già đang rụng lá Hiếm có người mẹ nào trên đời này giống như mẹ tôi. Bà đã hiến dâng hơn 20 năm tình yêu như vợ chồng với tôi, trước khi ngọn đèn dập tắt. Và như...",
      "image": null,
      "label": null,
      "display": "text-only",
      "type": "text",
      "enable_detail": true,
      "related": {
        "url": "https://truyenx.link/truyensextv/channels/related/2483",
        "request_headers": []
      },
      "share": {
        "url": "https://truyenx.link/truyensextv/channels/share/trai-tim-nguoi-me"
      },
      "remote_data": {
        "url": "https://truyenx.link/truyensextv/channels/trai-tim-nguoi-me"
      }
    },
    {
      "id": "2482-channel",
      "name": "Người chị gặp trong quán ăn sáng",
      "description": "Dạo trước đợt cách ly mình có chuyến đi công việc Bạc Liêu, đến nơi ghé ăn sáng thì hôm đó cuối tuần khách đông, đảo mắt nhìn quanh thì có một bàn chỉ có một người nữ...",
      "image": null,
      "label": null,
      "display": "text-only",
      "type": "text",
      "enable_detail": true,
      "related": {
        "url": "https://truyenx.link/truyensextv/channels/related/2482",
        "request_headers": []
      },
      "share": {
        "url": "https://truyenx.link/truyensextv/channels/share/nguoi-chi-gap-trong-quan-an-sang"
      },
      "remote_data": {
        "url": "https://truyenx.link/truyensextv/channels/nguoi-chi-gap-trong-quan-an-sang"
      }
    },
    {
      "id": "2481-channel",
      "name": "Kỷ niệm làm tình thời trẻ với người yêu nhất",
      "description": "Em vẫn còn nhớ như in cảnh khi trong phòng ngủ của anh, tắm ra 2 đứa làm tình trên chiếc giường của anh trong căn phòng lớn đầy đủ tiện nghi của cả tầng hai nhà anh. Những đêm...",
      "image": null,
      "label": null,
      "display": "text-only",
      "type": "text",
      "enable_detail": true,
      "related": {
        "url": "https://truyenx.link/truyensextv/channels/related/2481",
        "request_headers": []
      },
      "share": {
        "url": "https://truyenx.link/truyensextv/channels/share/ky-niem-lam-tinh-thoi-tre-voi-nguoi-yeu-nhat"
      },
      "remote_data": {
        "url": "https://truyenx.link/truyensextv/channels/ky-niem-lam-tinh-thoi-tre-voi-nguoi-yeu-nhat"
      }
    },
    {
      "id": "2480-channel",
      "name": "Người chị",
      "description": "Đây là câu chuyện của riêng bản thân tôi là người thật trong câu chuyện thật. Tôi tên Sang nay 18t đủ tuổi để nhận thức được mọi việc. Gia đình tôi chỉ là gia đình bình...",
      "image": null,
      "label": null,
      "display": "text-only",
      "type": "text",
      "enable_detail": true,
      "related": {
        "url": "https://truyenx.link/truyensextv/channels/related/2480",
        "request_headers": []
      },
      "share": {
        "url": "https://truyenx.link/truyensextv/channels/share/nguoi-chi"
      },
      "remote_data": {
        "url": "https://truyenx.link/truyensextv/channels/nguoi-chi"
      }
    },
    {
      "id": "2479-channel",
      "name": "Kim Anh",
      "description": "Kim Anh vốn dĩ từ nhỏ đã rất là ngoan hiền. Một cô bé ngây thơ và chưa có khái niệm gì về tình dục nam nữ. Nhưng với sự tò mò của mình thì cô cũng lân la tìm hiểu về tình...",
      "image": null,
      "label": null,
      "display": "text-only",
      "type": "text",
      "enable_detail": true,
      "related": {
        "url": "https://truyenx.link/truyensextv/channels/related/2479",
        "request_headers": []
      },
      "share": {
        "url": "https://truyenx.link/truyensextv/channels/share/kim-anh"
      },
      "remote_data": {
        "url": "https://truyenx.link/truyensextv/channels/kim-anh"
      }
    },
    {
      "id": "2478-channel",
      "name": "Dân buôn đồ âm - Quyển 2",
      "description": "Sau đó một thời gian, tôi không gặp phải mối làm ăn nào nguy hiểm, cứ như vậy cho đến cuối tháng bảy. Đang lúc Lý Tiểu Manh được nghỉ, Lý mặt rỗ liền đến gặp tôi, nói...",
      "image": null,
      "label": null,
      "display": "text-only",
      "type": "text",
      "enable_detail": true,
      "related": {
        "url": "https://truyenx.link/truyensextv/channels/related/2478",
        "request_headers": []
      },
      "share": {
        "url": "https://truyenx.link/truyensextv/channels/share/dan-buon-do-am-quyen-2"
      },
      "remote_data": {
        "url": "https://truyenx.link/truyensextv/channels/dan-buon-do-am-quyen-2"
      }
    },
    {
      "id": "2477-channel",
      "name": "Dirty panties",
      "description": "Đây là câu chuyện có thật của riêng T cách đây tầm 4 5 năm trước. Chuyện là cách nhà T 2 3 căn gì đó có 1 chị gái có 2 đứa con đều là gái, đứa lớn thì bằng tuổi tôi tằm 17...",
      "image": null,
      "label": null,
      "display": "text-only",
      "type": "text",
      "enable_detail": true,
      "related": {
        "url": "https://truyenx.link/truyensextv/channels/related/2477",
        "request_headers": []
      },
      "share": {
        "url": "https://truyenx.link/truyensextv/channels/share/dirty-panties"
      },
      "remote_data": {
        "url": "https://truyenx.link/truyensextv/channels/dirty-panties"
      }
    },
    {
      "id": "2476-channel",
      "name": "Mối tình mẹ con",
      "description": "Long: “Bác ơi, bố mẹ cháu về chưa ạ” Bác giúp việc: “Chưa thấy về đâu” Long: “Vâng” Trời đã nhá nhem tối, Long vừa đi đá bóng cùng đám bạn về...",
      "image": null,
      "label": null,
      "display": "text-only",
      "type": "text",
      "enable_detail": true,
      "related": {
        "url": "https://truyenx.link/truyensextv/channels/related/2476",
        "request_headers": []
      },
      "share": {
        "url": "https://truyenx.link/truyensextv/channels/share/moi-tinh-me-con"
      },
      "remote_data": {
        "url": "https://truyenx.link/truyensextv/channels/moi-tinh-me-con"
      }
    },
    {
      "id": "2475-channel",
      "name": "Xuyên không về Đại Việt",
      "description": "Dấu ấn cột mốc Gió thu nhẹ lay trong cái nắng mai chói lọi, hàng cây Bạch Đàn du dương đu đưa trước gió, uyển chuyển ve vẩy cành lá xanh um che phớt tại phía đầu ngõ một con...",
      "image": null,
      "label": null,
      "display": "text-only",
      "type": "text",
      "enable_detail": true,
      "related": {
        "url": "https://truyenx.link/truyensextv/channels/related/2475",
        "request_headers": []
      },
      "share": {
        "url": "https://truyenx.link/truyensextv/channels/share/xuyen-khong-ve-dai-viet"
      },
      "remote_data": {
        "url": "https://truyenx.link/truyensextv/channels/xuyen-khong-ve-dai-viet"
      }
    },
    {
      "id": "2474-channel",
      "name": "Chị cắt tóc dâm đãng",
      "description": "Chị sinh năm 1977, đã 42 nồi bánh chưng. Đợt trước em hay cắt tóc ông chú gần nhà, một thời gian sau em thấy quán chị mới mở ở đường quốc lộ, em thì cũng thích nữ cắt tóc...",
      "image": null,
      "label": null,
      "display": "text-only",
      "type": "text",
      "enable_detail": true,
      "related": {
        "url": "https://truyenx.link/truyensextv/channels/related/2474",
        "request_headers": []
      },
      "share": {
        "url": "https://truyenx.link/truyensextv/channels/share/chi-cat-toc-dam-dang"
      },
      "remote_data": {
        "url": "https://truyenx.link/truyensextv/channels/chi-cat-toc-dam-dang"
      }
    },
    {
      "id": "2473-channel",
      "name": "Cô Uyên",
      "description": "Một buổi chiều tháng 12... Một thành phố ồn ào náo nhiệt... Và một câu chuyện mới sắp bắt đầu, vẫn chưa biết vui hay buồn nhưng mỗi một số phận trong đó vốn dĩ đã không...",
      "image": null,
      "label": null,
      "display": "text-only",
      "type": "text",
      "enable_detail": true,
      "related": {
        "url": "https://truyenx.link/truyensextv/channels/related/2473",
        "request_headers": []
      },
      "share": {
        "url": "https://truyenx.link/truyensextv/channels/share/co-uyen"
      },
      "remote_data": {
        "url": "https://truyenx.link/truyensextv/channels/co-uyen"
      }
    },
    {
      "id": "2472-channel",
      "name": "Cô giáo Yến và chú chó",
      "description": "Khởi nguồn mọi câu chuyện Yến là một cô giáo 28 tuổi đang dạy học ở một huyện nhỏ của tỉnh long an. Nàng là một cô gái cao ráo trắng trẻo và xinh đẹp, nhưng ngặt nỗi nàng...",
      "image": null,
      "label": null,
      "display": "text-only",
      "type": "text",
      "enable_detail": true,
      "related": {
        "url": "https://truyenx.link/truyensextv/channels/related/2472",
        "request_headers": []
      },
      "share": {
        "url": "https://truyenx.link/truyensextv/channels/share/co-giao-yen-va-chu-cho"
      },
      "remote_data": {
        "url": "https://truyenx.link/truyensextv/channels/co-giao-yen-va-chu-cho"
      }
    },
    {
      "id": "2471-channel",
      "name": "Những bạn tình thời học sinh",
      "description": "Tôi sống ở Sài Gòn gần như là cả cuộc đời lâu lâu chỉ là du lịch du hí vài nơi cho biết nhưng không hiểu sao tôi lại thích ở cái đất Sài Gòn này như vậy. Giống kiểu có...",
      "image": null,
      "label": null,
      "display": "text-only",
      "type": "text",
      "enable_detail": true,
      "related": {
        "url": "https://truyenx.link/truyensextv/channels/related/2471",
        "request_headers": []
      },
      "share": {
        "url": "https://truyenx.link/truyensextv/channels/share/nhung-ban-tinh-thoi-hoc-sinh"
      },
      "remote_data": {
        "url": "https://truyenx.link/truyensextv/channels/nhung-ban-tinh-thoi-hoc-sinh"
      }
    },
    {
      "id": "2470-channel",
      "name": "Đảo lạnh mù sương",
      "description": "Sơn tỉnh giấc. Một chiếc xe vừa lướt qua làm chiếc Kia Morning rung lắc, đánh thức người chủ đang nằm ngủ trên ghế phụ. Quơ tay qua bên cạnh tìm cái điện thoại, anh check coi...",
      "image": null,
      "label": null,
      "display": "text-only",
      "type": "text",
      "enable_detail": true,
      "related": {
        "url": "https://truyenx.link/truyensextv/channels/related/2470",
        "request_headers": []
      },
      "share": {
        "url": "https://truyenx.link/truyensextv/channels/share/dao-lanh-mu-suong"
      },
      "remote_data": {
        "url": "https://truyenx.link/truyensextv/channels/dao-lanh-mu-suong"
      }
    },
    {
      "id": "2469-channel",
      "name": "Thích chơi kiểu lạ",
      "description": "Ngón tay trỏ của Linh miết nhẹ, nhè nhẹ... cơ lỗ đít nó nhíu lại rồi dãn ra... nó lại miết mạnh hơn xíu nữa... cái lỗ đó lại nhíu mạnh hơn, hai bờ mông giật theo... lần này...",
      "image": null,
      "label": null,
      "display": "text-only",
      "type": "text",
      "enable_detail": true,
      "related": {
        "url": "https://truyenx.link/truyensextv/channels/related/2469",
        "request_headers": []
      },
      "share": {
        "url": "https://truyenx.link/truyensextv/channels/share/thich-choi-kieu-la"
      },
      "remote_data": {
        "url": "https://truyenx.link/truyensextv/channels/thich-choi-kieu-la"
      }
    },
    {
      "id": "2468-channel",
      "name": "Những chiếc quần lót và các chị hàng xóm",
      "description": "Tôi tên N, năm nay học lớp 9, 16 tuổi. Kế nhà tôi có 2 chị hàng xóm rất xinh đẹp, một chị tên Tiền, 17 tuổi, thân hình nõn nà ngực to, mông bự, nói chung là tuyệt phẩm, còn một...",
      "image": null,
      "label": null,
      "display": "text-only",
      "type": "text",
      "enable_detail": true,
      "related": {
        "url": "https://truyenx.link/truyensextv/channels/related/2468",
        "request_headers": []
      },
      "share": {
        "url": "https://truyenx.link/truyensextv/channels/share/nhung-chiec-quan-lot-va-cac-chi-hang-xom"
      },
      "remote_data": {
        "url": "https://truyenx.link/truyensextv/channels/nhung-chiec-quan-lot-va-cac-chi-hang-xom"
      }
    },
    {
      "id": "2467-channel",
      "name": "Vợ thích khám phá",
      "description": "Hùng là bạn học của tôi thời Đại Học. Nhưng Hùng thích nghệ thuật nên sau khi ra trường đã theo con đường chụp ảnh để thỏa lòng đam mê. Cách đây 3 năm tôi tình cờ gặp lại...",
      "image": null,
      "label": null,
      "display": "text-only",
      "type": "text",
      "enable_detail": true,
      "related": {
        "url": "https://truyenx.link/truyensextv/channels/related/2467",
        "request_headers": []
      },
      "share": {
        "url": "https://truyenx.link/truyensextv/channels/share/vo-thich-kham-pha"
      },
      "remote_data": {
        "url": "https://truyenx.link/truyensextv/channels/vo-thich-kham-pha"
      }
    },
    {
      "id": "2466-channel",
      "name": "Sóng ngầm",
      "description": "Thu bị thằng anh rể khều quẹt, nháy nhó, hẹn hò riết mà nên có bầu với nó. Tại xưa nay, Thu không thích bó ngực của mình trong lần áo Soutien... Vô tình... Thu để thả rông cặp...",
      "image": null,
      "label": null,
      "display": "text-only",
      "type": "text",
      "enable_detail": true,
      "related": {
        "url": "https://truyenx.link/truyensextv/channels/related/2466",
        "request_headers": []
      },
      "share": {
        "url": "https://truyenx.link/truyensextv/channels/share/song-ngam"
      },
      "remote_data": {
        "url": "https://truyenx.link/truyensextv/channels/song-ngam"
      }
    },
    {
      "id": "2464-channel",
      "name": "Hậu quả vì cho nhiều trai đụ",
      "description": "Nghe lời ông xã dụ dỗ, em đã lần lượt lên giường với nhiều chàng trai Việt và Tây nhỏ tuổi hơn em, có vài người chỉ bằng tuổi con em. Ông xã chỉ khoái nhìn thấy em chịch...",
      "image": null,
      "label": null,
      "display": "text-only",
      "type": "text",
      "enable_detail": true,
      "related": {
        "url": "https://truyenx.link/truyensextv/channels/related/2464",
        "request_headers": []
      },
      "share": {
        "url": "https://truyenx.link/truyensextv/channels/share/hau-qua-vi-cho-nhieu-trai-du"
      },
      "remote_data": {
        "url": "https://truyenx.link/truyensextv/channels/hau-qua-vi-cho-nhieu-trai-du"
      }
    },
    {
      "id": "2465-channel",
      "name": "Người chị dâm",
      "description": "Câu chuyện bắt đầu vào một ngày đẹp trời em đi qua nhà anh họ tên là Lâm chơi, vừa qua em đi lên phòng anh Lâm chơi game với ảnh, em đột nhiên xông vào cửa làm ảnh giật mình...",
      "image": null,
      "label": null,
      "display": "text-only",
      "type": "text",
      "enable_detail": true,
      "related": {
        "url": "https://truyenx.link/truyensextv/channels/related/2465",
        "request_headers": []
      },
      "share": {
        "url": "https://truyenx.link/truyensextv/channels/share/nguoi-chi-dam"
      },
      "remote_data": {
        "url": "https://truyenx.link/truyensextv/channels/nguoi-chi-dam"
      }
    },
    {
      "id": "2462-channel",
      "name": "Sinh viên yêu gái đã đi làm",
      "description": "Hồi xưa sinh viên ở dãy trọ 3 tầng mới toanh khu Hoàng Mai. Nhà có điều kiện bố mẹ thuê ở một mình từ năm 2, ngày đó chưa có máy lạnh như các bạn bây giờ nhưng ở tầng 2 nên...",
      "image": null,
      "label": null,
      "display": "text-only",
      "type": "text",
      "enable_detail": true,
      "related": {
        "url": "https://truyenx.link/truyensextv/channels/related/2462",
        "request_headers": []
      },
      "share": {
        "url": "https://truyenx.link/truyensextv/channels/share/sinh-vien-yeu-gai-da-di-lam"
      },
      "remote_data": {
        "url": "https://truyenx.link/truyensextv/channels/sinh-vien-yeu-gai-da-di-lam"
      }
    },
    {
      "id": "2463-channel",
      "name": "Vợ dâm trong quán karaoke",
      "description": "1h sáng vợ tôi mới về tới nhà, cô ta nồng mùi rượu, đi loạng choạng không vững bước 2 hàng trên đôi giày cao gót như sắp té. Chắc cô đã xỉn sau cuộc liên hoan cuối năm với...",
      "image": null,
      "label": null,
      "display": "text-only",
      "type": "text",
      "enable_detail": true,
      "related": {
        "url": "https://truyenx.link/truyensextv/channels/related/2463",
        "request_headers": []
      },
      "share": {
        "url": "https://truyenx.link/truyensextv/channels/share/vo-dam-trong-quan-karaoke"
      },
      "remote_data": {
        "url": "https://truyenx.link/truyensextv/channels/vo-dam-trong-quan-karaoke"
      }
    },
    {
      "id": "2461-channel",
      "name": "Kỷ niệm với chị hàng xóm",
      "description": "Mình có chị hàng xóm cạnh nhà chơi từ bé, chị hơn mình 5 tuổi... Hồi bé hay chạy sang nhà chị vì xóm là chỉ có 2 chị em chơi được với nhau, còn lại toàn thành phần giang hồ lưu...",
      "image": null,
      "label": null,
      "display": "text-only",
      "type": "text",
      "enable_detail": true,
      "related": {
        "url": "https://truyenx.link/truyensextv/channels/related/2461",
        "request_headers": []
      },
      "share": {
        "url": "https://truyenx.link/truyensextv/channels/share/ky-niem-voi-chi-hang-xom"
      },
      "remote_data": {
        "url": "https://truyenx.link/truyensextv/channels/ky-niem-voi-chi-hang-xom"
      }
    },
    {
      "id": "2460-channel",
      "name": "Chống quân Nguyên Mông",
      "description": "Mang lòng vướng bận, trở về quá khứ “Quăng đây tao chụp” Gã học sinh cao gầy đưa tay ra hiệu, cách không xa có một cô gái xinh xắn, đầy nét thanh xuân tươi trẻ vung vẩy...",
      "image": null,
      "label": null,
      "display": "text-only",
      "type": "text",
      "enable_detail": true,
      "related": {
        "url": "https://truyenx.link/truyensextv/channels/related/2460",
        "request_headers": []
      },
      "share": {
        "url": "https://truyenx.link/truyensextv/channels/share/chong-quan-nguyen-mong"
      },
      "remote_data": {
        "url": "https://truyenx.link/truyensextv/channels/chong-quan-nguyen-mong"
      }
    },
    {
      "id": "2459-channel",
      "name": "Đêm buồn điên cuồng",
      "description": "Anh kết thúc công việc và đến nhà vào lúc 8g kém, trễ hơn mọi ngày, dành ít thời gian để chạy bộ quanh khu căn hộ anh ở, rồi về tắm rửa một hơi, cố không nghĩ đến chuyện...",
      "image": null,
      "label": null,
      "display": "text-only",
      "type": "text",
      "enable_detail": true,
      "related": {
        "url": "https://truyenx.link/truyensextv/channels/related/2459",
        "request_headers": []
      },
      "share": {
        "url": "https://truyenx.link/truyensextv/channels/share/dem-buon-dien-cuong"
      },
      "remote_data": {
        "url": "https://truyenx.link/truyensextv/channels/dem-buon-dien-cuong"
      }
    },
    {
      "id": "2458-channel",
      "name": "Love or sex",
      "description": "Tôi và chị ấy quen nhau từ bé do bố tôi và bố chị ấy là bạn thân và cả hai cứ đùa sau này sẽ gả cho nhau. Nhưng mà cả hai gia đình đều bắt đầu xa quê nên tôi và chị ấy...",
      "image": null,
      "label": null,
      "display": "text-only",
      "type": "text",
      "enable_detail": true,
      "related": {
        "url": "https://truyenx.link/truyensextv/channels/related/2458",
        "request_headers": []
      },
      "share": {
        "url": "https://truyenx.link/truyensextv/channels/share/love-or-sex"
      },
      "remote_data": {
        "url": "https://truyenx.link/truyensextv/channels/love-or-sex"
      }
    },
    {
      "id": "2457-channel",
      "name": "Giúp nhân tình của bác họ",
      "description": "2021, mình đưa bác đi công việc, sau công việc bác có chút bia rượu với các chiến hữu, xong bảo mình chở bác đến nhà một người...",
      "image": null,
      "label": null,
      "display": "text-only",
      "type": "text",
      "enable_detail": true,
      "related": {
        "url": "https://truyenx.link/truyensextv/channels/related/2457",
        "request_headers": []
      },
      "share": {
        "url": "https://truyenx.link/truyensextv/channels/share/giup-nhan-tinh-cua-bac-ho"
      },
      "remote_data": {
        "url": "https://truyenx.link/truyensextv/channels/giup-nhan-tinh-cua-bac-ho"
      }
    },
    {
      "id": "2456-channel",
      "name": "Thiên thần hội",
      "description": "Thiên thần hội 10h15 sáng... Hội trường của Phòng cảnh sát Thành phố đông nghịt kín chỗ ngồi với đồng một màu xanh đậm đồng phục. Bầu không khí hôm nay thật khác... Từng...",
      "image": null,
      "label": null,
      "display": "text-only",
      "type": "text",
      "enable_detail": true,
      "related": {
        "url": "https://truyenx.link/truyensextv/channels/related/2456",
        "request_headers": []
      },
      "share": {
        "url": "https://truyenx.link/truyensextv/channels/share/thien-than-hoi"
      },
      "remote_data": {
        "url": "https://truyenx.link/truyensextv/channels/thien-than-hoi"
      }
    }
  ],
  "load_more": {
    "pageInfo": {
      "current_page": 9,
      "last_page": 140,
      "per_page": 30,
      "total": 4188
    },
    "paging": {
      "page_key": "page",
      "size_key": "size"
    },
    "remote_data": {
      "url": "https://truyenx.link/truyensextv/channels"
    }
  }
}