{"grid_number":1,"channels":[{"id":"1938-channel","name":"Làm tình với con dâu","description":"Huyền cắn chặt răng chặn lại tiếng rên rỉ chực chờ từ cuống họng, hai chân nàng đang bị banh ra thật rộng ở phía trên Toàn chồng nàng đang hì hục nắc, con cặc của Toàn chui...","image":null,"label":null,"display":"text-only","type":"text","enable_detail":true,"related":{"url":"https://truyenx.link/truyensextv/channels/related/1938","request_headers":[]},"share":{"url":"https://truyenx.link/truyensextv/channels/share/lam-tinh-voi-con-dau"},"remote_data":{"url":"https://truyenx.link/truyensextv/channels/lam-tinh-voi-con-dau"}},{"id":"1937-channel","name":"Nụ cười dâm đãng","description":"Đứng trước gương phòng tắm. Dung say mê chiêm ngưỡng thân hình nóng bỏng của nàng. Dung đưa hai tay xoa nắn và nâng cặp nhũ hoa căng đầy nhựa sống của nàng cho sát chặt vào áo...","image":null,"label":null,"display":"text-only","type":"text","enable_detail":true,"related":{"url":"https://truyenx.link/truyensextv/channels/related/1937","request_headers":[]},"share":{"url":"https://truyenx.link/truyensextv/channels/share/nu-cuoi-dam-dang"},"remote_data":{"url":"https://truyenx.link/truyensextv/channels/nu-cuoi-dam-dang"}},{"id":"1936-channel","name":"Chuyện tình của một con điếm","description":"Huyền đi theo gã đàn ông xa lạ trước mặt mình vào một nhà trọ rẻ tiền ẩn sâu trong ngõ ngách và vắng vẻ để làm cái công việc thiêng liêng của đời người một người con gái...","image":null,"label":null,"display":"text-only","type":"text","enable_detail":true,"related":{"url":"https://truyenx.link/truyensextv/channels/related/1936","request_headers":[]},"share":{"url":"https://truyenx.link/truyensextv/channels/share/chuyen-tinh-cua-mot-con-diem"},"remote_data":{"url":"https://truyenx.link/truyensextv/channels/chuyen-tinh-cua-mot-con-diem"}},{"id":"1935-channel","name":"Nhật ký phá trinh","description":"“Chuyện không xưa nhưng nó luôn là kỷ niệm đẹp trong cuộc sống tình dục của tôi và cũng là nỗi lo sợ đeo đuổi tôi từ hơn 1 tháng nay các bác ạ. Tôi là 1 công nhân viên...","image":null,"label":null,"display":"text-only","type":"text","enable_detail":true,"related":{"url":"https://truyenx.link/truyensextv/channels/related/1935","request_headers":[]},"share":{"url":"https://truyenx.link/truyensextv/channels/share/nhat-ky-pha-trinh"},"remote_data":{"url":"https://truyenx.link/truyensextv/channels/nhat-ky-pha-trinh"}},{"id":"1934-channel","name":"Con dâu và con gái","description":"Lành nũng nịu ôm cổ ông An: Ba, con hỏng biết đó, con muốn được như chị Hai. Ông An giật mình đã mờ mờ đoán biết con gái mình muốn gì nhưng giả vờ: Muốn mua iphone mới hả...","image":null,"label":null,"display":"text-only","type":"text","enable_detail":true,"related":{"url":"https://truyenx.link/truyensextv/channels/related/1934","request_headers":[]},"share":{"url":"https://truyenx.link/truyensextv/channels/share/con-dau-va-con-gai"},"remote_data":{"url":"https://truyenx.link/truyensextv/channels/con-dau-va-con-gai"}},{"id":"1933-channel","name":"Giám đốc chăn rau","description":"Vậy là sau bao ngày ở nhà chăm sóc con cái, cuối cùng thì Quỳnh đã thuyết phục được chồng mình đồng ý cho mình đi tìm việc. Chồng Quỳnh là một người đàn ông thông minh, mạnh...","image":null,"label":null,"display":"text-only","type":"text","enable_detail":true,"related":{"url":"https://truyenx.link/truyensextv/channels/related/1933","request_headers":[]},"share":{"url":"https://truyenx.link/truyensextv/channels/share/giam-doc-chan-rau"},"remote_data":{"url":"https://truyenx.link/truyensextv/channels/giam-doc-chan-rau"}},{"id":"1932-channel","name":"Phá trinh hoa khôi của công ty","description":"Thằng Chiến bám riết lấy chị nó vòi vĩnh xin tiền mua chiếc SH vì sáng nay ba mẹ nó đã bay ra Hà Nội công tác. Chị Huyền à, cho em tiền mua xe mới đi... Khi chị cần em sẽ chở chị...","image":null,"label":null,"display":"text-only","type":"text","enable_detail":true,"related":{"url":"https://truyenx.link/truyensextv/channels/related/1932","request_headers":[]},"share":{"url":"https://truyenx.link/truyensextv/channels/share/pha-trinh-hoa-khoi-cua-cong-ty"},"remote_data":{"url":"https://truyenx.link/truyensextv/channels/pha-trinh-hoa-khoi-cua-cong-ty"}},{"id":"1931-channel","name":"Những ngày tươi đẹp","description":"Vào mùa khô rảnh rỗi, có người giới thiệu tôi đi làm. Công việc là khai thác rừng. Tôi cùng 1 người bạn đi làm. Chúng tôi đến nơi là hôm sau đi làm luôn. Có hai người thợ cưa...","image":null,"label":null,"display":"text-only","type":"text","enable_detail":true,"related":{"url":"https://truyenx.link/truyensextv/channels/related/1931","request_headers":[]},"share":{"url":"https://truyenx.link/truyensextv/channels/share/nhung-ngay-tuoi-dep"},"remote_data":{"url":"https://truyenx.link/truyensextv/channels/nhung-ngay-tuoi-dep"}},{"id":"1930-channel","name":"Đụ em người yêu","description":"Alo Phương Anh à có chuyện gì đấy. N à, có phải nhà cậu ở XXX không? Ừ đúng rồi, có chuyện gì mà 1 giờ sáng rồi lại gọi hỏi vậy? Tớ đang ở ngã tư Sở gần ngay chỗ cậu...","image":null,"label":null,"display":"text-only","type":"text","enable_detail":true,"related":{"url":"https://truyenx.link/truyensextv/channels/related/1930","request_headers":[]},"share":{"url":"https://truyenx.link/truyensextv/channels/share/du-em-nguoi-yeu"},"remote_data":{"url":"https://truyenx.link/truyensextv/channels/du-em-nguoi-yeu"}},{"id":"1929-channel","name":"Cuộc tình đánh cắp","description":"Vào một ngày giữa tháng 10. Tôi sau một thời gian đi chơi xa. Lúc xuống xe, tôi phải đi bộ một đoạn đường 3km mới về tới, nơi mà tôi sống 1 mình ở một nơi hẻo lánh. Tôi ghé...","image":null,"label":null,"display":"text-only","type":"text","enable_detail":true,"related":{"url":"https://truyenx.link/truyensextv/channels/related/1929","request_headers":[]},"share":{"url":"https://truyenx.link/truyensextv/channels/share/cuoc-tinh-danh-cap"},"remote_data":{"url":"https://truyenx.link/truyensextv/channels/cuoc-tinh-danh-cap"}},{"id":"1928-channel","name":"Thầy giáo môn văn","description":"16h30: Sư đoàn 002 trực thuộc bộ tư lệnh. Tiếng còi tập hợp vang vọng khắp khu huấn luyện. Những người lính nhanh chóng tập hợp dù mồ hôi vẫn còn đang chảy sau quá trình huấn...","image":null,"label":null,"display":"text-only","type":"text","enable_detail":true,"related":{"url":"https://truyenx.link/truyensextv/channels/related/1928","request_headers":[]},"share":{"url":"https://truyenx.link/truyensextv/channels/share/thay-giao-mon-van"},"remote_data":{"url":"https://truyenx.link/truyensextv/channels/thay-giao-mon-van"}},{"id":"1927-channel","name":"Chị yêu","description":"Vào những ngày cuối tháng 7. Tôi đến nhà một người anh ở tỉnh khác chơi. Anh chị rất quý tôi, tuy tôi gọi bằng anh, nhưng anh vẫn ít hơn tôi một tuổi. Tôi với anh ấy cũng khác...","image":null,"label":null,"display":"text-only","type":"text","enable_detail":true,"related":{"url":"https://truyenx.link/truyensextv/channels/related/1927","request_headers":[]},"share":{"url":"https://truyenx.link/truyensextv/channels/share/chi-yeu"},"remote_data":{"url":"https://truyenx.link/truyensextv/channels/chi-yeu"}},{"id":"1926-channel","name":"Phi cơ","description":"Mùa khô năm ấy. Bây giờ đang là đầu mùa khô. Có chú người quen, gọi điện cho tôi bảo đi hộ chú khai thác khoáng sản. Tôi theo một anh người Mông. Ngồi sau xe máy khoảng 4 tiếng...","image":null,"label":null,"display":"text-only","type":"text","enable_detail":true,"related":{"url":"https://truyenx.link/truyensextv/channels/related/1926","request_headers":[]},"share":{"url":"https://truyenx.link/truyensextv/channels/share/phi-co"},"remote_data":{"url":"https://truyenx.link/truyensextv/channels/phi-co"}},{"id":"1925-channel","name":"Bắc Tống diệt vong","description":"Nhà Tống mùa xuân năm 1100 sau công nguyên, tại chánh điện Kiến An, Hoàng cung phủ Khai Phong đang tiến hành lễ đăng cơ lên ngôi Hoàng Đế cho Đoan Vương Triệu Cát em trai của Tống...","image":null,"label":null,"display":"text-only","type":"text","enable_detail":true,"related":{"url":"https://truyenx.link/truyensextv/channels/related/1925","request_headers":[]},"share":{"url":"https://truyenx.link/truyensextv/channels/share/bac-tong-diet-vong"},"remote_data":{"url":"https://truyenx.link/truyensextv/channels/bac-tong-diet-vong"}},{"id":"1924-channel","name":"Lời trăn trối của vợ","description":"Tôi nhìn con Tâm mà hỏi: Vậy thì khi anh ra khỏi phòng thì vợ anh nói gì với em vậy? Đứa con gái đỏ mặt cúi đầu nói lí nhí: Dạ... dạ... không có gì đâu mà! Sao lại không có...","image":null,"label":null,"display":"text-only","type":"text","enable_detail":true,"related":{"url":"https://truyenx.link/truyensextv/channels/related/1924","request_headers":[]},"share":{"url":"https://truyenx.link/truyensextv/channels/share/loi-tran-troi-cua-vo"},"remote_data":{"url":"https://truyenx.link/truyensextv/channels/loi-tran-troi-cua-vo"}},{"id":"1923-channel","name":"Quỳnh Hoa","description":"Gã hàng xóm Chiếc nệm cứ rung lên bật bật kèm theo đó là những tiếng rên la thống khoái vang cả căn phòng của đôi gian phu dâm phụ khiến cho đứa bé mới hơn 6 tháng tuổi phải...","image":null,"label":null,"display":"text-only","type":"text","enable_detail":true,"related":{"url":"https://truyenx.link/truyensextv/channels/related/1923","request_headers":[]},"share":{"url":"https://truyenx.link/truyensextv/channels/share/quynh-hoa"},"remote_data":{"url":"https://truyenx.link/truyensextv/channels/quynh-hoa"}},{"id":"1922-channel","name":"Vợ tôi là cô giáo","description":"Trưa hè nóng đến khó chịu, thật không thể chịu nổi. Tôi bước vào phòng tắm, xả nước vào bồn, bỏ ít sữa tắm, tôi ngâm mình trong làn nước mát mẻ. Thật dễ chịu. Hôm nay ba...","image":null,"label":null,"display":"text-only","type":"text","enable_detail":true,"related":{"url":"https://truyenx.link/truyensextv/channels/related/1922","request_headers":[]},"share":{"url":"https://truyenx.link/truyensextv/channels/share/vo-toi-la-co-giao"},"remote_data":{"url":"https://truyenx.link/truyensextv/channels/vo-toi-la-co-giao"}},{"id":"1921-channel","name":"Vợ là giáo viên","description":"Tôi tên Hùng và vợ tôi tên Thy vừa cưới nhau được 1 năm. Công việc của tôi thì ổn định là cho 1 công ty vốn nước ngoài, còn vợ tôi thì ra trường cũng lâu nhưng với nghề giáo...","image":null,"label":null,"display":"text-only","type":"text","enable_detail":true,"related":{"url":"https://truyenx.link/truyensextv/channels/related/1921","request_headers":[]},"share":{"url":"https://truyenx.link/truyensextv/channels/share/vo-la-giao-vien"},"remote_data":{"url":"https://truyenx.link/truyensextv/channels/vo-la-giao-vien"}},{"id":"1920-channel","name":"Giấc mơ","description":"Tôi năm ấy đang học lớp 12 cuối cấp, có quen một cô bạn cùng trường nhưng có điều học khác lớp con đó tên Ý, để tả vẻ ngoài thì phải nói tuyệt vời, Ý có thân hình mập...","image":null,"label":null,"display":"text-only","type":"text","enable_detail":true,"related":{"url":"https://truyenx.link/truyensextv/channels/related/1920","request_headers":[]},"share":{"url":"https://truyenx.link/truyensextv/channels/share/giac-mo"},"remote_data":{"url":"https://truyenx.link/truyensextv/channels/giac-mo"}},{"id":"1919-channel","name":"Tình cũ không rủ cũng tới","description":"Anh luôn nhớ về tôi và tôi cũng luôn nhớ về anh, đã 10 năm rồi vẫn luôn nhớ về nhau. Một hôm tin nhắn facebook tôi có một nick muốn nhắn tin và tôi đã đồng ý, hiện lên là tên...","image":null,"label":null,"display":"text-only","type":"text","enable_detail":true,"related":{"url":"https://truyenx.link/truyensextv/channels/related/1919","request_headers":[]},"share":{"url":"https://truyenx.link/truyensextv/channels/share/tinh-cu-khong-ru-cung-toi"},"remote_data":{"url":"https://truyenx.link/truyensextv/channels/tinh-cu-khong-ru-cung-toi"}},{"id":"1918-channel","name":"Máy bay","description":"Lúc đó là tầm 8h sáng, sau một hồi hỏi đường thì tôi cũng đến đúng địa chỉ. Tôi gõ cửa cô ấy ra mở nhìn thấy tôi. Cô ấy bảo tôi vào nhà rồi đi rửa chân tay. Tôi cất...","image":null,"label":null,"display":"text-only","type":"text","enable_detail":true,"related":{"url":"https://truyenx.link/truyensextv/channels/related/1918","request_headers":[]},"share":{"url":"https://truyenx.link/truyensextv/channels/share/may-bay"},"remote_data":{"url":"https://truyenx.link/truyensextv/channels/may-bay"}},{"id":"1917-channel","name":"Vợ bán sữa chua","description":"Tôi là viên chức nhà nước. Vợ tôi làm nội trợ ở nhà, buôn bán tạp hóa lặt vặt, gần đây có bán thêm sữa chua. Vợ nhập ở Ba Vì về bán có vẻ đắt hàng lắm. Tôi thấy mình...","image":null,"label":null,"display":"text-only","type":"text","enable_detail":true,"related":{"url":"https://truyenx.link/truyensextv/channels/related/1917","request_headers":[]},"share":{"url":"https://truyenx.link/truyensextv/channels/share/vo-ban-sua-chua"},"remote_data":{"url":"https://truyenx.link/truyensextv/channels/vo-ban-sua-chua"}},{"id":"1916-channel","name":"Chị bán thuốc lá","description":"Tôi thức giấc sau khi nghe tiếng rè rè của cái điện thoại iphone ở dưới gối, ngó lên vách tường đối diện thấy kim đồng hồ chỉ đã hơn bảy giờ rưỡi sáng. Mắt nhắm mắt...","image":null,"label":null,"display":"text-only","type":"text","enable_detail":true,"related":{"url":"https://truyenx.link/truyensextv/channels/related/1916","request_headers":[]},"share":{"url":"https://truyenx.link/truyensextv/channels/share/chi-ban-thuoc-la"},"remote_data":{"url":"https://truyenx.link/truyensextv/channels/chi-ban-thuoc-la"}},{"id":"1915-channel","name":"Cái cách tạo ra Hoa khổ dâm","description":"Hoa là một nữ nhân công dung ngôn hạnh, nàng học rất giỏi, bản tính thì ngoan hiền sinh đẹp. Đến năm 24 tuổi thì nàng kết hôn với 1 đại gia, 26 tuổi nàng sinh ra 1 đứa con gái...","image":null,"label":null,"display":"text-only","type":"text","enable_detail":true,"related":{"url":"https://truyenx.link/truyensextv/channels/related/1915","request_headers":[]},"share":{"url":"https://truyenx.link/truyensextv/channels/share/cai-cach-tao-ra-hoa-kho-dam"},"remote_data":{"url":"https://truyenx.link/truyensextv/channels/cai-cach-tao-ra-hoa-kho-dam"}},{"id":"1914-channel","name":"Chuyện của tao với vợ","description":"Tao 8x, người Hà Nội, gặp vợ tao lúc tao chả có cái đầu buồi gì ngoài một tâm hồn đẹp. Đợt đấy tao đang là sinh viên giàu vượt khó và học dốt, đang trong giai đoạn làm đồ...","image":null,"label":null,"display":"text-only","type":"text","enable_detail":true,"related":{"url":"https://truyenx.link/truyensextv/channels/related/1914","request_headers":[]},"share":{"url":"https://truyenx.link/truyensextv/channels/share/chuyen-cua-tao-voi-vo"},"remote_data":{"url":"https://truyenx.link/truyensextv/channels/chuyen-cua-tao-voi-vo"}},{"id":"1913-channel","name":"Đổi mới cuộc đời","description":"Chị Mậu khuôn mặt không đẹp lắm, mặt đầy tàn nhan, nhưng trời cho chị thân hình bắt mắt hấp dẫn. Chị sở hữu ba vòng, vú bự, bụng nhỏ, mông to. Tuy vậy chị có con mắt nhìn...","image":null,"label":null,"display":"text-only","type":"text","enable_detail":true,"related":{"url":"https://truyenx.link/truyensextv/channels/related/1913","request_headers":[]},"share":{"url":"https://truyenx.link/truyensextv/channels/share/doi-moi-cuoc-doi"},"remote_data":{"url":"https://truyenx.link/truyensextv/channels/doi-moi-cuoc-doi"}},{"id":"1912-channel","name":"Chuyện tình phòng tập gym","description":"Nguyễn Hồng Nhung là một cô gái rất thường xuyên đi tập gym, nhờ sự thường xuyên đó, cô đã có một thân hình xinh xắn, dẻo dai, cộng với nước da trắng trẻo thì có thể gọi...","image":null,"label":null,"display":"text-only","type":"text","enable_detail":true,"related":{"url":"https://truyenx.link/truyensextv/channels/related/1912","request_headers":[]},"share":{"url":"https://truyenx.link/truyensextv/channels/share/chuyen-tinh-phong-tap-gym"},"remote_data":{"url":"https://truyenx.link/truyensextv/channels/chuyen-tinh-phong-tap-gym"}},{"id":"1911-channel","name":"Yêu gái nhà giàu","description":"Hôm đó, đang lang thang một mình trên đường, tay xách theo một lon bia heniken đã ướp lạnh, miệng phì phèo điếu jet. Đang thả hồn lang thang thì chợt mắt sáng lên giữa đêm tối...","image":null,"label":null,"display":"text-only","type":"text","enable_detail":true,"related":{"url":"https://truyenx.link/truyensextv/channels/related/1911","request_headers":[]},"share":{"url":"https://truyenx.link/truyensextv/channels/share/yeu-gai-nha-giau"},"remote_data":{"url":"https://truyenx.link/truyensextv/channels/yeu-gai-nha-giau"}},{"id":"1910-channel","name":"Sex học đường","description":"Hải... Hải ơi!!! Nguyệt hả... có chuyện gì vậy? Khiếp... đi gì mà nhanh vậy. Để thở cái đã... Nhanh lên... tui hẹn quân thằng Phong làm trận chế rồi! Ông nhớ cái vụ văn nghệ...","image":null,"label":null,"display":"text-only","type":"text","enable_detail":true,"related":{"url":"https://truyenx.link/truyensextv/channels/related/1910","request_headers":[]},"share":{"url":"https://truyenx.link/truyensextv/channels/share/sex-hoc-duong"},"remote_data":{"url":"https://truyenx.link/truyensextv/channels/sex-hoc-duong"}},{"id":"1909-channel","name":"Đời checker","description":"6h30 phút sáng. ... When I was young I listened to the radio, waiting for my favourite songs... Lời bài hát Yesterday Once More vang lên, cũng chính là tiếng chuông báo thức. Tôi nhoài người bò dậy...","image":null,"label":null,"display":"text-only","type":"text","enable_detail":true,"related":{"url":"https://truyenx.link/truyensextv/channels/related/1909","request_headers":[]},"share":{"url":"https://truyenx.link/truyensextv/channels/share/doi-checker"},"remote_data":{"url":"https://truyenx.link/truyensextv/channels/doi-checker"}}],"load_more":{"pageInfo":{"current_page":76,"last_page":140,"per_page":30,"total":4188},"paging":{"page_key":"page","size_key":"size"},"remote_data":{"url":"https://truyenx.link/truyensextv/channels"}}}