{
  "grid_number": 1,
  "channels": [
    {
      "id": "1878-channel",
      "name": "Nhật ký dâm loạn của tôi",
      "description": "Loạn luân với dượng tám Dượng Tám tôi là một người đàn ông đạo mạo, ít nhất đó là vẻ ngoài, và sẽ không ai nghĩ rằng ông ta là một con yêu râu xanh thích loạn luân. Hè nào...",
      "image": null,
      "label": null,
      "display": "text-only",
      "type": "text",
      "enable_detail": true,
      "related": {
        "url": "https://truyenx.link/truyensextv/channels/related/1878",
        "request_headers": []
      },
      "share": {
        "url": "https://truyenx.link/truyensextv/channels/share/nhat-ky-dam-loan-cua-toi"
      },
      "remote_data": {
        "url": "https://truyenx.link/truyensextv/channels/nhat-ky-dam-loan-cua-toi"
      }
    },
    {
      "id": "1877-channel",
      "name": "Gái nứng tìm đĩ đực",
      "description": "Hắn dán chặt môi hắn vào môi của Vân mà nút một cách điên cuồng. Hắn đưa lưỡi vào miệng Vân rà từng cái răng rồi kéo lưỡi Vân ra nút mạnh vô miệng hắn. Vân nhắm mắt ngã...",
      "image": null,
      "label": null,
      "display": "text-only",
      "type": "text",
      "enable_detail": true,
      "related": {
        "url": "https://truyenx.link/truyensextv/channels/related/1877",
        "request_headers": []
      },
      "share": {
        "url": "https://truyenx.link/truyensextv/channels/share/gai-nung-tim-di-duc"
      },
      "remote_data": {
        "url": "https://truyenx.link/truyensextv/channels/gai-nung-tim-di-duc"
      }
    },
    {
      "id": "1876-channel",
      "name": "Tự truyện của tôi",
      "description": "Em tên Q, sinh năm 96, sinh ra ở 1 vùng quê miền bắc. Cuộc đời của em cũng bình thường như bao người khác thôi. Hiện tại đã lập gia đình rồi. Em là 1 thằng trầm tính ít nói, từ...",
      "image": null,
      "label": null,
      "display": "text-only",
      "type": "text",
      "enable_detail": true,
      "related": {
        "url": "https://truyenx.link/truyensextv/channels/related/1876",
        "request_headers": []
      },
      "share": {
        "url": "https://truyenx.link/truyensextv/channels/share/tu-truyen-cua-toi"
      },
      "remote_data": {
        "url": "https://truyenx.link/truyensextv/channels/tu-truyen-cua-toi"
      }
    },
    {
      "id": "1875-channel",
      "name": "Truyện sex do một người phụ nữ kể lại",
      "description": "Tôi là thành viên mới toanh của truyensextv2.cc, đọc qua rất nhiều truyện sex của mọi người tự nhiên lại thấy có hứng thú viết một truyện về chính cuộc đời mình. Tôi vốn là...",
      "image": null,
      "label": null,
      "display": "text-only",
      "type": "text",
      "enable_detail": true,
      "related": {
        "url": "https://truyenx.link/truyensextv/channels/related/1875",
        "request_headers": []
      },
      "share": {
        "url": "https://truyenx.link/truyensextv/channels/share/truyen-sex-do-mot-nguoi-phu-nu-ke-lai"
      },
      "remote_data": {
        "url": "https://truyenx.link/truyensextv/channels/truyen-sex-do-mot-nguoi-phu-nu-ke-lai"
      }
    },
    {
      "id": "1874-channel",
      "name": "Con nhà chủ tịch",
      "description": "Một buổi tối nọ, sau khi từ chỗ làm về tới nhà, tôi được bà chủ nhà chuyển cho một lá thư. Trên bìa thư ghi rõ “Gửi: Phan Trung Tuân, địa chỉ XXX.” Tôi bóc thư rồi...",
      "image": null,
      "label": null,
      "display": "text-only",
      "type": "text",
      "enable_detail": true,
      "related": {
        "url": "https://truyenx.link/truyensextv/channels/related/1874",
        "request_headers": []
      },
      "share": {
        "url": "https://truyenx.link/truyensextv/channels/share/con-nha-chu-tich"
      },
      "remote_data": {
        "url": "https://truyenx.link/truyensextv/channels/con-nha-chu-tich"
      }
    },
    {
      "id": "1873-channel",
      "name": "Tình nồng không phai",
      "description": "Hà Nội đón đợt nóng cao điểm cũng là lúc tôi có lịch vào đảo ngọc Phú Quốc công tác để kiểm tra tình hình một dự án. Trước đó, tôi từng đến Phú Quốc một lần trong một...",
      "image": null,
      "label": null,
      "display": "text-only",
      "type": "text",
      "enable_detail": true,
      "related": {
        "url": "https://truyenx.link/truyensextv/channels/related/1873",
        "request_headers": []
      },
      "share": {
        "url": "https://truyenx.link/truyensextv/channels/share/tinh-nong-khong-phai"
      },
      "remote_data": {
        "url": "https://truyenx.link/truyensextv/channels/tinh-nong-khong-phai"
      }
    },
    {
      "id": "1872-channel",
      "name": "Bà Hiệu trưởng",
      "description": "Bà Thủy là Hiệu trưởng của một trường tiểu học có tiếng của thành phố, 37 tuổi, chồng bà là CEO một công ty lớn của nhà nước, bà có 2 người con một gái, một trai. Con gái...",
      "image": null,
      "label": null,
      "display": "text-only",
      "type": "text",
      "enable_detail": true,
      "related": {
        "url": "https://truyenx.link/truyensextv/channels/related/1872",
        "request_headers": []
      },
      "share": {
        "url": "https://truyenx.link/truyensextv/channels/share/ba-hieu-truong"
      },
      "remote_data": {
        "url": "https://truyenx.link/truyensextv/channels/ba-hieu-truong"
      }
    },
    {
      "id": "1871-channel",
      "name": "Địt bồ đứa bạn",
      "description": "Tôi tên Hùng năm nay tính tròn tuổi thì 22 tuổi rưỡi, khuôn mặt cũng được, khá đẹp trai, ăn nói nhẹ nhàng, dáng người khá chuẩn, cao 1m69, tôi cũng chăm tập thể hình nên người...",
      "image": null,
      "label": null,
      "display": "text-only",
      "type": "text",
      "enable_detail": true,
      "related": {
        "url": "https://truyenx.link/truyensextv/channels/related/1871",
        "request_headers": []
      },
      "share": {
        "url": "https://truyenx.link/truyensextv/channels/share/dit-bo-dua-ban"
      },
      "remote_data": {
        "url": "https://truyenx.link/truyensextv/channels/dit-bo-dua-ban"
      }
    },
    {
      "id": "1870-channel",
      "name": "Tay ba với vợ thằng bạn",
      "description": "Một năm nay tôi và Huyền vẫn lén lút ngoại tình với nhau khi có điều kiện, tôi cứ nghĩ hai đứa lén lút với nhau tốt vậy thì mãn nguyện cho cả hai rồi. Nhưng điều bất ngờ đã...",
      "image": null,
      "label": null,
      "display": "text-only",
      "type": "text",
      "enable_detail": true,
      "related": {
        "url": "https://truyenx.link/truyensextv/channels/related/1870",
        "request_headers": []
      },
      "share": {
        "url": "https://truyenx.link/truyensextv/channels/share/tay-ba-voi-vo-thang-ban"
      },
      "remote_data": {
        "url": "https://truyenx.link/truyensextv/channels/tay-ba-voi-vo-thang-ban"
      }
    },
    {
      "id": "1869-channel",
      "name": "Nữ sinh đú đởn",
      "description": "Từ nhỏ đến giờ tôi vẫn sống trong tình yêu thương đùm bọc của gia đình, và đặc biệt là cha tôi, ông biết cách an ủi tôi những lúc buồn. Nay tôi đã vào đại học, tuy mới...",
      "image": null,
      "label": null,
      "display": "text-only",
      "type": "text",
      "enable_detail": true,
      "related": {
        "url": "https://truyenx.link/truyensextv/channels/related/1869",
        "request_headers": []
      },
      "share": {
        "url": "https://truyenx.link/truyensextv/channels/share/nu-sinh-du-don"
      },
      "remote_data": {
        "url": "https://truyenx.link/truyensextv/channels/nu-sinh-du-don"
      }
    },
    {
      "id": "1868-channel",
      "name": "Cô giáo Huyền",
      "description": "Cô Huyền, cô giáo cũ của nó đang công tác giảng dạy tại trường cấp III Châu Thành. Tuy gọi là cô nhưng từ lúc bước chân vào học lớp 10, nó chưa hề học cô một ngày nào cả vì...",
      "image": null,
      "label": null,
      "display": "text-only",
      "type": "text",
      "enable_detail": true,
      "related": {
        "url": "https://truyenx.link/truyensextv/channels/related/1868",
        "request_headers": []
      },
      "share": {
        "url": "https://truyenx.link/truyensextv/channels/share/co-giao-huyen"
      },
      "remote_data": {
        "url": "https://truyenx.link/truyensextv/channels/co-giao-huyen"
      }
    },
    {
      "id": "1867-channel",
      "name": "Chuyện tình quán cafe",
      "description": "Chuyện mà em sắp kể ra đây xảy ra cũng rất lâu rồi, vào khoảng cuối mùa hè năm 2011. Em năm đó chỉ vừa tròn 20 tuổi thôi, sinh viên mà, nhà cũng chỉ thuộc dạng đủ ăn đủ mặc...",
      "image": null,
      "label": null,
      "display": "text-only",
      "type": "text",
      "enable_detail": true,
      "related": {
        "url": "https://truyenx.link/truyensextv/channels/related/1867",
        "request_headers": []
      },
      "share": {
        "url": "https://truyenx.link/truyensextv/channels/share/chuyen-tinh-quan-cafe"
      },
      "remote_data": {
        "url": "https://truyenx.link/truyensextv/channels/chuyen-tinh-quan-cafe"
      }
    },
    {
      "id": "1866-channel",
      "name": "Làm tình không có chồng bên cạnh",
      "description": "Xin chào anh chị trong truyensextv2.cc, em là cô gái có cái lồn mỏng manh thích miêu tả cung bậc cảm xúc của chuyện trên giường trên chiếu trên ghế và nhiều trên chỗ khác nữa... nay em...",
      "image": null,
      "label": null,
      "display": "text-only",
      "type": "text",
      "enable_detail": true,
      "related": {
        "url": "https://truyenx.link/truyensextv/channels/related/1866",
        "request_headers": []
      },
      "share": {
        "url": "https://truyenx.link/truyensextv/channels/share/lam-tinh-khong-co-chong-ben-canh"
      },
      "remote_data": {
        "url": "https://truyenx.link/truyensextv/channels/lam-tinh-khong-co-chong-ben-canh"
      }
    },
    {
      "id": "1865-channel",
      "name": "Cô giáo của tôi",
      "description": "Hà Nội mùa thu năm hai ngàn mười mấy... Em là cô giáo dạy văn của một trường nổi tiếng đất Hà thành, dáng người thấp nhưng cân đối... và em là minh chứng cho câu nói “gái...",
      "image": null,
      "label": null,
      "display": "text-only",
      "type": "text",
      "enable_detail": true,
      "related": {
        "url": "https://truyenx.link/truyensextv/channels/related/1865",
        "request_headers": []
      },
      "share": {
        "url": "https://truyenx.link/truyensextv/channels/share/co-giao-cua-toi"
      },
      "remote_data": {
        "url": "https://truyenx.link/truyensextv/channels/co-giao-cua-toi"
      }
    },
    {
      "id": "1864-channel",
      "name": "Nối lại tình xưa",
      "description": "Hôm nay mình quyết định chia sẻ câu chuyện thật của mình, mình ngoại tình với người yêu cũ cách đây 2 năm. Bạn trai mình rất thích nhìn cảnh mình bị bú và liếm lồn, hay thích...",
      "image": null,
      "label": null,
      "display": "text-only",
      "type": "text",
      "enable_detail": true,
      "related": {
        "url": "https://truyenx.link/truyensextv/channels/related/1864",
        "request_headers": []
      },
      "share": {
        "url": "https://truyenx.link/truyensextv/channels/share/noi-lai-tinh-xua"
      },
      "remote_data": {
        "url": "https://truyenx.link/truyensextv/channels/noi-lai-tinh-xua"
      }
    },
    {
      "id": "1863-channel",
      "name": "Móc lồn đồng nghiệp",
      "description": "Tuấn chưa kịp đặt ly cà phê đang uống xuống thì Hoài đã kéo quần chàng xuống, móc trym ra và há môi ngậm lấy rồi nút mạnh. Càng lúc nàng càng bú dồn dập. Tuấn xoay người đặt...",
      "image": null,
      "label": null,
      "display": "text-only",
      "type": "text",
      "enable_detail": true,
      "related": {
        "url": "https://truyenx.link/truyensextv/channels/related/1863",
        "request_headers": []
      },
      "share": {
        "url": "https://truyenx.link/truyensextv/channels/share/moc-lon-dong-nghiep"
      },
      "remote_data": {
        "url": "https://truyenx.link/truyensextv/channels/moc-lon-dong-nghiep"
      }
    },
    {
      "id": "1862-channel",
      "name": "Cô chị dâu dâm dục",
      "description": "Minh Hải và Thiên Ý là cặp vợ chồng trẻ hạnh phúc cùng sống với nhau trong một căn nhà khá rộng ở quận Tân Bình. Hải hơn Ý cả gần chục tuổi nhưng 2 người vẫn rất đẹp...",
      "image": null,
      "label": null,
      "display": "text-only",
      "type": "text",
      "enable_detail": true,
      "related": {
        "url": "https://truyenx.link/truyensextv/channels/related/1862",
        "request_headers": []
      },
      "share": {
        "url": "https://truyenx.link/truyensextv/channels/share/co-chi-dau-dam-duc"
      },
      "remote_data": {
        "url": "https://truyenx.link/truyensextv/channels/co-chi-dau-dam-duc"
      }
    },
    {
      "id": "1861-channel",
      "name": "Cô Ba",
      "description": "Tôi tên là Dũng, quê Thái Bình. Như bao nhiêu trai làng cùng thế hệ, tôi phải đi bộ đội khi vừa học hết cấp III. Tôi cao 172, nặng 68 kg, được tuyển vào binh chủng đặc công...",
      "image": null,
      "label": null,
      "display": "text-only",
      "type": "text",
      "enable_detail": true,
      "related": {
        "url": "https://truyenx.link/truyensextv/channels/related/1861",
        "request_headers": []
      },
      "share": {
        "url": "https://truyenx.link/truyensextv/channels/share/co-ba"
      },
      "remote_data": {
        "url": "https://truyenx.link/truyensextv/channels/co-ba"
      }
    },
    {
      "id": "1860-channel",
      "name": "Ác mộng lấy chồng Đài Loan",
      "description": "Hai tiếng đồng hồ nữa là Huyền đặt chân xuống Đài Loan đi cùng nàng là người chồng Đài Loan. Nàng sung sướng ngã đầu vào vai chồng mà mơ tưởng đến đại gia đình bên chồng...",
      "image": null,
      "label": null,
      "display": "text-only",
      "type": "text",
      "enable_detail": true,
      "related": {
        "url": "https://truyenx.link/truyensextv/channels/related/1860",
        "request_headers": []
      },
      "share": {
        "url": "https://truyenx.link/truyensextv/channels/share/ac-mong-lay-chong-dai-loan"
      },
      "remote_data": {
        "url": "https://truyenx.link/truyensextv/channels/ac-mong-lay-chong-dai-loan"
      }
    },
    {
      "id": "1859-channel",
      "name": "Bà giám đốc đa tình",
      "description": "Quân tắt máy điện toán, bắt đầu thu thập những văn kiện để sửa soạn ra về. Hôm nay, chiều Thứ Bảy, Quân đang vui vẻ vì mọi công việc của sở chàng đã hoàn tất và nghĩ...",
      "image": null,
      "label": null,
      "display": "text-only",
      "type": "text",
      "enable_detail": true,
      "related": {
        "url": "https://truyenx.link/truyensextv/channels/related/1859",
        "request_headers": []
      },
      "share": {
        "url": "https://truyenx.link/truyensextv/channels/share/ba-giam-doc-da-tinh"
      },
      "remote_data": {
        "url": "https://truyenx.link/truyensextv/channels/ba-giam-doc-da-tinh"
      }
    },
    {
      "id": "1858-channel",
      "name": "Người cũ của vợ",
      "description": "Minh nhét áo sơ mi vào trong quần, sơ vin gọn gàng. Tính Minh là thế, gọn gàng ngăn nắp khoa học. Hôm nay hắn về quê vợ, ở rể nhưng dám chắc không thằng nào dám mở mồm ra khinh...",
      "image": null,
      "label": null,
      "display": "text-only",
      "type": "text",
      "enable_detail": true,
      "related": {
        "url": "https://truyenx.link/truyensextv/channels/related/1858",
        "request_headers": []
      },
      "share": {
        "url": "https://truyenx.link/truyensextv/channels/share/nguoi-cu-cua-vo"
      },
      "remote_data": {
        "url": "https://truyenx.link/truyensextv/channels/nguoi-cu-cua-vo"
      }
    },
    {
      "id": "1857-channel",
      "name": "Đụ chị Ngân",
      "description": "Thằng Hiếu được về quê nghỉ hè. Ba má nó rất hãnh diện với hàng xóm có được thằng con trai học Ðại học trên tận Sàigòn, còn chị Ngân thì trố mắt ngạc nhiên nhìn thằng em...",
      "image": null,
      "label": null,
      "display": "text-only",
      "type": "text",
      "enable_detail": true,
      "related": {
        "url": "https://truyenx.link/truyensextv/channels/related/1857",
        "request_headers": []
      },
      "share": {
        "url": "https://truyenx.link/truyensextv/channels/share/du-chi-ngan"
      },
      "remote_data": {
        "url": "https://truyenx.link/truyensextv/channels/du-chi-ngan"
      }
    },
    {
      "id": "1856-channel",
      "name": "Mỹ Dung dâm đãng",
      "description": "Năm tròn 16 tuổi, Mỹ Dung là một thiếu nữ tràn đầy sức sống. Dung có thói quen khỏa thân để tự ngắm mình trước gương và tự hào với bộ ngực to và căng tròn, mông to và đặc...",
      "image": null,
      "label": null,
      "display": "text-only",
      "type": "text",
      "enable_detail": true,
      "related": {
        "url": "https://truyenx.link/truyensextv/channels/related/1856",
        "request_headers": []
      },
      "share": {
        "url": "https://truyenx.link/truyensextv/channels/share/my-dung-dam-dang"
      },
      "remote_data": {
        "url": "https://truyenx.link/truyensextv/channels/my-dung-dam-dang"
      }
    },
    {
      "id": "1855-channel",
      "name": "Người yêu cũ và bạn thân",
      "description": "Tác giả: Gin Hoài Phong, một thanh niên 22 tuổi, là học sinh trường Đại Học X. Con nhà giàu, học giỏi, lại điển trai, anh đã trở thành nam thần trong mắt bao cô gái học cùng...",
      "image": null,
      "label": null,
      "display": "text-only",
      "type": "text",
      "enable_detail": true,
      "related": {
        "url": "https://truyenx.link/truyensextv/channels/related/1855",
        "request_headers": []
      },
      "share": {
        "url": "https://truyenx.link/truyensextv/channels/share/nguoi-yeu-cu-va-ban-than"
      },
      "remote_data": {
        "url": "https://truyenx.link/truyensextv/channels/nguoi-yeu-cu-va-ban-than"
      }
    },
    {
      "id": "1854-channel",
      "name": "Xin con",
      "description": "Tôi và em đã kết hôn được hơn 10 năm và chúng tôi từng có thời gian vô cùng viên mãn. Vì kinh tế gia đình nên chúng tôi lao đầu vào kiếm tiền để rồi giờ đây muốn có một...",
      "image": null,
      "label": null,
      "display": "text-only",
      "type": "text",
      "enable_detail": true,
      "related": {
        "url": "https://truyenx.link/truyensextv/channels/related/1854",
        "request_headers": []
      },
      "share": {
        "url": "https://truyenx.link/truyensextv/channels/share/xin-con"
      },
      "remote_data": {
        "url": "https://truyenx.link/truyensextv/channels/xin-con"
      }
    },
    {
      "id": "1853-channel",
      "name": "Hai cô cháu gái",
      "description": "Chuyện là vầy, tui có 2 đứa cháu gái hiện đang sống chung với tôi chung 1 nhà... 1 đứa 27 tuổi và 1 đứa 18 tuổi... tụi nó dọn đến ở chung với tui gần 3 năm nay do mẹ bọn nó...",
      "image": null,
      "label": null,
      "display": "text-only",
      "type": "text",
      "enable_detail": true,
      "related": {
        "url": "https://truyenx.link/truyensextv/channels/related/1853",
        "request_headers": []
      },
      "share": {
        "url": "https://truyenx.link/truyensextv/channels/share/hai-co-chau-gai"
      },
      "remote_data": {
        "url": "https://truyenx.link/truyensextv/channels/hai-co-chau-gai"
      }
    },
    {
      "id": "1852-channel",
      "name": "Người con gái đó",
      "description": "Người con gái đó là mối tình đầu và cũng là người đàn bà đầu tiên của đời tôi. Lúc ấy đang học cấp ba năm cuối, ban đầu tôi học ở trường tư nhân khá lớn, nhưng sau này...",
      "image": null,
      "label": null,
      "display": "text-only",
      "type": "text",
      "enable_detail": true,
      "related": {
        "url": "https://truyenx.link/truyensextv/channels/related/1852",
        "request_headers": []
      },
      "share": {
        "url": "https://truyenx.link/truyensextv/channels/share/nguoi-con-gai-do"
      },
      "remote_data": {
        "url": "https://truyenx.link/truyensextv/channels/nguoi-con-gai-do"
      }
    },
    {
      "id": "1851-channel",
      "name": "Những dại dột thời con gái của tôi",
      "description": "Chào các bạn, mình tên Lê 24 tuổi, mình làm công nhân may ở một công ty may của Đài Loan. Mình lấy chồng hơn năm rồi nhưng chưa có em bé. Mình thật ra không phải là nhà văn chuyên...",
      "image": null,
      "label": null,
      "display": "text-only",
      "type": "text",
      "enable_detail": true,
      "related": {
        "url": "https://truyenx.link/truyensextv/channels/related/1851",
        "request_headers": []
      },
      "share": {
        "url": "https://truyenx.link/truyensextv/channels/share/nhung-dai-dot-thoi-con-gai-cua-toi"
      },
      "remote_data": {
        "url": "https://truyenx.link/truyensextv/channels/nhung-dai-dot-thoi-con-gai-cua-toi"
      }
    },
    {
      "id": "1850-channel",
      "name": "Tình cờ được em dân tộc Jrai mút cu",
      "description": "Chào anh em đồng dâm, mình xin được kể câu chuyện có thật của bản thân mà mình vừa trải nghiệm. Bản thân mình cảm thấy cũng rất bất ngờ và sung sướng. Mình viết lại có...",
      "image": null,
      "label": null,
      "display": "text-only",
      "type": "text",
      "enable_detail": true,
      "related": {
        "url": "https://truyenx.link/truyensextv/channels/related/1850",
        "request_headers": []
      },
      "share": {
        "url": "https://truyenx.link/truyensextv/channels/share/tinh-co-duoc-em-dan-toc-jrai-mut-cu"
      },
      "remote_data": {
        "url": "https://truyenx.link/truyensextv/channels/tinh-co-duoc-em-dan-toc-jrai-mut-cu"
      }
    },
    {
      "id": "1849-channel",
      "name": "Địt nhau ở ban công",
      "description": "Chuyện là chồng em đi làm xa mỗi lần về là 2 đứa vồ lấy nhau như hổ đói, 8h tối rủ em lên phòng hôn vợ cái, cái tay không quên nhiệm vụ sờ xuống lồn vợ. Sau bao lâu xa nhau...",
      "image": null,
      "label": null,
      "display": "text-only",
      "type": "text",
      "enable_detail": true,
      "related": {
        "url": "https://truyenx.link/truyensextv/channels/related/1849",
        "request_headers": []
      },
      "share": {
        "url": "https://truyenx.link/truyensextv/channels/share/dit-nhau-o-ban-cong"
      },
      "remote_data": {
        "url": "https://truyenx.link/truyensextv/channels/dit-nhau-o-ban-cong"
      }
    }
  ],
  "load_more": {
    "pageInfo": {
      "current_page": 78,
      "last_page": 140,
      "per_page": 30,
      "total": 4188
    },
    "paging": {
      "page_key": "page",
      "size_key": "size"
    },
    "remote_data": {
      "url": "https://truyenx.link/truyensextv/channels"
    }
  }
}