{
  "grid_number": 1,
  "channels": [
    {
      "id": "2828-channel",
      "name": "Giấc mơ hạnh phúc",
      "description": "Cha ơi... Hì... Hì... Cha... Cha... Có con cá to lắm, cá to nổi lên rồi, cha... Cha... Hihi... Hì... Thằng Cả vừa chạy vừa kêu to, nó đang đi câu cá ở bên bờ sông, thì nó nhìn thấy 1...",
      "image": null,
      "label": null,
      "display": "text-only",
      "type": "text",
      "enable_detail": true,
      "related": {
        "url": "https://truyenx.link/truyensextv/channels/related/2828",
        "request_headers": []
      },
      "share": {
        "url": "https://truyenx.link/truyensextv/channels/share/giac-mo-hanh-phuc"
      },
      "remote_data": {
        "url": "https://truyenx.link/truyensextv/channels/giac-mo-hanh-phuc"
      }
    },
    {
      "id": "2827-channel",
      "name": "Chơi người yêu ông bạn hàng xóm",
      "description": "Tôi tên Hoàng, 25 tuổi, là một shipper giao hàng. Tôi cao khoảng mét tám, nhìn khá đô con, chắc do một phần công việc shipper phải khuân vác nhiều, nên vô tình tôi được tập thể dục...",
      "image": null,
      "label": null,
      "display": "text-only",
      "type": "text",
      "enable_detail": true,
      "related": {
        "url": "https://truyenx.link/truyensextv/channels/related/2827",
        "request_headers": []
      },
      "share": {
        "url": "https://truyenx.link/truyensextv/channels/share/choi-nguoi-yeu-ong-ban-hang-xom"
      },
      "remote_data": {
        "url": "https://truyenx.link/truyensextv/channels/choi-nguoi-yeu-ong-ban-hang-xom"
      }
    },
    {
      "id": "2826-channel",
      "name": "Cô thôn nữ",
      "description": "Bước xuống trên chiếc xe hơi sang trọng ở đình làng Hạ là một cô gái tóc xoăn với chiếc vắn ngắn củn màu hồng, bọn trẻ con thì đua nhau kéo đến chiếc xe sờ soạng dường...",
      "image": null,
      "label": null,
      "display": "text-only",
      "type": "text",
      "enable_detail": true,
      "related": {
        "url": "https://truyenx.link/truyensextv/channels/related/2826",
        "request_headers": []
      },
      "share": {
        "url": "https://truyenx.link/truyensextv/channels/share/co-thon-nu"
      },
      "remote_data": {
        "url": "https://truyenx.link/truyensextv/channels/co-thon-nu"
      }
    },
    {
      "id": "2825-channel",
      "name": "Sống trong tội lỗi",
      "description": "Gia đình mình thì vốn xuất thân ở quê sau đấy chuyển lên thành phố làm ăn cũng có nhà cửa và so với trong họ thì có thể nói là đứng đầu. Ngoài ra bố mình còn là trưởng tộc...",
      "image": null,
      "label": null,
      "display": "text-only",
      "type": "text",
      "enable_detail": true,
      "related": {
        "url": "https://truyenx.link/truyensextv/channels/related/2825",
        "request_headers": []
      },
      "share": {
        "url": "https://truyenx.link/truyensextv/channels/share/song-trong-toi-loi"
      },
      "remote_data": {
        "url": "https://truyenx.link/truyensextv/channels/song-trong-toi-loi"
      }
    },
    {
      "id": "2824-channel",
      "name": "Đụ chị vợ",
      "description": "Trâm ngồi thẫn thờ xuống ghế, có vẻ chán chường: Thật là chán, có chồng cũng như không, chẳng nhờ được gì. Đến cái chuyện đó cũng chẳng nên thân. Ngồi bên cạnh người...",
      "image": null,
      "label": null,
      "display": "text-only",
      "type": "text",
      "enable_detail": true,
      "related": {
        "url": "https://truyenx.link/truyensextv/channels/related/2824",
        "request_headers": []
      },
      "share": {
        "url": "https://truyenx.link/truyensextv/channels/share/du-chi-vo"
      },
      "remote_data": {
        "url": "https://truyenx.link/truyensextv/channels/du-chi-vo"
      }
    },
    {
      "id": "2823-channel",
      "name": "Gái gọi cao cấp",
      "description": "Ánh nắng chiều chạng đỏ ối của một buổi chiều chạng vạng hắt qua rèm cửa sổ văn phòng đã tắt đèn, giờ này nhân viên công ty đã về nhà, người thì tất bận chuyện bếp...",
      "image": null,
      "label": null,
      "display": "text-only",
      "type": "text",
      "enable_detail": true,
      "related": {
        "url": "https://truyenx.link/truyensextv/channels/related/2823",
        "request_headers": []
      },
      "share": {
        "url": "https://truyenx.link/truyensextv/channels/share/gai-goi-cao-cap"
      },
      "remote_data": {
        "url": "https://truyenx.link/truyensextv/channels/gai-goi-cao-cap"
      }
    },
    {
      "id": "2822-channel",
      "name": "Chuyện giả như thật",
      "description": "Phong và Hà, vợ chồng bạn tôi! Vợ chồng thằng bạn thân mình lấy nhau và đã có con! Nó hay tâm sự là vợ nó trước khi lấy nó từng quan hệ với 2 thằng người yêu cũ! Và khi nó...",
      "image": null,
      "label": null,
      "display": "text-only",
      "type": "text",
      "enable_detail": true,
      "related": {
        "url": "https://truyenx.link/truyensextv/channels/related/2822",
        "request_headers": []
      },
      "share": {
        "url": "https://truyenx.link/truyensextv/channels/share/chuyen-gia-nhu-that"
      },
      "remote_data": {
        "url": "https://truyenx.link/truyensextv/channels/chuyen-gia-nhu-that"
      }
    },
    {
      "id": "2821-channel",
      "name": "Người mẹ thích bú cặc con",
      "description": "Lúc tao học cấp 1, ba tao là người chăm sóc tao về khoảng tắm rửa. Sau này tao lên lớp 6, ba tao đéo chăm sóc tao nữa, mà chuyển qua cho mẹ tao vì ổng thường xuyên vắng nhà. Như tụi...",
      "image": null,
      "label": null,
      "display": "text-only",
      "type": "text",
      "enable_detail": true,
      "related": {
        "url": "https://truyenx.link/truyensextv/channels/related/2821",
        "request_headers": []
      },
      "share": {
        "url": "https://truyenx.link/truyensextv/channels/share/nguoi-me-thich-bu-cac-con"
      },
      "remote_data": {
        "url": "https://truyenx.link/truyensextv/channels/nguoi-me-thich-bu-cac-con"
      }
    },
    {
      "id": "2820-channel",
      "name": "Giảng viên chủ nhiệp vú to",
      "description": "Lần đầu tiên vào nhận lớp là khóa sinh hoạt giao lưu giữa giảng viên của trường và tân sinh viên , tao nhìn chảy cả nước miếng. Bả lại hay có tật đó là...",
      "image": null,
      "label": null,
      "display": "text-only",
      "type": "text",
      "enable_detail": true,
      "related": {
        "url": "https://truyenx.link/truyensextv/channels/related/2820",
        "request_headers": []
      },
      "share": {
        "url": "https://truyenx.link/truyensextv/channels/share/giang-vien-chu-nhiep-vu-to"
      },
      "remote_data": {
        "url": "https://truyenx.link/truyensextv/channels/giang-vien-chu-nhiep-vu-to"
      }
    },
    {
      "id": "2819-channel",
      "name": "Anh xe ôm may mắn",
      "description": "Mông, có hai quả mông đẹp tuyệt vời đang ở trước mắt hắn. Không phải loại mông xồ xề phát ói của mấy bà đã quá đát, mà là hai cái mông căng chắc của giống gái trẻ thơm...",
      "image": null,
      "label": null,
      "display": "text-only",
      "type": "text",
      "enable_detail": true,
      "related": {
        "url": "https://truyenx.link/truyensextv/channels/related/2819",
        "request_headers": []
      },
      "share": {
        "url": "https://truyenx.link/truyensextv/channels/share/anh-xe-om-may-man"
      },
      "remote_data": {
        "url": "https://truyenx.link/truyensextv/channels/anh-xe-om-may-man"
      }
    },
    {
      "id": "2818-channel",
      "name": "Đánh mất thanh xuân",
      "description": "Chào mọi người! Đắn đo, ấp ủ bao ngày nay mới đủ dũng khí lên truyensextv2.cc để kể về câu chuyện của đời mình. Câu chuyện tù tội vốn cũng chẳng hay ho gì cho lắm nhưng...",
      "image": null,
      "label": null,
      "display": "text-only",
      "type": "text",
      "enable_detail": true,
      "related": {
        "url": "https://truyenx.link/truyensextv/channels/related/2818",
        "request_headers": []
      },
      "share": {
        "url": "https://truyenx.link/truyensextv/channels/share/danh-mat-thanh-xuan"
      },
      "remote_data": {
        "url": "https://truyenx.link/truyensextv/channels/danh-mat-thanh-xuan"
      }
    },
    {
      "id": "2817-channel",
      "name": "Đụ vợ của bạn",
      "description": "Sơn nghĩ không có gì thích thú bằng nhìn một người đàn ông đụ lồn vợ mình. Chàng muốn thấy con cặc lạ thụt vào, kéo ra trong lồn vợ chàng, và nàng hất mông lên khi người đàn...",
      "image": null,
      "label": null,
      "display": "text-only",
      "type": "text",
      "enable_detail": true,
      "related": {
        "url": "https://truyenx.link/truyensextv/channels/related/2817",
        "request_headers": []
      },
      "share": {
        "url": "https://truyenx.link/truyensextv/channels/share/du-vo-cua-ban"
      },
      "remote_data": {
        "url": "https://truyenx.link/truyensextv/channels/du-vo-cua-ban"
      }
    },
    {
      "id": "2816-channel",
      "name": "Tình riêng của tôi",
      "description": "Cái cảm giác tội lỗi cứ ám ảnh, dằn vặt tôi trong suốt nhiều năm trước và ngay cả những năm sau khi đã có chồng. Nhưng điều trớ trêu là cùng với tâm trạng mặc cảm đó...",
      "image": null,
      "label": null,
      "display": "text-only",
      "type": "text",
      "enable_detail": true,
      "related": {
        "url": "https://truyenx.link/truyensextv/channels/related/2816",
        "request_headers": []
      },
      "share": {
        "url": "https://truyenx.link/truyensextv/channels/share/tinh-rieng-cua-toi"
      },
      "remote_data": {
        "url": "https://truyenx.link/truyensextv/channels/tinh-rieng-cua-toi"
      }
    },
    {
      "id": "2815-channel",
      "name": "Những điều thầm kín của vợ chồng tôi",
      "description": "Phú Quốc... một buổi chiều thu lãng mạn. Tôi đang đi dạo ven biển, với những bờ cát dài để tận hưởng mùi vị của biển. Còn vợ tôi thì đang nằm trong vòng tay người khác...",
      "image": null,
      "label": null,
      "display": "text-only",
      "type": "text",
      "enable_detail": true,
      "related": {
        "url": "https://truyenx.link/truyensextv/channels/related/2815",
        "request_headers": []
      },
      "share": {
        "url": "https://truyenx.link/truyensextv/channels/share/nhung-dieu-tham-kin-cua-vo-chong-toi"
      },
      "remote_data": {
        "url": "https://truyenx.link/truyensextv/channels/nhung-dieu-tham-kin-cua-vo-chong-toi"
      }
    },
    {
      "id": "2814-channel",
      "name": "Đi qua mùa dịch",
      "description": "Bầu trời xanh ngắt được vài đám mây trắng tô điểm, hàng cây bằng lăng màu tím đã bắt đầu nở rộ làm cả con đường lộng lẫy như một bức tranh đầy màu sắc. Nắng nhẹ...",
      "image": null,
      "label": null,
      "display": "text-only",
      "type": "text",
      "enable_detail": true,
      "related": {
        "url": "https://truyenx.link/truyensextv/channels/related/2814",
        "request_headers": []
      },
      "share": {
        "url": "https://truyenx.link/truyensextv/channels/share/di-qua-mua-dich"
      },
      "remote_data": {
        "url": "https://truyenx.link/truyensextv/channels/di-qua-mua-dich"
      }
    },
    {
      "id": "2813-channel",
      "name": "Phá trinh Như Ý",
      "description": "Trời mưa, cảnh vật như bởi nhấn chìm vào màn nước ướt đẫm. Nhưng lại có một bóng người con gái vẫn đạp xe đội mưa về nhà. Hơi nước thấm vào áo, vào quần, làm lộ lên...",
      "image": null,
      "label": null,
      "display": "text-only",
      "type": "text",
      "enable_detail": true,
      "related": {
        "url": "https://truyenx.link/truyensextv/channels/related/2813",
        "request_headers": []
      },
      "share": {
        "url": "https://truyenx.link/truyensextv/channels/share/pha-trinh-nhu-y"
      },
      "remote_data": {
        "url": "https://truyenx.link/truyensextv/channels/pha-trinh-nhu-y"
      }
    },
    {
      "id": "2812-channel",
      "name": "Tao đã địt mẹ tao",
      "description": "Lâu rồi, tao đéo nhớ năm đó tao bao nhiêu tuổi nữa . Đã vậy hồi nhỏ mẹ tao còn hay chơi trò nâng tao lên bằng chân, hạ tao xuống, cứ như đang địt theo tư thế truyền thống nam...",
      "image": null,
      "label": null,
      "display": "text-only",
      "type": "text",
      "enable_detail": true,
      "related": {
        "url": "https://truyenx.link/truyensextv/channels/related/2812",
        "request_headers": []
      },
      "share": {
        "url": "https://truyenx.link/truyensextv/channels/share/tao-da-dit-me-tao"
      },
      "remote_data": {
        "url": "https://truyenx.link/truyensextv/channels/tao-da-dit-me-tao"
      }
    },
    {
      "id": "2811-channel",
      "name": "Bố dượng chồng",
      "description": "Trâm đang lim dim trên ghế sofa nên không nghe được người đàn ông vạm vỡ, béo phì đi vào nhà bếp. Lão sờ soạng cho tới khi Trâm phát giác chỗ kín bị xâm phạm. Mắt trợn tròn...",
      "image": null,
      "label": null,
      "display": "text-only",
      "type": "text",
      "enable_detail": true,
      "related": {
        "url": "https://truyenx.link/truyensextv/channels/related/2811",
        "request_headers": []
      },
      "share": {
        "url": "https://truyenx.link/truyensextv/channels/share/bo-duong-chong"
      },
      "remote_data": {
        "url": "https://truyenx.link/truyensextv/channels/bo-duong-chong"
      }
    },
    {
      "id": "2810-channel",
      "name": "30 ngày làm đĩ của tôi",
      "description": "Làm đĩ thật ra nó cũng là một cái nghề. Bởi theo em công việc gì mà không vi phạm lương tâm, không trộm cắp, cướp giật, không làm gì ác thì nó là nghề. Bản thân em không phải...",
      "image": null,
      "label": null,
      "display": "text-only",
      "type": "text",
      "enable_detail": true,
      "related": {
        "url": "https://truyenx.link/truyensextv/channels/related/2810",
        "request_headers": []
      },
      "share": {
        "url": "https://truyenx.link/truyensextv/channels/share/30-ngay-lam-di-cua-toi"
      },
      "remote_data": {
        "url": "https://truyenx.link/truyensextv/channels/30-ngay-lam-di-cua-toi"
      }
    },
    {
      "id": "2809-channel",
      "name": "Ỷ thiên dâm hiệp truyện",
      "description": "Lời Mở Ðầu: Truyện võ hiệp Trung Hoa đã nổi tiếng trên khắp thế giới trên mấy chục năm nay. Cung như mọi tiểu thuyết khác, ngoài những chi tiết về võ học Trung Hoa, nó còn...",
      "image": null,
      "label": null,
      "display": "text-only",
      "type": "text",
      "enable_detail": true,
      "related": {
        "url": "https://truyenx.link/truyensextv/channels/related/2809",
        "request_headers": []
      },
      "share": {
        "url": "https://truyenx.link/truyensextv/channels/share/y-thien-dam-hiep-truyen"
      },
      "remote_data": {
        "url": "https://truyenx.link/truyensextv/channels/y-thien-dam-hiep-truyen"
      }
    },
    {
      "id": "2808-channel",
      "name": "Mẹ và con trai",
      "description": "Gia đình tôi sống tại sài gòn trong căn biệt thự ở quận 2. Tôi tên Trâm đã 42 tuổi ở cái tuổi đang hồi xuân. Còn chồng tôi tên Quân là giám đốc một công ty xây dựng nên đi...",
      "image": null,
      "label": null,
      "display": "text-only",
      "type": "text",
      "enable_detail": true,
      "related": {
        "url": "https://truyenx.link/truyensextv/channels/related/2808",
        "request_headers": []
      },
      "share": {
        "url": "https://truyenx.link/truyensextv/channels/share/me-va-con-trai"
      },
      "remote_data": {
        "url": "https://truyenx.link/truyensextv/channels/me-va-con-trai"
      }
    },
    {
      "id": "2807-channel",
      "name": "Người vợ ham của lạ",
      "description": "Mỗi người trong chúng ta đều có quan niệm và sở thích tình dục khác nhau, có thể sở thích của vợ chồng chúng tôi là bệnh hoạn. Nhưng tôi vẫn muốn kể câu chuyện thầm kín về...",
      "image": null,
      "label": null,
      "display": "text-only",
      "type": "text",
      "enable_detail": true,
      "related": {
        "url": "https://truyenx.link/truyensextv/channels/related/2807",
        "request_headers": []
      },
      "share": {
        "url": "https://truyenx.link/truyensextv/channels/share/nguoi-vo-ham-cua-la"
      },
      "remote_data": {
        "url": "https://truyenx.link/truyensextv/channels/nguoi-vo-ham-cua-la"
      }
    },
    {
      "id": "2806-channel",
      "name": "Áo dài",
      "description": "Năm 2015, mình học lớp 12, em thì học lớp 10, lúc đó hầu như ai cũng đã sử dụng facebook. Em và mình cũng thế, và cũng chẳng biết bằng cách nào đó, em và mình đều đã add friend...",
      "image": null,
      "label": null,
      "display": "text-only",
      "type": "text",
      "enable_detail": true,
      "related": {
        "url": "https://truyenx.link/truyensextv/channels/related/2806",
        "request_headers": []
      },
      "share": {
        "url": "https://truyenx.link/truyensextv/channels/share/ao-dai"
      },
      "remote_data": {
        "url": "https://truyenx.link/truyensextv/channels/ao-dai"
      }
    },
    {
      "id": "2805-channel",
      "name": "Địt giảng viên đêm Halloween",
      "description": "Có anh em nào thích thú với phụ nữ là giảng viên, giáo viên không. Hôm nay tôi sẽ kể cho anh em một câu chuyện về lần vụng trộm nhớ đời nhất trong cuộc đời tôi. Giảng viên...",
      "image": null,
      "label": null,
      "display": "text-only",
      "type": "text",
      "enable_detail": true,
      "related": {
        "url": "https://truyenx.link/truyensextv/channels/related/2805",
        "request_headers": []
      },
      "share": {
        "url": "https://truyenx.link/truyensextv/channels/share/dit-giang-vien-dem-halloween"
      },
      "remote_data": {
        "url": "https://truyenx.link/truyensextv/channels/dit-giang-vien-dem-halloween"
      }
    },
    {
      "id": "2804-channel",
      "name": "Thầy dạy gym của tôi",
      "description": "Buổi đầu tập gym Xin chào cả nhà, câu chuyện tôi kể dưới đây là chuyện mà tôi là người trong cuộc, tôi đang rất rối bời vì không biết phải xử lý chuyện này như thế nào...",
      "image": null,
      "label": null,
      "display": "text-only",
      "type": "text",
      "enable_detail": true,
      "related": {
        "url": "https://truyenx.link/truyensextv/channels/related/2804",
        "request_headers": []
      },
      "share": {
        "url": "https://truyenx.link/truyensextv/channels/share/thay-day-gym-cua-toi"
      },
      "remote_data": {
        "url": "https://truyenx.link/truyensextv/channels/thay-day-gym-cua-toi"
      }
    },
    {
      "id": "2803-channel",
      "name": "Mùa dịch Covid",
      "description": "Mùa dịch Covid, thế là công ty của Minh cho công nhân nghỉ tạm thời, chờ tình hình khả quan hơn rồi làm tiếp. Giới thiệu sơ về Minh, 24 tuổi, kỹ sư điện công nghiệp, cao ráo rắn...",
      "image": null,
      "label": null,
      "display": "text-only",
      "type": "text",
      "enable_detail": true,
      "related": {
        "url": "https://truyenx.link/truyensextv/channels/related/2803",
        "request_headers": []
      },
      "share": {
        "url": "https://truyenx.link/truyensextv/channels/share/mua-dich-covid"
      },
      "remote_data": {
        "url": "https://truyenx.link/truyensextv/channels/mua-dich-covid"
      }
    },
    {
      "id": "2802-channel",
      "name": "Vợ người",
      "description": "Các cụ nói: “Nhàn cư vi bất thiện” hay “Rảnh rỗi sinh nông nổi” quả đúng thật, từ ngày chuyển về làm văn phòng làm kế hoạch, ít đi công trường thì việc...",
      "image": null,
      "label": null,
      "display": "text-only",
      "type": "text",
      "enable_detail": true,
      "related": {
        "url": "https://truyenx.link/truyensextv/channels/related/2802",
        "request_headers": []
      },
      "share": {
        "url": "https://truyenx.link/truyensextv/channels/share/vo-nguoi"
      },
      "remote_data": {
        "url": "https://truyenx.link/truyensextv/channels/vo-nguoi"
      }
    },
    {
      "id": "2801-channel",
      "name": "Thằng điên",
      "description": "Keng, keng, keng... Tiếng kẻng vang lên trong ngôi làng nọ. Có ba người đàn ông đang hớt hải chạy về phía nhà bà Hiền nơi phát ra tiếng kẻng, có người còn đang mặc trên người bộ...",
      "image": null,
      "label": null,
      "display": "text-only",
      "type": "text",
      "enable_detail": true,
      "related": {
        "url": "https://truyenx.link/truyensextv/channels/related/2801",
        "request_headers": []
      },
      "share": {
        "url": "https://truyenx.link/truyensextv/channels/share/thang-dien"
      },
      "remote_data": {
        "url": "https://truyenx.link/truyensextv/channels/thang-dien"
      }
    },
    {
      "id": "2800-channel",
      "name": "Tôi và chị gái 95",
      "description": "Đây là một câu chuyện được dựa và kể lại. Tôi 2001 còn chị 95. Hai chúng tôi quen nhau trên web truyensextv2.cc. Tôi thường lân la vào truyensextv2.cc để thưởng thức thì một lần...",
      "image": null,
      "label": null,
      "display": "text-only",
      "type": "text",
      "enable_detail": true,
      "related": {
        "url": "https://truyenx.link/truyensextv/channels/related/2800",
        "request_headers": []
      },
      "share": {
        "url": "https://truyenx.link/truyensextv/channels/share/toi-va-chi-gai-95"
      },
      "remote_data": {
        "url": "https://truyenx.link/truyensextv/channels/toi-va-chi-gai-95"
      }
    },
    {
      "id": "2799-channel",
      "name": "Cơn mưa hôm đó",
      "description": "“Rengggg...” Tiếng đồng hồ báo thức vang lên, phá vỡ bầu không khí u tĩnh của căn phòng chật hẹp. Tôi cố kéo căng mí mắt nặng trĩu của mình ra, vươn tay ngắt đi cái âm...",
      "image": null,
      "label": null,
      "display": "text-only",
      "type": "text",
      "enable_detail": true,
      "related": {
        "url": "https://truyenx.link/truyensextv/channels/related/2799",
        "request_headers": []
      },
      "share": {
        "url": "https://truyenx.link/truyensextv/channels/share/con-mua-hom-do"
      },
      "remote_data": {
        "url": "https://truyenx.link/truyensextv/channels/con-mua-hom-do"
      }
    }
  ],
  "load_more": {
    "pageInfo": {
      "current_page": 66,
      "last_page": 140,
      "per_page": 30,
      "total": 4188
    },
    "paging": {
      "page_key": "page",
      "size_key": "size"
    },
    "remote_data": {
      "url": "https://truyenx.link/truyensextv/channels"
    }
  }
}