{
  "grid_number": 1,
  "channels": [
    {
      "id": "738-channel",
      "name": "Lấy cave về làm vợ",
      "description": "Quen vợ trong 1 ngày hè nắng nóng. Khi chồng say và thèm đi chơi gái. Lần đầu gặp vợ ở xuân mai. Chồng đã chọn vợ ngay. Lần đầu tiên làm tình cùng vợ, người đàn bà sở hữu...",
      "image": null,
      "label": null,
      "display": "text-only",
      "type": "text",
      "enable_detail": true,
      "related": {
        "url": "https://truyenx.link/truyensextv/channels/related/738",
        "request_headers": []
      },
      "share": {
        "url": "https://truyenx.link/truyensextv/channels/share/lay-cave-ve-lam-vo"
      },
      "remote_data": {
        "url": "https://truyenx.link/truyensextv/channels/lay-cave-ve-lam-vo"
      }
    },
    {
      "id": "737-channel",
      "name": "Chuyện đời của một dâm nữ",
      "description": "Lúc tôi khoảng 7 tuổi là má tôi mất, tôi là con một trong gia đình, ba tôi sau đó có vợ khác. Người vợ mới của ba tôi tên là Trâm, và tôi gọi là dì Trâm, dì Trâm có một người...",
      "image": null,
      "label": null,
      "display": "text-only",
      "type": "text",
      "enable_detail": true,
      "related": {
        "url": "https://truyenx.link/truyensextv/channels/related/737",
        "request_headers": []
      },
      "share": {
        "url": "https://truyenx.link/truyensextv/channels/share/chuyen-doi-cua-mot-dam-nu"
      },
      "remote_data": {
        "url": "https://truyenx.link/truyensextv/channels/chuyen-doi-cua-mot-dam-nu"
      }
    },
    {
      "id": "736-channel",
      "name": "Phá trinh con em gái dâm đãng của người yêu",
      "description": "Năm vừa rồi em đã làm 1 chuyện hết sức sai trái nhưng tình cảnh bắt buộc, em không thể làm khác được vì em là 1 thằng đàn ông đúng nghĩa và là 1 con thú cuồng dâm, sướng lắm...",
      "image": null,
      "label": null,
      "display": "text-only",
      "type": "text",
      "enable_detail": true,
      "related": {
        "url": "https://truyenx.link/truyensextv/channels/related/736",
        "request_headers": []
      },
      "share": {
        "url": "https://truyenx.link/truyensextv/channels/share/pha-trinh-con-em-gai-dam-dang-cua-nguoi-yeu"
      },
      "remote_data": {
        "url": "https://truyenx.link/truyensextv/channels/pha-trinh-con-em-gai-dam-dang-cua-nguoi-yeu"
      }
    },
    {
      "id": "735-channel",
      "name": "Chị đồng nghiệp cuồng dâm",
      "description": "Lâm vừa mới tốt nghiệp ra trường, anh xin ngay được vào phòng xuất nhập khẩu của một tập đoàn lớn. Hôm đầu tiên đi làm Lâm được trưởng phòng phân công cho Hồng Hạnh làm...",
      "image": null,
      "label": null,
      "display": "text-only",
      "type": "text",
      "enable_detail": true,
      "related": {
        "url": "https://truyenx.link/truyensextv/channels/related/735",
        "request_headers": []
      },
      "share": {
        "url": "https://truyenx.link/truyensextv/channels/share/chi-dong-nghiep-cuong-dam"
      },
      "remote_data": {
        "url": "https://truyenx.link/truyensextv/channels/chi-dong-nghiep-cuong-dam"
      }
    },
    {
      "id": "734-channel",
      "name": "Đụ nhau với thím",
      "description": "Câu chuyện xảy ra khi em 17 tuổi. Cái tuổi mà có nhiều thay đổi về mặt tâm sinh lý cả thể chất. Năm đó em vừa vào lớp 10, vì hoàn cảnh xa nha nên em phải ở nhà Ông Bà Nội để...",
      "image": null,
      "label": null,
      "display": "text-only",
      "type": "text",
      "enable_detail": true,
      "related": {
        "url": "https://truyenx.link/truyensextv/channels/related/734",
        "request_headers": []
      },
      "share": {
        "url": "https://truyenx.link/truyensextv/channels/share/du-nhau-voi-thim"
      },
      "remote_data": {
        "url": "https://truyenx.link/truyensextv/channels/du-nhau-voi-thim"
      }
    },
    {
      "id": "733-channel",
      "name": "Lén liếm lồn",
      "description": "Hôm nay thấy trời đẹp nên em nhấc điện thoại rủ con bạn đi uống nước buôn chuyện. Gọi điện cho con bé mà thấy nó cứ giọng ngáy ngủ bảo cứ kêu em qua đi có gì đợi nó...",
      "image": null,
      "label": null,
      "display": "text-only",
      "type": "text",
      "enable_detail": true,
      "related": {
        "url": "https://truyenx.link/truyensextv/channels/related/733",
        "request_headers": []
      },
      "share": {
        "url": "https://truyenx.link/truyensextv/channels/share/len-liem-lon"
      },
      "remote_data": {
        "url": "https://truyenx.link/truyensextv/channels/len-liem-lon"
      }
    },
    {
      "id": "732-channel",
      "name": "Anh trai [Chuyện thật cuộc đời tôi]",
      "description": "Tôi và anh là hai anh em ruột, anh hơn tôi 12 tuổi. Còn nhớ ngày nhỏ, anh thường cho tôi lên đôi vai mình, công kênh tôi đi khắp các ngả đường nơi phố cổ chật hẹp. Anh thường ôm...",
      "image": null,
      "label": null,
      "display": "text-only",
      "type": "text",
      "enable_detail": true,
      "related": {
        "url": "https://truyenx.link/truyensextv/channels/related/732",
        "request_headers": []
      },
      "share": {
        "url": "https://truyenx.link/truyensextv/channels/share/anh-trai-chuyen-that-cuoc-doi-toi"
      },
      "remote_data": {
        "url": "https://truyenx.link/truyensextv/channels/anh-trai-chuyen-that-cuoc-doi-toi"
      }
    },
    {
      "id": "731-channel",
      "name": "Vợ dâm đi công tác xa",
      "description": "Như tên truyện, gấu nhà em vừa phải đi công tác gần 1 tuần ở nước ngoài dự hội thảo của công ty, vốn được giám đốc quý mến vì biết cách ăn mặc, khéo léo giao tiếp và...",
      "image": null,
      "label": null,
      "display": "text-only",
      "type": "text",
      "enable_detail": true,
      "related": {
        "url": "https://truyenx.link/truyensextv/channels/related/731",
        "request_headers": []
      },
      "share": {
        "url": "https://truyenx.link/truyensextv/channels/share/vo-dam-di-cong-tac-xa"
      },
      "remote_data": {
        "url": "https://truyenx.link/truyensextv/channels/vo-dam-di-cong-tac-xa"
      }
    },
    {
      "id": "730-channel",
      "name": "Hai vợ chồng tôi",
      "description": "Tôi và Hiền kết hôn cũng đã được gần bốn năm. Hai vợ chồng làm trong một công ty về truyền thông nên công việc cũng tương đối bận. Tuy nhiên thì hai vợ chồng cũng thường...",
      "image": null,
      "label": null,
      "display": "text-only",
      "type": "text",
      "enable_detail": true,
      "related": {
        "url": "https://truyenx.link/truyensextv/channels/related/730",
        "request_headers": []
      },
      "share": {
        "url": "https://truyenx.link/truyensextv/channels/share/hai-vo-chong-toi"
      },
      "remote_data": {
        "url": "https://truyenx.link/truyensextv/channels/hai-vo-chong-toi"
      }
    },
    {
      "id": "729-channel",
      "name": "Hai anh chị cùng công ty",
      "description": "Hai anh chị hơn mình 3 tuổi, làm tầng dưới trong cùng công ty với mình. Quen biết 2 anh chị cũng lâu rồi. Trong những lần vô tình gặp nhau ở căn tin công ty trong những giờ ăn trưa...",
      "image": null,
      "label": null,
      "display": "text-only",
      "type": "text",
      "enable_detail": true,
      "related": {
        "url": "https://truyenx.link/truyensextv/channels/related/729",
        "request_headers": []
      },
      "share": {
        "url": "https://truyenx.link/truyensextv/channels/share/hai-anh-chi-cung-cong-ty"
      },
      "remote_data": {
        "url": "https://truyenx.link/truyensextv/channels/hai-anh-chi-cung-cong-ty"
      }
    },
    {
      "id": "728-channel",
      "name": "Gấu dâm nhiều nước",
      "description": "Mô tả sơ qua về gấu mình trước khi vào nội dung truyện nhé: Gấu mình không phải xinh như minh tinh màn bạc, nhưng mà ối bạn vẫn phải ghen tị hoài. Gấu thấp hơn mình một tẹo...",
      "image": null,
      "label": null,
      "display": "text-only",
      "type": "text",
      "enable_detail": true,
      "related": {
        "url": "https://truyenx.link/truyensextv/channels/related/728",
        "request_headers": []
      },
      "share": {
        "url": "https://truyenx.link/truyensextv/channels/share/gau-dam-nhieu-nuoc"
      },
      "remote_data": {
        "url": "https://truyenx.link/truyensextv/channels/gau-dam-nhieu-nuoc"
      }
    },
    {
      "id": "727-channel",
      "name": "Nhân quả",
      "description": "Mình và thằng bạn làm chung công ty, mình có quen 1 em thu ngân ở siêu thị cũng khá xinh và đó là bạn của người yêu mình. Mình thì chẳng có ý gì với em ấy nhưng thằng bạn mình thì...",
      "image": null,
      "label": null,
      "display": "text-only",
      "type": "text",
      "enable_detail": true,
      "related": {
        "url": "https://truyenx.link/truyensextv/channels/related/727",
        "request_headers": []
      },
      "share": {
        "url": "https://truyenx.link/truyensextv/channels/share/nhan-qua"
      },
      "remote_data": {
        "url": "https://truyenx.link/truyensextv/channels/nhan-qua"
      }
    },
    {
      "id": "726-channel",
      "name": "Chị hàng xóm dâm đãng",
      "description": "Tiếng trẻ con khóc ré lên trong đêm làm nó giật mình. Cái phòng trọ bên cạnh của hai vợ chồng luôn làm nó mất ngủ. Lúc thì tiếng trẻ con, lúc thì tiếng uỳnh uỵch, kẽo kẹt làm...",
      "image": null,
      "label": null,
      "display": "text-only",
      "type": "text",
      "enable_detail": true,
      "related": {
        "url": "https://truyenx.link/truyensextv/channels/related/726",
        "request_headers": []
      },
      "share": {
        "url": "https://truyenx.link/truyensextv/channels/share/chi-hang-xom-dam-dang"
      },
      "remote_data": {
        "url": "https://truyenx.link/truyensextv/channels/chi-hang-xom-dam-dang"
      }
    },
    {
      "id": "725-channel",
      "name": "Đụ tay ba với 2 chị em",
      "description": "Chuyện cũng lâu rồi, cách đây cũng hơn 15 năm... Hồi đó tôi hay đi hớt tóc nữ, rồi quen 1 bé ở 1 tiệm gần Đầm Sen, dân Tiền Giang hay Mỹ Tho gì đó quên rồi. Tên Hoài, 22 tuổi...",
      "image": null,
      "label": null,
      "display": "text-only",
      "type": "text",
      "enable_detail": true,
      "related": {
        "url": "https://truyenx.link/truyensextv/channels/related/725",
        "request_headers": []
      },
      "share": {
        "url": "https://truyenx.link/truyensextv/channels/share/du-tay-ba-voi-2-chi-em"
      },
      "remote_data": {
        "url": "https://truyenx.link/truyensextv/channels/du-tay-ba-voi-2-chi-em"
      }
    },
    {
      "id": "724-channel",
      "name": "Địt em massage",
      "description": "Mấy năm trước tôi hay lên massage ở hồ Bình An, gần Biên Hòa. Ở Sài Gòn đi xa vậy chắc chắn phải có chi hấp dẫn, thưa rằng vì trên đó có mấy em massage rất ngon. Đó là 2 em số...",
      "image": null,
      "label": null,
      "display": "text-only",
      "type": "text",
      "enable_detail": true,
      "related": {
        "url": "https://truyenx.link/truyensextv/channels/related/724",
        "request_headers": []
      },
      "share": {
        "url": "https://truyenx.link/truyensextv/channels/share/dit-em-massage"
      },
      "remote_data": {
        "url": "https://truyenx.link/truyensextv/channels/dit-em-massage"
      }
    },
    {
      "id": "723-channel",
      "name": "Threesome hụt",
      "description": "Mình năm nay 24 tuổi, mới vào công ty được ít lâu nhưng nhờ ngoại hình sáng và tài ăn nói, mình nhanh chóng chiếm được cảm tình của các chị em, trong đó có cô nhân viên tên Dung...",
      "image": null,
      "label": null,
      "display": "text-only",
      "type": "text",
      "enable_detail": true,
      "related": {
        "url": "https://truyenx.link/truyensextv/channels/related/723",
        "request_headers": []
      },
      "share": {
        "url": "https://truyenx.link/truyensextv/channels/share/threesome-hut"
      },
      "remote_data": {
        "url": "https://truyenx.link/truyensextv/channels/threesome-hut"
      }
    },
    {
      "id": "722-channel",
      "name": "Tình yêu đầu đời",
      "description": "Giật mình tỉnh dậy lúc nửa đêm, người ướt đẫm mồ hôi mặc cho điều hòa vẫn mở. Hắn cố ngồi dậy, dò dẫm bước vào toilet. Dưới ánh đèn vàng, mặt...",
      "image": null,
      "label": null,
      "display": "text-only",
      "type": "text",
      "enable_detail": true,
      "related": {
        "url": "https://truyenx.link/truyensextv/channels/related/722",
        "request_headers": []
      },
      "share": {
        "url": "https://truyenx.link/truyensextv/channels/share/tinh-yeu-dau-doi"
      },
      "remote_data": {
        "url": "https://truyenx.link/truyensextv/channels/tinh-yeu-dau-doi"
      }
    },
    {
      "id": "721-channel",
      "name": "Kẻ đến từ thế giới khác",
      "description": "Hôm nay là thứ 2, ngày khai giảng của năm học mới, ngày mà bao nhiêu học sinh đến trường để tắm nắng 2 tiếng sau đó đi về. Trường đã chuẩn bị mọi thứ cần thiết sẵn sàng...",
      "image": null,
      "label": null,
      "display": "text-only",
      "type": "text",
      "enable_detail": true,
      "related": {
        "url": "https://truyenx.link/truyensextv/channels/related/721",
        "request_headers": []
      },
      "share": {
        "url": "https://truyenx.link/truyensextv/channels/share/ke-den-tu-the-gioi-khac"
      },
      "remote_data": {
        "url": "https://truyenx.link/truyensextv/channels/ke-den-tu-the-gioi-khac"
      }
    },
    {
      "id": "720-channel",
      "name": "Chuyện tình du học sinh",
      "description": "10h đêm... hắn và em mò mẫm về đến phòng khách sạn sau một ngày lang thang ngoài phố. Hắn đang làm việc tại Dubai, còn em sang thăm hắn từ Thụy Sĩ nơi em đang theo...",
      "image": null,
      "label": null,
      "display": "text-only",
      "type": "text",
      "enable_detail": true,
      "related": {
        "url": "https://truyenx.link/truyensextv/channels/related/720",
        "request_headers": []
      },
      "share": {
        "url": "https://truyenx.link/truyensextv/channels/share/chuyen-tinh-du-hoc-sinh"
      },
      "remote_data": {
        "url": "https://truyenx.link/truyensextv/channels/chuyen-tinh-du-hoc-sinh"
      }
    },
    {
      "id": "719-channel",
      "name": "Địt bạn gái bỏ nhà ra đi",
      "description": "Hà Nội, đêm mùa đông... Hắn nhìn đồng hồ. Còn vài phút đến giờ tan ca. Làm xong thủ tục giao phòng cho những vị khách cuối cùng trong ngày, hắn nhanh chóng thu dọn...",
      "image": null,
      "label": null,
      "display": "text-only",
      "type": "text",
      "enable_detail": true,
      "related": {
        "url": "https://truyenx.link/truyensextv/channels/related/719",
        "request_headers": []
      },
      "share": {
        "url": "https://truyenx.link/truyensextv/channels/share/dit-ban-gai-bo-nha-ra-di"
      },
      "remote_data": {
        "url": "https://truyenx.link/truyensextv/channels/dit-ban-gai-bo-nha-ra-di"
      }
    },
    {
      "id": "718-channel",
      "name": "Đụ cô bạn thân",
      "description": "Mình và Dung gặp nhau từ khi học cấp III, 2 đứa rất hợp ý nhau và luôn sát cánh bên nhau. Dung là một cô gái đẹp, có nước da trắng, cô ấy cao và có thân hình rất quyến rủ. Ngực...",
      "image": null,
      "label": null,
      "display": "text-only",
      "type": "text",
      "enable_detail": true,
      "related": {
        "url": "https://truyenx.link/truyensextv/channels/related/718",
        "request_headers": []
      },
      "share": {
        "url": "https://truyenx.link/truyensextv/channels/share/du-co-ban-than"
      },
      "remote_data": {
        "url": "https://truyenx.link/truyensextv/channels/du-co-ban-than"
      }
    },
    {
      "id": "717-channel",
      "name": "Đụ lỗ đít bạn cũ đã có chồng",
      "description": "Đây là một câu chuyện thật của mình. Nàng là người thích mình khi còn học đại học, nhưng mình thì không thích vì nhiều lý do và có lẽ mình thấy nàng không phải là mẫu người...",
      "image": null,
      "label": null,
      "display": "text-only",
      "type": "text",
      "enable_detail": true,
      "related": {
        "url": "https://truyenx.link/truyensextv/channels/related/717",
        "request_headers": []
      },
      "share": {
        "url": "https://truyenx.link/truyensextv/channels/share/du-lo-dit-ban-cu-da-co-chong"
      },
      "remote_data": {
        "url": "https://truyenx.link/truyensextv/channels/du-lo-dit-ban-cu-da-co-chong"
      }
    },
    {
      "id": "716-channel",
      "name": "Phá trinh bạn gái nữ sinh",
      "description": "Việt Trì cách đây gần hơn 10 năm... Hôm ấy nhà trường có lễ mit tinh kỉ niệm ngày nhà giáo Việt Nam, em tôi cao 1m63, người hơi dây 1 chút... có thể gọi là hơi gầy, em mặc chiếc...",
      "image": null,
      "label": null,
      "display": "text-only",
      "type": "text",
      "enable_detail": true,
      "related": {
        "url": "https://truyenx.link/truyensextv/channels/related/716",
        "request_headers": []
      },
      "share": {
        "url": "https://truyenx.link/truyensextv/channels/share/pha-trinh-ban-gai-nu-sinh"
      },
      "remote_data": {
        "url": "https://truyenx.link/truyensextv/channels/pha-trinh-ban-gai-nu-sinh"
      }
    },
    {
      "id": "715-channel",
      "name": "Phá trinh người yêu",
      "description": "Hà Nội những ngày đông... Quán cà phê này tuy nhỏ mà thực sự đông dù không quá đặc biệt, nếu vào giờ cao điểm có lẽ phải sếp hàng chờ hay di chuyển địa điểm mới. Nhưng 7h...",
      "image": null,
      "label": null,
      "display": "text-only",
      "type": "text",
      "enable_detail": true,
      "related": {
        "url": "https://truyenx.link/truyensextv/channels/related/715",
        "request_headers": []
      },
      "share": {
        "url": "https://truyenx.link/truyensextv/channels/share/pha-trinh-nguoi-yeu"
      },
      "remote_data": {
        "url": "https://truyenx.link/truyensextv/channels/pha-trinh-nguoi-yeu"
      }
    },
    {
      "id": "714-channel",
      "name": "Làm tình với bạn thân",
      "description": "Hôm nay đang trên trường đi học thì cô bạn thân gọi cho mình, hehe cô ấy nhờ chở đi làm đẹp, mặc dù học hành quan trọng nhưng mất lòng người đẹp thì không được rồi...",
      "image": null,
      "label": null,
      "display": "text-only",
      "type": "text",
      "enable_detail": true,
      "related": {
        "url": "https://truyenx.link/truyensextv/channels/related/714",
        "request_headers": []
      },
      "share": {
        "url": "https://truyenx.link/truyensextv/channels/share/lam-tinh-voi-ban-than"
      },
      "remote_data": {
        "url": "https://truyenx.link/truyensextv/channels/lam-tinh-voi-ban-than"
      }
    },
    {
      "id": "713-channel",
      "name": "Đêm cuối tuần của hai vợ chồng",
      "description": "Đối với bất cứ ai trong chúng ta, ngày cuối tuần luôn là khoảng thời gian tuyệt vời nhất, và với vợ chồng tôi cũng vậy... Tối thứ 7, ăn cơm xong 2 vợ chồng hý hửng dạo phố...",
      "image": null,
      "label": null,
      "display": "text-only",
      "type": "text",
      "enable_detail": true,
      "related": {
        "url": "https://truyenx.link/truyensextv/channels/related/713",
        "request_headers": []
      },
      "share": {
        "url": "https://truyenx.link/truyensextv/channels/share/dem-cuoi-tuan-cua-hai-vo-chong"
      },
      "remote_data": {
        "url": "https://truyenx.link/truyensextv/channels/dem-cuoi-tuan-cua-hai-vo-chong"
      }
    },
    {
      "id": "712-channel",
      "name": "Ngoại tình với em vợ",
      "description": "Tôi lấy vợ đã được hai năm, tuy chưa có với nhau đứa con nào nhưng cuộc sống của vợ chồng tôi vẫn rất hạnh phúc. Tôi và vợ tôi sẽ mãi yên ả như thế nếu như em gái vợ...",
      "image": null,
      "label": null,
      "display": "text-only",
      "type": "text",
      "enable_detail": true,
      "related": {
        "url": "https://truyenx.link/truyensextv/channels/related/712",
        "request_headers": []
      },
      "share": {
        "url": "https://truyenx.link/truyensextv/channels/share/ngoai-tinh-voi-em-vo"
      },
      "remote_data": {
        "url": "https://truyenx.link/truyensextv/channels/ngoai-tinh-voi-em-vo"
      }
    },
    {
      "id": "711-channel",
      "name": "Em rau người Hoa",
      "description": "Khi núi bị bào mòn Khi dòng sông thôi chảy Khi thời gian ngày đêm chẳng còn phân biệt Khi trời đất, vạn vật hóa thành hư vô Thì ta vẫn chẳng thể chia xa nàng Vẻ dịu dàng của...",
      "image": null,
      "label": null,
      "display": "text-only",
      "type": "text",
      "enable_detail": true,
      "related": {
        "url": "https://truyenx.link/truyensextv/channels/related/711",
        "request_headers": []
      },
      "share": {
        "url": "https://truyenx.link/truyensextv/channels/share/em-rau-nguoi-hoa"
      },
      "remote_data": {
        "url": "https://truyenx.link/truyensextv/channels/em-rau-nguoi-hoa"
      }
    },
    {
      "id": "710-channel",
      "name": "Giá như hôm đó…",
      "description": "Em, 1 cô gái từ vùng kẹo Sìu Châu lên Hà Nội. Xuất thân từ 1 gia đình thuần nông nhưng em lại có 1 vẻ đẹp ngây thơ và kiêu sa đến lạ kỳ. Số phận đưa đẩy thế nào và tôi...",
      "image": null,
      "label": null,
      "display": "text-only",
      "type": "text",
      "enable_detail": true,
      "related": {
        "url": "https://truyenx.link/truyensextv/channels/related/710",
        "request_headers": []
      },
      "share": {
        "url": "https://truyenx.link/truyensextv/channels/share/gia-nhu-hom-do"
      },
      "remote_data": {
        "url": "https://truyenx.link/truyensextv/channels/gia-nhu-hom-do"
      }
    },
    {
      "id": "709-channel",
      "name": "Lần đầu đi massage đèn mờ",
      "description": "Câu chuyện sau đây kể ra thì cũng chẳng có gì đặc biệt. Hiếm cái nỗi nó là sự tình lần đầu em tham gia vào cái khoản massage đèn mờ thế này. Vậy nên cũng âm ỉ kìm hãm con cu...",
      "image": null,
      "label": null,
      "display": "text-only",
      "type": "text",
      "enable_detail": true,
      "related": {
        "url": "https://truyenx.link/truyensextv/channels/related/709",
        "request_headers": []
      },
      "share": {
        "url": "https://truyenx.link/truyensextv/channels/share/lan-dau-di-massage-den-mo"
      },
      "remote_data": {
        "url": "https://truyenx.link/truyensextv/channels/lan-dau-di-massage-den-mo"
      }
    }
  ],
  "load_more": {
    "pageInfo": {
      "current_page": 116,
      "last_page": 140,
      "per_page": 30,
      "total": 4188
    },
    "paging": {
      "page_key": "page",
      "size_key": "size"
    },
    "remote_data": {
      "url": "https://truyenx.link/truyensextv/channels"
    }
  }
}