{"grid_number":1,"channels":[{"id":"1308-channel","name":"Hai chị em sinh đôi","description":"Linh và Huyền Trâm là hai chị em sinh đôi trong một gia đình nghèo ở ngoại thành Hà Nội. Hai chị em có đặc điểm giống nhau y hệt về hình dáng nhưng lại hoàn toàn khác nhau về tính...","image":null,"label":null,"display":"text-only","type":"text","enable_detail":true,"related":{"url":"https://truyenx.link/truyensextv/channels/related/1308","request_headers":[]},"share":{"url":"https://truyenx.link/truyensextv/channels/share/hai-chi-em-sinh-doi"},"remote_data":{"url":"https://truyenx.link/truyensextv/channels/hai-chi-em-sinh-doi"}},{"id":"1307-channel","name":"Người chị nứng lồn","description":"Tôi và chị quen nhau được 5 năm, nhưng 2 năm đầu thì chị em chỉ nói chuyện xã giao, chứ không thân thiết. Nhưng sau khi chị bỏ chồng cách đây 3 năm thì có vẻ chị vô tư, thoải...","image":null,"label":null,"display":"text-only","type":"text","enable_detail":true,"related":{"url":"https://truyenx.link/truyensextv/channels/related/1307","request_headers":[]},"share":{"url":"https://truyenx.link/truyensextv/channels/share/nguoi-chi-nung-lon"},"remote_data":{"url":"https://truyenx.link/truyensextv/channels/nguoi-chi-nung-lon"}},{"id":"1306-channel","name":"Chuyến sex - tour ngoài mong đợi","description":"đêm, 2 đêm 7.2 triệu . Được phần buffet sáng. Được cái Bungalow view sân vườn gần...","image":null,"label":null,"display":"text-only","type":"text","enable_detail":true,"related":{"url":"https://truyenx.link/truyensextv/channels/related/1306","request_headers":[]},"share":{"url":"https://truyenx.link/truyensextv/channels/share/chuyen-sex-tour-ngoai-mong-doi"},"remote_data":{"url":"https://truyenx.link/truyensextv/channels/chuyen-sex-tour-ngoai-mong-doi"}},{"id":"1305-channel","name":"Làm em lên đỉnh 4 lần","description":"Mình quen em rất tình cờ qua bạn của 1 người bạn của 1 người bạn nữa . Ấn tượng của lần đầu tiên là một cô gái xinh xắn, đôi môi tươi hồng, dáng người tuy nhỏ nhắn...","image":null,"label":null,"display":"text-only","type":"text","enable_detail":true,"related":{"url":"https://truyenx.link/truyensextv/channels/related/1305","request_headers":[]},"share":{"url":"https://truyenx.link/truyensextv/channels/share/lam-em-len-dinh-4-lan"},"remote_data":{"url":"https://truyenx.link/truyensextv/channels/lam-em-len-dinh-4-lan"}},{"id":"1304-channel","name":"Nga Tây","description":"Nga vừa mở cửa xe định bước xuống thì cơn mưa rào ập tới. Từng giọt mưa rơi như ném đá xuống mái tôn của garage của trường quốc tế Helio. Như sực nhớ điều gì, Nga kéo...","image":null,"label":null,"display":"text-only","type":"text","enable_detail":true,"related":{"url":"https://truyenx.link/truyensextv/channels/related/1304","request_headers":[]},"share":{"url":"https://truyenx.link/truyensextv/channels/share/nga-tay"},"remote_data":{"url":"https://truyenx.link/truyensextv/channels/nga-tay"}},{"id":"1303-channel","name":"Con Tú thèm đụ","description":"Con Tú đang gom đồ trong máy ra phơi, cái mông đít tròn lẳn cứ chổng lên làm thằng Nam thấy bức bối trong người vô cùng, nó năm nay mới học lớp 9, nhưng độ dâm dật thì chả thua...","image":null,"label":null,"display":"text-only","type":"text","enable_detail":true,"related":{"url":"https://truyenx.link/truyensextv/channels/related/1303","request_headers":[]},"share":{"url":"https://truyenx.link/truyensextv/channels/share/con-tu-them-du"},"remote_data":{"url":"https://truyenx.link/truyensextv/channels/con-tu-them-du"}},{"id":"1302-channel","name":"Đụ chị Dung kế toán","description":"Tình hình là trong công ty em để ý chị Dung lâu rồi! Chị hơn em 2 tuổi, mới lập gia đình nhưng lại làm công tác xa nhà tuần về 2 lần, chị rất nói vui chuyện này kia, độ nhậu...","image":null,"label":null,"display":"text-only","type":"text","enable_detail":true,"related":{"url":"https://truyenx.link/truyensextv/channels/related/1302","request_headers":[]},"share":{"url":"https://truyenx.link/truyensextv/channels/share/du-chi-dung-ke-toan"},"remote_data":{"url":"https://truyenx.link/truyensextv/channels/du-chi-dung-ke-toan"}},{"id":"1301-channel","name":"Đụ người yêu","description":"Tôi quen em từ khi xuống Sài Gòn để đi học. Em rất ngoan hiền, dáng người thì khỏi chê, vú căng đét, luôn mặc váy ngắn hay quần ngắn bó sát mu. Chiều nóng quá trời, tôi có rủ em...","image":null,"label":null,"display":"text-only","type":"text","enable_detail":true,"related":{"url":"https://truyenx.link/truyensextv/channels/related/1301","request_headers":[]},"share":{"url":"https://truyenx.link/truyensextv/channels/share/du-nguoi-yeu"},"remote_data":{"url":"https://truyenx.link/truyensextv/channels/du-nguoi-yeu"}},{"id":"1300-channel","name":"Chat sex","description":"Như trắng nỏn nà nằm úp sát lên người của chồng mình. Cả hai vừa trải qua những giây phút thăng hoa chuyện chăn gối. Buồi của chồng nàng mềm dần rồi rời ra khỏi âm đạo...","image":null,"label":null,"display":"text-only","type":"text","enable_detail":true,"related":{"url":"https://truyenx.link/truyensextv/channels/related/1300","request_headers":[]},"share":{"url":"https://truyenx.link/truyensextv/channels/share/chat-sex"},"remote_data":{"url":"https://truyenx.link/truyensextv/channels/chat-sex"}},{"id":"1299-channel","name":"Khoe bím nơi công cộng","description":"Sắp tới đại lễ mà vợ chồng phải xa nhau mới ác mọi người ơi. Thôi thì nhân tối nay ở nhà nhớ vợ. Mình vắt chym lên hồi tưởng lại một chuyến đi mà 2 vợ chồng đụ nhau...","image":null,"label":null,"display":"text-only","type":"text","enable_detail":true,"related":{"url":"https://truyenx.link/truyensextv/channels/related/1299","request_headers":[]},"share":{"url":"https://truyenx.link/truyensextv/channels/share/khoe-bim-noi-cong-cong"},"remote_data":{"url":"https://truyenx.link/truyensextv/channels/khoe-bim-noi-cong-cong"}},{"id":"1298-channel","name":"Đụ đồng nghiệp","description":"Nàng tên là Nguyệt Ánh, có nghĩa là ánh trăng, cùng cơ quan với tôi. Nàng 25 tuổi, tốt nghiệp đại học tài chính, làm phòng kế toán, đã có chồng và một con gái tròn một tuổi...","image":null,"label":null,"display":"text-only","type":"text","enable_detail":true,"related":{"url":"https://truyenx.link/truyensextv/channels/related/1298","request_headers":[]},"share":{"url":"https://truyenx.link/truyensextv/channels/share/du-dong-nghiep"},"remote_data":{"url":"https://truyenx.link/truyensextv/channels/du-dong-nghiep"}},{"id":"1297-channel","name":"Em đã có chồng chưa?","description":"2007 2016 Gặp em sau 9 năm trời đằng đằng. Tôi dắt con trai 5 tuổi đi thăm hang đá. Em khăn cuốn cổ… áo choàng lặng lẽ đi một mình. Em là mối tình đầu của tôi. Là người duy...","image":null,"label":null,"display":"text-only","type":"text","enable_detail":true,"related":{"url":"https://truyenx.link/truyensextv/channels/related/1297","request_headers":[]},"share":{"url":"https://truyenx.link/truyensextv/channels/share/em-da-co-chong-chua"},"remote_data":{"url":"https://truyenx.link/truyensextv/channels/em-da-co-chong-chua"}},{"id":"1296-channel","name":"Địt chị gái học chung lớp tập huấn","description":"Mình đang làm việc ở Sài Gòn, cũng xinh trai, nói chuyện vui, chỉ mỗi tội cao cóa 1m65. Cách đây hơn hai tháng, công ty mình có tổ chức một lớp học tập huấn cho nhân viên, công ty...","image":null,"label":null,"display":"text-only","type":"text","enable_detail":true,"related":{"url":"https://truyenx.link/truyensextv/channels/related/1296","request_headers":[]},"share":{"url":"https://truyenx.link/truyensextv/channels/share/dit-chi-gai-hoc-chung-lop-tap-huan"},"remote_data":{"url":"https://truyenx.link/truyensextv/channels/dit-chi-gai-hoc-chung-lop-tap-huan"}},{"id":"1295-channel","name":"Làm tình với bà già","description":"Tác giả: Why Not Me Phúc là một sinh viên Nông Lâm năm thứ 2. Mùa hè năm đó, chàng đi theo một nhóm Thanh Niên Tình Nguyện lên làm việc tại một buôn người dân tộc thiểu số gần...","image":null,"label":null,"display":"text-only","type":"text","enable_detail":true,"related":{"url":"https://truyenx.link/truyensextv/channels/related/1295","request_headers":[]},"share":{"url":"https://truyenx.link/truyensextv/channels/share/lam-tinh-voi-ba-gia"},"remote_data":{"url":"https://truyenx.link/truyensextv/channels/lam-tinh-voi-ba-gia"}},{"id":"1294-channel","name":"Cô giáo Uyên","description":"6h30, Nam yên vị trên chiếc ghế quen thuộc với ly cafe sữa. Anh về ngôi trường huyện này cũng đã được gần 2 năm rồi, không dài cũng không ngắn, chỉ có lương là lâu lên thôi. Anh...","image":null,"label":null,"display":"text-only","type":"text","enable_detail":true,"related":{"url":"https://truyenx.link/truyensextv/channels/related/1294","request_headers":[]},"share":{"url":"https://truyenx.link/truyensextv/channels/share/co-giao-uyen"},"remote_data":{"url":"https://truyenx.link/truyensextv/channels/co-giao-uyen"}},{"id":"1293-channel","name":"Đụ nhau thời ở trọ","description":"Sơ lược tí. Mình thì sinh ra trong gia đình gia giáo. Hồi học cấp 3 mình chưa biết mùi gái, chỉ quen được một em , nói sơ về em này, em không được...","image":null,"label":null,"display":"text-only","type":"text","enable_detail":true,"related":{"url":"https://truyenx.link/truyensextv/channels/related/1293","request_headers":[]},"share":{"url":"https://truyenx.link/truyensextv/channels/share/du-nhau-thoi-o-tro"},"remote_data":{"url":"https://truyenx.link/truyensextv/channels/du-nhau-thoi-o-tro"}},{"id":"1292-channel","name":"Tôi và em người yêu tên Lê","description":"Tôi và em yêu từ đợt em học lớp 9 đến hôm cuối lớp 9 thì tôi và em lần đầu với nhau, hôm đó tôi sang nhà em vì không có ai ở nhà, lên tầng 2 tôi và em hôn nhau rồi móc lồn...","image":null,"label":null,"display":"text-only","type":"text","enable_detail":true,"related":{"url":"https://truyenx.link/truyensextv/channels/related/1292","request_headers":[]},"share":{"url":"https://truyenx.link/truyensextv/channels/share/toi-va-em-nguoi-yeu-ten-le"},"remote_data":{"url":"https://truyenx.link/truyensextv/channels/toi-va-em-nguoi-yeu-ten-le"}},{"id":"1291-channel","name":"Những người phụ nữ dâm đãng","description":"Thảo Anh cắn chặt răng chặn lại tiếng rên rỉ chực chờ từ cuống họng phát ra, hai chân nàng đang bị banh ra thật rộng. Ở phía dưới, Trung, chồng nàng đang sì sụp húp lấy húp...","image":null,"label":null,"display":"text-only","type":"text","enable_detail":true,"related":{"url":"https://truyenx.link/truyensextv/channels/related/1291","request_headers":[]},"share":{"url":"https://truyenx.link/truyensextv/channels/share/nhung-nguoi-phu-nu-dam-dang"},"remote_data":{"url":"https://truyenx.link/truyensextv/channels/nhung-nguoi-phu-nu-dam-dang"}},{"id":"1290-channel","name":"Mấy chị chung trọ","description":"Trình, anh chính thức được thôi việc vào ngày mai, xuống phòng kế toán lĩnh những ngày lương còn lại. Ông trưởng phòng đưa cho Trình hợp đồng thôi việc và quay đi. Trình mất...","image":null,"label":null,"display":"text-only","type":"text","enable_detail":true,"related":{"url":"https://truyenx.link/truyensextv/channels/related/1290","request_headers":[]},"share":{"url":"https://truyenx.link/truyensextv/channels/share/may-chi-chung-tro"},"remote_data":{"url":"https://truyenx.link/truyensextv/channels/may-chi-chung-tro"}},{"id":"1289-channel","name":"Chị Trâm cùng làng","description":"Câu chuyện xảy ra cách đây gần 5 hay 6 tháng gí ý, đó là vào 1 hôm trời nắng chói chang giữa mùa đông Hà Nội. Hôm đó tụi em rủ nhau đi chơi ở làng lụa Vạn Phúc, trong nhóm em có...","image":null,"label":null,"display":"text-only","type":"text","enable_detail":true,"related":{"url":"https://truyenx.link/truyensextv/channels/related/1289","request_headers":[]},"share":{"url":"https://truyenx.link/truyensextv/channels/share/chi-tram-cung-lang"},"remote_data":{"url":"https://truyenx.link/truyensextv/channels/chi-tram-cung-lang"}},{"id":"1288-channel","name":"Xóm đụ","description":"Hiếu! Về ăn cơm con! Tiếng gọi văng vẳng trong cái xóm lao động bình dân vang lên giữa trưa hè nắng gắt. Thằng Hiếu, thằng bạn thân chí cốt của tôi đang ngồi thì thụp bên...","image":null,"label":null,"display":"text-only","type":"text","enable_detail":true,"related":{"url":"https://truyenx.link/truyensextv/channels/related/1288","request_headers":[]},"share":{"url":"https://truyenx.link/truyensextv/channels/share/xom-du"},"remote_data":{"url":"https://truyenx.link/truyensextv/channels/xom-du"}},{"id":"1287-channel","name":"Lần đầu của em","description":"Hồi ấy em đang học năm nhất Đại học. Em cao 1m58, nặng 47kg, dáng người cân đối nhưng hình như vòng 1 của em hơi to so với các bạn nữ khác thì phải. Em ở cùng phòng trọ với 2...","image":null,"label":null,"display":"text-only","type":"text","enable_detail":true,"related":{"url":"https://truyenx.link/truyensextv/channels/related/1287","request_headers":[]},"share":{"url":"https://truyenx.link/truyensextv/channels/share/lan-dau-cua-em"},"remote_data":{"url":"https://truyenx.link/truyensextv/channels/lan-dau-cua-em"}},{"id":"1286-channel","name":"Chị vợ khắt khe","description":"Tôi đã 30 tuổi và đã có gia đình với một đứa con. Gia đình tôi êm ấm trên mọi phương diện. Nhờ có một công việc khá tốt trong một công ty lớn nên đồng lương của tôi cũng...","image":null,"label":null,"display":"text-only","type":"text","enable_detail":true,"related":{"url":"https://truyenx.link/truyensextv/channels/related/1286","request_headers":[]},"share":{"url":"https://truyenx.link/truyensextv/channels/share/chi-vo-khat-khe"},"remote_data":{"url":"https://truyenx.link/truyensextv/channels/chi-vo-khat-khe"}},{"id":"1285-channel","name":"Chuyện tình giữa tôi và cô chị không cùng huyết thống","description":"Câu chuyện không thể bắt đầu nếu cái ngày ba tôi bị tai nạn không xảy ra vào năm tôi ba tuổi. Tôi là Nam, một thanh niên ở Hà Nội, một sinh viên bách khoa năm 2. Câu chuyện xảy ra...","image":null,"label":null,"display":"text-only","type":"text","enable_detail":true,"related":{"url":"https://truyenx.link/truyensextv/channels/related/1285","request_headers":[]},"share":{"url":"https://truyenx.link/truyensextv/channels/share/chuyen-tinh-giua-toi-va-co-chi-khong-cung-huyet-thong"},"remote_data":{"url":"https://truyenx.link/truyensextv/channels/chuyen-tinh-giua-toi-va-co-chi-khong-cung-huyet-thong"}},{"id":"1284-channel","name":"Some với bạn thân của ghệ","description":"Bạn gái mình có một hội bạn thân từ cấp 2, mình đã gặp và tiếp xúc thân thiết, toàn gái đẹp chơi cùng nhau các bác ạ, trong nhóm đó mình có kết được 3 em, trong đó có 1 em...","image":null,"label":null,"display":"text-only","type":"text","enable_detail":true,"related":{"url":"https://truyenx.link/truyensextv/channels/related/1284","request_headers":[]},"share":{"url":"https://truyenx.link/truyensextv/channels/share/some-voi-ban-than-cua-ghe"},"remote_data":{"url":"https://truyenx.link/truyensextv/channels/some-voi-ban-than-cua-ghe"}},{"id":"1283-channel","name":"Chú Hoàng","description":"Con Vân nghĩ cũng lạ: Tuy mới 13 tuổi nhưng nó lại được sống những tình huống quá đặc biệt cho lứa tuổi của nó, những tình huống tưởng đâu chỉ dành riêng cho « người lớn...","image":null,"label":null,"display":"text-only","type":"text","enable_detail":true,"related":{"url":"https://truyenx.link/truyensextv/channels/related/1283","request_headers":[]},"share":{"url":"https://truyenx.link/truyensextv/channels/share/chu-hoang"},"remote_data":{"url":"https://truyenx.link/truyensextv/channels/chu-hoang"}},{"id":"1282-channel","name":"Đi Phú Quốc với vợ","description":"Giới thiệu nhẹ qua tí em 3x tuổi, vợ em 2x tuổi, trước khi cưới nhau cũng trải qua hơn 3 năm ‘ăn nằm’ đủ thứ thể loại. Vợ em tuy nhìn bên ngoài khá truyền thống, khó...","image":null,"label":null,"display":"text-only","type":"text","enable_detail":true,"related":{"url":"https://truyenx.link/truyensextv/channels/related/1282","request_headers":[]},"share":{"url":"https://truyenx.link/truyensextv/channels/share/di-phu-quoc-voi-vo"},"remote_data":{"url":"https://truyenx.link/truyensextv/channels/di-phu-quoc-voi-vo"}},{"id":"1281-channel","name":"Địt vợ trong cầu thang bộ","description":"Hôm qua hai vợ chồng đi xem phim, chọn suất chiếu cuối. Xem phim thì cũng bình thường như mọi người, hai nước một bắp, lúc xem cũng không có làm gì bậy bạ. Hết phim cũng gần 1h...","image":null,"label":null,"display":"text-only","type":"text","enable_detail":true,"related":{"url":"https://truyenx.link/truyensextv/channels/related/1281","request_headers":[]},"share":{"url":"https://truyenx.link/truyensextv/channels/share/dit-vo-trong-cau-thang-bo"},"remote_data":{"url":"https://truyenx.link/truyensextv/channels/dit-vo-trong-cau-thang-bo"}},{"id":"1280-channel","name":"Bán dâm cứu mẹ","description":"Câu chuyện bắt đầu với những ngày nắng tháng 3 oi ả của Sài Gòn. Tại xưởng cơ khí nhà Nam, không khí ngột ngạt như cái lò xông hơi, cả chục anh em chỉ mặc quần xà lỏn, mồ...","image":null,"label":null,"display":"text-only","type":"text","enable_detail":true,"related":{"url":"https://truyenx.link/truyensextv/channels/related/1280","request_headers":[]},"share":{"url":"https://truyenx.link/truyensextv/channels/share/ban-dam-cuu-me"},"remote_data":{"url":"https://truyenx.link/truyensextv/channels/ban-dam-cuu-me"}},{"id":"1279-channel","name":"Chuyện hai mẹ con","description":"Mẹ tôi nhìn tôi với vẻ ngạc nhiên và vui mừng. Chúng tôi vừa rời khỏi trung tâm thương mại, trên tay đầy những món quà Giáng sinh vào phút cuối cùng sau vài giờ mua sắm. Người...","image":null,"label":null,"display":"text-only","type":"text","enable_detail":true,"related":{"url":"https://truyenx.link/truyensextv/channels/related/1279","request_headers":[]},"share":{"url":"https://truyenx.link/truyensextv/channels/share/chuyen-hai-me-con"},"remote_data":{"url":"https://truyenx.link/truyensextv/channels/chuyen-hai-me-con"}}],"load_more":{"pageInfo":{"current_page":97,"last_page":140,"per_page":30,"total":4188},"paging":{"page_key":"page","size_key":"size"},"remote_data":{"url":"https://truyenx.link/truyensextv/channels"}}}