{"grid_number":1,"channels":[{"id":"4001-channel","name":"Kể vợ nghe chuyện đụ gái ở công ty","description":"Tôi năm nay 35 tuổi vợ tôi 30 tuổi, tôi làm trưởng phòng của một công ty về quảng cáo. Vợ tôi thì làm ở một công ty Luật, Hai vợ chồng tôi có sở thích khi đụ nhau thì khẩu dâm...","image":null,"label":null,"display":"text-only","type":"text","enable_detail":true,"related":{"url":"https://truyenx.link/truyensextv/channels/related/4001","request_headers":[]},"share":{"url":"https://truyenx.link/truyensextv/channels/share/ke-vo-nghe-chuyen-du-gai-o-cong-ty"},"remote_data":{"url":"https://truyenx.link/truyensextv/channels/ke-vo-nghe-chuyen-du-gai-o-cong-ty"}},{"id":"4000-channel","name":"Đụ mẹ bạn thân","description":"Tôi là Long năm nay 17 tuổi tôi có một thằng bạn tên là linh hôm đấy ra chơi thằng Linh mới lại gần tôi và khoác vai nói: Ey, chiều nay đến nhà tao chơi đi. Sang nhà mày á? Ừ. Sang...","image":null,"label":null,"display":"text-only","type":"text","enable_detail":true,"related":{"url":"https://truyenx.link/truyensextv/channels/related/4000","request_headers":[]},"share":{"url":"https://truyenx.link/truyensextv/channels/share/du-me-ban-than"},"remote_data":{"url":"https://truyenx.link/truyensextv/channels/du-me-ban-than"}},{"id":"3999-channel","name":"Thác loạn không hồi kết","description":"Con gái ra phụ mẹ mang đồ xuống đi con. Mẹ nó cất tiếng gọi nó ra để lấy đồ trên xe xuống. Nó đang đứng ngắm biển, vì nó đã năn nỉ bố mẹ nó cho nó đi rất lâu rồi...","image":null,"label":null,"display":"text-only","type":"text","enable_detail":true,"related":{"url":"https://truyenx.link/truyensextv/channels/related/3999","request_headers":[]},"share":{"url":"https://truyenx.link/truyensextv/channels/share/thac-loan-khong-hoi-ket"},"remote_data":{"url":"https://truyenx.link/truyensextv/channels/thac-loan-khong-hoi-ket"}},{"id":"3998-channel","name":"Xóm ngoại tình","description":"Không ai có thể phê phán được ai. Cả một cái xóm ông ăn chả bà ăn nem và các con của họ, thật sự không thể biết ai là con của ai? Tóm lại, cứ nháy nhó với nhau, hẹn hò với...","image":null,"label":null,"display":"text-only","type":"text","enable_detail":true,"related":{"url":"https://truyenx.link/truyensextv/channels/related/3998","request_headers":[]},"share":{"url":"https://truyenx.link/truyensextv/channels/share/xom-ngoai-tinh"},"remote_data":{"url":"https://truyenx.link/truyensextv/channels/xom-ngoai-tinh"}},{"id":"3996-channel","name":"Dược sĩ Trà My","description":"A... aaa... Con ra mợ My ơi, sướng cặc quá, lồn mợ nuốt cả con cặc con rồi. A... aa, sướng... My banh chân hết cỡ, 2 tay bóp chặt bầu ngực, tận hưởng từng dòng tinh nóng hổi của...","image":null,"label":null,"display":"text-only","type":"text","enable_detail":true,"related":{"url":"https://truyenx.link/truyensextv/channels/related/3996","request_headers":[]},"share":{"url":"https://truyenx.link/truyensextv/channels/share/duoc-si-tra-my"},"remote_data":{"url":"https://truyenx.link/truyensextv/channels/duoc-si-tra-my"}},{"id":"3997-channel","name":"Thanh xuân nô lệ của cặp chị em My - Vy","description":"My và Vy là hai chị em họ, do chơi với nhau từ nhỏ nên là My với Vy có một mối quan hệ cực kỳ thân thiết. Luôn giúp đỡ và chia sẻ mọi chuyện cho nhau nghe. My là chị một người...","image":null,"label":null,"display":"text-only","type":"text","enable_detail":true,"related":{"url":"https://truyenx.link/truyensextv/channels/related/3997","request_headers":[]},"share":{"url":"https://truyenx.link/truyensextv/channels/share/thanh-xuan-no-le-cua-cap-chi-em-my-vy"},"remote_data":{"url":"https://truyenx.link/truyensextv/channels/thanh-xuan-no-le-cua-cap-chi-em-my-vy"}},{"id":"3995-channel","name":"Hương bưởi dọc đường","description":"Tích cóp mãi, cuối cùng tôi cũng mua được cái xe Jeep phế thải của quân đội Mỹ để lại sau chiến tranh VN. Bỏ thêm tiền o bế sửa sang cả mấy tháng trời, bây giờ trông ngon...","image":null,"label":null,"display":"text-only","type":"text","enable_detail":true,"related":{"url":"https://truyenx.link/truyensextv/channels/related/3995","request_headers":[]},"share":{"url":"https://truyenx.link/truyensextv/channels/share/huong-buoi-doc-duong"},"remote_data":{"url":"https://truyenx.link/truyensextv/channels/huong-buoi-doc-duong"}},{"id":"3994-channel","name":"Anh rể ơi! Em ngứa lưng","description":"Hưng chợt chú ý âm thanh của em vợ Hằng ngay sau lưng mình, chàng quay lại, nhỏ giọng hỏi: Anh Tiến đâu, phải tội chết!? Anh Tiến đi làm, chị Hiền đi chợ, ngứa lưng quá, nhờ anh...","image":null,"label":null,"display":"text-only","type":"text","enable_detail":true,"related":{"url":"https://truyenx.link/truyensextv/channels/related/3994","request_headers":[]},"share":{"url":"https://truyenx.link/truyensextv/channels/share/anh-re-oi-em-ngua-lung"},"remote_data":{"url":"https://truyenx.link/truyensextv/channels/anh-re-oi-em-ngua-lung"}},{"id":"3993-channel","name":"Mẹ dâm thèm cu tây","description":"Cất cái đó vào đi, nhanh rồi con về. Dạ... Đấy là giọng nói của mẹ tôi, bà đang bảo tôi bê mấy thùng thuốc y tế vào bỏ trong tủ khóa lại rồi đi về. Tôi tên Trần Văn Đông...","image":null,"label":null,"display":"text-only","type":"text","enable_detail":true,"related":{"url":"https://truyenx.link/truyensextv/channels/related/3993","request_headers":[]},"share":{"url":"https://truyenx.link/truyensextv/channels/share/me-dam-them-cu-tay"},"remote_data":{"url":"https://truyenx.link/truyensextv/channels/me-dam-them-cu-tay"}},{"id":"3992-channel","name":"Dzô địt… dzô địt…","description":"Lâm khệ nệ mang chiếc TV mới mua 20 củ với thùng bia Tiger, hí hửng vô phòng trọ của nhỏ Thúy. Lâm chắc mẩm với món quà này, đêm nay thể nào cũng được Thúy đền bù chút gì...","image":null,"label":null,"display":"text-only","type":"text","enable_detail":true,"related":{"url":"https://truyenx.link/truyensextv/channels/related/3992","request_headers":[]},"share":{"url":"https://truyenx.link/truyensextv/channels/share/dzo-dit-dzo-dit"},"remote_data":{"url":"https://truyenx.link/truyensextv/channels/dzo-dit-dzo-dit"}},{"id":"3991-channel","name":"Người vợ dâm ngầm","description":"Tôi là Long, 27 tuổi, còn vợ tôi tên Hoa, 26 tuổi, chúng tôi đã cưới nhau được 5 năm hiện đang kinh doanh bất động sản tại Bình Dương. Tôi cao 1m76, nặng 80kg, do có võ 3 năm và tập...","image":null,"label":null,"display":"text-only","type":"text","enable_detail":true,"related":{"url":"https://truyenx.link/truyensextv/channels/related/3991","request_headers":[]},"share":{"url":"https://truyenx.link/truyensextv/channels/share/nguoi-vo-dam-ngam"},"remote_data":{"url":"https://truyenx.link/truyensextv/channels/nguoi-vo-dam-ngam"}},{"id":"3990-channel","name":"Lê Thị Bích Ngọc","description":"Bích Ngọc sở hữu một thân hình săn chắc, cân đối. Tuy đã là U50 nhưng Bích Ngọc vẫn thích trau chuốt lông mày, lông mi. Vẫn môi son, má phấn... Đặc biệt là, lúc nào lông lồn...","image":null,"label":null,"display":"text-only","type":"text","enable_detail":true,"related":{"url":"https://truyenx.link/truyensextv/channels/related/3990","request_headers":[]},"share":{"url":"https://truyenx.link/truyensextv/channels/share/le-thi-bich-ngoc"},"remote_data":{"url":"https://truyenx.link/truyensextv/channels/le-thi-bich-ngoc"}},{"id":"3989-channel","name":"Bí mật của bạn gái sắp cưới","description":"Khi sắp chạm đến hôn nhân tôi phát hiện ra những điều mà người vợ tương lai tôi che giấu câu chuyện mà tôi đã đánh giá thấp về độ dâm dục của bạn gái mình đó sẽ ở...","image":null,"label":null,"display":"text-only","type":"text","enable_detail":true,"related":{"url":"https://truyenx.link/truyensextv/channels/related/3989","request_headers":[]},"share":{"url":"https://truyenx.link/truyensextv/channels/share/bi-mat-cua-ban-gai-sap-cuoi"},"remote_data":{"url":"https://truyenx.link/truyensextv/channels/bi-mat-cua-ban-gai-sap-cuoi"}},{"id":"3988-channel","name":"Bạn bè lâu năm","description":"Tui có nhóm bạn chơi thân với nhau từ hồi học cấp 3 tới nay đã hơn 10 năm. Nam, Dũng, Hiếu và tui là Khang là những người có chung nhiều sở thích giống nhau, kể cả về chuyện gái...","image":null,"label":null,"display":"text-only","type":"text","enable_detail":true,"related":{"url":"https://truyenx.link/truyensextv/channels/related/3988","request_headers":[]},"share":{"url":"https://truyenx.link/truyensextv/channels/share/ban-be-lau-nam"},"remote_data":{"url":"https://truyenx.link/truyensextv/channels/ban-be-lau-nam"}},{"id":"3987-channel","name":"Mười năm tình cũ","description":"Trong một căn biệt thự sang trọng nằm lưng chừng đồi ở Milpitas nhìn xuống vịnh San Francisco thuộc vùng Thung Lũng Silicon, có 4 đứa trẻ gái đang chơi đùa ở trong sân vườn sau...","image":null,"label":null,"display":"text-only","type":"text","enable_detail":true,"related":{"url":"https://truyenx.link/truyensextv/channels/related/3987","request_headers":[]},"share":{"url":"https://truyenx.link/truyensextv/channels/share/muoi-nam-tinh-cu"},"remote_data":{"url":"https://truyenx.link/truyensextv/channels/muoi-nam-tinh-cu"}},{"id":"3986-channel","name":"Vương Trường Sinh - Quyển 1","description":"Vương Trường Sinh Đại Tống, Ninh Châu... Huyện Bình An là một trong bảy mươi hai huyện của Ninh Châu, bao quanh bởi núi đồi, dân cư rất thưa thớt, đảo Liên Hoa là đảo...","image":null,"label":null,"display":"text-only","type":"text","enable_detail":true,"related":{"url":"https://truyenx.link/truyensextv/channels/related/3986","request_headers":[]},"share":{"url":"https://truyenx.link/truyensextv/channels/share/vuong-truong-sinh-quyen-1"},"remote_data":{"url":"https://truyenx.link/truyensextv/channels/vuong-truong-sinh-quyen-1"}},{"id":"3985-channel","name":"Lão bảo vệ may mắn","description":"Càng gần giờ làm việc phố xá càng thêm nhộn nhịp. Tiếng còi, tiếng xe trên đường mỗi lúc một dày đặc khiến cho khung cảnh buổi sáng càng thêm sinh động. Thiện đang cầm chổi...","image":null,"label":null,"display":"text-only","type":"text","enable_detail":true,"related":{"url":"https://truyenx.link/truyensextv/channels/related/3985","request_headers":[]},"share":{"url":"https://truyenx.link/truyensextv/channels/share/lao-bao-ve-may-man"},"remote_data":{"url":"https://truyenx.link/truyensextv/channels/lao-bao-ve-may-man"}},{"id":"3984-channel","name":"Mẹ bắt con gái địt bố nhưng con gái cũng muốn địt mẹ","description":"Để ngăn cản cha tôi tìm kiếm những người phụ nữ khác bên ngoài, mẹ tôi đã thực sự yêu cầu tôi loạn luân với cha tôi... Năm ngoái, mẹ tôi được chẩn đoán mắc bệnh ung thư...","image":null,"label":null,"display":"text-only","type":"text","enable_detail":true,"related":{"url":"https://truyenx.link/truyensextv/channels/related/3984","request_headers":[]},"share":{"url":"https://truyenx.link/truyensextv/channels/share/me-bat-con-gai-dit-bo-nhung-con-gai-cung-muon-dit-me"},"remote_data":{"url":"https://truyenx.link/truyensextv/channels/me-bat-con-gai-dit-bo-nhung-con-gai-cung-muon-dit-me"}},{"id":"3983-channel","name":"Lời tâm sự của chị Thảo","description":"Tôi là Thảo năm nay 15 tuổi học lớp 9 và có 1 thằng em trai không tiện nói tên năm nay vừa lên lớp 6. Tôi và nó là 2 chị em ruột. Nó là một thằng vô cùng nghe lời tôi. Thường ngày...","image":null,"label":null,"display":"text-only","type":"text","enable_detail":true,"related":{"url":"https://truyenx.link/truyensextv/channels/related/3983","request_headers":[]},"share":{"url":"https://truyenx.link/truyensextv/channels/share/loi-tam-su-cua-chi-thao"},"remote_data":{"url":"https://truyenx.link/truyensextv/channels/loi-tam-su-cua-chi-thao"}},{"id":"3982-channel","name":"Chuyện Chùa Sư Nữ","description":"Hắn lên vùng này cũng hơn năm rồi. Trước đây nhà hắn ở thành phố. Một lần gặp phải thằng hàng xóm đôi co chuyện chó nhà nó nhiều lần sang ị trên đất nhà hắn, thằng kia...","image":null,"label":null,"display":"text-only","type":"text","enable_detail":true,"related":{"url":"https://truyenx.link/truyensextv/channels/related/3982","request_headers":[]},"share":{"url":"https://truyenx.link/truyensextv/channels/share/chuyen-chua-su-nu"},"remote_data":{"url":"https://truyenx.link/truyensextv/channels/chuyen-chua-su-nu"}},{"id":"3981-channel","name":"Dục vọng loạn luân","description":"Tết đến, chị họ của tôi lại dắt hai mẹ con lên chơi với nhà tôi vài hôm. Và tết năm nay cũng không phải là ngoại lệ. Mắt tôi không khỏi liếc nhìn đôi chân trắng nuột nà...","image":null,"label":null,"display":"text-only","type":"text","enable_detail":true,"related":{"url":"https://truyenx.link/truyensextv/channels/related/3981","request_headers":[]},"share":{"url":"https://truyenx.link/truyensextv/channels/share/duc-vong-loan-luan"},"remote_data":{"url":"https://truyenx.link/truyensextv/channels/duc-vong-loan-luan"}},{"id":"3980-channel","name":"Thi - Quyển 1","description":"Người từ lúc được sinh ra cho đến khi chết đi chính là một quá trình, một khi đã chết cũng liền trút một hơi. Nhưng trên đời này luôn có người không muốn tắt thở, thi thể...","image":null,"label":null,"display":"text-only","type":"text","enable_detail":true,"related":{"url":"https://truyenx.link/truyensextv/channels/related/3980","request_headers":[]},"share":{"url":"https://truyenx.link/truyensextv/channels/share/thi-quyen-1"},"remote_data":{"url":"https://truyenx.link/truyensextv/channels/thi-quyen-1"}},{"id":"3979-channel","name":"Đụ con gái yêu","description":"Với vẻ ngoài điển trai, nụ cười tỏa nắng, cơ bụng sáu múi. Phong khiến các chị e xung quanh mê mẩn không ngừng. Với một người có nhu cầu tình dục cao, những khi mất đi vợ...","image":null,"label":null,"display":"text-only","type":"text","enable_detail":true,"related":{"url":"https://truyenx.link/truyensextv/channels/related/3979","request_headers":[]},"share":{"url":"https://truyenx.link/truyensextv/channels/share/du-con-gai-yeu"},"remote_data":{"url":"https://truyenx.link/truyensextv/channels/du-con-gai-yeu"}},{"id":"3978-channel","name":"Một cuộc loạn luân thực sự của bố mẹ và con gái","description":"Mẹ Tôi vuốt mặt, vết bỏng từ những cái tát vẫn còn hơi đau. Tôi ghét ông tôi mọi lúc. Ông ấy luôn đánh đập và la mắng tôi. Đôi khi ông ta không thể bỏ qua ngay cả lỗi lầm...","image":null,"label":null,"display":"text-only","type":"text","enable_detail":true,"related":{"url":"https://truyenx.link/truyensextv/channels/related/3978","request_headers":[]},"share":{"url":"https://truyenx.link/truyensextv/channels/share/mot-cuoc-loan-luan-thuc-su-cua-bo-me-va-con-gai"},"remote_data":{"url":"https://truyenx.link/truyensextv/channels/mot-cuoc-loan-luan-thuc-su-cua-bo-me-va-con-gai"}},{"id":"3977-channel","name":"Biệt Tri Kỉ","description":"Anh Hiệp năm nay 35 tuổi phất lên từ vài năm trở lại đây anh là một giang hồ chính hiệu cũng là một người chồng thành đạt, dáng người tuy hơi lùn 1m68 nhưng dựa vào sức nặng...","image":null,"label":null,"display":"text-only","type":"text","enable_detail":true,"related":{"url":"https://truyenx.link/truyensextv/channels/related/3977","request_headers":[]},"share":{"url":"https://truyenx.link/truyensextv/channels/share/biet-tri-ki"},"remote_data":{"url":"https://truyenx.link/truyensextv/channels/biet-tri-ki"}},{"id":"3975-channel","name":"Địt em Linh cùng lớp và mẹ","description":"Lớp tôi thì có khá nhiều đứa ngực công mông thủ, nhưng tôi thì lại thik em Linh ở lớp tôi, Linh thì hàng họ đâu ra đó ngon vl ra các bro ạ, tôi gần nhà linh nên lúc trước có thấy...","image":null,"label":null,"display":"text-only","type":"text","enable_detail":true,"related":{"url":"https://truyenx.link/truyensextv/channels/related/3975","request_headers":[]},"share":{"url":"https://truyenx.link/truyensextv/channels/share/dit-em-linh-cung-lop-va-me"},"remote_data":{"url":"https://truyenx.link/truyensextv/channels/dit-em-linh-cung-lop-va-me"}},{"id":"3976-channel","name":"Dạy con gái tập bơi, tôi địt con gái lúc nào không hay","description":"Tôi xin giới thiệu sơ qua về gia đình tôi. Chúng tôi là một gia đình có ba người. Tôi làm việc trong hệ thống kho bãi của một công ty lớn, còn vợ tôi là y tá bệnh viện. Một cô...","image":null,"label":null,"display":"text-only","type":"text","enable_detail":true,"related":{"url":"https://truyenx.link/truyensextv/channels/related/3976","request_headers":[]},"share":{"url":"https://truyenx.link/truyensextv/channels/share/day-con-gai-tap-boi-toi-dit-con-gai-luc-nao-khong-hay"},"remote_data":{"url":"https://truyenx.link/truyensextv/channels/day-con-gai-tap-boi-toi-dit-con-gai-luc-nao-khong-hay"}},{"id":"3974-channel","name":"Những mảnh tình lướt qua đời em","description":"Công Bằng E nhóc kiếm nhà trọ hả: Một thanh niên nói với một thanh niên khác đang tay xách nách mang hành lý, như thằng nhà quê mới lên thành phố. Thanh niên kia liền trả lời lại...","image":null,"label":null,"display":"text-only","type":"text","enable_detail":true,"related":{"url":"https://truyenx.link/truyensextv/channels/related/3974","request_headers":[]},"share":{"url":"https://truyenx.link/truyensextv/channels/share/nhung-manh-tinh-luot-qua-doi-em"},"remote_data":{"url":"https://truyenx.link/truyensextv/channels/nhung-manh-tinh-luot-qua-doi-em"}},{"id":"3973-channel","name":"Con đĩ Mai Anh","description":"Mai Anh đã là một con đĩ dâm đãng từ khi bắt đầu dậy thì. Nếu nàng ở nhà một mình và không có gì để làm, Mai Anh luôn cởi quần áo để thủ dâm, và hôm nay cũng không ngoại...","image":null,"label":null,"display":"text-only","type":"text","enable_detail":true,"related":{"url":"https://truyenx.link/truyensextv/channels/related/3973","request_headers":[]},"share":{"url":"https://truyenx.link/truyensextv/channels/share/con-di-mai-anh"},"remote_data":{"url":"https://truyenx.link/truyensextv/channels/con-di-mai-anh"}},{"id":"3972-channel","name":"Địt tung lồn mẹ ruột","description":"Từ xưa tôi đã hay ngủ với mẹ, đặc biệt là với sở thích dâm đãng từ bé là sờ ti và sờ vú mẹ, ngay cả khi lớp 5, mặc dù mẹ không cho nhưng mà tôi vẫn luôn cố gắng lì...","image":null,"label":null,"display":"text-only","type":"text","enable_detail":true,"related":{"url":"https://truyenx.link/truyensextv/channels/related/3972","request_headers":[]},"share":{"url":"https://truyenx.link/truyensextv/channels/share/dit-tung-lon-me-ruot"},"remote_data":{"url":"https://truyenx.link/truyensextv/channels/dit-tung-lon-me-ruot"}}],"load_more":{"pageInfo":{"current_page":27,"last_page":140,"per_page":30,"total":4188},"paging":{"page_key":"page","size_key":"size"},"remote_data":{"url":"https://truyenx.link/truyensextv/channels"}}}