{"grid_number":1,"channels":[{"id":"318-channel","name":"Cơn mưa ngang qua","description":"Mặc quần jean, áo sơ mi, đeo giày tây đánh bóng lộn... Thực ra đây chẳng phải cái phong cách ăn mặc của mình nhưng vì hôm nay phải đi dự một cuộc hội thảo nên đành chấp nhận...","image":null,"label":null,"display":"text-only","type":"text","enable_detail":true,"related":{"url":"https://truyenx.link/truyensextv/channels/related/318","request_headers":[]},"share":{"url":"https://truyenx.link/truyensextv/channels/share/con-mua-ngang-qua"},"remote_data":{"url":"https://truyenx.link/truyensextv/channels/con-mua-ngang-qua"}},{"id":"317-channel","name":"Valentine không thể nào quên","description":"2009 đúng lễ tình nhân luôn, vừa đưa gấu về nhà trọ thì nhận được tin nhắn của em hàng xóm. Em ý người Cao Bằng, cùng nhà trọ với mình . Em ấy nhắn tin đại ý là đang buồn...","image":null,"label":null,"display":"text-only","type":"text","enable_detail":true,"related":{"url":"https://truyenx.link/truyensextv/channels/related/317","request_headers":[]},"share":{"url":"https://truyenx.link/truyensextv/channels/share/valentine-khong-the-nao-quen"},"remote_data":{"url":"https://truyenx.link/truyensextv/channels/valentine-khong-the-nao-quen"}},{"id":"316-channel","name":"Cô bé đi xe wave đỏ","description":"Mày cứ suốt ngày dán mắt vào cái máy vi tính thế thì bao giờ mới có người yêu hả con ? Ra đây tao bảo. Mẹ mình quát, vừa đứng dậy thì ông nội đi vào. Con chào ông. Ừ, mẹ...","image":null,"label":null,"display":"text-only","type":"text","enable_detail":true,"related":{"url":"https://truyenx.link/truyensextv/channels/related/316","request_headers":[]},"share":{"url":"https://truyenx.link/truyensextv/channels/share/co-be-di-xe-wave-do"},"remote_data":{"url":"https://truyenx.link/truyensextv/channels/co-be-di-xe-wave-do"}},{"id":"315-channel","name":"Hồi ký ngoại tình","description":"Hi ông xã! Hôm nay em mới rảnh để viết cho ông xã . Em sẽ kể cho anh nghe câu chuyện mà anh sẽ rất thích. Một ngày đẹp trời cuối tháng 11, em đã làm một việc mà em biết khi em kể...","image":null,"label":null,"display":"text-only","type":"text","enable_detail":true,"related":{"url":"https://truyenx.link/truyensextv/channels/related/315","request_headers":[]},"share":{"url":"https://truyenx.link/truyensextv/channels/share/hoi-ky-ngoai-tinh"},"remote_data":{"url":"https://truyenx.link/truyensextv/channels/hoi-ky-ngoai-tinh"}},{"id":"314-channel","name":"Con đĩ nhỏ thích khổ dâm","description":"Tôi năm nay 22 tuổi, sở thích là đọc hentai và xem jav, đặc biệt thể loại BDSM và luôn muốn tìm 1 đối tác để thỏa mãn sở thích của mình... và thế tất nhiên facebook của tôi like...","image":null,"label":null,"display":"text-only","type":"text","enable_detail":true,"related":{"url":"https://truyenx.link/truyensextv/channels/related/314","request_headers":[]},"share":{"url":"https://truyenx.link/truyensextv/channels/share/con-di-nho-thich-kho-dam"},"remote_data":{"url":"https://truyenx.link/truyensextv/channels/con-di-nho-thich-kho-dam"}},{"id":"313-channel","name":"Đụ bạn của vợ","description":"Câu chuyện này tôi muốn chia sẻ với các anh em đã có cùng “cảnh ngộ” và các anh em sắp cùng cảnh ngộ... Lấy vợ thì hiếm ai lấy mà lại không yêu . Nhưng yêu vợ không...","image":null,"label":null,"display":"text-only","type":"text","enable_detail":true,"related":{"url":"https://truyenx.link/truyensextv/channels/related/313","request_headers":[]},"share":{"url":"https://truyenx.link/truyensextv/channels/share/du-ban-cua-vo"},"remote_data":{"url":"https://truyenx.link/truyensextv/channels/du-ban-cua-vo"}},{"id":"312-channel","name":"Xin anh đừng buông tay","description":"Tôi, một người đàn ông từng trải, phong lưu và có vợ. Tôi như một áng mây bồng bềnh khắp đó đây, tình yêu của tôi đã thuộc về vợ và đương nhiên phụ nữ với tôi bây giờ...","image":null,"label":null,"display":"text-only","type":"text","enable_detail":true,"related":{"url":"https://truyenx.link/truyensextv/channels/related/312","request_headers":[]},"share":{"url":"https://truyenx.link/truyensextv/channels/share/xin-anh-dung-buong-tay"},"remote_data":{"url":"https://truyenx.link/truyensextv/channels/xin-anh-dung-buong-tay"}},{"id":"311-channel","name":"Chị họ dâm đãng","description":"Thân chào các anh em trên truyensextv2.cc ... xin phép được bỏ quan màn chào hỏi, giới thiệu, hôm nay mình muốn chia sẻ 1 kỉ niệm đẹp giữa mình và bà chị dâm đãng mà mình đã từng...","image":null,"label":null,"display":"text-only","type":"text","enable_detail":true,"related":{"url":"https://truyenx.link/truyensextv/channels/related/311","request_headers":[]},"share":{"url":"https://truyenx.link/truyensextv/channels/share/chi-ho-dam-dang"},"remote_data":{"url":"https://truyenx.link/truyensextv/channels/chi-ho-dam-dang"}},{"id":"310-channel","name":"Người con gái năm ấy…","description":"Em và nó học “cùng” nhau với từ lớp 6, tại sao em phải nhấn mạnh từ “cùng” ở đây, bởi đơn giản ngoài cái lớp ra thì em và nó chả có điểm nào chung hết. Nó...","image":null,"label":null,"display":"text-only","type":"text","enable_detail":true,"related":{"url":"https://truyenx.link/truyensextv/channels/related/310","request_headers":[]},"share":{"url":"https://truyenx.link/truyensextv/channels/share/nguoi-con-gai-nam-ay"},"remote_data":{"url":"https://truyenx.link/truyensextv/channels/nguoi-con-gai-nam-ay"}},{"id":"309-channel","name":"Gái dữ","description":"Chào anh em trên truyensextv2.cc... Người xưa có câu: Mỗi cây mỗi hoa... mỗi người 1 gấu. Gấu em cũng giống bao nhiêu người con gái khác … luôn tươi cười vui vẻ, và lại xinh gái nhá...","image":null,"label":null,"display":"text-only","type":"text","enable_detail":true,"related":{"url":"https://truyenx.link/truyensextv/channels/related/309","request_headers":[]},"share":{"url":"https://truyenx.link/truyensextv/channels/share/gai-du"},"remote_data":{"url":"https://truyenx.link/truyensextv/channels/gai-du"}},{"id":"308-channel","name":"Yêu con gái lớn tuổi hơn","description":"Nếu bác nào đang yêu gái lớn tuổi hơn thì cứ mạnh dạn lên nhé, mình đã yêu và cưới chị... hạnh phúc lắm nhé... ... Cách đây gần chục năm nhà chị chuyển về khu nhà mình...","image":null,"label":null,"display":"text-only","type":"text","enable_detail":true,"related":{"url":"https://truyenx.link/truyensextv/channels/related/308","request_headers":[]},"share":{"url":"https://truyenx.link/truyensextv/channels/share/yeu-con-gai-lon-tuoi-hon"},"remote_data":{"url":"https://truyenx.link/truyensextv/channels/yeu-con-gai-lon-tuoi-hon"}},{"id":"307-channel","name":"Chị","description":"Chuyện xảy ra cách đây tầm gần một năm, lúc đó mình chỉ mới chân ướt chân ráo bước vào cổng trường đại học. Mới đầu còn bỡ ngỡ, đi đâu hay làm gì cũng sợ sệt, mình...","image":null,"label":null,"display":"text-only","type":"text","enable_detail":true,"related":{"url":"https://truyenx.link/truyensextv/channels/related/307","request_headers":[]},"share":{"url":"https://truyenx.link/truyensextv/channels/share/chi"},"remote_data":{"url":"https://truyenx.link/truyensextv/channels/chi"}},{"id":"306-channel","name":"Đụ vợ ông anh","description":"Em và ông anh trong công ty thuộc thế hệ 8x và 9x đời đầu, vợ ông ta cũng 9x nhưng lớn hơn em, hai vợ chồng lấy nhau được hơn 2 năm, vì làm chung công ty nên ông ta thường đưa chìa...","image":null,"label":null,"display":"text-only","type":"text","enable_detail":true,"related":{"url":"https://truyenx.link/truyensextv/channels/related/306","request_headers":[]},"share":{"url":"https://truyenx.link/truyensextv/channels/share/du-vo-ong-anh"},"remote_data":{"url":"https://truyenx.link/truyensextv/channels/du-vo-ong-anh"}},{"id":"305-channel","name":"Cô gái yêu anh họ","description":"Em là nữ, biết đến truyensextv2.cc qua 1 lần mượn máy tính anh 2 học bài, lịch sử web chưa xoá nên hiện vào mắt là những truyện mà các anh chia sẻ. Theo dõi cũng lâu, chỉ xem rồi...","image":null,"label":null,"display":"text-only","type":"text","enable_detail":true,"related":{"url":"https://truyenx.link/truyensextv/channels/related/305","request_headers":[]},"share":{"url":"https://truyenx.link/truyensextv/channels/share/co-gai-yeu-anh-ho"},"remote_data":{"url":"https://truyenx.link/truyensextv/channels/co-gai-yeu-anh-ho"}},{"id":"304-channel","name":"Chị đồng nghiệp","description":"Chào các bạn, mình là mem mới của truyensextv2.cc đây là lần đầu mình tiết lộ chuyện làm tình của mình, mong anh em ủng hộ. Mình làm trong 1 cơ quan nhà nước, không biết nơi khác...","image":null,"label":null,"display":"text-only","type":"text","enable_detail":true,"related":{"url":"https://truyenx.link/truyensextv/channels/related/304","request_headers":[]},"share":{"url":"https://truyenx.link/truyensextv/channels/share/chi-dong-nghiep"},"remote_data":{"url":"https://truyenx.link/truyensextv/channels/chi-dong-nghiep"}},{"id":"303-channel","name":"Hương tình đầu","description":"Tôi thuộc loại đàn ông khá cổ hủ, đến giờ vẫn vậy. Tôi thích con gái ăn mặc kín đáo, nữ tính và tóc dài. Nhưng nếu ăn mặc không kín đáo thì cũng ổn thôi, chỉ cần cô gái...","image":null,"label":null,"display":"text-only","type":"text","enable_detail":true,"related":{"url":"https://truyenx.link/truyensextv/channels/related/303","request_headers":[]},"share":{"url":"https://truyenx.link/truyensextv/channels/share/huong-tinh-dau"},"remote_data":{"url":"https://truyenx.link/truyensextv/channels/huong-tinh-dau"}},{"id":"302-channel","name":"Phá trinh em Phượng","description":"Chào các bạn. Mình xin tự giới thiệu mình là D. Mình hiện giờ là du học sinh tại Úc. Mình cũng chỉ mới tham gia truyensextv2.cc gần đây thôi. Qua những mẫu truyện được anh em chia...","image":null,"label":null,"display":"text-only","type":"text","enable_detail":true,"related":{"url":"https://truyenx.link/truyensextv/channels/related/302","request_headers":[]},"share":{"url":"https://truyenx.link/truyensextv/channels/share/pha-trinh-em-phuong"},"remote_data":{"url":"https://truyenx.link/truyensextv/channels/pha-trinh-em-phuong"}},{"id":"301-channel","name":"Tình yêu tuổi học trò","description":"Tiết sinh hoạt 15 phút đầu buổi. Đang còn buồn ngủ vì đêm qua thức khuya làm 1 đống bài tập chuẩn bị cho kì thi HSG tỉnh 12, úp mặt xuống bàn năm 1 chút thì có tiếng gọi : Anh gì...","image":null,"label":null,"display":"text-only","type":"text","enable_detail":true,"related":{"url":"https://truyenx.link/truyensextv/channels/related/301","request_headers":[]},"share":{"url":"https://truyenx.link/truyensextv/channels/share/tinh-yeu-tuoi-hoc-tro"},"remote_data":{"url":"https://truyenx.link/truyensextv/channels/tinh-yeu-tuoi-hoc-tro"}},{"id":"300-channel","name":"Con bạn vú to - Ngoại tình","description":"Lúc 6h rất nhiều người thân, anh em, bạn bè, gọi về nhà giải quyết chuyện, có những đứa bạn ức quá củng chửi thẳng vào mặt mình là thằng hèn đéo biết giữ vợ con, mà lo...","image":null,"label":null,"display":"text-only","type":"text","enable_detail":true,"related":{"url":"https://truyenx.link/truyensextv/channels/related/300","request_headers":[]},"share":{"url":"https://truyenx.link/truyensextv/channels/share/con-ban-vu-to-ngoai-tinh"},"remote_data":{"url":"https://truyenx.link/truyensextv/channels/con-ban-vu-to-ngoai-tinh"}},{"id":"299-channel","name":"Xóm nghèo","description":"Tôi đã từng nghĩ sẽ chẳng bao giờ chia sẻ câu chuyện của mình cho bất cứ ai, tôi không muốn nhắc đến nó bởi có quá nhiều nỗi buồn, nhiều sự tiếc nuối, nhiều nước mắt và...","image":null,"label":null,"display":"text-only","type":"text","enable_detail":true,"related":{"url":"https://truyenx.link/truyensextv/channels/related/299","request_headers":[]},"share":{"url":"https://truyenx.link/truyensextv/channels/share/xom-ngheo"},"remote_data":{"url":"https://truyenx.link/truyensextv/channels/xom-ngheo"}},{"id":"298-channel","name":"Những lần đụ gái đáng nhớ","description":"05. Mình là người Hà Nội vào miền Tây công tác cũng vài năm rồi. Ở Cần Thơ công nhận là nhiều em ngon, đặc biệt là cặp vú rất bự. Mấy năm ở đây xơi cũng được vài em...","image":null,"label":null,"display":"text-only","type":"text","enable_detail":true,"related":{"url":"https://truyenx.link/truyensextv/channels/related/298","request_headers":[]},"share":{"url":"https://truyenx.link/truyensextv/channels/share/nhung-lan-du-gai-dang-nho"},"remote_data":{"url":"https://truyenx.link/truyensextv/channels/nhung-lan-du-gai-dang-nho"}},{"id":"297-channel","name":"Con bạn vú to","description":"Câu chuyện xảy ra vào đầu năm 2013... Mùng 3 tết, đang bon bon trên đường đi Vũng Tàu về thì điện thoại reo lên... nhìn vào màn hình điện thoại thì thấy dòng chữ “Con Cờ...","image":null,"label":null,"display":"text-only","type":"text","enable_detail":true,"related":{"url":"https://truyenx.link/truyensextv/channels/related/297","request_headers":[]},"share":{"url":"https://truyenx.link/truyensextv/channels/share/con-ban-vu-to"},"remote_data":{"url":"https://truyenx.link/truyensextv/channels/con-ban-vu-to"}},{"id":"296-channel","name":"Cô bé sợ ma","description":"“Anh ơi, em sợ...” Đêm hôm đó, lúc đang ngồi cày AOE thì mình nhận được tin nhắn từ số lạ với nội dung như trên. Ban đầu mình cũng chả quan tâm lắm vì nghĩ ai đó...","image":null,"label":null,"display":"text-only","type":"text","enable_detail":true,"related":{"url":"https://truyenx.link/truyensextv/channels/related/296","request_headers":[]},"share":{"url":"https://truyenx.link/truyensextv/channels/share/co-be-so-ma"},"remote_data":{"url":"https://truyenx.link/truyensextv/channels/co-be-so-ma"}},{"id":"295-channel","name":"Địt mẹ bạn thân","description":"Tôi và Hùng là cặp bạn thân chơi với nhau từ bé nên gia đình tôi và nó khá là thân thiết với nhau. Gia đình tôi cũng như bao gia đình khác, còn gia đình Hùng chỉ có mẹ nó với nó...","image":null,"label":null,"display":"text-only","type":"text","enable_detail":true,"related":{"url":"https://truyenx.link/truyensextv/channels/related/295","request_headers":[]},"share":{"url":"https://truyenx.link/truyensextv/channels/share/dit-me-ban-than"},"remote_data":{"url":"https://truyenx.link/truyensextv/channels/dit-me-ban-than"}},{"id":"294-channel","name":"1 năm thử thách","description":"Mình xin được vào thẳng câu chuyện luôn... Mình năm nay 29 tuổi. Ra trường cũng được 6 năm rồi. Chuyện bắt đầu từ khi đang học năm 3, có 1 cô bạn củng lớp tên Linh, chơi cũng...","image":null,"label":null,"display":"text-only","type":"text","enable_detail":true,"related":{"url":"https://truyenx.link/truyensextv/channels/related/294","request_headers":[]},"share":{"url":"https://truyenx.link/truyensextv/channels/share/1-nam-thu-thach"},"remote_data":{"url":"https://truyenx.link/truyensextv/channels/1-nam-thu-thach"}},{"id":"293-channel","name":"Địt vợ thằng bạn","description":"Thái và Dung đã cưới nhau được hơn 5 năm, đời sống tình cảm của 2 người đã nhạt phai khi sinh lý người chồng ngày càng yếu, không thỏa mãn được cô vợ 28 tuổi. Vì vậy...","image":null,"label":null,"display":"text-only","type":"text","enable_detail":true,"related":{"url":"https://truyenx.link/truyensextv/channels/related/293","request_headers":[]},"share":{"url":"https://truyenx.link/truyensextv/channels/share/dit-vo-thang-ban"},"remote_data":{"url":"https://truyenx.link/truyensextv/channels/dit-vo-thang-ban"}},{"id":"292-channel","name":"Phá trinh bạn thân","description":"Mình xin kể lại từ lúc đầu luôn. Mình và Vy học chung từ lớp 6 cho đến hết 12 nhưng đến lớp 7 thì mình và nhỏ mới bắt đầu thân nhau. Hồi lớp 6 thì mình học bán trú vì theo...","image":null,"label":null,"display":"text-only","type":"text","enable_detail":true,"related":{"url":"https://truyenx.link/truyensextv/channels/related/292","request_headers":[]},"share":{"url":"https://truyenx.link/truyensextv/channels/share/pha-trinh-ban-than"},"remote_data":{"url":"https://truyenx.link/truyensextv/channels/pha-trinh-ban-than"}},{"id":"291-channel","name":"Nụ cười tỏa nắng","description":"Reng... reng... reng... Chiếc đồng hồ báo thức kêu inh ỏi phá tan cái không khí tĩnh mịch của buổi sáng, đồng thời phá tan giấc ngủ của một thiên tài là tôi. Tôi...","image":null,"label":null,"display":"text-only","type":"text","enable_detail":true,"related":{"url":"https://truyenx.link/truyensextv/channels/related/291","request_headers":[]},"share":{"url":"https://truyenx.link/truyensextv/channels/share/nu-cuoi-toa-nang"},"remote_data":{"url":"https://truyenx.link/truyensextv/channels/nu-cuoi-toa-nang"}},{"id":"290-channel","name":"Gái hàng xóm","description":"Gần nhà mình có 2 chị em, cả 2 chị em đều khá béo, ưu điểm của 2 chị em nhà này là vú cực to, mông căng tròn, nhưng nhược điểm là bụng dư kha khá mỡ và mặt thì không được...","image":null,"label":null,"display":"text-only","type":"text","enable_detail":true,"related":{"url":"https://truyenx.link/truyensextv/channels/related/290","request_headers":[]},"share":{"url":"https://truyenx.link/truyensextv/channels/share/gai-hang-xom"},"remote_data":{"url":"https://truyenx.link/truyensextv/channels/gai-hang-xom"}},{"id":"289-channel","name":"Siêu cấp dâm phụ","description":"Trong phòng tắm hơi, vài cánh hoa hồng đỏ trôi lập lờ trên nước, mùi thơm lan tỏa bốn phía: A...ô... Hai chiếc đùi lớn trắng như tuyết banh ra rất rộng, chia ra gác ở hai bên bể...","image":null,"label":null,"display":"text-only","type":"text","enable_detail":true,"related":{"url":"https://truyenx.link/truyensextv/channels/related/289","request_headers":[]},"share":{"url":"https://truyenx.link/truyensextv/channels/share/sieu-cap-dam-phu"},"remote_data":{"url":"https://truyenx.link/truyensextv/channels/sieu-cap-dam-phu"}}],"load_more":{"pageInfo":{"current_page":130,"last_page":140,"per_page":30,"total":4188},"paging":{"page_key":"page","size_key":"size"},"remote_data":{"url":"https://truyenx.link/truyensextv/channels"}}}