{
  "grid_number": 1,
  "channels": [
    {
      "id": "2618-channel",
      "name": "Cave thời 4.0",
      "description": "Ngày hè đổ lửa của cái năm quan trọng nhất đời tôi. Gió thổi như đốt cháy da mặt ở một khu vực ngoại thành SG, tôi đang trên chiếc Exciter phóng như bay tới ngôi trường cấp 3...",
      "image": null,
      "label": null,
      "display": "text-only",
      "type": "text",
      "enable_detail": true,
      "related": {
        "url": "https://truyenx.link/truyensextv/channels/related/2618",
        "request_headers": []
      },
      "share": {
        "url": "https://truyenx.link/truyensextv/channels/share/cave-thoi-40"
      },
      "remote_data": {
        "url": "https://truyenx.link/truyensextv/channels/cave-thoi-40"
      }
    },
    {
      "id": "2617-channel",
      "name": "Người mẹ dâm loàn",
      "description": "Tôi là Hương năm nay 30 tuổi ở Hà Nội. Tôi có chồng và 1 con trai năm nay 8 tuổi. Chồng tôi do đặc thù công việc nên hay phải đi công tác ở nước ngoài. Nhà chỉ có 2 mẹ con nên...",
      "image": null,
      "label": null,
      "display": "text-only",
      "type": "text",
      "enable_detail": true,
      "related": {
        "url": "https://truyenx.link/truyensextv/channels/related/2617",
        "request_headers": []
      },
      "share": {
        "url": "https://truyenx.link/truyensextv/channels/share/nguoi-me-dam-loan"
      },
      "remote_data": {
        "url": "https://truyenx.link/truyensextv/channels/nguoi-me-dam-loan"
      }
    },
    {
      "id": "2616-channel",
      "name": "Chinh phục chị giáo viên",
      "description": "Khoảng 2 năm trước mình tốt nghiệp trường sư phạm và nhờ mối quan hệ mình xin được đi dạy học tại 1 trường cấp 3. Tuy vậy đây là trường cấp 3 ở trong xã cách nhà mình...",
      "image": null,
      "label": null,
      "display": "text-only",
      "type": "text",
      "enable_detail": true,
      "related": {
        "url": "https://truyenx.link/truyensextv/channels/related/2616",
        "request_headers": []
      },
      "share": {
        "url": "https://truyenx.link/truyensextv/channels/share/chinh-phuc-chi-giao-vien"
      },
      "remote_data": {
        "url": "https://truyenx.link/truyensextv/channels/chinh-phuc-chi-giao-vien"
      }
    },
    {
      "id": "2615-channel",
      "name": "Ký ức một thời dâm đãng",
      "description": "Trên đời này ai cũng có góc khuất thầm kín nào đó sống thì để dạ chết mang theo tôi là trường hợp không ngoại lệ. Đôi khi muốn thổ lộ với ai đó nhưng lại không có can...",
      "image": null,
      "label": null,
      "display": "text-only",
      "type": "text",
      "enable_detail": true,
      "related": {
        "url": "https://truyenx.link/truyensextv/channels/related/2615",
        "request_headers": []
      },
      "share": {
        "url": "https://truyenx.link/truyensextv/channels/share/ky-uc-mot-thoi-dam-dang"
      },
      "remote_data": {
        "url": "https://truyenx.link/truyensextv/channels/ky-uc-mot-thoi-dam-dang"
      }
    },
    {
      "id": "2614-channel",
      "name": "Em Hiền và ông chủ",
      "description": "Ngày đầu tiên đến làm cho tiệm bán quần áo, Hiền được ông chủ ra tiếp đón và chỉ dẫn. Hiền đoán chừng ông cũng không khó quá như các chủ tiệm nàng đã làm qua. Còn ông thì...",
      "image": null,
      "label": null,
      "display": "text-only",
      "type": "text",
      "enable_detail": true,
      "related": {
        "url": "https://truyenx.link/truyensextv/channels/related/2614",
        "request_headers": []
      },
      "share": {
        "url": "https://truyenx.link/truyensextv/channels/share/em-hien-va-ong-chu"
      },
      "remote_data": {
        "url": "https://truyenx.link/truyensextv/channels/em-hien-va-ong-chu"
      }
    },
    {
      "id": "2613-channel",
      "name": "Sếp của vợ",
      "description": "Linh là cô gái ngoan hiền lành, xinh đẹp. Cô luôn cảm thấy cực kỳ may mắn trong mọi hoàn cảnh. Cô sinh ra lớn lên mà hầu như không vấp lại sự khó khăn nào cả. Tất cả được cha...",
      "image": null,
      "label": null,
      "display": "text-only",
      "type": "text",
      "enable_detail": true,
      "related": {
        "url": "https://truyenx.link/truyensextv/channels/related/2613",
        "request_headers": []
      },
      "share": {
        "url": "https://truyenx.link/truyensextv/channels/share/sep-cua-vo"
      },
      "remote_data": {
        "url": "https://truyenx.link/truyensextv/channels/sep-cua-vo"
      }
    },
    {
      "id": "2612-channel",
      "name": "Vua giáp vàng",
      "description": "Khởi đầu Tại tầng trời thứ năm Dục giới có tên gọi là Hóa Lạc Thiên có lâu đài của vị Thiên Tử tên Tịnh Quang và vợ là Thiên Nữ tên Vô Ưu... Vị Thiên Tử đã trở về...",
      "image": null,
      "label": null,
      "display": "text-only",
      "type": "text",
      "enable_detail": true,
      "related": {
        "url": "https://truyenx.link/truyensextv/channels/related/2612",
        "request_headers": []
      },
      "share": {
        "url": "https://truyenx.link/truyensextv/channels/share/vua-giap-vang"
      },
      "remote_data": {
        "url": "https://truyenx.link/truyensextv/channels/vua-giap-vang"
      }
    },
    {
      "id": "2611-channel",
      "name": "Cô vợ song tính",
      "description": "Chào mấy bạn, mấy bạn có bao giờ biết cảm giác của 1 người chồng mà lấy 1 cô vợ là bisexual chưa, vợ mình là người trong giới LGBT mà đến khi kết hôn rồi mình mới biết...",
      "image": null,
      "label": null,
      "display": "text-only",
      "type": "text",
      "enable_detail": true,
      "related": {
        "url": "https://truyenx.link/truyensextv/channels/related/2611",
        "request_headers": []
      },
      "share": {
        "url": "https://truyenx.link/truyensextv/channels/share/co-vo-song-tinh"
      },
      "remote_data": {
        "url": "https://truyenx.link/truyensextv/channels/co-vo-song-tinh"
      }
    },
    {
      "id": "2610-channel",
      "name": "Để được yêu thương tôi nguyện làm nô lệ",
      "description": "Tôi tên Mẫn Chi sinh ra trong gia đình trọng nam khinh nữ, đặc biệt là bố tôi, ông ấy như kẻ cuồng tín tin vào điều đó, ông ấy càng kỳ thị tôi hơn khi mẹ qua đời lúc sinh ra em...",
      "image": null,
      "label": null,
      "display": "text-only",
      "type": "text",
      "enable_detail": true,
      "related": {
        "url": "https://truyenx.link/truyensextv/channels/related/2610",
        "request_headers": []
      },
      "share": {
        "url": "https://truyenx.link/truyensextv/channels/share/de-duoc-yeu-thuong-toi-nguyen-lam-no-le"
      },
      "remote_data": {
        "url": "https://truyenx.link/truyensextv/channels/de-duoc-yeu-thuong-toi-nguyen-lam-no-le"
      }
    },
    {
      "id": "2609-channel",
      "name": "Chinh phục gái đẹp - Chương 8",
      "description": "Uông Minh Kha chỉ là một bác sĩ, cho nên đối với hội những cái được gọi là giao tiếp trong xã hội, so với Đinh Trường Sinh thì kém xa, cho nên Uông Minh Kha cũng chỉ là dẫn theo...",
      "image": null,
      "label": null,
      "display": "text-only",
      "type": "text",
      "enable_detail": true,
      "related": {
        "url": "https://truyenx.link/truyensextv/channels/related/2609",
        "request_headers": []
      },
      "share": {
        "url": "https://truyenx.link/truyensextv/channels/share/chinh-phuc-gai-dep-chuong-8"
      },
      "remote_data": {
        "url": "https://truyenx.link/truyensextv/channels/chinh-phuc-gai-dep-chuong-8"
      }
    },
    {
      "id": "2608-channel",
      "name": "Em gái ở chung nhà",
      "description": "Chuyện xảy ra cách nay cũng gần 8 năm rồi. Khi đó mình chỉ là một thằng học sinh lớp 10. Vì để tiện cho việc học mà ba mẹ mình đã mua một căn nhà gần trường vào năm mình lớp...",
      "image": null,
      "label": null,
      "display": "text-only",
      "type": "text",
      "enable_detail": true,
      "related": {
        "url": "https://truyenx.link/truyensextv/channels/related/2608",
        "request_headers": []
      },
      "share": {
        "url": "https://truyenx.link/truyensextv/channels/share/em-gai-o-chung-nha"
      },
      "remote_data": {
        "url": "https://truyenx.link/truyensextv/channels/em-gai-o-chung-nha"
      }
    },
    {
      "id": "2607-channel",
      "name": "Cô giáo Thảo dâm đãng",
      "description": "Lớp 12 và tuổi 18 là một trong những cột mốc đáng nhớ nhất của đời người, là năm học kết thúc đời học sinh, là lứa tuổi đánh dấu thời khắc trưởng thành, là lứa tuổi...",
      "image": null,
      "label": null,
      "display": "text-only",
      "type": "text",
      "enable_detail": true,
      "related": {
        "url": "https://truyenx.link/truyensextv/channels/related/2607",
        "request_headers": []
      },
      "share": {
        "url": "https://truyenx.link/truyensextv/channels/share/co-giao-thao-dam-dang"
      },
      "remote_data": {
        "url": "https://truyenx.link/truyensextv/channels/co-giao-thao-dam-dang"
      }
    },
    {
      "id": "2606-channel",
      "name": "Hương nồng trong gió",
      "description": "Mỹ Hạnh đi đi lại lại trong phòng làm việc mặt tỏ vẻ bồn chồn lo lắng không yên, thỉnh thoảng ngó qua cửa sổ, bên ngoài trời đang mưa lớn, từng cơn gió lạnh thổi xào xạc...",
      "image": null,
      "label": null,
      "display": "text-only",
      "type": "text",
      "enable_detail": true,
      "related": {
        "url": "https://truyenx.link/truyensextv/channels/related/2606",
        "request_headers": []
      },
      "share": {
        "url": "https://truyenx.link/truyensextv/channels/share/huong-nong-trong-gio"
      },
      "remote_data": {
        "url": "https://truyenx.link/truyensextv/channels/huong-nong-trong-gio"
      }
    },
    {
      "id": "2605-channel",
      "name": "Người con gái ấy - Quyển 2",
      "description": "Đã ba ngày trôi qua từ lúc em bước lên máy bay, mang theo nửa trái tim của tôi đi mất luôn. Uể oải ngồi dậy sau một đêm thức gần trắng, điếu Marlboro vừa được châm lửa thả...",
      "image": null,
      "label": null,
      "display": "text-only",
      "type": "text",
      "enable_detail": true,
      "related": {
        "url": "https://truyenx.link/truyensextv/channels/related/2605",
        "request_headers": []
      },
      "share": {
        "url": "https://truyenx.link/truyensextv/channels/share/nguoi-con-gai-ay-quyen-2"
      },
      "remote_data": {
        "url": "https://truyenx.link/truyensextv/channels/nguoi-con-gai-ay-quyen-2"
      }
    },
    {
      "id": "2604-channel",
      "name": "Nữ du học sinh",
      "description": "Đời sinh viên, hay nói hơn là những sinh viên xa nhà, mỗi người mỗi cảnh lại xa nhà nên nhìn chung thì đời sống thường có những kiểu sau đây: Một là những con mọt, chỉ lo ăn...",
      "image": null,
      "label": null,
      "display": "text-only",
      "type": "text",
      "enable_detail": true,
      "related": {
        "url": "https://truyenx.link/truyensextv/channels/related/2604",
        "request_headers": []
      },
      "share": {
        "url": "https://truyenx.link/truyensextv/channels/share/nu-du-hoc-sinh"
      },
      "remote_data": {
        "url": "https://truyenx.link/truyensextv/channels/nu-du-hoc-sinh"
      }
    },
    {
      "id": "2603-channel",
      "name": "Người con gái tên Nhi",
      "description": "Người Con Gái Ở Vùng Quê Nghèo Con gà hàng xóm bay đậu chễm chệ trên cái hàng rào bằng cây trúc, nó lắc mạnh cái thân mình to tướng và đập mạnh cái đôi cánh cũng to không kém...",
      "image": null,
      "label": null,
      "display": "text-only",
      "type": "text",
      "enable_detail": true,
      "related": {
        "url": "https://truyenx.link/truyensextv/channels/related/2603",
        "request_headers": []
      },
      "share": {
        "url": "https://truyenx.link/truyensextv/channels/share/nguoi-con-gai-ten-nhi"
      },
      "remote_data": {
        "url": "https://truyenx.link/truyensextv/channels/nguoi-con-gai-ten-nhi"
      }
    },
    {
      "id": "2602-channel",
      "name": "Kỳ nghỉ khoái lạc",
      "description": "Câu chuyện kể về nhân vật chính là Phong 16 tuổi sống ở Hải Phòng. Gia đình có bố làm thủy thủ đi biển quanh năm và người mẹ ở nhà chăm sóc cho cậu ăn học. Cậu có 3 người...",
      "image": null,
      "label": null,
      "display": "text-only",
      "type": "text",
      "enable_detail": true,
      "related": {
        "url": "https://truyenx.link/truyensextv/channels/related/2602",
        "request_headers": []
      },
      "share": {
        "url": "https://truyenx.link/truyensextv/channels/share/ky-nghi-khoai-lac"
      },
      "remote_data": {
        "url": "https://truyenx.link/truyensextv/channels/ky-nghi-khoai-lac"
      }
    },
    {
      "id": "2601-channel",
      "name": "Truyện loli",
      "description": "Lưu ý: 1. Truyện chỉ dành cho đọc giả 18+. Truyện này là sản phẩm HƯ CẤU 100%, không dựa trên bất kỳ sự kiện hoặc con người nào có thật, nên hiển nhiên cũng không có ai...",
      "image": null,
      "label": null,
      "display": "text-only",
      "type": "text",
      "enable_detail": true,
      "related": {
        "url": "https://truyenx.link/truyensextv/channels/related/2601",
        "request_headers": []
      },
      "share": {
        "url": "https://truyenx.link/truyensextv/channels/share/truyen-loli"
      },
      "remote_data": {
        "url": "https://truyenx.link/truyensextv/channels/truyen-loli"
      }
    },
    {
      "id": "2600-channel",
      "name": "Yêu bằng mắt",
      "description": "Buổi sáng sớm Trong phòng ngủ của ứng cử viên đời thứ tư băng Diều Hâu vang lên tiếng thở nhọc của đôi trai gái trần trụi trong vũ điệu giao hoan... Trên giường nữ nhân lúc...",
      "image": null,
      "label": null,
      "display": "text-only",
      "type": "text",
      "enable_detail": true,
      "related": {
        "url": "https://truyenx.link/truyensextv/channels/related/2600",
        "request_headers": []
      },
      "share": {
        "url": "https://truyenx.link/truyensextv/channels/share/yeu-bang-mat"
      },
      "remote_data": {
        "url": "https://truyenx.link/truyensextv/channels/yeu-bang-mat"
      }
    },
    {
      "id": "2599-channel",
      "name": "Bạn thân",
      "description": "T chán quá mới chia tay bạn thân m xong... T có mua bia này ra công viên ngồi tâm sự... Ok chở t đi... Tôi và nhỏ bạn thân của người yêu đi ra công viên của khu dân cư ngồi tâm sự và...",
      "image": null,
      "label": null,
      "display": "text-only",
      "type": "text",
      "enable_detail": true,
      "related": {
        "url": "https://truyenx.link/truyensextv/channels/related/2599",
        "request_headers": []
      },
      "share": {
        "url": "https://truyenx.link/truyensextv/channels/share/ban-than"
      },
      "remote_data": {
        "url": "https://truyenx.link/truyensextv/channels/ban-than"
      }
    },
    {
      "id": "2598-channel",
      "name": "Ngụy",
      "description": "Tôi là Ngụy, 18 tuổi. Ở tuổi 18 tôi may mắn có một cơ thể gần như hoàn hảo. Gương mặt xinh đẹp, 3 vòng cong chữ s. Ở trường tôi là một hoa khôi được mọi người yêu mến...",
      "image": null,
      "label": null,
      "display": "text-only",
      "type": "text",
      "enable_detail": true,
      "related": {
        "url": "https://truyenx.link/truyensextv/channels/related/2598",
        "request_headers": []
      },
      "share": {
        "url": "https://truyenx.link/truyensextv/channels/share/nguy"
      },
      "remote_data": {
        "url": "https://truyenx.link/truyensextv/channels/nguy"
      }
    },
    {
      "id": "2597-channel",
      "name": "Mượn vợ",
      "description": "Tôi là người sống hướng nội, mãi gần ba mươi tuổi mới kiếm được vợ. Vợ tôi là Linh là một cô gái vốn xuất thân ở quê lên thành phố làm việc. Tôi được gia đình giới...",
      "image": null,
      "label": null,
      "display": "text-only",
      "type": "text",
      "enable_detail": true,
      "related": {
        "url": "https://truyenx.link/truyensextv/channels/related/2597",
        "request_headers": []
      },
      "share": {
        "url": "https://truyenx.link/truyensextv/channels/share/muon-vo"
      },
      "remote_data": {
        "url": "https://truyenx.link/truyensextv/channels/muon-vo"
      }
    },
    {
      "id": "2596-channel",
      "name": "Thầy giáo biến thái",
      "description": "Sau đây là lời tự sự của tôi của một ông giáo về hưu. Đây là nhưng mảnh ký ức khá tồi tệ mà tôi nhớ lại hồi còn gõ đầu trẻ. Tôi là giáo viên dạy của trường, nhưng nhu...",
      "image": null,
      "label": null,
      "display": "text-only",
      "type": "text",
      "enable_detail": true,
      "related": {
        "url": "https://truyenx.link/truyensextv/channels/related/2596",
        "request_headers": []
      },
      "share": {
        "url": "https://truyenx.link/truyensextv/channels/share/thay-giao-bien-thai"
      },
      "remote_data": {
        "url": "https://truyenx.link/truyensextv/channels/thay-giao-bien-thai"
      }
    },
    {
      "id": "2595-channel",
      "name": "Đi sinh nhật bạn",
      "description": "Em đi nhé! Anh ở nhà chú ý ăn cơm cẩn thận nha! Vợ nhìn tôi nói... Ừ em đi nhớ về sớm nha! Tôi cười cười. Tôi nhìn theo Linh mà ngắm. Vợ tôi là người cực kỳ xinh đẹp. Phải...",
      "image": null,
      "label": null,
      "display": "text-only",
      "type": "text",
      "enable_detail": true,
      "related": {
        "url": "https://truyenx.link/truyensextv/channels/related/2595",
        "request_headers": []
      },
      "share": {
        "url": "https://truyenx.link/truyensextv/channels/share/di-sinh-nhat-ban"
      },
      "remote_data": {
        "url": "https://truyenx.link/truyensextv/channels/di-sinh-nhat-ban"
      }
    },
    {
      "id": "2594-channel",
      "name": "Dì Út Thuận",
      "description": "Cưới vợ hơn một vài tháng Tuấn thấy vợ mình hình như không thích lắm chuyện gối chăn. Có nghĩa làm cho có. Tuấn từ Mỹ về Việt Nam quen Minh Thu qua sự giới thiệu của Dì Thuận...",
      "image": null,
      "label": null,
      "display": "text-only",
      "type": "text",
      "enable_detail": true,
      "related": {
        "url": "https://truyenx.link/truyensextv/channels/related/2594",
        "request_headers": []
      },
      "share": {
        "url": "https://truyenx.link/truyensextv/channels/share/di-ut-thuan"
      },
      "remote_data": {
        "url": "https://truyenx.link/truyensextv/channels/di-ut-thuan"
      }
    },
    {
      "id": "2593-channel",
      "name": "Hai gia đình",
      "description": "Ông bà Trần bình tuổi dưới 50 nhưng họ rất đẹp đôi tươi trẻ mát mẻ yêu đời. Ông bà tướng tá vẫn ngon lành, nhất là bà, thân hình vẫn còn bốc lửa. Ở cái tuổi sồn sồn...",
      "image": null,
      "label": null,
      "display": "text-only",
      "type": "text",
      "enable_detail": true,
      "related": {
        "url": "https://truyenx.link/truyensextv/channels/related/2593",
        "request_headers": []
      },
      "share": {
        "url": "https://truyenx.link/truyensextv/channels/share/hai-gia-dinh"
      },
      "remote_data": {
        "url": "https://truyenx.link/truyensextv/channels/hai-gia-dinh"
      }
    },
    {
      "id": "2592-channel",
      "name": "Chị Loan hàng xóm",
      "description": "Chị Loan hơn tôi 6 năm tuổi. Dĩ nhiên chị trưởng thành. Con gái bằng tuổi đã là lớn hơn, chứ còn khoảng cách 6 năm thì khỏi nói. Sở dĩ tôi dài dòng là vì tôi với chị có nhiều...",
      "image": null,
      "label": null,
      "display": "text-only",
      "type": "text",
      "enable_detail": true,
      "related": {
        "url": "https://truyenx.link/truyensextv/channels/related/2592",
        "request_headers": []
      },
      "share": {
        "url": "https://truyenx.link/truyensextv/channels/share/chi-loan-hang-xom"
      },
      "remote_data": {
        "url": "https://truyenx.link/truyensextv/channels/chi-loan-hang-xom"
      }
    },
    {
      "id": "2591-channel",
      "name": "Hành Tiêu Tỏi Ớt",
      "description": "Đứa Con Hư Hỏng Vừa đi học về là thằng Tỏi nhảy tót lại bàn máy tính rồi bấm nút nguồn để bật máy lên. Hôm nay là thứ bảy cuối tuần nên nó chỉ học buổi sáng mà không...",
      "image": null,
      "label": null,
      "display": "text-only",
      "type": "text",
      "enable_detail": true,
      "related": {
        "url": "https://truyenx.link/truyensextv/channels/related/2591",
        "request_headers": []
      },
      "share": {
        "url": "https://truyenx.link/truyensextv/channels/share/hanh-tieu-toi-ot"
      },
      "remote_data": {
        "url": "https://truyenx.link/truyensextv/channels/hanh-tieu-toi-ot"
      }
    },
    {
      "id": "2000-channel",
      "name": "Yêu chị đồng nghiệp",
      "description": "Mình tự giới thiệu mình là H sinh năm 92 hiện làm cho công ty ở khu công nghiệp mình có vợ và 2 con rồi. Chuyện mình kể sau là câu chuyện có thật xảy ra vào đầu năm 2020 khoảng...",
      "image": null,
      "label": null,
      "display": "text-only",
      "type": "text",
      "enable_detail": true,
      "related": {
        "url": "https://truyenx.link/truyensextv/channels/related/2000",
        "request_headers": []
      },
      "share": {
        "url": "https://truyenx.link/truyensextv/channels/share/yeu-chi-dong-nghiep"
      },
      "remote_data": {
        "url": "https://truyenx.link/truyensextv/channels/yeu-chi-dong-nghiep"
      }
    },
    {
      "id": "1999-channel",
      "name": "Dạy gái trinh làm tình",
      "description": "Tôi là một bác sĩ trẻ vừa mới tốt nghiệp được một năm, ra trường tôi xin về được làm ở bệnh viện huyện ở quê, sau hơn một năm thì từ một xử nam, tôi đã trở thành...",
      "image": null,
      "label": null,
      "display": "text-only",
      "type": "text",
      "enable_detail": true,
      "related": {
        "url": "https://truyenx.link/truyensextv/channels/related/1999",
        "request_headers": []
      },
      "share": {
        "url": "https://truyenx.link/truyensextv/channels/share/day-gai-trinh-lam-tinh"
      },
      "remote_data": {
        "url": "https://truyenx.link/truyensextv/channels/day-gai-trinh-lam-tinh"
      }
    }
  ],
  "load_more": {
    "pageInfo": {
      "current_page": 73,
      "last_page": 140,
      "per_page": 30,
      "total": 4188
    },
    "paging": {
      "page_key": "page",
      "size_key": "size"
    },
    "remote_data": {
      "url": "https://truyenx.link/truyensextv/channels"
    }
  }
}