{"grid_number":1,"channels":[{"id":"3609-channel","name":"Bị thầy phá trinh","description":"Cái tin cô Loan hoa hậu văn khoa của trường sẽ lấy thầy Quỳnh làm tất cả bạn bè cùng khóa Loan đều sửng sốt. Những cậu sinh viên choai choai hàng ngày vẫn thường theo đuổi, tán...","image":null,"label":null,"display":"text-only","type":"text","enable_detail":true,"related":{"url":"https://truyenx.link/truyensextv/channels/related/3609","request_headers":[]},"share":{"url":"https://truyenx.link/truyensextv/channels/share/bi-thay-pha-trinh"},"remote_data":{"url":"https://truyenx.link/truyensextv/channels/bi-thay-pha-trinh"}},{"id":"3610-channel","name":"Hạnh phúc mong manh","description":"Năm Hằng được 10 tuổi thì má của nàng chẳng may qua đời sau một tai nạn xe hơi, ba nàng đi thêm bước nữa. Dì Linh đối xử với nàng và Thảo , hình như là dì có ông anh Việt...","image":null,"label":null,"display":"text-only","type":"text","enable_detail":true,"related":{"url":"https://truyenx.link/truyensextv/channels/related/3610","request_headers":[]},"share":{"url":"https://truyenx.link/truyensextv/channels/share/hanh-phuc-mong-manh"},"remote_data":{"url":"https://truyenx.link/truyensextv/channels/hanh-phuc-mong-manh"}},{"id":"3608-channel","name":"Học trò đào hoa","description":"Tuấn là một nam sinh đẹp trai, khỏe mạnh và lanh lợi. Tuy mới 16 tuổi nhưng Tuấn có rất nhiều kinh nghiệm ái ân và tình dục, biết cách thỏa mãn những ham muốn của phái nữ. Các...","image":null,"label":null,"display":"text-only","type":"text","enable_detail":true,"related":{"url":"https://truyenx.link/truyensextv/channels/related/3608","request_headers":[]},"share":{"url":"https://truyenx.link/truyensextv/channels/share/hoc-tro-dao-hoa"},"remote_data":{"url":"https://truyenx.link/truyensextv/channels/hoc-tro-dao-hoa"}},{"id":"3607-channel","name":"Em gái tôi","description":"Tôi có một đứa em gái năm nay đã 15 cái mùa xuân chín rồi. Tôi thì hơn nó hai năm tức là 17 tuổi. Mà con mẹ nó gen kiểu gì em gái tôi vừa xinh xắn vừa đầy đặn còn tôi thì...","image":null,"label":null,"display":"text-only","type":"text","enable_detail":true,"related":{"url":"https://truyenx.link/truyensextv/channels/related/3607","request_headers":[]},"share":{"url":"https://truyenx.link/truyensextv/channels/share/em-gai-toi"},"remote_data":{"url":"https://truyenx.link/truyensextv/channels/em-gai-toi"}},{"id":"3606-channel","name":"Hàn Băng Chưởng","description":"Tiếng hò réo vang dậy cả một vùng đồi núi Ngọa Long Sơn. Bên dí theo đuổi ước lượng có tới 20 người, tất cả họ đều là nữ lang vận toàn bạch y. Cả đám 20 người này đang...","image":null,"label":null,"display":"text-only","type":"text","enable_detail":true,"related":{"url":"https://truyenx.link/truyensextv/channels/related/3606","request_headers":[]},"share":{"url":"https://truyenx.link/truyensextv/channels/share/han-bang-chuong"},"remote_data":{"url":"https://truyenx.link/truyensextv/channels/han-bang-chuong"}},{"id":"3605-channel","name":"Dục vọng","description":"Cạch! Dũng gấp laptop lại thở dài sau một ngày làm việc đầy ức chế. Năm nay 28 tuổi, tốt nghiệp đại học xây dựng loại giỏi sau đó xin vào làm ở một công ty bất động sản...","image":null,"label":null,"display":"text-only","type":"text","enable_detail":true,"related":{"url":"https://truyenx.link/truyensextv/channels/related/3605","request_headers":[]},"share":{"url":"https://truyenx.link/truyensextv/channels/share/duc-vong"},"remote_data":{"url":"https://truyenx.link/truyensextv/channels/duc-vong"}},{"id":"3604-channel","name":"Hai chị em tuyệt vời","description":"“Anh không đi với tụi em à?” Thanh hỏi chồng. “Không, anh ở nhà chơi với bé Ti.” Trung vừa trả lời vừa đưa cằm cọ vào tay thằng bé. “Vậy thì tụi em đi...","image":null,"label":null,"display":"text-only","type":"text","enable_detail":true,"related":{"url":"https://truyenx.link/truyensextv/channels/related/3604","request_headers":[]},"share":{"url":"https://truyenx.link/truyensextv/channels/share/hai-chi-em-tuyet-voi"},"remote_data":{"url":"https://truyenx.link/truyensextv/channels/hai-chi-em-tuyet-voi"}},{"id":"3603-channel","name":"Chị dâu dâm","description":"Là con trai thật tuyệt. Hơn nữa lại là con út. Tôi lớn lên trong một gia đình khá giả. Bố là trưởng phòng kế toán của một doanh nghiệp lớn, mẹ là bác sĩ của một bệnh viện...","image":null,"label":null,"display":"text-only","type":"text","enable_detail":true,"related":{"url":"https://truyenx.link/truyensextv/channels/related/3603","request_headers":[]},"share":{"url":"https://truyenx.link/truyensextv/channels/share/chi-dau-dam"},"remote_data":{"url":"https://truyenx.link/truyensextv/channels/chi-dau-dam"}},{"id":"3602-channel","name":"Geisha, tôi yêu em","description":"Tôi ôm vợ tôi một lần nữa và vẫy tay hai đứa con gái để bước vào cổng phi trường Los Angeles. Chuyến làm ăn này đối với tôi và gia đình của tôi rất quan trọng. Vì chức vụ...","image":null,"label":null,"display":"text-only","type":"text","enable_detail":true,"related":{"url":"https://truyenx.link/truyensextv/channels/related/3602","request_headers":[]},"share":{"url":"https://truyenx.link/truyensextv/channels/share/geisha-toi-yeu-em"},"remote_data":{"url":"https://truyenx.link/truyensextv/channels/geisha-toi-yeu-em"}},{"id":"3601-channel","name":"Cậu Hai dâm dục","description":"Ngày xửa ngày xưa... Xưa xưa lắm rồi... Nghe đồn ở thôn Kim Giang, xã Đại Cường có phú ông Phạm Kim giàu nứt đố đổ vách, vàng bạc chất đống, đất đai bành trướng. Thôn...","image":null,"label":null,"display":"text-only","type":"text","enable_detail":true,"related":{"url":"https://truyenx.link/truyensextv/channels/related/3601","request_headers":[]},"share":{"url":"https://truyenx.link/truyensextv/channels/share/cau-hai-dam-duc"},"remote_data":{"url":"https://truyenx.link/truyensextv/channels/cau-hai-dam-duc"}},{"id":"3600-channel","name":"Đêm trung thu","description":"Tôi hẹn em vào một đêm Trung Thu. Gió lạnh luồn vào áo làm tôi cảm thấy trống trải. Tôi đưa điếu thuốc lá lên miệng, kéo một hơi dài rồi nhìn về phía cuối xóm. Con nít nhỏ...","image":null,"label":null,"display":"text-only","type":"text","enable_detail":true,"related":{"url":"https://truyenx.link/truyensextv/channels/related/3600","request_headers":[]},"share":{"url":"https://truyenx.link/truyensextv/channels/share/dem-trung-thu"},"remote_data":{"url":"https://truyenx.link/truyensextv/channels/dem-trung-thu"}},{"id":"3599-channel","name":"Dì Nguyệt","description":"Năm 19... dư luận dân Việt vùng Seattle xôn xao, về vụ một cô thâu ngân cho phòng trà Đèn Hồng bị người tình cũ bắn chết. Nhiều người nhận dạng được hung thủ, nhưng cho tới...","image":null,"label":null,"display":"text-only","type":"text","enable_detail":true,"related":{"url":"https://truyenx.link/truyensextv/channels/related/3599","request_headers":[]},"share":{"url":"https://truyenx.link/truyensextv/channels/share/di-nguyet"},"remote_data":{"url":"https://truyenx.link/truyensextv/channels/di-nguyet"}},{"id":"3598-channel","name":"Tấm Cám","description":"Ngày xưa, ở một ngôi làng nọ có một cô gái tên là Tấm. Nàng là con trong một gia đình nông dân nghèo, tuy vậy vẫn lớn lên với một cuộc sống hạnh phúc. Do nghèo, nên nhà Tấm...","image":null,"label":null,"display":"text-only","type":"text","enable_detail":true,"related":{"url":"https://truyenx.link/truyensextv/channels/related/3598","request_headers":[]},"share":{"url":"https://truyenx.link/truyensextv/channels/share/tam-cam"},"remote_data":{"url":"https://truyenx.link/truyensextv/channels/tam-cam"}},{"id":"3597-channel","name":"Đêm trong căn nhà ga","description":"Mưa, vẫn mưa. Những cơn mưa tầm tã trút xuống đường ngập cả lối đi. Ở một góc sân ga, con Lượm nằm co ro trong cái bao bố cũ mèm, rách nát. Nó thút thít khóc. Ngồi cạnh nó là...","image":null,"label":null,"display":"text-only","type":"text","enable_detail":true,"related":{"url":"https://truyenx.link/truyensextv/channels/related/3597","request_headers":[]},"share":{"url":"https://truyenx.link/truyensextv/channels/share/dem-trong-can-nha-ga"},"remote_data":{"url":"https://truyenx.link/truyensextv/channels/dem-trong-can-nha-ga"}},{"id":"3596-channel","name":"Đại ca Hai Lùn","description":"“Đại Ca, xin tha cho em, em sẽ lập công trở lại. Đại Ca... Đại Ca... xin tha cho em lần này, Đại Ca...” Tư Hổ quỳ rạp xuống đất. Sự sợ hãi của hắn hiện trên khuôn...","image":null,"label":null,"display":"text-only","type":"text","enable_detail":true,"related":{"url":"https://truyenx.link/truyensextv/channels/related/3596","request_headers":[]},"share":{"url":"https://truyenx.link/truyensextv/channels/share/dai-ca-hai-lun"},"remote_data":{"url":"https://truyenx.link/truyensextv/channels/dai-ca-hai-lun"}},{"id":"3594-channel","name":"Cu Lớn","description":"Thu nhìn thằng Cu Lớn năm nay mới 16 tuổi nằm ngủ co ro trên tấm phản kê góc nhà, nó ở trần trùng trục mặc mỗi cái quần xà lỏn dù trời khá lạnh khiến nàng cảm thấy thương...","image":null,"label":null,"display":"text-only","type":"text","enable_detail":true,"related":{"url":"https://truyenx.link/truyensextv/channels/related/3594","request_headers":[]},"share":{"url":"https://truyenx.link/truyensextv/channels/share/cu-lon"},"remote_data":{"url":"https://truyenx.link/truyensextv/channels/cu-lon"}},{"id":"3595-channel","name":"Chuyện đời cô ca sĩ","description":"Những ánh đèn sân khấu sáng lóa hắt từ bốn phía làm nổi bật người con gái đứng giữa sân khấu, những hạt cườm long lanh muôn màu đính trên váy phản chiếu lại thứ ánh sáng...","image":null,"label":null,"display":"text-only","type":"text","enable_detail":true,"related":{"url":"https://truyenx.link/truyensextv/channels/related/3595","request_headers":[]},"share":{"url":"https://truyenx.link/truyensextv/channels/share/chuyen-doi-co-ca-si"},"remote_data":{"url":"https://truyenx.link/truyensextv/channels/chuyen-doi-co-ca-si"}},{"id":"3592-channel","name":"Lấy tình đổi điểm","description":"Mỹ Hoa là một học sinh cấp 3 lớp 11 cô là một cô gái xinh đẹp nhỏ nhắn, vòng một nhỏ không to nhưng. Nhưng trình độ học vấn của cô thì ngược lại hoàn toàn dở tệ môn cô...","image":null,"label":null,"display":"text-only","type":"text","enable_detail":true,"related":{"url":"https://truyenx.link/truyensextv/channels/related/3592","request_headers":[]},"share":{"url":"https://truyenx.link/truyensextv/channels/share/lay-tinh-doi-diem"},"remote_data":{"url":"https://truyenx.link/truyensextv/channels/lay-tinh-doi-diem"}},{"id":"3593-channel","name":"Yêu em Hân đã có chồng","description":"Tôi tên không năm nay 36 tuổi. Nay tôi kể câu chuyện thật của tôi về một em xinh gái quê thanh hóa lấy chồng vĩnh Phúc và hiện làm công nhân của 1 công ty điện tử tại KCN Mỹ Hào...","image":null,"label":null,"display":"text-only","type":"text","enable_detail":true,"related":{"url":"https://truyenx.link/truyensextv/channels/related/3593","request_headers":[]},"share":{"url":"https://truyenx.link/truyensextv/channels/share/yeu-em-han-da-co-chong"},"remote_data":{"url":"https://truyenx.link/truyensextv/channels/yeu-em-han-da-co-chong"}},{"id":"3591-channel","name":"Mây mưa cùng 2 chị em họ","description":"Chuyện là cách đây 3 năm tôi có yêu 1 em kia, vừa học xong cấp 3, tôi quen qua fb, thấy em có vẻ cũng xinh mà mông to nên tôi bị mê cái mông của ẻm. Tôi thì cũng có chút sự nghiệp...","image":null,"label":null,"display":"text-only","type":"text","enable_detail":true,"related":{"url":"https://truyenx.link/truyensextv/channels/related/3591","request_headers":[]},"share":{"url":"https://truyenx.link/truyensextv/channels/share/may-mua-cung-2-chi-em-ho"},"remote_data":{"url":"https://truyenx.link/truyensextv/channels/may-mua-cung-2-chi-em-ho"}},{"id":"3590-channel","name":"Con gái của ba","description":"Truyện bắt đầu vào năm tôi 12 tuổi. Mẹ và ba tôi đã không gần nhau gần 2 năm. Có những lần tôi để ý về ánh mắt mà ba tôi đã nhìn tôi, sự khó chịu làm tôi có cảm giác không...","image":null,"label":null,"display":"text-only","type":"text","enable_detail":true,"related":{"url":"https://truyenx.link/truyensextv/channels/related/3590","request_headers":[]},"share":{"url":"https://truyenx.link/truyensextv/channels/share/con-gai-cua-ba"},"remote_data":{"url":"https://truyenx.link/truyensextv/channels/con-gai-cua-ba"}},{"id":"3589-channel","name":"Phải lòng gái hư","description":"Từ một nụ cười lạnh lùng và rồi từng câu yêu thương mông lung dù trao môi hôn nhưng tim em không rung hay là vì tình yêu hai ta không chung... Giai điệu bài nhạc chờ khi mình đang gọi...","image":null,"label":null,"display":"text-only","type":"text","enable_detail":true,"related":{"url":"https://truyenx.link/truyensextv/channels/related/3589","request_headers":[]},"share":{"url":"https://truyenx.link/truyensextv/channels/share/phai-long-gai-hu"},"remote_data":{"url":"https://truyenx.link/truyensextv/channels/phai-long-gai-hu"}},{"id":"3588-channel","name":"Con Thảo mập","description":"“Con Thảo mập kìa, tụi bây!” Rồi cả đám con gái cười lên hô hố. Con Thảo cúi mặt và lệ kệ bưng cái rổ cải qua đám con gái đang ngồi tụ với nhau ở đầu xóm. Thảo...","image":null,"label":null,"display":"text-only","type":"text","enable_detail":true,"related":{"url":"https://truyenx.link/truyensextv/channels/related/3588","request_headers":[]},"share":{"url":"https://truyenx.link/truyensextv/channels/share/con-thao-map"},"remote_data":{"url":"https://truyenx.link/truyensextv/channels/con-thao-map"}},{"id":"3587-channel","name":"Cô giáo Kiều Xuân","description":"Trường Phổ Thông Trung Học Nguyễn Hữu Huân... Giờ học Anh văn tối nay nặng nề trôi qua dưới những tiếng mưa lộp bộp đổ xuống mái ngói của trường... Mặc kệ những lời cô...","image":null,"label":null,"display":"text-only","type":"text","enable_detail":true,"related":{"url":"https://truyenx.link/truyensextv/channels/related/3587","request_headers":[]},"share":{"url":"https://truyenx.link/truyensextv/channels/share/co-giao-kieu-xuan"},"remote_data":{"url":"https://truyenx.link/truyensextv/channels/co-giao-kieu-xuan"}},{"id":"3586-channel","name":"Bướm chùa","description":"Lộp bộp, lộp bộp. Những giọt nước mưa nặng trĩu va vào cửa kính tạo lên những âm thanh ồn ào như vậy. Ngả người ra cái ghế xoay, gác chân lên một cạnh bàn rồi tôi ngậm cái...","image":null,"label":null,"display":"text-only","type":"text","enable_detail":true,"related":{"url":"https://truyenx.link/truyensextv/channels/related/3586","request_headers":[]},"share":{"url":"https://truyenx.link/truyensextv/channels/share/buom-chua"},"remote_data":{"url":"https://truyenx.link/truyensextv/channels/buom-chua"}},{"id":"3584-channel","name":"Cô em gái","description":"Liên ngồi nhìn Hùng, người anh trai mình đang ngồi xem TV trong phòng khách. Hùng ngồi uống bia cho qua cơn buồn vì Hùng vừa mất bạn gái. Hùng vẫn không để ý đến những giọt bia đang...","image":null,"label":null,"display":"text-only","type":"text","enable_detail":true,"related":{"url":"https://truyenx.link/truyensextv/channels/related/3584","request_headers":[]},"share":{"url":"https://truyenx.link/truyensextv/channels/share/co-em-gai"},"remote_data":{"url":"https://truyenx.link/truyensextv/channels/co-em-gai"}},{"id":"3585-channel","name":"Chuyện người con gái tên Thu","description":"Thu từ Cần Thơ lên Sài Gòn lập gia đình lúc 20 tuổi. Lấy chồng được 6 tháng, ngày 30 tháng 4 năm 1975, Sài Gòn giải phóng. Sau đó chồng nàng bị đưa đi cải tạo. Thu nghe người này...","image":null,"label":null,"display":"text-only","type":"text","enable_detail":true,"related":{"url":"https://truyenx.link/truyensextv/channels/related/3585","request_headers":[]},"share":{"url":"https://truyenx.link/truyensextv/channels/share/chuyen-nguoi-con-gai-ten-thu"},"remote_data":{"url":"https://truyenx.link/truyensextv/channels/chuyen-nguoi-con-gai-ten-thu"}},{"id":"3583-channel","name":"Chuyến đi chơi đáng nhớ","description":"Tất cả mọi người trên 40 tuổi. Ông bà Phương, ông bà Ngọc, ông bà Thanh, và cậu em ông Thanh 29 tuổi. Chuyến đi Vacation ra biển năm nay rất lý thú. Bảy người trên chiếc xe Van...","image":null,"label":null,"display":"text-only","type":"text","enable_detail":true,"related":{"url":"https://truyenx.link/truyensextv/channels/related/3583","request_headers":[]},"share":{"url":"https://truyenx.link/truyensextv/channels/share/chuyen-di-choi-dang-nho"},"remote_data":{"url":"https://truyenx.link/truyensextv/channels/chuyen-di-choi-dang-nho"}},{"id":"3582-channel","name":"Chuyện bí mật","description":"Lấy chồng bảy năm, Nga vẫn thấy mình hạnh phúc. Chồng nàng là người đàn ông tuyệt vời. Ông ta hài hước, nói chuyện có duyên, mọi người rất thích. Buổi sáng ông hôn nàng rồi...","image":null,"label":null,"display":"text-only","type":"text","enable_detail":true,"related":{"url":"https://truyenx.link/truyensextv/channels/related/3582","request_headers":[]},"share":{"url":"https://truyenx.link/truyensextv/channels/share/chuyen-bi-mat"},"remote_data":{"url":"https://truyenx.link/truyensextv/channels/chuyen-bi-mat"}},{"id":"3581-channel","name":"Chuyện của Lê","description":"Năm 10 tuổi, Lê được mẹ ruột nhận về và sang Mỹ, mẹ Lê, bà Thu lấy một Việt Kiều ở Mỹ. Từ nhỏ tới lúc 10 tuổi, Lê vẫn tưởng rằng ông bà Đạt là cha mẹ ruột của mình...","image":null,"label":null,"display":"text-only","type":"text","enable_detail":true,"related":{"url":"https://truyenx.link/truyensextv/channels/related/3581","request_headers":[]},"share":{"url":"https://truyenx.link/truyensextv/channels/share/chuyen-cua-le"},"remote_data":{"url":"https://truyenx.link/truyensextv/channels/chuyen-cua-le"}}],"load_more":{"pageInfo":{"current_page":40,"last_page":140,"per_page":30,"total":4188},"paging":{"page_key":"page","size_key":"size"},"remote_data":{"url":"https://truyenx.link/truyensextv/channels"}}}