{
  "grid_number": 1,
  "channels": [
    {
      "id": "1518-channel",
      "name": "Cô thư ký riêng đúng nghĩa",
      "description": "Sau khi du học về mình xin làm trợ lý cho cho giám đốc người mỹ. Vượt qua hơn 500 hồ sơ và chỉ đc chọn 3 người để phỏng vấn. Ngày lên phỏng vấn mình cũng biết về profile anh...",
      "image": null,
      "label": null,
      "display": "text-only",
      "type": "text",
      "enable_detail": true,
      "related": {
        "url": "https://truyenx.link/truyensextv/channels/related/1518",
        "request_headers": []
      },
      "share": {
        "url": "https://truyenx.link/truyensextv/channels/share/co-thu-ky-rieng-dung-nghia"
      },
      "remote_data": {
        "url": "https://truyenx.link/truyensextv/channels/co-thu-ky-rieng-dung-nghia"
      }
    },
    {
      "id": "1517-channel",
      "name": "Mù quáng",
      "description": "Nếu cuộc đời là một con đường độc đạo thì sẽ chẳng có ai vướng phải sai lầm mà lạc lối. Nhưng thực tế luôn trớ trêu, trên con đường chúng ta đi luôn tồn tại những ngã...",
      "image": null,
      "label": null,
      "display": "text-only",
      "type": "text",
      "enable_detail": true,
      "related": {
        "url": "https://truyenx.link/truyensextv/channels/related/1517",
        "request_headers": []
      },
      "share": {
        "url": "https://truyenx.link/truyensextv/channels/share/mu-quang"
      },
      "remote_data": {
        "url": "https://truyenx.link/truyensextv/channels/mu-quang"
      }
    },
    {
      "id": "1516-channel",
      "name": "Nguyệt Vy",
      "description": "Good Afternoon class... Good Afternoon teacher... Sit down! Close all your books. We have the 60 minutes test today... Nguyệt Vy nhíu mày nghe tiếng ồn ào bàn tán vang lên cả lớp học. Nàng giơ tay xua xua...",
      "image": null,
      "label": null,
      "display": "text-only",
      "type": "text",
      "enable_detail": true,
      "related": {
        "url": "https://truyenx.link/truyensextv/channels/related/1516",
        "request_headers": []
      },
      "share": {
        "url": "https://truyenx.link/truyensextv/channels/share/nguyet-vy"
      },
      "remote_data": {
        "url": "https://truyenx.link/truyensextv/channels/nguyet-vy"
      }
    },
    {
      "id": "1515-channel",
      "name": "Người ba bị cắm sừng",
      "description": "Gia đình tôi sống trong một thị trấn nhỏ ở gần Nam Kinh, Trung Quốc. Tôi đang học trung học và đang ở tuổi 17 sung sức. Gia đình tôi chỉ là một gia đình bình thường có ba người...",
      "image": null,
      "label": null,
      "display": "text-only",
      "type": "text",
      "enable_detail": true,
      "related": {
        "url": "https://truyenx.link/truyensextv/channels/related/1515",
        "request_headers": []
      },
      "share": {
        "url": "https://truyenx.link/truyensextv/channels/share/nguoi-ba-bi-cam-sung"
      },
      "remote_data": {
        "url": "https://truyenx.link/truyensextv/channels/nguoi-ba-bi-cam-sung"
      }
    },
    {
      "id": "1514-channel",
      "name": "Nghìn lẻ một đêm",
      "description": "Thúy là một “thiên kim tiểu thư”, con nhà giàu, học giỏi. Nàng rất có nhan sắc, nhưng phải cái tội quá kiêu ngạo nên thành ra không có chàng nào dám “rớ” vào...",
      "image": null,
      "label": null,
      "display": "text-only",
      "type": "text",
      "enable_detail": true,
      "related": {
        "url": "https://truyenx.link/truyensextv/channels/related/1514",
        "request_headers": []
      },
      "share": {
        "url": "https://truyenx.link/truyensextv/channels/share/nghin-le-mot-dem"
      },
      "remote_data": {
        "url": "https://truyenx.link/truyensextv/channels/nghin-le-mot-dem"
      }
    },
    {
      "id": "1513-channel",
      "name": "Nữ nhà báo",
      "description": "Mỹ Dung đến toà soạn trong một tâm trạng không được vui vẻ gì cho lắm. Hôm qua cô vừa mới cãi nhau với chồng của mình, cũng chỉ tại chồng cô cứ hay nghi ngờ lung tung các mối...",
      "image": null,
      "label": null,
      "display": "text-only",
      "type": "text",
      "enable_detail": true,
      "related": {
        "url": "https://truyenx.link/truyensextv/channels/related/1513",
        "request_headers": []
      },
      "share": {
        "url": "https://truyenx.link/truyensextv/channels/share/nu-nha-bao"
      },
      "remote_data": {
        "url": "https://truyenx.link/truyensextv/channels/nu-nha-bao"
      }
    },
    {
      "id": "1512-channel",
      "name": "Chuyện thật đời tôi",
      "description": "Câu chuyện sau đây tôi muốn kể là chuyện thật đời tôi. Tôi là một phụ nữ đã có chồng với 3 cô con gái xinh đẹp. Chồng tôi là người đàn ông khỏe mạnh nên chuyện chăn gối...",
      "image": null,
      "label": null,
      "display": "text-only",
      "type": "text",
      "enable_detail": true,
      "related": {
        "url": "https://truyenx.link/truyensextv/channels/related/1512",
        "request_headers": []
      },
      "share": {
        "url": "https://truyenx.link/truyensextv/channels/share/chuyen-that-doi-toi"
      },
      "remote_data": {
        "url": "https://truyenx.link/truyensextv/channels/chuyen-that-doi-toi"
      }
    },
    {
      "id": "1511-channel",
      "name": "Ngôi biệt thự",
      "description": "Hiện nay trên thành phố không hiếm những khu chung cư và những khu biệt thự mọc lên trên Việt nam, Tôi là một công nhân viên chức làm trong một công ty nhà nước đã được 8 năm...",
      "image": null,
      "label": null,
      "display": "text-only",
      "type": "text",
      "enable_detail": true,
      "related": {
        "url": "https://truyenx.link/truyensextv/channels/related/1511",
        "request_headers": []
      },
      "share": {
        "url": "https://truyenx.link/truyensextv/channels/share/ngoi-biet-thu"
      },
      "remote_data": {
        "url": "https://truyenx.link/truyensextv/channels/ngoi-biet-thu"
      }
    },
    {
      "id": "1510-channel",
      "name": "Loạn dâm",
      "description": "Tác giả: Cô Kim Trở về sau chuyến công tác kéo dài gần một tuần lễ, tôi quyết định không báo cho vợ biết vì muốn tạo sự bất ngờ cho nàng hơn nữa hôm đó cũng là kỷ niệm 2...",
      "image": null,
      "label": null,
      "display": "text-only",
      "type": "text",
      "enable_detail": true,
      "related": {
        "url": "https://truyenx.link/truyensextv/channels/related/1510",
        "request_headers": []
      },
      "share": {
        "url": "https://truyenx.link/truyensextv/channels/share/loan-dam"
      },
      "remote_data": {
        "url": "https://truyenx.link/truyensextv/channels/loan-dam"
      }
    },
    {
      "id": "1509-channel",
      "name": "Lạc lối Đồ Sơn",
      "description": "“Khi em chọn nghề lấy lỗ làm nghề, thì em đã tước đi cái quyền để người ta tôn trọng”. ... Mama, just killed a man, Put a gun against his head. Pulled my trigger, now he’s dead...",
      "image": null,
      "label": null,
      "display": "text-only",
      "type": "text",
      "enable_detail": true,
      "related": {
        "url": "https://truyenx.link/truyensextv/channels/related/1509",
        "request_headers": []
      },
      "share": {
        "url": "https://truyenx.link/truyensextv/channels/share/lac-loi-do-son"
      },
      "remote_data": {
        "url": "https://truyenx.link/truyensextv/channels/lac-loi-do-son"
      }
    },
    {
      "id": "1508-channel",
      "name": "Bạn thân của vợ",
      "description": "Vợ chàng mất đã hơn một năm nay. Một năm đầy khó khăn. Một mình lo cho mấy đứa con cũng mệt đừ. Vợ chồng sống với nhau 20 năm, chuyện ăn ngủ với nhau như là một chuyện tự...",
      "image": null,
      "label": null,
      "display": "text-only",
      "type": "text",
      "enable_detail": true,
      "related": {
        "url": "https://truyenx.link/truyensextv/channels/related/1508",
        "request_headers": []
      },
      "share": {
        "url": "https://truyenx.link/truyensextv/channels/share/ban-than-cua-vo"
      },
      "remote_data": {
        "url": "https://truyenx.link/truyensextv/channels/ban-than-cua-vo"
      }
    },
    {
      "id": "1507-channel",
      "name": "Ta có hệ thống điểm sung sướng",
      "description": "Hồng Kông, 24 9 2019. Một tên thanh niên dáng người thanh mảnh, khuôn mặt tuấn tú, trên tay phải đang cầm một chiếc điện thoại Iphone, hắn vừa đi vừa lướt điện thoại, nói trắng...",
      "image": null,
      "label": null,
      "display": "text-only",
      "type": "text",
      "enable_detail": true,
      "related": {
        "url": "https://truyenx.link/truyensextv/channels/related/1507",
        "request_headers": []
      },
      "share": {
        "url": "https://truyenx.link/truyensextv/channels/share/ta-co-he-thong-diem-sung-suong"
      },
      "remote_data": {
        "url": "https://truyenx.link/truyensextv/channels/ta-co-he-thong-diem-sung-suong"
      }
    },
    {
      "id": "1506-channel",
      "name": "Nhật ký của Diễm",
      "description": "Ngày... tháng... năm 1988. Tối nay buồn quá! Tôi tắm rửa, trần truồng đứng trước gương soi. Tôi ngắm nhìn thân thể thanh xuân của mình. Khuôn mặt đầy đặn, cái mũi cao, cặp môi...",
      "image": null,
      "label": null,
      "display": "text-only",
      "type": "text",
      "enable_detail": true,
      "related": {
        "url": "https://truyenx.link/truyensextv/channels/related/1506",
        "request_headers": []
      },
      "share": {
        "url": "https://truyenx.link/truyensextv/channels/share/nhat-ky-cua-diem"
      },
      "remote_data": {
        "url": "https://truyenx.link/truyensextv/channels/nhat-ky-cua-diem"
      }
    },
    {
      "id": "1505-channel",
      "name": "Tình dục gia đình",
      "description": "Cành... cành... Tiếng cái cổng bằng gang được mạ đồng vang lên lanh lảnh, chiếc xe BMW 750Li tiến vào khoảng sân bằng gạch Bát Tràng đỏ ối rồi dừng lại phía góc, nơi có cái...",
      "image": null,
      "label": null,
      "display": "text-only",
      "type": "text",
      "enable_detail": true,
      "related": {
        "url": "https://truyenx.link/truyensextv/channels/related/1505",
        "request_headers": []
      },
      "share": {
        "url": "https://truyenx.link/truyensextv/channels/share/tinh-duc-gia-dinh"
      },
      "remote_data": {
        "url": "https://truyenx.link/truyensextv/channels/tinh-duc-gia-dinh"
      }
    },
    {
      "id": "1504-channel",
      "name": "Ép mẹ cho đụ",
      "description": "Tôi đã luôn luôn mong muốn được làm tình với mẹ. Thực ra ước mơ mang tính hết sức loạn luân này của tôi đã ngày đêm trở thành mối ám ảnh trong đầu tôi. Có lẽ do ba tôi...",
      "image": null,
      "label": null,
      "display": "text-only",
      "type": "text",
      "enable_detail": true,
      "related": {
        "url": "https://truyenx.link/truyensextv/channels/related/1504",
        "request_headers": []
      },
      "share": {
        "url": "https://truyenx.link/truyensextv/channels/share/ep-me-cho-du"
      },
      "remote_data": {
        "url": "https://truyenx.link/truyensextv/channels/ep-me-cho-du"
      }
    },
    {
      "id": "1503-channel",
      "name": "Tiếng kêu đòi nợ của thân xác",
      "description": "Ông Nhân với tay vặn nhỏ volume TV khi tiếng người nữ trong phim rên la quá lớn. Ông nuốt nước bọt, mắt không rời cảnh tượng đang diễn ra trên màn hình. Tên Mỹ đen, thân hình...",
      "image": null,
      "label": null,
      "display": "text-only",
      "type": "text",
      "enable_detail": true,
      "related": {
        "url": "https://truyenx.link/truyensextv/channels/related/1503",
        "request_headers": []
      },
      "share": {
        "url": "https://truyenx.link/truyensextv/channels/share/tieng-keu-doi-no-cua-than-xac"
      },
      "remote_data": {
        "url": "https://truyenx.link/truyensextv/channels/tieng-keu-doi-no-cua-than-xac"
      }
    },
    {
      "id": "1502-channel",
      "name": "Mùa Hạ",
      "description": "Cuối năm lớp 11, là một thằng con trai khối tự nhiên, mà toán lý hóa trong tiềm thức của tôi, đều trở nên mù mờ khó hiểu. Mọi thứ khiến tôi xuống tinh thần trầm trọng, gần...",
      "image": null,
      "label": null,
      "display": "text-only",
      "type": "text",
      "enable_detail": true,
      "related": {
        "url": "https://truyenx.link/truyensextv/channels/related/1502",
        "request_headers": []
      },
      "share": {
        "url": "https://truyenx.link/truyensextv/channels/share/mua-ha"
      },
      "remote_data": {
        "url": "https://truyenx.link/truyensextv/channels/mua-ha"
      }
    },
    {
      "id": "1501-channel",
      "name": "Mùa nước nổi",
      "description": "“Nghĩa, sau này lớn lên cậu sẽ làm nghề gì?”, Một cô gái tóc tết đuôi sam dài đến tận thắt lưng có khuôn mặt bầu bĩnh xinh xắn ngồi bên cạnh nói với chàng trai...",
      "image": null,
      "label": null,
      "display": "text-only",
      "type": "text",
      "enable_detail": true,
      "related": {
        "url": "https://truyenx.link/truyensextv/channels/related/1501",
        "request_headers": []
      },
      "share": {
        "url": "https://truyenx.link/truyensextv/channels/share/mua-nuoc-noi"
      },
      "remote_data": {
        "url": "https://truyenx.link/truyensextv/channels/mua-nuoc-noi"
      }
    },
    {
      "id": "1500-channel",
      "name": "Hạnh phúc trong nỗi đau",
      "description": "“Bốp...” một cái tát nảy đom mắt, máu mũi cô trào ra... Im ngay! Kêu là nữa chết nha con! Hắn rít lên qua kẽ răng khi tát cho Chi một cái rõ đau, chưa bao giờ cô bị đau thế...",
      "image": null,
      "label": null,
      "display": "text-only",
      "type": "text",
      "enable_detail": true,
      "related": {
        "url": "https://truyenx.link/truyensextv/channels/related/1500",
        "request_headers": []
      },
      "share": {
        "url": "https://truyenx.link/truyensextv/channels/share/hanh-phuc-trong-noi-dau"
      },
      "remote_data": {
        "url": "https://truyenx.link/truyensextv/channels/hanh-phuc-trong-noi-dau"
      }
    },
    {
      "id": "1499-channel",
      "name": "Cháu Thảo của tôi",
      "description": "Tôi là Hùng, năm nay đã ngoài 50 tôi có 1 vợ và 2 con, đứa con trai đầu tên Dũng đã lập gia đình và dọn ra ở riêng, 1 đứa con gái tên Linh năm nay mới học lớp 12, phải nói là...",
      "image": null,
      "label": null,
      "display": "text-only",
      "type": "text",
      "enable_detail": true,
      "related": {
        "url": "https://truyenx.link/truyensextv/channels/related/1499",
        "request_headers": []
      },
      "share": {
        "url": "https://truyenx.link/truyensextv/channels/share/chau-thao-cua-toi"
      },
      "remote_data": {
        "url": "https://truyenx.link/truyensextv/channels/chau-thao-cua-toi"
      }
    },
    {
      "id": "1498-channel",
      "name": "Thách thức",
      "description": "Đây là câu chuyện về tôi và mẹ tôi. Tên tôi là Rajesh, 27 tuổi. Tôi đang sống ở Mumbai, Ấn Độ, cùng với vợ tôi là Sangeeta, người cũng là mẹ tôi. Đúng vậy, tôi đã kết hôn...",
      "image": null,
      "label": null,
      "display": "text-only",
      "type": "text",
      "enable_detail": true,
      "related": {
        "url": "https://truyenx.link/truyensextv/channels/related/1498",
        "request_headers": []
      },
      "share": {
        "url": "https://truyenx.link/truyensextv/channels/share/thach-thuc"
      },
      "remote_data": {
        "url": "https://truyenx.link/truyensextv/channels/thach-thuc"
      }
    },
    {
      "id": "1497-channel",
      "name": "Cuckold",
      "description": "Sau đám cưới tôi mới phát hiện Quỳnh Hoa vợ mình có nhu cầu sinh lý khá cao nếu không muốn nói là nàng người nghiện tình dục. Là 1 người thành đạt trong kinh doanh nhưng tôi luôn...",
      "image": null,
      "label": null,
      "display": "text-only",
      "type": "text",
      "enable_detail": true,
      "related": {
        "url": "https://truyenx.link/truyensextv/channels/related/1497",
        "request_headers": []
      },
      "share": {
        "url": "https://truyenx.link/truyensextv/channels/share/cuckold"
      },
      "remote_data": {
        "url": "https://truyenx.link/truyensextv/channels/cuckold"
      }
    },
    {
      "id": "1496-channel",
      "name": "Tuổi thơ ngây",
      "description": "Tôi được sinh ra ở một nơi thuộc khu vực đông bắc Trung Quốc. Tôi không nhớ được nhiều thứ khi còn nhỏ. Không biết là tôi đã bắt đầu đi học từ khi nào nhưng tôi biết...",
      "image": null,
      "label": null,
      "display": "text-only",
      "type": "text",
      "enable_detail": true,
      "related": {
        "url": "https://truyenx.link/truyensextv/channels/related/1496",
        "request_headers": []
      },
      "share": {
        "url": "https://truyenx.link/truyensextv/channels/share/tuoi-tho-ngay"
      },
      "remote_data": {
        "url": "https://truyenx.link/truyensextv/channels/tuoi-tho-ngay"
      }
    },
    {
      "id": "1495-channel",
      "name": "Người đàn ông của ngôi nhà",
      "description": "Tôi chưa bao giờ nghĩ rằng tôi sẽ đối xử với mẹ tôi như một người đàn bà, cho đến ngày bà làm cho tôi nhận ra mình là người đàn ông của ngôi nhà. Và tôi rất thích gọi mẹ...",
      "image": null,
      "label": null,
      "display": "text-only",
      "type": "text",
      "enable_detail": true,
      "related": {
        "url": "https://truyenx.link/truyensextv/channels/related/1495",
        "request_headers": []
      },
      "share": {
        "url": "https://truyenx.link/truyensextv/channels/share/nguoi-dan-ong-cua-ngoi-nha"
      },
      "remote_data": {
        "url": "https://truyenx.link/truyensextv/channels/nguoi-dan-ong-cua-ngoi-nha"
      }
    },
    {
      "id": "1494-channel",
      "name": "Yêu trẻ con - Quyển 2",
      "description": "Gặp lại nhau trong một ngày trời đổ nắng. Tháng Tám hanh hao giấu hết những cơn gió đi đâu mất, chỉ còn lại cái nóng hừng hực của mùa hè đỏ lửa. Và tiếng ve râm ran nghe như...",
      "image": null,
      "label": null,
      "display": "text-only",
      "type": "text",
      "enable_detail": true,
      "related": {
        "url": "https://truyenx.link/truyensextv/channels/related/1494",
        "request_headers": []
      },
      "share": {
        "url": "https://truyenx.link/truyensextv/channels/share/yeu-tre-con-quyen-2"
      },
      "remote_data": {
        "url": "https://truyenx.link/truyensextv/channels/yeu-tre-con-quyen-2"
      }
    },
    {
      "id": "1493-channel",
      "name": "Con đĩ",
      "description": "Lân đứng đằng sau chạm nhẹ vào mông vợ để ẩy lên giúp nàng bước lên bậc toa tàu. Cơn gió nhẹ thoảng qua cũng đủ làm cho chiếc váy ngắn phất phới bay lên cao để lộ khoảng...",
      "image": null,
      "label": null,
      "display": "text-only",
      "type": "text",
      "enable_detail": true,
      "related": {
        "url": "https://truyenx.link/truyensextv/channels/related/1493",
        "request_headers": []
      },
      "share": {
        "url": "https://truyenx.link/truyensextv/channels/share/con-di"
      },
      "remote_data": {
        "url": "https://truyenx.link/truyensextv/channels/con-di"
      }
    },
    {
      "id": "1492-channel",
      "name": "Những đêm mặn nồng",
      "description": "Em làm ơn mặc quần áo vào đi, anh không cần sự bố thí hay thương hại gì cả. Tôi đẩy em ra khỏi cơ thể mình rồi lạnh lùng nói. Ngày trước anh cuồng loạn với cơ thể của em...",
      "image": null,
      "label": null,
      "display": "text-only",
      "type": "text",
      "enable_detail": true,
      "related": {
        "url": "https://truyenx.link/truyensextv/channels/related/1492",
        "request_headers": []
      },
      "share": {
        "url": "https://truyenx.link/truyensextv/channels/share/nhung-dem-man-nong"
      },
      "remote_data": {
        "url": "https://truyenx.link/truyensextv/channels/nhung-dem-man-nong"
      }
    },
    {
      "id": "1491-channel",
      "name": "Con xin lỗi dì Nga",
      "description": "Chuyện đã xảy ra cách đây được vài tuần rồi, nhưng với tôi nó mới như ngày hôm qua vậy. Tôi cố gắng liên lạc với dì qua Facebook, Zalo mãi không vẫn được, thậm chí đến tận...",
      "image": null,
      "label": null,
      "display": "text-only",
      "type": "text",
      "enable_detail": true,
      "related": {
        "url": "https://truyenx.link/truyensextv/channels/related/1491",
        "request_headers": []
      },
      "share": {
        "url": "https://truyenx.link/truyensextv/channels/share/con-xin-loi-di-nga"
      },
      "remote_data": {
        "url": "https://truyenx.link/truyensextv/channels/con-xin-loi-di-nga"
      }
    },
    {
      "id": "1490-channel",
      "name": "Làm tình với bác Thủy",
      "description": "Tôi năm nay 27 tuổi, còn bác Thủy thì 49 tuổi, bác là bác dâu của tôi, bác có 3 người con gái lớn. Người con gái lớn nhất thì hơn tôi 1 tuổi. Trong một lần đi làm từ thiện ở...",
      "image": null,
      "label": null,
      "display": "text-only",
      "type": "text",
      "enable_detail": true,
      "related": {
        "url": "https://truyenx.link/truyensextv/channels/related/1490",
        "request_headers": []
      },
      "share": {
        "url": "https://truyenx.link/truyensextv/channels/share/lam-tinh-voi-bac-thuy"
      },
      "remote_data": {
        "url": "https://truyenx.link/truyensextv/channels/lam-tinh-voi-bac-thuy"
      }
    },
    {
      "id": "1489-channel",
      "name": "Chuyện từ đêm khiêu vũ",
      "description": "Đây là một câu chuyện có thật. Chuyện xảy ra khi tôi 16 tuổi, lúc tôi vẫn còn là một học sinh trung học. Ba tôi qua Mỹ đã lâu rồi, bỏ lại hai mẹ con tôi sống ở Đài Bắc. Mẹ...",
      "image": null,
      "label": null,
      "display": "text-only",
      "type": "text",
      "enable_detail": true,
      "related": {
        "url": "https://truyenx.link/truyensextv/channels/related/1489",
        "request_headers": []
      },
      "share": {
        "url": "https://truyenx.link/truyensextv/channels/share/chuyen-tu-dem-khieu-vu"
      },
      "remote_data": {
        "url": "https://truyenx.link/truyensextv/channels/chuyen-tu-dem-khieu-vu"
      }
    }
  ],
  "load_more": {
    "pageInfo": {
      "current_page": 90,
      "last_page": 140,
      "per_page": 30,
      "total": 4188
    },
    "paging": {
      "page_key": "page",
      "size_key": "size"
    },
    "remote_data": {
      "url": "https://truyenx.link/truyensextv/channels"
    }
  }
}