{"grid_number":1,"channels":[{"id":"13254-channel","name":"Chung trọ","description":"Giấc Mơ Mang Tên Sài Gòn Nắng chiều tháng sáu nhuộm vàng con đường đất quen thuộc dẫn vào làng An Hạ. Ngôi làng quê tôi, nơi chôn nhau cắt rốn, vẫn giữ nguyên vẻ đơn sơ, mộc...","image":null,"label":null,"display":"text-only","type":"text","enable_detail":true,"related":{"url":"https://truyenx.link/truyensextv/channels/related/13254","request_headers":[]},"share":{"url":"https://truyenx.link/truyensextv/channels/share/chung-tro"},"remote_data":{"url":"https://truyenx.link/truyensextv/channels/chung-tro"}},{"id":"13248-channel","name":"Tây Du Dâm Ký","description":"[Giới thiệu nội dung] Đường Tiểu Huyền, thiếu gia thứ tư của Đường gia ở Bắc Kinh, là một công tử ăn chơi lêu lổng, không làm nên trò trống gì. Nhờ cha là quan chức cấp cao...","image":null,"label":null,"display":"text-only","type":"text","enable_detail":true,"related":{"url":"https://truyenx.link/truyensextv/channels/related/13248","request_headers":[]},"share":{"url":"https://truyenx.link/truyensextv/channels/share/tay-du-dam-ky"},"remote_data":{"url":"https://truyenx.link/truyensextv/channels/tay-du-dam-ky"}},{"id":"13253-channel","name":"Mẹ tôi - cô giáo thể dục","description":"[Giới thiệu nội dung] Đường Tiểu Huyền, thiếu gia thứ tư của Đường gia ở Bắc Kinh, là một công tử ăn chơi lêu lổng, không làm nên trò trống gì. Nhờ cha là quan chức cấp cao...","image":null,"label":null,"display":"text-only","type":"text","enable_detail":true,"related":{"url":"https://truyenx.link/truyensextv/channels/related/13253","request_headers":[]},"share":{"url":"https://truyenx.link/truyensextv/channels/share/me-toi-co-giao-the-duc"},"remote_data":{"url":"https://truyenx.link/truyensextv/channels/me-toi-co-giao-the-duc"}},{"id":"13257-channel","name":"Ký ức mây mưa","description":"Mấy ngày ở cùng Phạm Khương đối với cô rất tốt, cho dù trong máu in sâu sự độc chiếm với cô nhưng hắn không dám làm quá. Sau lần ép cô cùng mình hôm trước, dường như hắn...","image":null,"label":null,"display":"text-only","type":"text","enable_detail":true,"related":{"url":"https://truyenx.link/truyensextv/channels/related/13257","request_headers":[]},"share":{"url":"https://truyenx.link/truyensextv/channels/share/ky-uc-may-mua"},"remote_data":{"url":"https://truyenx.link/truyensextv/channels/ky-uc-may-mua"}},{"id":"13255-channel","name":"Đảo nhiệt đới","description":"Proxemics Khám phá không gian ẩn Rà xe xuống con đường ngay cạnh tòa nhà to đẹp của hãng Mercedes, Tài nhẹ nhàng tấp con V class sát vô lề đường, kéo cửa sổ xuống cho khí trời...","image":null,"label":null,"display":"text-only","type":"text","enable_detail":true,"related":{"url":"https://truyenx.link/truyensextv/channels/related/13255","request_headers":[]},"share":{"url":"https://truyenx.link/truyensextv/channels/share/dao-nhiet-doi"},"remote_data":{"url":"https://truyenx.link/truyensextv/channels/dao-nhiet-doi"}},{"id":"13256-channel","name":"Tái sinh trở thành con của cô ấy","description":"Tôi là một học sinh cấp 3, năm nay vừa tròn mười bảy tuổi. Gia đình tôi đã không còn như trước nữa, bố mẹ ly hôn khi tôi mới lên lớp 10, để lại cho tôi một khoảng lặng mà...","image":null,"label":null,"display":"text-only","type":"text","enable_detail":true,"related":{"url":"https://truyenx.link/truyensextv/channels/related/13256","request_headers":[]},"share":{"url":"https://truyenx.link/truyensextv/channels/share/tai-sinh-tro-thanh-con-cua-co-ay"},"remote_data":{"url":"https://truyenx.link/truyensextv/channels/tai-sinh-tro-thanh-con-cua-co-ay"}},{"id":"13252-channel","name":"Kẻ nặn tượng trong tận thế","description":"Căn Hầm Tuyệt Vọng Sự im lặng trong căn hầm là một thực thể sống. Nó có trọng lượng, có kết cấu, quấn lấy Vũ Hạo Thiên như một tấm vải liệm ẩm ướt. Đã từ rất lâu...","image":null,"label":null,"display":"text-only","type":"text","enable_detail":true,"related":{"url":"https://truyenx.link/truyensextv/channels/related/13252","request_headers":[]},"share":{"url":"https://truyenx.link/truyensextv/channels/share/ke-nan-tuong-trong-tan-the"},"remote_data":{"url":"https://truyenx.link/truyensextv/channels/ke-nan-tuong-trong-tan-the"}},{"id":"13251-channel","name":"Vợ tôi, bạn tôi và con rể tôi","description":"Tôi và L quen nhau từ những năm đầu đại học. L có khuôn mặt bình thường nhưng cao ráo, vòng nào ra vòng đấy đặc biệt rất chăm học, thân thiện, dễ gần, nhiệt tình đây cũng...","image":null,"label":null,"display":"text-only","type":"text","enable_detail":true,"related":{"url":"https://truyenx.link/truyensextv/channels/related/13251","request_headers":[]},"share":{"url":"https://truyenx.link/truyensextv/channels/share/vo-toi-ban-toi-va-con-re-toi"},"remote_data":{"url":"https://truyenx.link/truyensextv/channels/vo-toi-ban-toi-va-con-re-toi"}},{"id":"13250-channel","name":"5 người bạn của tôi đòi đè tôi xuống sàn","description":"Xin chào, tôi là Nhi, tôi sống trong 1 khu ký túc xá có 12 tầng cho các sinh viên với gồm 5 người khác nữa, khu ký túc xá của tôi có 1 quy luật rất đặc biệt, đó là những người...","image":null,"label":null,"display":"text-only","type":"text","enable_detail":true,"related":{"url":"https://truyenx.link/truyensextv/channels/related/13250","request_headers":[]},"share":{"url":"https://truyenx.link/truyensextv/channels/share/5-nguoi-ban-cua-toi-doi-de-toi-xuong-san"},"remote_data":{"url":"https://truyenx.link/truyensextv/channels/5-nguoi-ban-cua-toi-doi-de-toi-xuong-san"}},{"id":"13249-channel","name":"Một Con Người Hai Thế Giới","description":"HỒ SƠ NHÂN VẬT... Nhân vật chính: Họ tên: Võ Tuấn Khanh... Biệt danh: S. Flash Tuổi: 18... Chiều cao: 160cm... Tính tình: Đa nhân cách thay đổi linh hoạt, đa tình, ngôn tình, tốt bụng...","image":null,"label":null,"display":"text-only","type":"text","enable_detail":true,"related":{"url":"https://truyenx.link/truyensextv/channels/related/13249","request_headers":[]},"share":{"url":"https://truyenx.link/truyensextv/channels/share/mot-con-nguoi-hai-the-gioi"},"remote_data":{"url":"https://truyenx.link/truyensextv/channels/mot-con-nguoi-hai-the-gioi"}},{"id":"13246-channel","name":"Tuyết Sương Lĩnh","description":"Tuyết Rơi Không Ngừng Tuyết rơi trắng xóa. Giữa vùng núi hoang lạnh lẽo thuộc Tuyết Sương Lĩnh, một thân ảnh cô tịch lặng lẽ ngồi trên một phiến đá lớn phủ tuyết, gần như...","image":null,"label":null,"display":"text-only","type":"text","enable_detail":true,"related":{"url":"https://truyenx.link/truyensextv/channels/related/13246","request_headers":[]},"share":{"url":"https://truyenx.link/truyensextv/channels/share/tuyet-suong-linh"},"remote_data":{"url":"https://truyenx.link/truyensextv/channels/tuyet-suong-linh"}},{"id":"13245-channel","name":"Chia sẻ của một sinh viên năm nhất lần đầu thử cảm giác xả đồ","description":"Mình tên là Nguyễn Diệu My, quê ở Bắc Giang. Trước đây mình có yêu vài người nhưng cuối cùng cũng không đâu vào đâu, lúc mới lên đại học ở trọ mình có quen một bạn khá dâm...","image":null,"label":null,"display":"text-only","type":"text","enable_detail":true,"related":{"url":"https://truyenx.link/truyensextv/channels/related/13245","request_headers":[]},"share":{"url":"https://truyenx.link/truyensextv/channels/share/chia-se-cua-mot-sinh-vien-nam-nhat-lan-dau-thu-cam-giac-xa-do"},"remote_data":{"url":"https://truyenx.link/truyensextv/channels/chia-se-cua-mot-sinh-vien-nam-nhat-lan-dau-thu-cam-giac-xa-do"}},{"id":"13244-channel","name":"Sự thay đổi của vợ tôi","description":"Chúng tôi là một cặp vợ chồng ngoài ba mươi, chưa có con, tư tưởng khá thoáng. Mỗi lần nhớ lại lần đầu tiên để vợ “lộ hàng” công khai, giờ nghĩ lại vẫn thấy kích...","image":null,"label":null,"display":"text-only","type":"text","enable_detail":true,"related":{"url":"https://truyenx.link/truyensextv/channels/related/13244","request_headers":[]},"share":{"url":"https://truyenx.link/truyensextv/channels/share/su-thay-doi-cua-vo-toi"},"remote_data":{"url":"https://truyenx.link/truyensextv/channels/su-thay-doi-cua-vo-toi"}},{"id":"13243-channel","name":"Đổi vợ cùng ba mẹ","description":"Tôi và bà xã Thanh Nhàn quen nhau trong chuyến du lịch ở Paris. Thanh Nhàn là một cô nàng tóc đỏ, nóng bỏng như lửa, dáng ngon khỏi bàn, lại còn xinh đẹp như gái đẹp, vừa gặp tôi...","image":null,"label":null,"display":"text-only","type":"text","enable_detail":true,"related":{"url":"https://truyenx.link/truyensextv/channels/related/13243","request_headers":[]},"share":{"url":"https://truyenx.link/truyensextv/channels/share/doi-vo-cung-ba-me"},"remote_data":{"url":"https://truyenx.link/truyensextv/channels/doi-vo-cung-ba-me"}},{"id":"12666-channel","name":"Cô hàng xóm u40","description":"Tôi năm nay 16 tuổi, tiếp xúc với internet từ sớm, tôi hay đọc truyện sex và coi phim trên mạng. Tôi không biết từ khi nào mình trở thành con người thú tính nghiện tình dục nhưng...","image":null,"label":null,"display":"text-only","type":"text","enable_detail":true,"related":{"url":"https://truyenx.link/truyensextv/channels/related/12666","request_headers":[]},"share":{"url":"https://truyenx.link/truyensextv/channels/share/co-hang-xom-u40"},"remote_data":{"url":"https://truyenx.link/truyensextv/channels/co-hang-xom-u40"}},{"id":"13242-channel","name":"Trao đổi giữa những người vợ xinh đẹp","description":"Ngày 31 tháng 12 năm 2018, 11 giờ 13 phút. Kiều Trinh quẹt điện thoại mở cửa nhà, cởi áo khoác, tôi chẳng thèm thay đồ ngủ mà đã lăn ngay lên giường. Cả buổi tối ăn uống ầm ĩ...","image":null,"label":null,"display":"text-only","type":"text","enable_detail":true,"related":{"url":"https://truyenx.link/truyensextv/channels/related/13242","request_headers":[]},"share":{"url":"https://truyenx.link/truyensextv/channels/share/trao-doi-giua-nhung-nguoi-vo-xinh-dep"},"remote_data":{"url":"https://truyenx.link/truyensextv/channels/trao-doi-giua-nhung-nguoi-vo-xinh-dep"}},{"id":"13241-channel","name":"Bạn gái lần đầu thử cặc bạn thân tôi","description":"Tôi có một thằng bạn học đại học người da đen, cùng lớp suốt bốn năm, nó với nhỏ bạn gái từ Zimbabwe, là bạn cùng phòng kiêm anh em chí cốt của tôi. Từ năm hai, tụi tôi...","image":null,"label":null,"display":"text-only","type":"text","enable_detail":true,"related":{"url":"https://truyenx.link/truyensextv/channels/related/13241","request_headers":[]},"share":{"url":"https://truyenx.link/truyensextv/channels/share/ban-gai-lan-dau-thu-cac-ban-than-toi"},"remote_data":{"url":"https://truyenx.link/truyensextv/channels/ban-gai-lan-dau-thu-cac-ban-than-toi"}},{"id":"12991-channel","name":"Pháp Sư Tam Kiếp","description":"Xuyên Không Tam Kiếp Trong vũ trụ mênh mông từng tồn tại vô số những thế giới song song. Có một nơi gọi là Lục Tinh Cầu là một thế giới mà cả người, tiên, ma và yêu thú cùng...","image":null,"label":null,"display":"text-only","type":"text","enable_detail":true,"related":{"url":"https://truyenx.link/truyensextv/channels/related/12991","request_headers":[]},"share":{"url":"https://truyenx.link/truyensextv/channels/share/phap-su-tam-kiep"},"remote_data":{"url":"https://truyenx.link/truyensextv/channels/phap-su-tam-kiep"}},{"id":"4048-channel","name":"Chồng tôi mọc sừng","description":"Người phụ nữ giơ tay nhấn chuông cửa rồi quay sang bảo chồng: Anh tươi tỉnh lên một chút đi, sang xin lỗi người ta mà mặt cứ xị ra thế... Ừ... Huy miễn cưỡng đáp, xong rồi...","image":null,"label":null,"display":"text-only","type":"text","enable_detail":true,"related":{"url":"https://truyenx.link/truyensextv/channels/related/4048","request_headers":[]},"share":{"url":"https://truyenx.link/truyensextv/channels/share/chong-toi-moc-sung"},"remote_data":{"url":"https://truyenx.link/truyensextv/channels/chong-toi-moc-sung"}},{"id":"3437-channel","name":"Thằng Đức - Quyển 3","description":"Trong khuôn viên hồ bơi của khách sạn, đám mỹ nữ ngâm mình nô đùa như là đang ở trong căn biệt thự của Nancy ở Cần Thơ hay trong căn biệt thự của Mỹ Chi ở Cao Lãnh vậy. Sau...","image":null,"label":null,"display":"text-only","type":"text","enable_detail":true,"related":{"url":"https://truyenx.link/truyensextv/channels/related/3437","request_headers":[]},"share":{"url":"https://truyenx.link/truyensextv/channels/share/thang-duc-quyen-3"},"remote_data":{"url":"https://truyenx.link/truyensextv/channels/thang-duc-quyen-3"}},{"id":"4469-channel","name":"Mẹ và dì của tôi","description":"Câu chuyện bắt đầu khi mẹ tôi bỏ dọn ra khỏi nhà cũng gã tên Hung, chỉ vì gã phát hiện tôi và mẹ tôi ôm ấp và ân ái ở biển, trong khoảng thời gian trước tôi và mẹ tôi ngủ...","image":null,"label":null,"display":"text-only","type":"text","enable_detail":true,"related":{"url":"https://truyenx.link/truyensextv/channels/related/4469","request_headers":[]},"share":{"url":"https://truyenx.link/truyensextv/channels/share/me-va-di-cua-toi"},"remote_data":{"url":"https://truyenx.link/truyensextv/channels/me-va-di-cua-toi"}},{"id":"12898-channel","name":"Thiên bồng nguyên soái - Quyển 3","description":"Dời núi “Các muội, chúng ta cũng phải nên sớm hoàn thành nhiệm vụ trong cung giao phó sau đó trở về phục mệnh thôi, đã ra ngoài lịch luyện quá lâu rồi, nếu chậm trễ sẽ...","image":null,"label":null,"display":"text-only","type":"text","enable_detail":true,"related":{"url":"https://truyenx.link/truyensextv/channels/related/12898","request_headers":[]},"share":{"url":"https://truyenx.link/truyensextv/channels/share/thien-bong-nguyen-soai-quyen-3"},"remote_data":{"url":"https://truyenx.link/truyensextv/channels/thien-bong-nguyen-soai-quyen-3"}},{"id":"13068-channel","name":"Bạn gái dâm đãng thỏa mãn sở thích Cuckold","description":"“Ưm... á... á... sâu quá... ưm... chậm lại chút đi... chờ... á... á... nhiều quá... lại bắn vào trong nữa rồi... á... á...” Trong phòng ngủ của ngôi nhà, tôi đang quỳ bên...","image":null,"label":null,"display":"text-only","type":"text","enable_detail":true,"related":{"url":"https://truyenx.link/truyensextv/channels/related/13068","request_headers":[]},"share":{"url":"https://truyenx.link/truyensextv/channels/share/ban-gai-dam-dang-thoa-man-so-thich-cuckold"},"remote_data":{"url":"https://truyenx.link/truyensextv/channels/ban-gai-dam-dang-thoa-man-so-thich-cuckold"}},{"id":"13067-channel","name":"Giúp đỡ gái xinh","description":"Trên một cung đường vắng, tôi thấy có một cô gái đang đẩy xe. Tôi tiến tới, hỏi: Xe làm sao vậy em? Chết máy à? Vâng, xe em bị hỏng. Em cũng không biết bị sao nữa... Tôi lấy...","image":null,"label":null,"display":"text-only","type":"text","enable_detail":true,"related":{"url":"https://truyenx.link/truyensextv/channels/related/13067","request_headers":[]},"share":{"url":"https://truyenx.link/truyensextv/channels/share/giup-do-gai-xinh"},"remote_data":{"url":"https://truyenx.link/truyensextv/channels/giup-do-gai-xinh"}},{"id":"13033-channel","name":"Giấc mơ của người chồng Cuckold","description":"“Em đến khách sạn rồi, hôm nay mệt vãi!” Vợ tôi, Thanh Nhàn, nhắn qua Zalo. Tôi không rep ngay, vẫn cắm mặt vào máy tính chat với một thằng lạ. “Vợ tôi xinh lắm, là...","image":null,"label":null,"display":"text-only","type":"text","enable_detail":true,"related":{"url":"https://truyenx.link/truyensextv/channels/related/13033","request_headers":[]},"share":{"url":"https://truyenx.link/truyensextv/channels/share/giac-mo-cua-nguoi-chong-cuckold"},"remote_data":{"url":"https://truyenx.link/truyensextv/channels/giac-mo-cua-nguoi-chong-cuckold"}},{"id":"13032-channel","name":"SLAVE Hậu","description":"Hậu là một cô gái năng nổ sống ở thành phố nhộn nhịp. Cô có lối sống rất kỷ luật và rất đoan trang. Ngoài việc nhà, học hành, giúp đỡ ba mẹ ra thì cô luôn cố gắng hoàn...","image":null,"label":null,"display":"text-only","type":"text","enable_detail":true,"related":{"url":"https://truyenx.link/truyensextv/channels/related/13032","request_headers":[]},"share":{"url":"https://truyenx.link/truyensextv/channels/share/slave-hau"},"remote_data":{"url":"https://truyenx.link/truyensextv/channels/slave-hau"}},{"id":"13057-channel","name":"Người vợ mạnh mẽ sa ngã thành nô lệ tình dục","description":"Tôi là một thằng cuồng cắm sừng, khao khát trở thành một thằng chồng bị cắm sừng đầy đầu, mơ ước Huỳnh Như, vợ tôi, ngày nào cũng bị những con cặc to khác nhau đụ, bị...","image":null,"label":null,"display":"text-only","type":"text","enable_detail":true,"related":{"url":"https://truyenx.link/truyensextv/channels/related/13057","request_headers":[]},"share":{"url":"https://truyenx.link/truyensextv/channels/share/nguoi-vo-manh-me-sa-nga-thanh-no-le-tinh-duc"},"remote_data":{"url":"https://truyenx.link/truyensextv/channels/nguoi-vo-manh-me-sa-nga-thanh-no-le-tinh-duc"}},{"id":"13023-channel","name":"Làm tình cùng bạn học cũ","description":"Chuyện là mình có 1 cô bạn tên Vy, học cùng nhau từ cấp 1 đến lớp 12, nhà cũng cách nhau vài km thôi. Trước đi học ở quê thì cũng chả có ý gì, vì ngày ấy biết gì về gái gú...","image":null,"label":null,"display":"text-only","type":"text","enable_detail":true,"related":{"url":"https://truyenx.link/truyensextv/channels/related/13023","request_headers":[]},"share":{"url":"https://truyenx.link/truyensextv/channels/share/lam-tinh-cung-ban-hoc-cu"},"remote_data":{"url":"https://truyenx.link/truyensextv/channels/lam-tinh-cung-ban-hoc-cu"}},{"id":"12993-channel","name":"Gã đần đào hoa","description":"Một ngày tôi vô tình vào xem được trang truyensextv2.cc Cứ từ đó, sau một thời gian dài đọc nhiều truyện trên này, tôi đã quyết định viết truyện để châm biếm cuộc đời của...","image":null,"label":null,"display":"text-only","type":"text","enable_detail":true,"related":{"url":"https://truyenx.link/truyensextv/channels/related/12993","request_headers":[]},"share":{"url":"https://truyenx.link/truyensextv/channels/share/ga-dan-dao-hoa"},"remote_data":{"url":"https://truyenx.link/truyensextv/channels/ga-dan-dao-hoa"}},{"id":"12798-channel","name":"Sau cánh cửa văn phòng khoa","description":"Ánh nắng cuối chiều xiên qua khung cửa kính lớn của văn phòng khoa, trải một lớp vàng nhạt lên từng gáy sách, từng mép bàn cũ kỹ đã xước nước bóng. Căn phòng...","image":null,"label":null,"display":"text-only","type":"text","enable_detail":true,"related":{"url":"https://truyenx.link/truyensextv/channels/related/12798","request_headers":[]},"share":{"url":"https://truyenx.link/truyensextv/channels/share/sau-canh-cua-van-phong-khoa"},"remote_data":{"url":"https://truyenx.link/truyensextv/channels/sau-canh-cua-van-phong-khoa"}}],"load_more":{"pageInfo":{"current_page":2,"last_page":140,"per_page":30,"total":4188},"paging":{"page_key":"page","size_key":"size"},"remote_data":{"url":"https://truyenx.link/truyensextv/channels"}}}