{"grid_number":1,"channels":[{"id":"348-channel","name":"Số phận nghiệt ngã","description":"Tôi sinh ra ở mảnh đất quanh năm mù mịt bụi than. Ông ngoại tôi có 5 người con, trong đó mẹ tôi là chị cả, ngoài ra còn có 4 ông cậu nữa. Mẹ tôi được ăn học đàng hoàng và...","image":null,"label":null,"display":"text-only","type":"text","enable_detail":true,"related":{"url":"https://truyenx.link/truyensextv/channels/related/348","request_headers":[]},"share":{"url":"https://truyenx.link/truyensextv/channels/share/so-phan-nghiet-nga"},"remote_data":{"url":"https://truyenx.link/truyensextv/channels/so-phan-nghiet-nga"}},{"id":"347-channel","name":"Địt gái Zalo","description":"Tôi và em quen nhau qua zalo, rồi khi thân với nhau thì gọi nhau là anh 2 út cưng. Ban đầu nói chuyện với em đã muốn chặn luôn zalo vì em nói chuyện hơi láo nháo. Nhưng do nhẫn nại nên...","image":null,"label":null,"display":"text-only","type":"text","enable_detail":true,"related":{"url":"https://truyenx.link/truyensextv/channels/related/347","request_headers":[]},"share":{"url":"https://truyenx.link/truyensextv/channels/share/dit-gai-zalo"},"remote_data":{"url":"https://truyenx.link/truyensextv/channels/dit-gai-zalo"}},{"id":"346-channel","name":"Một lần làm tình nhớ đời","description":"Chuyện cũng xảy ra khá lâu rồi, vào năm 2001. Hồi đó mình còn trẻ khoẻ và sung sức lắm. Sau một thời gian đi lại và tán tỉnh, mình cưa được em. Em này cũng thuộc dạng dâm nên...","image":null,"label":null,"display":"text-only","type":"text","enable_detail":true,"related":{"url":"https://truyenx.link/truyensextv/channels/related/346","request_headers":[]},"share":{"url":"https://truyenx.link/truyensextv/channels/share/mot-lan-lam-tinh-nho-doi"},"remote_data":{"url":"https://truyenx.link/truyensextv/channels/mot-lan-lam-tinh-nho-doi"}},{"id":"345-channel","name":"Qua đêm với gái già","description":"Chuyện là thế này, chiều hôm qua đi ăn đám cưới 1 người bạn, về tầm 9h30 … Uống Tiger nhiều quá , nóng trong người, “thằng em” cứng ngắc trong quần làm thằng anh hổng muốn...","image":null,"label":null,"display":"text-only","type":"text","enable_detail":true,"related":{"url":"https://truyenx.link/truyensextv/channels/related/345","request_headers":[]},"share":{"url":"https://truyenx.link/truyensextv/channels/share/qua-dem-voi-gai-gia"},"remote_data":{"url":"https://truyenx.link/truyensextv/channels/qua-dem-voi-gai-gia"}},{"id":"344-channel","name":"Tuổi 23","description":"Câu chuyện bắt đầu từ một buổi sáng, khi mà tôi còn đang yên giấc thì tiếng chuông báo thức vang ầm ĩ khắp phòng... “Xin thông báo, bây giờ là… 7 giờ 1 phút! Xin thông báo, bây...","image":null,"label":null,"display":"text-only","type":"text","enable_detail":true,"related":{"url":"https://truyenx.link/truyensextv/channels/related/344","request_headers":[]},"share":{"url":"https://truyenx.link/truyensextv/channels/share/tuoi-23"},"remote_data":{"url":"https://truyenx.link/truyensextv/channels/tuoi-23"}},{"id":"343-channel","name":"Tỏ tình bá đạo","description":"Hồi lớp 10, mình rủ nó ra ngồi ở bờ sông và mình tỏ tình. Nó từ chối, mình phồng má trợn mắt lên vác xe đạp của nó lẳng vào bụi gai và hét: Có yêu...","image":null,"label":null,"display":"text-only","type":"text","enable_detail":true,"related":{"url":"https://truyenx.link/truyensextv/channels/related/343","request_headers":[]},"share":{"url":"https://truyenx.link/truyensextv/channels/share/to-tinh-ba-dao"},"remote_data":{"url":"https://truyenx.link/truyensextv/channels/to-tinh-ba-dao"}},{"id":"342-channel","name":"Cô gái đi xe Sh","description":"Nó một thằng con trai vừa mới ra trường, còn đang lông bông đợi ông cậu xin 1 chân vào công ty ông ấy làm. Nhà cũng chả khá giả gì, bà già buôn quản 1 đội xe đi mấy tỉnh tây...","image":null,"label":null,"display":"text-only","type":"text","enable_detail":true,"related":{"url":"https://truyenx.link/truyensextv/channels/related/342","request_headers":[]},"share":{"url":"https://truyenx.link/truyensextv/channels/share/co-gai-di-xe-sh"},"remote_data":{"url":"https://truyenx.link/truyensextv/channels/co-gai-di-xe-sh"}},{"id":"341-channel","name":"Chuyện tình Audition","description":"Xuất thân từ một gia đình tuy không phải kiểu mẫu, nhưng cũng là trí thức, ba mẹ làm nhà nước, tôi sinh ra và lớn lên chỉ toàn HỌC VÀ HỌC, nhà tôi khi xưa rất nghèo, ba mẹ tảo...","image":null,"label":null,"display":"text-only","type":"text","enable_detail":true,"related":{"url":"https://truyenx.link/truyensextv/channels/related/341","request_headers":[]},"share":{"url":"https://truyenx.link/truyensextv/channels/share/chuyen-tinh-audition"},"remote_data":{"url":"https://truyenx.link/truyensextv/channels/chuyen-tinh-audition"}},{"id":"340-channel","name":"Đà Lạt và em","description":"Đà Lạt, 2010... Gia đình và công việc của em thì chẳng liên quan gì đến Đà Lạt, nhưng em lại xem Đà Lạt như “một cõi đi về” vậy. Năm nào em cũng đi Đà Lạt 5, 7 lần...","image":null,"label":null,"display":"text-only","type":"text","enable_detail":true,"related":{"url":"https://truyenx.link/truyensextv/channels/related/340","request_headers":[]},"share":{"url":"https://truyenx.link/truyensextv/channels/share/da-lat-va-em"},"remote_data":{"url":"https://truyenx.link/truyensextv/channels/da-lat-va-em"}},{"id":"339-channel","name":"Truyện sex về cô bạn cùng lớp","description":"Đây là một câu chuyện có thật kể về một cô bạn cùng lớp ngồi bên cạnh tôi... Tôi và nó đã từng có những lần làm tình trong lớp học thật là dâm đãng và khoái lạc. Tôi xin...","image":null,"label":null,"display":"text-only","type":"text","enable_detail":true,"related":{"url":"https://truyenx.link/truyensextv/channels/related/339","request_headers":[]},"share":{"url":"https://truyenx.link/truyensextv/channels/share/truyen-sex-ve-co-ban-cung-lop"},"remote_data":{"url":"https://truyenx.link/truyensextv/channels/truyen-sex-ve-co-ban-cung-lop"}},{"id":"338-channel","name":"Gấu em là bạn hồi cấp 1","description":"Chuyện là hôm ấy cũng rảnh rỗi, cái đời sinh viên ngồi cày game tới 8 giờ tối cũng chán, nên em xách đít đi ăn, sẵn tiện thì hú hí hẹn mấy đứa chiến hữu ngày nào cũng gặp...","image":null,"label":null,"display":"text-only","type":"text","enable_detail":true,"related":{"url":"https://truyenx.link/truyensextv/channels/related/338","request_headers":[]},"share":{"url":"https://truyenx.link/truyensextv/channels/share/gau-em-la-ban-hoi-cap-1"},"remote_data":{"url":"https://truyenx.link/truyensextv/channels/gau-em-la-ban-hoi-cap-1"}},{"id":"337-channel","name":"Lái máy bay 48 tuổi","description":"Cách đây mấy năm, hôm đó là thứ 7, mấy anh em tổ chức nhậu từ trưa sau cuộc họp liên ngành. Buổi tối chú sếp với mấy anh chạy lên, vừa nhậu vừa dưỡng sức hết khoảng 4...","image":null,"label":null,"display":"text-only","type":"text","enable_detail":true,"related":{"url":"https://truyenx.link/truyensextv/channels/related/337","request_headers":[]},"share":{"url":"https://truyenx.link/truyensextv/channels/share/lai-may-bay-48-tuoi"},"remote_data":{"url":"https://truyenx.link/truyensextv/channels/lai-may-bay-48-tuoi"}},{"id":"336-channel","name":"Quê tôi mùa nước lũ","description":"Trong tim ai cũng có một dòng sông, giai điệu của bài hát ngọt ngào đang lôi tôi vào những kỷ niệm, cảm giác muốn trải lòng cùng ai đó thôi thúc tôi viết về những kỷ niệm này...","image":null,"label":null,"display":"text-only","type":"text","enable_detail":true,"related":{"url":"https://truyenx.link/truyensextv/channels/related/336","request_headers":[]},"share":{"url":"https://truyenx.link/truyensextv/channels/share/que-toi-mua-nuoc-lu"},"remote_data":{"url":"https://truyenx.link/truyensextv/channels/que-toi-mua-nuoc-lu"}},{"id":"335-channel","name":"Ngoại tình với chị …","description":"Em đồng ý làm người tình của chị nhé? Tôi im lặng một lúc... Cuối cùng, tôi hỏi: Với chị, thế nào là người tình? Chẳng phải chúng ta đang là người tình của nhau hay sao...","image":null,"label":null,"display":"text-only","type":"text","enable_detail":true,"related":{"url":"https://truyenx.link/truyensextv/channels/related/335","request_headers":[]},"share":{"url":"https://truyenx.link/truyensextv/channels/share/ngoai-tinh-voi-chi"},"remote_data":{"url":"https://truyenx.link/truyensextv/channels/ngoai-tinh-voi-chi"}},{"id":"334-channel","name":"Giáo sư thích loạn luân","description":"N... N sinh ra trong một gia đình nho học, cả cha và mẹ N đều là giáo viên, trong thời kỳ kháng chiến ác liệt cha mẹ N vẫn miệt mài đem con chữ cho các em học sinh. Trong một lần dạy...","image":null,"label":null,"display":"text-only","type":"text","enable_detail":true,"related":{"url":"https://truyenx.link/truyensextv/channels/related/334","request_headers":[]},"share":{"url":"https://truyenx.link/truyensextv/channels/share/giao-su-thich-loan-luan"},"remote_data":{"url":"https://truyenx.link/truyensextv/channels/giao-su-thich-loan-luan"}},{"id":"333-channel","name":"Loạn luân cậu và cháu","description":"Trâm sinh ra trong một gia đình mà ba mẹ đều là công chức nhà nước làm ăn bình thường, cuộc sống êm đềm của Trâm cứ thế trôi qua êm đềm cho đến năm lên 7 tuổi...","image":null,"label":null,"display":"text-only","type":"text","enable_detail":true,"related":{"url":"https://truyenx.link/truyensextv/channels/related/333","request_headers":[]},"share":{"url":"https://truyenx.link/truyensextv/channels/share/loan-luan-cau-va-chau"},"remote_data":{"url":"https://truyenx.link/truyensextv/channels/loan-luan-cau-va-chau"}},{"id":"332-channel","name":"Valentine ngọt ngào","description":"Tiếng nhạc chuông reo lên ầm ỹ, trên màn hình con điện thoại LG của Xu hiện lên “Anh yêu is calling”. Alo. Alo em ah, em đang làm gì vậy? Dạ… dạ em đang học bài. Mình cười không ra...","image":null,"label":null,"display":"text-only","type":"text","enable_detail":true,"related":{"url":"https://truyenx.link/truyensextv/channels/related/332","request_headers":[]},"share":{"url":"https://truyenx.link/truyensextv/channels/share/valentine-ngot-ngao"},"remote_data":{"url":"https://truyenx.link/truyensextv/channels/valentine-ngot-ngao"}},{"id":"331-channel","name":"Người con gái đầu tiên","description":"Chào anh em trên truyensextv2.cc, biết truyensextv2.cc cũng lâu lắm rồi, đến hôm nay em mới dám gửi truyện của mình. Đây là câu chuyện thật 100% của em, em xin kể cho anh em nghe và mong...","image":null,"label":null,"display":"text-only","type":"text","enable_detail":true,"related":{"url":"https://truyenx.link/truyensextv/channels/related/331","request_headers":[]},"share":{"url":"https://truyenx.link/truyensextv/channels/share/nguoi-con-gai-dau-tien"},"remote_data":{"url":"https://truyenx.link/truyensextv/channels/nguoi-con-gai-dau-tien"}},{"id":"330-channel","name":"Lén lút với con bạn","description":"Câu chuyện này xảy ra cách đây gần 4 năm rồi, giờ em mới có dịp kể. Em lúc đó là sinh viên năm 2, ở trọ một mình . Hôm đó có 2 đứa bạn gái từ quê vào thăm. Cả nhóm mấy...","image":null,"label":null,"display":"text-only","type":"text","enable_detail":true,"related":{"url":"https://truyenx.link/truyensextv/channels/related/330","request_headers":[]},"share":{"url":"https://truyenx.link/truyensextv/channels/share/len-lut-voi-con-ban"},"remote_data":{"url":"https://truyenx.link/truyensextv/channels/len-lut-voi-con-ban"}},{"id":"329-channel","name":"Sờ mó chị giúp việc","description":"Nhớ lúc còn nhỏ, lúc đó thì nhà em có thể gọi là giàu nhất vùng, giàu nhờ bà của em lúc trẻ chịu khó cày cuốc lao động rồi buôn lậu nên mới có được 1 gia sản tạm gọi là...","image":null,"label":null,"display":"text-only","type":"text","enable_detail":true,"related":{"url":"https://truyenx.link/truyensextv/channels/related/329","request_headers":[]},"share":{"url":"https://truyenx.link/truyensextv/channels/share/so-mo-chi-giup-viec"},"remote_data":{"url":"https://truyenx.link/truyensextv/channels/so-mo-chi-giup-viec"}},{"id":"328-channel","name":"Phá trinh con em họ","description":"Số là mình quê Hà Nội, do học Đại Học ở Sài Gòn nên chuyển vào đó học và ra trường đi làm luôn, nên sống 1 mình ở Sài Gòn, mình thuê 1 căn chung cư ở Quận 2 để ở. Chuyện...","image":null,"label":null,"display":"text-only","type":"text","enable_detail":true,"related":{"url":"https://truyenx.link/truyensextv/channels/related/328","request_headers":[]},"share":{"url":"https://truyenx.link/truyensextv/channels/share/pha-trinh-con-em-ho"},"remote_data":{"url":"https://truyenx.link/truyensextv/channels/pha-trinh-con-em-ho"}},{"id":"327-channel","name":"Trái tim khuyết","description":"Nó gương mặt bầu bĩnh, nước da ngăm ngăm … nhưng thân hình lại thon thả gọn gàng ... dù cao có một 1m59 … mông tròn căng … cặp vú cao vồng ... nhiều con bé xinh xinh còn ghen tị …...","image":null,"label":null,"display":"text-only","type":"text","enable_detail":true,"related":{"url":"https://truyenx.link/truyensextv/channels/related/327","request_headers":[]},"share":{"url":"https://truyenx.link/truyensextv/channels/share/trai-tim-khuyet"},"remote_data":{"url":"https://truyenx.link/truyensextv/channels/trai-tim-khuyet"}},{"id":"326-channel","name":"Cô giáo Thủy","description":"Như mọi ngày, cô giáo Thủy rời nhà đi đến trường vào lúc gần 8 giờ sáng. Vì trường ở gần, nên cô thường đi bộ, có thể xem như là tập thể dục luôn. Cô ôm sách vở trong...","image":null,"label":null,"display":"text-only","type":"text","enable_detail":true,"related":{"url":"https://truyenx.link/truyensextv/channels/related/326","request_headers":[]},"share":{"url":"https://truyenx.link/truyensextv/channels/share/co-giao-thuy"},"remote_data":{"url":"https://truyenx.link/truyensextv/channels/co-giao-thuy"}},{"id":"325-channel","name":"Chơi tập thể “máy bay”","description":"Thời sinh viên mình thiếu kỹ năng đụ đéo trầm trọng, có bạn gái nhưng suốt 2 năm chỉ biết hôn hít và sờ soạng. Thành tích cao nhất khi đó là kéo được quần em nó xuống rồi...","image":null,"label":null,"display":"text-only","type":"text","enable_detail":true,"related":{"url":"https://truyenx.link/truyensextv/channels/related/325","request_headers":[]},"share":{"url":"https://truyenx.link/truyensextv/channels/share/choi-tap-the-may-bay"},"remote_data":{"url":"https://truyenx.link/truyensextv/channels/choi-tap-the-may-bay"}},{"id":"324-channel","name":"Ngoại tình với bạn học cũ","description":"Những năm cấp hai mình được bọn trong lớp xếp vào dạng cây toán ở lớp nên được nhiều em để ý tới. Nhưng hồi đó bọn con trai cấp hai còn ngờ nghệch lắm chỉ mải chơi...","image":null,"label":null,"display":"text-only","type":"text","enable_detail":true,"related":{"url":"https://truyenx.link/truyensextv/channels/related/324","request_headers":[]},"share":{"url":"https://truyenx.link/truyensextv/channels/share/ngoai-tinh-voi-ban-hoc-cu"},"remote_data":{"url":"https://truyenx.link/truyensextv/channels/ngoai-tinh-voi-ban-hoc-cu"}},{"id":"323-channel","name":"Hương trinh nữ","description":"Em một cô gái xinh đẹp ngoan hiền, chúng tôi gặp và quen nhau tình cờ tại một lớp học nghiệp vụ buổi tối. Em sinh năm 86, cái tuổi mà nhiều anh em đã coi là “máy bay”...","image":null,"label":null,"display":"text-only","type":"text","enable_detail":true,"related":{"url":"https://truyenx.link/truyensextv/channels/related/323","request_headers":[]},"share":{"url":"https://truyenx.link/truyensextv/channels/share/huong-trinh-nu"},"remote_data":{"url":"https://truyenx.link/truyensextv/channels/huong-trinh-nu"}},{"id":"322-channel","name":"Người dì tuyệt vời","description":"Chào các dâm huynh đệ, mình tên Duy, sinh năm 1994... Mình xin kể chuyện ba mẹ trước, vì có ba mẹ mới có chúng ta mà, hì hì. Ba mình 50 tuổi và hơn mẹ 2 tuổi. Ba mẹ là người cùng...","image":null,"label":null,"display":"text-only","type":"text","enable_detail":true,"related":{"url":"https://truyenx.link/truyensextv/channels/related/322","request_headers":[]},"share":{"url":"https://truyenx.link/truyensextv/channels/share/nguoi-di-tuyet-voi"},"remote_data":{"url":"https://truyenx.link/truyensextv/channels/nguoi-di-tuyet-voi"}},{"id":"321-channel","name":"Đụ đồng nghiệp tại văn phòng","description":"Một chiều mùa hè... cách đây vài năm về trước... Chả là hồi đó mới có võ lâm truyền kỳ. Thỉnh thoảng cũng vào thử chơi 1 tí. Một hôm đang chiến đấu say sưa thì có em cùng...","image":null,"label":null,"display":"text-only","type":"text","enable_detail":true,"related":{"url":"https://truyenx.link/truyensextv/channels/related/321","request_headers":[]},"share":{"url":"https://truyenx.link/truyensextv/channels/share/du-dong-nghiep-tai-van-phong"},"remote_data":{"url":"https://truyenx.link/truyensextv/channels/du-dong-nghiep-tai-van-phong"}},{"id":"320-channel","name":"Những mảnh ký ức","description":"Tôi sinh ra trong một gia đình bố mẹ đều là cán bộ công nhân viên chức nhà nước, từ nhỏ đã không phải đụng tay chân vào làm một công việc gì. Ở lứa tuổi 8x, sức học cũng...","image":null,"label":null,"display":"text-only","type":"text","enable_detail":true,"related":{"url":"https://truyenx.link/truyensextv/channels/related/320","request_headers":[]},"share":{"url":"https://truyenx.link/truyensextv/channels/share/nhung-manh-ky-uc"},"remote_data":{"url":"https://truyenx.link/truyensextv/channels/nhung-manh-ky-uc"}},{"id":"319-channel","name":"Kỷ niệm đầu đời","description":"Hồi còn là sinh viên đi học xa nhà ở trọ khu Trung Hòa, nhà mình ở có 3 phòng trọ, còn lại chủ nhà ở bên cạnh nhưng đi 2 ngõ riêng, phòng ngoài có 2 vợ chồng ở nhưng đi suốt...","image":null,"label":null,"display":"text-only","type":"text","enable_detail":true,"related":{"url":"https://truyenx.link/truyensextv/channels/related/319","request_headers":[]},"share":{"url":"https://truyenx.link/truyensextv/channels/share/ky-niem-dau-doi"},"remote_data":{"url":"https://truyenx.link/truyensextv/channels/ky-niem-dau-doi"}}],"load_more":{"pageInfo":{"current_page":129,"last_page":140,"per_page":30,"total":4188},"paging":{"page_key":"page","size_key":"size"},"remote_data":{"url":"https://truyenx.link/truyensextv/channels"}}}