{
  "grid_number": 1,
  "channels": [
    {
      "id": "78-channel",
      "name": "Địt mẹ con chị chủ nhà",
      "description": "Ngày tôi còn ở trọ nhà chị Tuyết, thì bé Ngân mới học lớp tám. Cái tuổi bắt đầu biết kỳ cọ kỹ mỗi khi tắm, cũng như nhìn mình trong gương. Chị Tuyết là mẹ của bé Ngân...",
      "image": null,
      "label": null,
      "display": "text-only",
      "type": "text",
      "enable_detail": true,
      "related": {
        "url": "https://truyenx.link/truyensextv/channels/related/78",
        "request_headers": []
      },
      "share": {
        "url": "https://truyenx.link/truyensextv/channels/share/dit-me-con-chi-chu-nha"
      },
      "remote_data": {
        "url": "https://truyenx.link/truyensextv/channels/dit-me-con-chi-chu-nha"
      }
    },
    {
      "id": "77-channel",
      "name": "Cuộc ngoại tình dài lâu",
      "description": "Anh thường gọi cho cô tuần 3 đến 4 lần, vào những ngày chẵn buổi tối. Hai người toan tính dặn dò nhau, buổi tối bên này tức là buổi sáng bên kia. Những ngày đó chồng cô đều...",
      "image": null,
      "label": null,
      "display": "text-only",
      "type": "text",
      "enable_detail": true,
      "related": {
        "url": "https://truyenx.link/truyensextv/channels/related/77",
        "request_headers": []
      },
      "share": {
        "url": "https://truyenx.link/truyensextv/channels/share/cuoc-ngoai-tinh-dai-lau"
      },
      "remote_data": {
        "url": "https://truyenx.link/truyensextv/channels/cuoc-ngoai-tinh-dai-lau"
      }
    },
    {
      "id": "76-channel",
      "name": "Đụ mẹ người yêu",
      "description": "Đức vội khoá cửa căn phòng trọ trong khi Linh nhanh chóng mở chai nước khoáng để uống mấy viên tránh thai. Linh mỉm cười nhìn chữ LaVie trên nhãn chai nước. Quả thực đó mới là...",
      "image": null,
      "label": null,
      "display": "text-only",
      "type": "text",
      "enable_detail": true,
      "related": {
        "url": "https://truyenx.link/truyensextv/channels/related/76",
        "request_headers": []
      },
      "share": {
        "url": "https://truyenx.link/truyensextv/channels/share/du-me-nguoi-yeu"
      },
      "remote_data": {
        "url": "https://truyenx.link/truyensextv/channels/du-me-nguoi-yeu"
      }
    },
    {
      "id": "75-channel",
      "name": "Mẹ và con gái",
      "description": "Chào mẹ con mới về! Hằng ôm chầm lấy Hương mẹ cô ngay từ cửa. Cả hai mẹ con ôm nhau thật chặt. Họ nhớ nhau rất nhiều sau cả tháng trời xa cách. Con khoẻ chứ? Có bị sốc khi...",
      "image": null,
      "label": null,
      "display": "text-only",
      "type": "text",
      "enable_detail": true,
      "related": {
        "url": "https://truyenx.link/truyensextv/channels/related/75",
        "request_headers": []
      },
      "share": {
        "url": "https://truyenx.link/truyensextv/channels/share/me-va-con-gai"
      },
      "remote_data": {
        "url": "https://truyenx.link/truyensextv/channels/me-va-con-gai"
      }
    },
    {
      "id": "74-channel",
      "name": "Chơi được cả mẹ lẫn con",
      "description": "Hình ảnh người vợ yêu qúy hiện lên trong trí nhớ, làm cho nước mắt Đức tự động trào ra. Đức tự hỏi tại sao chàng lại làm như vậy? tại sao chàng lại phản bội người vợ...",
      "image": null,
      "label": null,
      "display": "text-only",
      "type": "text",
      "enable_detail": true,
      "related": {
        "url": "https://truyenx.link/truyensextv/channels/related/74",
        "request_headers": []
      },
      "share": {
        "url": "https://truyenx.link/truyensextv/channels/share/choi-duoc-ca-me-lan-con"
      },
      "remote_data": {
        "url": "https://truyenx.link/truyensextv/channels/choi-duoc-ca-me-lan-con"
      }
    },
    {
      "id": "73-channel",
      "name": "Em họ con dì",
      "description": "Tôi rời Bảo Lộc mang theo khá nhiều kỷ niệm, nào bốn đêm ngà ngọc đầu đời với cô trưởng đoàn thanh niên xung phong, nào những ngày núp trong lùm cây say mê nhìn các cô trần...",
      "image": null,
      "label": null,
      "display": "text-only",
      "type": "text",
      "enable_detail": true,
      "related": {
        "url": "https://truyenx.link/truyensextv/channels/related/73",
        "request_headers": []
      },
      "share": {
        "url": "https://truyenx.link/truyensextv/channels/share/em-ho-con-di"
      },
      "remote_data": {
        "url": "https://truyenx.link/truyensextv/channels/em-ho-con-di"
      }
    },
    {
      "id": "72-channel",
      "name": "Chuyến du lịch cuối cấp",
      "description": "Hồi lớp tôi tốt nghiệp lớp 12 chúng tôi có rủ nhau đi du lịch ở Ninh Bình một tuần, có khá nhiều chuyện thú vị qua chuyến đi đó, chuyến đi có 5 ngày thôi nhưng đã gắn bó lớp...",
      "image": null,
      "label": null,
      "display": "text-only",
      "type": "text",
      "enable_detail": true,
      "related": {
        "url": "https://truyenx.link/truyensextv/channels/related/72",
        "request_headers": []
      },
      "share": {
        "url": "https://truyenx.link/truyensextv/channels/share/chuyen-du-lich-cuoi-cap"
      },
      "remote_data": {
        "url": "https://truyenx.link/truyensextv/channels/chuyen-du-lich-cuoi-cap"
      }
    },
    {
      "id": "71-channel",
      "name": "Phá trinh ba bạn nữ",
      "description": "Tiếng trống vang lên từng hồi kết thúc buổi khai giảng mệt lả, lũ học sinh bọn tôi đứa nào cũng thở phào nhẹ nhõm. Xong, thế là được giải thoát, bọn lớp 11A2 chúng tôi ồn...",
      "image": null,
      "label": null,
      "display": "text-only",
      "type": "text",
      "enable_detail": true,
      "related": {
        "url": "https://truyenx.link/truyensextv/channels/related/71",
        "request_headers": []
      },
      "share": {
        "url": "https://truyenx.link/truyensextv/channels/share/pha-trinh-ba-ban-nu"
      },
      "remote_data": {
        "url": "https://truyenx.link/truyensextv/channels/pha-trinh-ba-ban-nu"
      }
    },
    {
      "id": "70-channel",
      "name": "Ba chị em hàng xóm",
      "description": "Tôi bắt đầu xem trộm phòng tắm của nhà kế bên năm tôi 16 tuổi, khi lần đầu tiên tôi cảm nhận được cái cảm giác tê tê khi một bầu vú căng tròn, nóng ấm dựa vào người, dù...",
      "image": null,
      "label": null,
      "display": "text-only",
      "type": "text",
      "enable_detail": true,
      "related": {
        "url": "https://truyenx.link/truyensextv/channels/related/70",
        "request_headers": []
      },
      "share": {
        "url": "https://truyenx.link/truyensextv/channels/share/ba-chi-em-hang-xom"
      },
      "remote_data": {
        "url": "https://truyenx.link/truyensextv/channels/ba-chi-em-hang-xom"
      }
    },
    {
      "id": "69-channel",
      "name": "Người đàn bà khốn khổ",
      "description": "Tôi sẽ là cô dâu đẹp nhất trên trần đời… Nghĩ đến đó mà tim tôi cứ bồi hồi, nôn nao, không biết những gì chờ đợi mình khi về làm dâu nhà ấy? Tôi yêu tất cả những gì...",
      "image": null,
      "label": null,
      "display": "text-only",
      "type": "text",
      "enable_detail": true,
      "related": {
        "url": "https://truyenx.link/truyensextv/channels/related/69",
        "request_headers": []
      },
      "share": {
        "url": "https://truyenx.link/truyensextv/channels/share/nguoi-dan-ba-khon-kho"
      },
      "remote_data": {
        "url": "https://truyenx.link/truyensextv/channels/nguoi-dan-ba-khon-kho"
      }
    },
    {
      "id": "68-channel",
      "name": "Mẹ con",
      "description": "Sau khi bố Lâm qua đời lúc hắn mới 10 tuổi, mẹ hắn Yến Nhi đã lấy chồng chỉ trong vòng chưa đầy một năm sau đó. Một phần vì nàng cần một người đàn ông ở bên cạnh lúc cô...",
      "image": null,
      "label": null,
      "display": "text-only",
      "type": "text",
      "enable_detail": true,
      "related": {
        "url": "https://truyenx.link/truyensextv/channels/related/68",
        "request_headers": []
      },
      "share": {
        "url": "https://truyenx.link/truyensextv/channels/share/me-con"
      },
      "remote_data": {
        "url": "https://truyenx.link/truyensextv/channels/me-con"
      }
    },
    {
      "id": "67-channel",
      "name": "Má nuôi",
      "description": "Má Hiền 17 năm về trước là em bạn thâm giao với mẹ Dũng, ở cách nhà nó đúng một căn nhà nên việc má nhận nó làm con nuôi vào năm nó năm tuổi là một lẽ thường tình bởi lẽ...",
      "image": null,
      "label": null,
      "display": "text-only",
      "type": "text",
      "enable_detail": true,
      "related": {
        "url": "https://truyenx.link/truyensextv/channels/related/67",
        "request_headers": []
      },
      "share": {
        "url": "https://truyenx.link/truyensextv/channels/share/ma-nuoi"
      },
      "remote_data": {
        "url": "https://truyenx.link/truyensextv/channels/ma-nuoi"
      }
    },
    {
      "id": "66-channel",
      "name": "Phá trinh chị Dung",
      "description": "Một lần nữa, chẳng khác gì con thiêu thân tìm lửa, Cường lại tìm đường kiếm lối bước vào một cuộc tình mới tràn đầy tội lỗi loạn luân nhưng thật tuyệt vời, phấn khích...",
      "image": null,
      "label": null,
      "display": "text-only",
      "type": "text",
      "enable_detail": true,
      "related": {
        "url": "https://truyenx.link/truyensextv/channels/related/66",
        "request_headers": []
      },
      "share": {
        "url": "https://truyenx.link/truyensextv/channels/share/pha-trinh-chi-dung"
      },
      "remote_data": {
        "url": "https://truyenx.link/truyensextv/channels/pha-trinh-chi-dung"
      }
    },
    {
      "id": "65-channel",
      "name": "Chị Linh",
      "description": "Từ tôi nhìn thấy Nam xuống từ cái xe của một chị phụ nữ cao ráo đầy đặn trong bộ đồ công sở, có khuôn mặt tròn trắng trẻo, cổ cao với mái tóc búi gọn ra đằng sau và đeo...",
      "image": null,
      "label": null,
      "display": "text-only",
      "type": "text",
      "enable_detail": true,
      "related": {
        "url": "https://truyenx.link/truyensextv/channels/related/65",
        "request_headers": []
      },
      "share": {
        "url": "https://truyenx.link/truyensextv/channels/share/chi-linh"
      },
      "remote_data": {
        "url": "https://truyenx.link/truyensextv/channels/chi-linh"
      }
    },
    {
      "id": "64-channel",
      "name": "Đêm trăng",
      "description": "Sau mối tình với chị Dương – chị họ con bác ruột ở thành phố Sài Gòn xa hoa tráng lệ, tuy mới có 11 tuổi nhưng Hùng đã hoàn toàn thay đổi hẳn về nhân sinh quan đối với cuộc...",
      "image": null,
      "label": null,
      "display": "text-only",
      "type": "text",
      "enable_detail": true,
      "related": {
        "url": "https://truyenx.link/truyensextv/channels/related/64",
        "request_headers": []
      },
      "share": {
        "url": "https://truyenx.link/truyensextv/channels/share/dem-trang"
      },
      "remote_data": {
        "url": "https://truyenx.link/truyensextv/channels/dem-trang"
      }
    },
    {
      "id": "63-channel",
      "name": "Mẹ bạn thân",
      "description": "Trên sofa Lam nhấn mạnh con cặc cương cứng, to lớn vào lồn bà Hòa. Hắn nắc mạnh. Hai bộ phận sinh dục ngậm chặt vào nhau ra vào. Từng đường gân cọ xát vào thành âm hộ kéo ra...",
      "image": null,
      "label": null,
      "display": "text-only",
      "type": "text",
      "enable_detail": true,
      "related": {
        "url": "https://truyenx.link/truyensextv/channels/related/63",
        "request_headers": []
      },
      "share": {
        "url": "https://truyenx.link/truyensextv/channels/share/me-ban-than"
      },
      "remote_data": {
        "url": "https://truyenx.link/truyensextv/channels/me-ban-than"
      }
    },
    {
      "id": "62-channel",
      "name": "Đụ mẹ bạn thân",
      "description": "Vừa vào đến cửa căn hộ thằng bạn thân cùng chung cư ,Lâm đã gọi “Dũng ơi! Có nhà không?” rồi mở cửa tự nhiên đi vào. Việc này nằm trong tính toán của nó vì nó vừa cho...",
      "image": null,
      "label": null,
      "display": "text-only",
      "type": "text",
      "enable_detail": true,
      "related": {
        "url": "https://truyenx.link/truyensextv/channels/related/62",
        "request_headers": []
      },
      "share": {
        "url": "https://truyenx.link/truyensextv/channels/share/du-me-ban-than"
      },
      "remote_data": {
        "url": "https://truyenx.link/truyensextv/channels/du-me-ban-than"
      }
    },
    {
      "id": "61-channel",
      "name": "Người dì",
      "description": "Sydney những năm 2000... Hằng đêm Tuấn phải đi bộ đến bệnh viện rước người dì tan làm về nhà. Khu cư xá của bệnh viện, cách đó hơn 500 mét nhưng phải qua con lộ rợp bóng cây...",
      "image": null,
      "label": null,
      "display": "text-only",
      "type": "text",
      "enable_detail": true,
      "related": {
        "url": "https://truyenx.link/truyensextv/channels/related/61",
        "request_headers": []
      },
      "share": {
        "url": "https://truyenx.link/truyensextv/channels/share/nguoi-di"
      },
      "remote_data": {
        "url": "https://truyenx.link/truyensextv/channels/nguoi-di"
      }
    },
    {
      "id": "60-channel",
      "name": "Cặp vợ chồng dâm đãng",
      "description": "Con Quỳnh ăn cơm cách vội vã. Nó tỏ vẻ mệt mỏi, buồn ngủ ra mặt cho mọi người nhìn thấy. Vét nốt một vài hột cơm cuối cùng trong chén, đùa hết vào miệng, vừa nhai vào miệng...",
      "image": null,
      "label": null,
      "display": "text-only",
      "type": "text",
      "enable_detail": true,
      "related": {
        "url": "https://truyenx.link/truyensextv/channels/related/60",
        "request_headers": []
      },
      "share": {
        "url": "https://truyenx.link/truyensextv/channels/share/cap-vo-chong-dam-dang"
      },
      "remote_data": {
        "url": "https://truyenx.link/truyensextv/channels/cap-vo-chong-dam-dang"
      }
    },
    {
      "id": "59-channel",
      "name": "Chuyện giờ mới kể",
      "description": "Thực sự mà nói thì máu dâm thì chắc thằng nào cũng có, nhưng máy cái trò anh em họ hay cô gì chú bác thì phải thuộc dạng siêu dâm mới có được cái may mắn ấy.. Đọc, nghe anh em...",
      "image": null,
      "label": null,
      "display": "text-only",
      "type": "text",
      "enable_detail": true,
      "related": {
        "url": "https://truyenx.link/truyensextv/channels/related/59",
        "request_headers": []
      },
      "share": {
        "url": "https://truyenx.link/truyensextv/channels/share/chuyen-gio-moi-ke"
      },
      "remote_data": {
        "url": "https://truyenx.link/truyensextv/channels/chuyen-gio-moi-ke"
      }
    },
    {
      "id": "58-channel",
      "name": "Đụ gái chăn bò",
      "description": "Cô gái chăn bò này tuy là chị nhưng không phải là chị ruột cũng không phải chị họ của Nam mà là một chị bạn học cùng với nó vào năm học lớp 6 tại trường cấp II, III Nguyễn...",
      "image": null,
      "label": null,
      "display": "text-only",
      "type": "text",
      "enable_detail": true,
      "related": {
        "url": "https://truyenx.link/truyensextv/channels/related/58",
        "request_headers": []
      },
      "share": {
        "url": "https://truyenx.link/truyensextv/channels/share/du-gai-chan-bo"
      },
      "remote_data": {
        "url": "https://truyenx.link/truyensextv/channels/du-gai-chan-bo"
      }
    },
    {
      "id": "57-channel",
      "name": "Truyện sex có thật",
      "description": "Tôi sinh ra trong một gia đình trung lưu. Bố mẹ đều là công chức nhà nước. Thủa nhỏ, tôi cũng học hành rất khá và nổi tiếng ngoan hiền ở khu phố vì không bao giờ nói bậy chửi...",
      "image": null,
      "label": null,
      "display": "text-only",
      "type": "text",
      "enable_detail": true,
      "related": {
        "url": "https://truyenx.link/truyensextv/channels/related/57",
        "request_headers": []
      },
      "share": {
        "url": "https://truyenx.link/truyensextv/channels/share/truyen-sex-co-that"
      },
      "remote_data": {
        "url": "https://truyenx.link/truyensextv/channels/truyen-sex-co-that"
      }
    },
    {
      "id": "56-channel",
      "name": "Tình đầu",
      "description": "Chắc chắn một điều là của Hưng sau này hoàn toàn không phải là mối tình đầu của nó vì khi tình cờ gặp lại chị Huyền con bác Thông ở Sài Gòn, chị chú bác ruột thì toàn bộ...",
      "image": null,
      "label": null,
      "display": "text-only",
      "type": "text",
      "enable_detail": true,
      "related": {
        "url": "https://truyenx.link/truyensextv/channels/related/56",
        "request_headers": []
      },
      "share": {
        "url": "https://truyenx.link/truyensextv/channels/share/tinh-dau"
      },
      "remote_data": {
        "url": "https://truyenx.link/truyensextv/channels/tinh-dau"
      }
    },
    {
      "id": "55-channel",
      "name": "7 cô em nuôi",
      "description": "Chuyện xảy ra vào năm tôi 14 tuổi, chẳng hiểu mẹ tôi nghe đâu mà quyết định nghĩ việc phụ giúp công ty của cha tôi mà đi nhận về 7 cô em này. Phải nói sơ về cha mẹ tôi, họ là...",
      "image": null,
      "label": null,
      "display": "text-only",
      "type": "text",
      "enable_detail": true,
      "related": {
        "url": "https://truyenx.link/truyensextv/channels/related/55",
        "request_headers": []
      },
      "share": {
        "url": "https://truyenx.link/truyensextv/channels/share/7-co-em-nuoi"
      },
      "remote_data": {
        "url": "https://truyenx.link/truyensextv/channels/7-co-em-nuoi"
      }
    },
    {
      "id": "54-channel",
      "name": "Em của mẹ kế",
      "description": "Khánh đang dán mắt vào màn ảnh chiếc máy điện toán, cặm cụi viết cho xong bản thảo. Tay chàng thoăn thoắt trên bàn phím, đổ những âm thanh lách cách. Nhấn vào mệnh lệnh completed...",
      "image": null,
      "label": null,
      "display": "text-only",
      "type": "text",
      "enable_detail": true,
      "related": {
        "url": "https://truyenx.link/truyensextv/channels/related/54",
        "request_headers": []
      },
      "share": {
        "url": "https://truyenx.link/truyensextv/channels/share/em-cua-me-ke"
      },
      "remote_data": {
        "url": "https://truyenx.link/truyensextv/channels/em-cua-me-ke"
      }
    },
    {
      "id": "53-channel",
      "name": "Những bữa tiệc tình dục",
      "description": "Trâm và Khôi đã làm việc liên tục trong nhiều năm, nay họ cần một sự nghỉ ngơi. Nàng đem các con đến gửi bố mẹ để chuẩn bị cùng chồng ra phi trường. Họ được tự do một...",
      "image": null,
      "label": null,
      "display": "text-only",
      "type": "text",
      "enable_detail": true,
      "related": {
        "url": "https://truyenx.link/truyensextv/channels/related/53",
        "request_headers": []
      },
      "share": {
        "url": "https://truyenx.link/truyensextv/channels/share/nhung-bua-tiec-tinh-duc"
      },
      "remote_data": {
        "url": "https://truyenx.link/truyensextv/channels/nhung-bua-tiec-tinh-duc"
      }
    },
    {
      "id": "52-channel",
      "name": "Phá trinh bạn gái",
      "description": "Tôi ngồi xuống bên nàng và ôm nàng thật chặt, hôn thật say đắm lên môi và cả má nàng, sự hứng tình lúc này đã đưa tôi lên cao độ. Tôi vuốt ve lưng nàng một cách nhẹ nhàng...",
      "image": null,
      "label": null,
      "display": "text-only",
      "type": "text",
      "enable_detail": true,
      "related": {
        "url": "https://truyenx.link/truyensextv/channels/related/52",
        "request_headers": []
      },
      "share": {
        "url": "https://truyenx.link/truyensextv/channels/share/pha-trinh-ban-gai"
      },
      "remote_data": {
        "url": "https://truyenx.link/truyensextv/channels/pha-trinh-ban-gai"
      }
    },
    {
      "id": "51-channel",
      "name": "Làm tình trên đường",
      "description": "Trời chạng vạng tối dù đồng hồ chưa quá 5 giờ chiều, lính vừa thức dậy, tụ tập quanh ấm trà. Khói thuốc lào thơm nồng cả lán. Đây đó bọn lính thì thầm trao đổi vợ, câu...",
      "image": null,
      "label": null,
      "display": "text-only",
      "type": "text",
      "enable_detail": true,
      "related": {
        "url": "https://truyenx.link/truyensextv/channels/related/51",
        "request_headers": []
      },
      "share": {
        "url": "https://truyenx.link/truyensextv/channels/share/lam-tinh-tren-duong"
      },
      "remote_data": {
        "url": "https://truyenx.link/truyensextv/channels/lam-tinh-tren-duong"
      }
    },
    {
      "id": "50-channel",
      "name": "Chị em loạn luân",
      "description": "Vừa ở Trị An được một ngày, Nam bị ngã quỵ ngay vì căn bệnh sốt rét. Bố mẹ và các chị đều quấn quýt sốt vó cả lên. Chị Hảo, chị Trang và chị Hoàng thay phiên nhau vào...",
      "image": null,
      "label": null,
      "display": "text-only",
      "type": "text",
      "enable_detail": true,
      "related": {
        "url": "https://truyenx.link/truyensextv/channels/related/50",
        "request_headers": []
      },
      "share": {
        "url": "https://truyenx.link/truyensextv/channels/share/chi-em-loan-luan"
      },
      "remote_data": {
        "url": "https://truyenx.link/truyensextv/channels/chi-em-loan-luan"
      }
    },
    {
      "id": "49-channel",
      "name": "Người chồng bạo dâm",
      "description": "Hắn chưa bao giờ thương yêu con vợ trẻ. Chỉ cần nhìn thấy cô ta là hắn phát cáu. Hắn có thích lấy cô ta đâu. Tại ba má hắn ở dưới quê hứa hẹn. Cô ta là gái quê, không đẹp...",
      "image": null,
      "label": null,
      "display": "text-only",
      "type": "text",
      "enable_detail": true,
      "related": {
        "url": "https://truyenx.link/truyensextv/channels/related/49",
        "request_headers": []
      },
      "share": {
        "url": "https://truyenx.link/truyensextv/channels/share/nguoi-chong-bao-dam"
      },
      "remote_data": {
        "url": "https://truyenx.link/truyensextv/channels/nguoi-chong-bao-dam"
      }
    }
  ],
  "load_more": {
    "pageInfo": {
      "current_page": 138,
      "last_page": 140,
      "per_page": 30,
      "total": 4188
    },
    "paging": {
      "page_key": "page",
      "size_key": "size"
    },
    "remote_data": {
      "url": "https://truyenx.link/truyensextv/channels"
    }
  }
}