{"grid_number":1,"channels":[{"id":"3097-channel","name":"Mắt âm dương","description":"Tôi vừa xuống xe buýt lúc 9h30 thì trời mưa tầm tã. Ánh đèn vàng ngoài bến xe phản chiếu xuống mặt đất, lúc này trên đường không có ai, thỉnh thoảng chỉ có vài chiếc xe chạy...","image":null,"label":null,"display":"text-only","type":"text","enable_detail":true,"related":{"url":"https://truyenx.link/truyensextv/channels/related/3097","request_headers":[]},"share":{"url":"https://truyenx.link/truyensextv/channels/share/mat-am-duong"},"remote_data":{"url":"https://truyenx.link/truyensextv/channels/mat-am-duong"}},{"id":"3098-channel","name":"Hai cô bạn thân","description":"Đủ 15 tấn rồi anh nhé. Tổng cộng 3 đợt là 50 tấn. Mai anh đến cửa hàng để quyết toán nha. Chị Phương dặn em báo lại anh thế. Cảm ơn. Cậu nói hộ chị Phương ngày kia anh lên...","image":null,"label":null,"display":"text-only","type":"text","enable_detail":true,"related":{"url":"https://truyenx.link/truyensextv/channels/related/3098","request_headers":[]},"share":{"url":"https://truyenx.link/truyensextv/channels/share/hai-co-ban-than"},"remote_data":{"url":"https://truyenx.link/truyensextv/channels/hai-co-ban-than"}},{"id":"3096-channel","name":"Cô giảng viên Thu Thuỷ nghiện sex","description":"Thu Thuỷ vợ Cường, một cô gái Hà nội gốc, Thu Thuỷ hiện đang là giảng viên của một trường đại học ở Hà nội. Sở hữu làn da trắng hồng tự nhiên cùng số đo 3 vòng khá...","image":null,"label":null,"display":"text-only","type":"text","enable_detail":true,"related":{"url":"https://truyenx.link/truyensextv/channels/related/3096","request_headers":[]},"share":{"url":"https://truyenx.link/truyensextv/channels/share/co-giang-vien-thu-thuy-nghien-sex"},"remote_data":{"url":"https://truyenx.link/truyensextv/channels/co-giang-vien-thu-thuy-nghien-sex"}},{"id":"3095-channel","name":"Phịch em gái dâm","description":"Tình trường ở đây cũng có không ít người trải qua những chuyện bất ngờ. Hồi đó tự do không quen ai mà công việc lại thuận lợi lại còn được tiền bonus từ nhà cung cấp nên...","image":null,"label":null,"display":"text-only","type":"text","enable_detail":true,"related":{"url":"https://truyenx.link/truyensextv/channels/related/3095","request_headers":[]},"share":{"url":"https://truyenx.link/truyensextv/channels/share/phich-em-gai-dam"},"remote_data":{"url":"https://truyenx.link/truyensextv/channels/phich-em-gai-dam"}},{"id":"3094-channel","name":"Mợ Năm","description":"Mợ là vợ của cậu Út. Cậu Út là con nuôi của ông chú. Ông chú không có con nên xin cậu ở chỗ các bà Sơ đem về nuôi từ nhỏ. Khi được 15 tuổi thì ông chú mất thế là cậu về...","image":null,"label":null,"display":"text-only","type":"text","enable_detail":true,"related":{"url":"https://truyenx.link/truyensextv/channels/related/3094","request_headers":[]},"share":{"url":"https://truyenx.link/truyensextv/channels/share/mo-nam"},"remote_data":{"url":"https://truyenx.link/truyensextv/channels/mo-nam"}},{"id":"3093-channel","name":"Hạnh dâm","description":"Con đã ra trường rồi, con muốn đi làm để có chút kinh nghiệm. Hạnh nói, cô đưa ánh mắt nhìn hai người lớn tuổi trước mặt là bố và mẹ của cô. Vậy con đã tìm được công...","image":null,"label":null,"display":"text-only","type":"text","enable_detail":true,"related":{"url":"https://truyenx.link/truyensextv/channels/related/3093","request_headers":[]},"share":{"url":"https://truyenx.link/truyensextv/channels/share/hanh-dam"},"remote_data":{"url":"https://truyenx.link/truyensextv/channels/hanh-dam"}},{"id":"3092-channel","name":"Cô giáo Ngọc dâm","description":"Á á á, đụ em đi anh... ahhh. Những tiếng rên dâm đãng vang lên do cặc Tín đang dã liên tục vào lồn Ngọc. Bữa giờ chồng đi làm, vợ có nứng lồn không? Dạ... có... có chồng... em...","image":null,"label":null,"display":"text-only","type":"text","enable_detail":true,"related":{"url":"https://truyenx.link/truyensextv/channels/related/3092","request_headers":[]},"share":{"url":"https://truyenx.link/truyensextv/channels/share/co-giao-ngoc-dam"},"remote_data":{"url":"https://truyenx.link/truyensextv/channels/co-giao-ngoc-dam"}},{"id":"3091-channel","name":"Những bà vợ hàng xóm","description":"Vào thẳng vấn đề luôn nha các ông đồng dâm! Trước tôi được những bà chị hàng xóm gạ chịch! Lúc ấy tôi mới 18t, cái tuổi sinh lý đang dồi dào, hôm ấy tôi được mời sang ăn...","image":null,"label":null,"display":"text-only","type":"text","enable_detail":true,"related":{"url":"https://truyenx.link/truyensextv/channels/related/3091","request_headers":[]},"share":{"url":"https://truyenx.link/truyensextv/channels/share/nhung-ba-vo-hang-xom"},"remote_data":{"url":"https://truyenx.link/truyensextv/channels/nhung-ba-vo-hang-xom"}},{"id":"3090-channel","name":"Làm tình trong bệnh viện","description":"Mình tên là D năm nay 19 tuổi, mình đang nhập viện vì làm quá nhiều và bị xi nhược cơ thể, mình được chuyển đến phòng tập thể, có 4 cái giường, nhưng chỉ có 3 người trong...","image":null,"label":null,"display":"text-only","type":"text","enable_detail":true,"related":{"url":"https://truyenx.link/truyensextv/channels/related/3090","request_headers":[]},"share":{"url":"https://truyenx.link/truyensextv/channels/share/lam-tinh-trong-benh-vien"},"remote_data":{"url":"https://truyenx.link/truyensextv/channels/lam-tinh-trong-benh-vien"}},{"id":"3089-channel","name":"9 ngày trong địa ngục","description":"Tay cầm hai túi đồ lớn vừa mới mua trong siêu thị, Quân khó nhọc với lấy chuông cửa sau đó quay lại hỏi vợ mình. Chúng ta mua thế này liệu có nhiều quá không Hoa nhỉ. Đứng...","image":null,"label":null,"display":"text-only","type":"text","enable_detail":true,"related":{"url":"https://truyenx.link/truyensextv/channels/related/3089","request_headers":[]},"share":{"url":"https://truyenx.link/truyensextv/channels/share/9-ngay-trong-dia-nguc"},"remote_data":{"url":"https://truyenx.link/truyensextv/channels/9-ngay-trong-dia-nguc"}},{"id":"3088-channel","name":"Nàng dâu báo thù","description":"Ngọc và Nam mới cưới nhau được 3 tháng. Cả 2 đang sống cùng với bố mẹ của Nam. Bố của Nam là ông Phú là người hiền lành tuy nhiên bà Tuyết vợ ông thì rất là khắt khe với...","image":null,"label":null,"display":"text-only","type":"text","enable_detail":true,"related":{"url":"https://truyenx.link/truyensextv/channels/related/3088","request_headers":[]},"share":{"url":"https://truyenx.link/truyensextv/channels/share/nang-dau-bao-thu"},"remote_data":{"url":"https://truyenx.link/truyensextv/channels/nang-dau-bao-thu"}},{"id":"3087-channel","name":"Thằng Đức - Quyển 2","description":"Đàn ông đi xa về... nhất định phải siêng năng “trả bài” với vợ, với bạn gái... nếu không là chuyện lớn... Cái này Đức lấy kinh nghiệm từ ông già minh... Lúc...","image":null,"label":null,"display":"text-only","type":"text","enable_detail":true,"related":{"url":"https://truyenx.link/truyensextv/channels/related/3087","request_headers":[]},"share":{"url":"https://truyenx.link/truyensextv/channels/share/thang-duc-quyen-2"},"remote_data":{"url":"https://truyenx.link/truyensextv/channels/thang-duc-quyen-2"}},{"id":"3086-channel","name":"Bí ẩn Thuận Kiều vs chung cư Trần Hưng Đạo","description":"Chuyện có thật, mình đã đổi tên nhân vật khi viết câu chuyện này dựa theo những gì nhân chứng thuật lại. Đồng thời cũng thêm khắc một số sự kiện và vài nhân vật khác...","image":null,"label":null,"display":"text-only","type":"text","enable_detail":true,"related":{"url":"https://truyenx.link/truyensextv/channels/related/3086","request_headers":[]},"share":{"url":"https://truyenx.link/truyensextv/channels/share/bi-an-thuan-kieu-vs-chung-cu-tran-hung-dao"},"remote_data":{"url":"https://truyenx.link/truyensextv/channels/bi-an-thuan-kieu-vs-chung-cu-tran-hung-dao"}},{"id":"3085-channel","name":"Cô giáo Thu Thuỷ dâm đãng","description":"Tôi tên Cường công tác tại một ngân hàng, vợ tôi tên Thuỷ, là cô giáo dạy ở một trường học. Đợt này tổ vợ tôi có tổ chức đi nghỉ mát, 2 vợ chồng đến trường vợ tôi...","image":null,"label":null,"display":"text-only","type":"text","enable_detail":true,"related":{"url":"https://truyenx.link/truyensextv/channels/related/3085","request_headers":[]},"share":{"url":"https://truyenx.link/truyensextv/channels/share/co-giao-thu-thuy-dam-dang"},"remote_data":{"url":"https://truyenx.link/truyensextv/channels/co-giao-thu-thuy-dam-dang"}},{"id":"3084-channel","name":"Truyện sex về Kiều Anh","description":"Kiều Anh đã gặp một chàng trai tên Minh. Anh chàng hơn cô một tuổi và đã bắt đầu sự nghiệp của mình trong ngành kinh doanh. Minh là một người thông minh, lịch lãm và hấp dẫn với...","image":null,"label":null,"display":"text-only","type":"text","enable_detail":true,"related":{"url":"https://truyenx.link/truyensextv/channels/related/3084","request_headers":[]},"share":{"url":"https://truyenx.link/truyensextv/channels/share/truyen-sex-ve-kieu-anh"},"remote_data":{"url":"https://truyenx.link/truyensextv/channels/truyen-sex-ve-kieu-anh"}},{"id":"3083-channel","name":"Chuyện ông hàng xóm","description":"Ở vùng nông thôn phía cực nam của đất nước Nhật Bản, có một gia đình trí thức sống tại nơi đây. Ông tên là Haruto, năm nay sáu mươi tuổi. Tên của ông tưởng trưng cho tia...","image":null,"label":null,"display":"text-only","type":"text","enable_detail":true,"related":{"url":"https://truyenx.link/truyensextv/channels/related/3083","request_headers":[]},"share":{"url":"https://truyenx.link/truyensextv/channels/share/chuyen-ong-hang-xom"},"remote_data":{"url":"https://truyenx.link/truyensextv/channels/chuyen-ong-hang-xom"}},{"id":"3082-channel","name":"Cô bé sao đỏ","description":"Chào mọi người, tôi tên Đ hiện tại 25 tuổi đang sinh sống và làm việc tại hàn quốc tôi đã vợ tên H và 1 con nhỏ nhưng vì chi phí đắt đỏ nên tôi đã gửi con nhỏ cho hai ông bà...","image":null,"label":null,"display":"text-only","type":"text","enable_detail":true,"related":{"url":"https://truyenx.link/truyensextv/channels/related/3082","request_headers":[]},"share":{"url":"https://truyenx.link/truyensextv/channels/share/co-be-sao-do"},"remote_data":{"url":"https://truyenx.link/truyensextv/channels/co-be-sao-do"}},{"id":"3081-channel","name":"Chuyện với cô và thím","description":"Tôi vừa tốt nghiệp về nước. Tối đó vừa xuống tàu đã gần sáng, tôi về nhà Quân, bạn đồng học. Nhà nó chỉ còn mỗi em nó ở lại, vì còn học dở dang, ba má nó đều đang ở...","image":null,"label":null,"display":"text-only","type":"text","enable_detail":true,"related":{"url":"https://truyenx.link/truyensextv/channels/related/3081","request_headers":[]},"share":{"url":"https://truyenx.link/truyensextv/channels/share/chuyen-voi-co-va-thim"},"remote_data":{"url":"https://truyenx.link/truyensextv/channels/chuyen-voi-co-va-thim"}},{"id":"3080-channel","name":"Những cuộc tình của mẹ","description":"Tôi tự giới thiệu, tôi tên Khang, là 1 học sinh cấp 3 bình thường. Còn mẹ tôi tên Liên 40 tuổi, cũng là 1 bà nội trợ bình thường, không có gì nổi bật với gương mặt chỉ ở...","image":null,"label":null,"display":"text-only","type":"text","enable_detail":true,"related":{"url":"https://truyenx.link/truyensextv/channels/related/3080","request_headers":[]},"share":{"url":"https://truyenx.link/truyensextv/channels/share/nhung-cuoc-tinh-cua-me"},"remote_data":{"url":"https://truyenx.link/truyensextv/channels/nhung-cuoc-tinh-cua-me"}},{"id":"3079-channel","name":"Địt chị họ với cháu họ","description":"Năm 2k mình mới đi làm được mấy tháng thì chuyển nhà, hồi đó vẫn ở chung với ông bà bô. Gia đình bên ngoại mình có bà chị họ giới thiệu cho mua căn nhà họ bán sát cạnh nhà...","image":null,"label":null,"display":"text-only","type":"text","enable_detail":true,"related":{"url":"https://truyenx.link/truyensextv/channels/related/3079","request_headers":[]},"share":{"url":"https://truyenx.link/truyensextv/channels/share/dit-chi-ho-voi-chau-ho"},"remote_data":{"url":"https://truyenx.link/truyensextv/channels/dit-chi-ho-voi-chau-ho"}},{"id":"3078-channel","name":"Thích nhìn vợ bị địt","description":"Tôi là Nam, trưởng phòng của một công ty nhà nước. Còn vợ tôi tên Thảo, làm nhân viên sale tại một công ty chuyên bán thực phẩm. Cả 2 chúng tôi rất hợp nhau trong chuyện tình cảm...","image":null,"label":null,"display":"text-only","type":"text","enable_detail":true,"related":{"url":"https://truyenx.link/truyensextv/channels/related/3078","request_headers":[]},"share":{"url":"https://truyenx.link/truyensextv/channels/share/thich-nhin-vo-bi-dit"},"remote_data":{"url":"https://truyenx.link/truyensextv/channels/thich-nhin-vo-bi-dit"}},{"id":"3077-channel","name":"Sếp nữ dâm đãng","description":"Tôi là Ngọc, làm việc trong một công ty bất động sản tại Hà Nội. Năm nay tôi 31 tuổi và chưa lập gia đình. Một phần cũng là vì mải mê cho công việc nên cũng chẳng thiết tha gì...","image":null,"label":null,"display":"text-only","type":"text","enable_detail":true,"related":{"url":"https://truyenx.link/truyensextv/channels/related/3077","request_headers":[]},"share":{"url":"https://truyenx.link/truyensextv/channels/share/sep-nu-dam-dang"},"remote_data":{"url":"https://truyenx.link/truyensextv/channels/sep-nu-dam-dang"}},{"id":"3076-channel","name":"Người tình lớn tuổi","description":"Tôi đã có một cuộc tình chớp nhoáng với một người phụ nữ lớn hơn tôi 8 tuổi. Cô là gia sư được ba mẹ tôi mướn đến kèm tôi học lúc tôi có kỳ thi Tú tài, trước khi vào...","image":null,"label":null,"display":"text-only","type":"text","enable_detail":true,"related":{"url":"https://truyenx.link/truyensextv/channels/related/3076","request_headers":[]},"share":{"url":"https://truyenx.link/truyensextv/channels/share/nguoi-tinh-lon-tuoi"},"remote_data":{"url":"https://truyenx.link/truyensextv/channels/nguoi-tinh-lon-tuoi"}},{"id":"3075-channel","name":"Địt em gái người yêu","description":"Tôi và Linh đã yêu nhau được 3 năm. Vì vậy tôi thường xuyên tới sống nhà cô ấy. Linh sống cùng với một cô em gái tên Phương. Phương là một cô gái nhỏ nhắn nhưng lại rất xinh...","image":null,"label":null,"display":"text-only","type":"text","enable_detail":true,"related":{"url":"https://truyenx.link/truyensextv/channels/related/3075","request_headers":[]},"share":{"url":"https://truyenx.link/truyensextv/channels/share/dit-em-gai-nguoi-yeu"},"remote_data":{"url":"https://truyenx.link/truyensextv/channels/dit-em-gai-nguoi-yeu"}},{"id":"3074-channel","name":"Được mẹ vợ dạy sex","description":"Thủy năm nay 37 tuổi, nàng là mẹ đơn thân, có con từ năm 16 tuổi, sau đó thì trẻ quá nên không ở được với nhau, nàng một mình nuôi con từ hồi đến giờ. Con gái nàng là Phương...","image":null,"label":null,"display":"text-only","type":"text","enable_detail":true,"related":{"url":"https://truyenx.link/truyensextv/channels/related/3074","request_headers":[]},"share":{"url":"https://truyenx.link/truyensextv/channels/share/duoc-me-vo-day-sex"},"remote_data":{"url":"https://truyenx.link/truyensextv/channels/duoc-me-vo-day-sex"}},{"id":"3073-channel","name":"Đụ chị hàng xóm tên Phi nát lồn","description":"Tôi tên T, năm nay tôi 25t, với độ tuổi sung sức này thì tôi lúc nào cũng rạo rực như con chó đực vậy! Haha! Gần nhà T có một cặp vợ chồng và 2 đứa con gái mới chuyển đến...","image":null,"label":null,"display":"text-only","type":"text","enable_detail":true,"related":{"url":"https://truyenx.link/truyensextv/channels/related/3073","request_headers":[]},"share":{"url":"https://truyenx.link/truyensextv/channels/share/du-chi-hang-xom-ten-phi-nat-lon"},"remote_data":{"url":"https://truyenx.link/truyensextv/channels/du-chi-hang-xom-ten-phi-nat-lon"}},{"id":"3072-channel","name":"Cháu Ngân đáng yêu","description":"Tôi tên là Thái năm nay 32 tuổi, nhưng vẫn chưa có vợ. Tôi đã để ý đến cô bé gần nhà, nó tên là Ngân 14 tuổi. Cái tuổi mà cơ thể đang phát triển. Nước da nó màu trắng, đôi...","image":null,"label":null,"display":"text-only","type":"text","enable_detail":true,"related":{"url":"https://truyenx.link/truyensextv/channels/related/3072","request_headers":[]},"share":{"url":"https://truyenx.link/truyensextv/channels/share/chau-ngan-dang-yeu"},"remote_data":{"url":"https://truyenx.link/truyensextv/channels/chau-ngan-dang-yeu"}},{"id":"3070-channel","name":"Ba mẹ con","description":"Tôi quen Duyên tình cờ khi gặp em tại trung tâm giới thiệu việc làm. Biết em tìm việc tôi giới thiệu cho em đến thử việc tại công ty tôi đang làm. May mắn em được nhận vào làm. 3...","image":null,"label":null,"display":"text-only","type":"text","enable_detail":true,"related":{"url":"https://truyenx.link/truyensextv/channels/related/3070","request_headers":[]},"share":{"url":"https://truyenx.link/truyensextv/channels/share/ba-me-con"},"remote_data":{"url":"https://truyenx.link/truyensextv/channels/ba-me-con"}},{"id":"3071-channel","name":"Hoang dục","description":"Ư tưởng và khái niệm về tình dục của những đứa trẻ dễ bị ảnh hưởng từ đâu? + Từ gia đình. + Đời sống. + Các mối quan hệ. + Hay là internet. Hà là con gái út của Đạo và...","image":null,"label":null,"display":"text-only","type":"text","enable_detail":true,"related":{"url":"https://truyenx.link/truyensextv/channels/related/3071","request_headers":[]},"share":{"url":"https://truyenx.link/truyensextv/channels/share/hoang-duc"},"remote_data":{"url":"https://truyenx.link/truyensextv/channels/hoang-duc"}},{"id":"3069-channel","name":"Địt mẹ bạn học cấp 2","description":"Xin chào các bác em năm nay 18 tuổi cao tầm m67 nặng tầm 58kg. Nhìn khá cân và to. Nước da thì cũng không trắng lắm vì ở nông thôn mà. Câu chuyện em muốn kể xảy ra như sau: Đợt Tết...","image":null,"label":null,"display":"text-only","type":"text","enable_detail":true,"related":{"url":"https://truyenx.link/truyensextv/channels/related/3069","request_headers":[]},"share":{"url":"https://truyenx.link/truyensextv/channels/share/dit-me-ban-hoc-cap-2"},"remote_data":{"url":"https://truyenx.link/truyensextv/channels/dit-me-ban-hoc-cap-2"}}],"load_more":{"pageInfo":{"current_page":57,"last_page":140,"per_page":30,"total":4188},"paging":{"page_key":"page","size_key":"size"},"remote_data":{"url":"https://truyenx.link/truyensextv/channels"}}}