{"grid_number":1,"channels":[{"id":"378-channel","name":"Cái chuồng bò năm ấy","description":"Cho đến giờ tôi chỉ thích ngồi một mình trong căn phòng vắng, tay cầm li bia, nghe thứ âm nhạc động lòng người, tận lực đem thể xác và linh hồn mình trở nên yên tĩnh lại. Mặc...","image":null,"label":null,"display":"text-only","type":"text","enable_detail":true,"related":{"url":"https://truyenx.link/truyensextv/channels/related/378","request_headers":[]},"share":{"url":"https://truyenx.link/truyensextv/channels/share/cai-chuong-bo-nam-ay"},"remote_data":{"url":"https://truyenx.link/truyensextv/channels/cai-chuong-bo-nam-ay"}},{"id":"377-channel","name":"Tâm sự của gái 18","description":"Hôm nọ, tôi đọc trộm được tin nhắn của bố và mẹ, mẹ nhắn tin cho bố là mẹ muốn sung sướng với cái buồi của bố. Tôi chợt nghĩ đến mẹ mình, bà ấy còn trẻ và đẹp, vú...","image":null,"label":null,"display":"text-only","type":"text","enable_detail":true,"related":{"url":"https://truyenx.link/truyensextv/channels/related/377","request_headers":[]},"share":{"url":"https://truyenx.link/truyensextv/channels/share/tam-su-cua-gai-18"},"remote_data":{"url":"https://truyenx.link/truyensextv/channels/tam-su-cua-gai-18"}},{"id":"376-channel","name":"Chị ơi… Anh yêu em!","description":"Quen chị qua một cuộc điện thoại, nghe giọng chị dễ thương quá, thế là thích, add yahoo, tìm FB. Rồi thì lân la làm quen, hai chị em cũng khá thân thiết trên Facebook và cũng hay chat chit...","image":null,"label":null,"display":"text-only","type":"text","enable_detail":true,"related":{"url":"https://truyenx.link/truyensextv/channels/related/376","request_headers":[]},"share":{"url":"https://truyenx.link/truyensextv/channels/share/chi-oi-anh-yeu-em"},"remote_data":{"url":"https://truyenx.link/truyensextv/channels/chi-oi-anh-yeu-em"}},{"id":"375-channel","name":"Người con gái ấy, tôi đã từng yêu","description":"“Reng... reng...” Tiếng chuông điện thoại vang lên khi mình đang ngồi nhậu với bọn bạn. Số lạ! Thường thì mình không bắt máy, nhưng chả hiểu là do say quá hay sao mà mình...","image":null,"label":null,"display":"text-only","type":"text","enable_detail":true,"related":{"url":"https://truyenx.link/truyensextv/channels/related/375","request_headers":[]},"share":{"url":"https://truyenx.link/truyensextv/channels/share/nguoi-con-gai-ay-toi-da-tung-yeu"},"remote_data":{"url":"https://truyenx.link/truyensextv/channels/nguoi-con-gai-ay-toi-da-tung-yeu"}},{"id":"374-channel","name":"Đĩ đực","description":"Đã lâu lắm rồi Minh không nhận được cuộc gọi nào. Cuộc sống và công việc cũng cứ cuống con người ta đi. Các chị em chắc ai cũng đã có niềm vui của mình. Thế cũng tốt...","image":null,"label":null,"display":"text-only","type":"text","enable_detail":true,"related":{"url":"https://truyenx.link/truyensextv/channels/related/374","request_headers":[]},"share":{"url":"https://truyenx.link/truyensextv/channels/share/di-duc"},"remote_data":{"url":"https://truyenx.link/truyensextv/channels/di-duc"}},{"id":"373-channel","name":"Thầy giáo phá trinh nữ sinh","description":"Tiếng vỗ tay nhiệt liệt của tập thể các thầy cô giáo khi thầy Khoa lên nhận bằng khen về thành tích xuất sắc trong công tác dạy học của trường. Thầy điềm tĩnh, ánh mắt rạng...","image":null,"label":null,"display":"text-only","type":"text","enable_detail":true,"related":{"url":"https://truyenx.link/truyensextv/channels/related/373","request_headers":[]},"share":{"url":"https://truyenx.link/truyensextv/channels/share/thay-giao-pha-trinh-nu-sinh"},"remote_data":{"url":"https://truyenx.link/truyensextv/channels/thay-giao-pha-trinh-nu-sinh"}},{"id":"372-channel","name":"Gạ tình chị họ dâm đãng","description":"Trong cuộc đời mỗi chúng ta, không ai không mắc sai lầm, nhưng đối với tôi, đó là trải nghiệm, dẫu cho trải nghiệm ấy có thể là tội lỗi tột cùng, loạn luân...","image":null,"label":null,"display":"text-only","type":"text","enable_detail":true,"related":{"url":"https://truyenx.link/truyensextv/channels/related/372","request_headers":[]},"share":{"url":"https://truyenx.link/truyensextv/channels/share/ga-tinh-chi-ho-dam-dang"},"remote_data":{"url":"https://truyenx.link/truyensextv/channels/ga-tinh-chi-ho-dam-dang"}},{"id":"371-channel","name":"Tôi thấy dâm tặc đang hiếp dâm","description":"Truyện lấy các nhân vật từ phim “Tôi thấy hoa vàng trên cỏ xanh” Bối cảnh ở làng quê miền Trung Việt Nam, năm 1989. Đã 11 giờ khuya, Thiều không ngủ mà ra ngồi trước cửa...","image":null,"label":null,"display":"text-only","type":"text","enable_detail":true,"related":{"url":"https://truyenx.link/truyensextv/channels/related/371","request_headers":[]},"share":{"url":"https://truyenx.link/truyensextv/channels/share/toi-thay-dam-tac-dang-hiep-dam"},"remote_data":{"url":"https://truyenx.link/truyensextv/channels/toi-thay-dam-tac-dang-hiep-dam"}},{"id":"370-channel","name":"Trả thù","description":"Vào lúc sáng, Diệp vốn là một cô gái trẻ đẹp đến công ty của ông Thiên để xin việc làm, ông Thiên ngay...","image":null,"label":null,"display":"text-only","type":"text","enable_detail":true,"related":{"url":"https://truyenx.link/truyensextv/channels/related/370","request_headers":[]},"share":{"url":"https://truyenx.link/truyensextv/channels/share/tra-thu"},"remote_data":{"url":"https://truyenx.link/truyensextv/channels/tra-thu"}},{"id":"369-channel","name":"Xin lỗi tình yêu","description":"Đêm... Cảnh đêm Sài Gòn khá ồn ào với tiếng xe cộ chạy không ngớt và ánh đèn sáng rực một góc đường, xa xa thấy thoáng vài cu trẻ trâu đang thể hiện phong cách bằng việc...","image":null,"label":null,"display":"text-only","type":"text","enable_detail":true,"related":{"url":"https://truyenx.link/truyensextv/channels/related/369","request_headers":[]},"share":{"url":"https://truyenx.link/truyensextv/channels/share/xin-loi-tinh-yeu"},"remote_data":{"url":"https://truyenx.link/truyensextv/channels/xin-loi-tinh-yeu"}},{"id":"368-channel","name":"Tình yêu cấm","description":"Chào các anh chị, em mới gia nhập truyensextv2.cc, là lần đầu viết chưa có kinh nghiệm nữa, còn sai sót mong anh chị bỏ qua cho em... Chuyện của em là như thế này, tôi là nữ và cũng là...","image":null,"label":null,"display":"text-only","type":"text","enable_detail":true,"related":{"url":"https://truyenx.link/truyensextv/channels/related/368","request_headers":[]},"share":{"url":"https://truyenx.link/truyensextv/channels/share/tinh-yeu-cam"},"remote_data":{"url":"https://truyenx.link/truyensextv/channels/tinh-yeu-cam"}},{"id":"367-channel","name":"Cảm xúc","description":"Lâu lắm rồi.... hình như vợ chồng mình bị nguội lạnh chuyện ấy thì phải, theo tìm hiểu trên nhiều kênh thông tin thì hóa ra trường hợp của vợ chồng mình cũng không phải là...","image":null,"label":null,"display":"text-only","type":"text","enable_detail":true,"related":{"url":"https://truyenx.link/truyensextv/channels/related/367","request_headers":[]},"share":{"url":"https://truyenx.link/truyensextv/channels/share/cam-xuc"},"remote_data":{"url":"https://truyenx.link/truyensextv/channels/cam-xuc"}},{"id":"366-channel","name":"Lần đầu quan hệ","description":"Mình năm nay 24, sinh năm 93, thế mà mới mất trinh cách đây 2 tuần. Giới thiệu về bản thân một chút, mình thì không cao, có 1m67, nhìn cũng khá đẹp trai, thế mà đến 24 mùa khoai sọ...","image":null,"label":null,"display":"text-only","type":"text","enable_detail":true,"related":{"url":"https://truyenx.link/truyensextv/channels/related/366","request_headers":[]},"share":{"url":"https://truyenx.link/truyensextv/channels/share/lan-dau-quan-he"},"remote_data":{"url":"https://truyenx.link/truyensextv/channels/lan-dau-quan-he"}},{"id":"365-channel","name":"Ký ức nhạt nhòa","description":"Tôi sinh ra trong 1 gia đình mà có lẽ sự thăng trầm của nó diễn ra lúc mà tôi còn quá bé để lờ mờ nhận ra. Trong trí óc của 1 đứa trẻ, có lẽ những gì ghi nhớ được là những...","image":null,"label":null,"display":"text-only","type":"text","enable_detail":true,"related":{"url":"https://truyenx.link/truyensextv/channels/related/365","request_headers":[]},"share":{"url":"https://truyenx.link/truyensextv/channels/share/ky-uc-nhat-nhoa"},"remote_data":{"url":"https://truyenx.link/truyensextv/channels/ky-uc-nhat-nhoa"}},{"id":"364-channel","name":"Tình học sinh","description":"Tui là một thằng nhóc hay cười và cũng hay nổi điên. Lên cấp III được một năm rồi, bạn bè tui thằng nào cũng có gấu hết, chỉ có tui là chưa có. Tía má tụi nó, mới mười mấy...","image":null,"label":null,"display":"text-only","type":"text","enable_detail":true,"related":{"url":"https://truyenx.link/truyensextv/channels/related/364","request_headers":[]},"share":{"url":"https://truyenx.link/truyensextv/channels/share/tinh-hoc-sinh"},"remote_data":{"url":"https://truyenx.link/truyensextv/channels/tinh-hoc-sinh"}},{"id":"363-channel","name":"Tán gái sư phạm","description":"Hôm đó, đang chán vào bar tìm cạ lại gặp ngay thằng bạn vàng đang ngồi một mình. Thế là hai thằng rủ nhau đi nhậu, đời thế mà lại vui. Đang ngồi chén chú chén anh, bỗng nó...","image":null,"label":null,"display":"text-only","type":"text","enable_detail":true,"related":{"url":"https://truyenx.link/truyensextv/channels/related/363","request_headers":[]},"share":{"url":"https://truyenx.link/truyensextv/channels/share/tan-gai-su-pham"},"remote_data":{"url":"https://truyenx.link/truyensextv/channels/tan-gai-su-pham"}},{"id":"362-channel","name":"Đụ em gái người yêu","description":"Chuyện này cách đây cũng mấy năm rồi, thời tôi còn học cấp 3 có yêu nhỏ bạn ở quê học cùng lớp. Mãi đến năm thứ 1 đại học thì nhỏ đấy mới nhận lời tôi, sau 1 năm thì...","image":null,"label":null,"display":"text-only","type":"text","enable_detail":true,"related":{"url":"https://truyenx.link/truyensextv/channels/related/362","request_headers":[]},"share":{"url":"https://truyenx.link/truyensextv/channels/share/du-em-gai-nguoi-yeu"},"remote_data":{"url":"https://truyenx.link/truyensextv/channels/du-em-gai-nguoi-yeu"}},{"id":"361-channel","name":"Lấy vợ muộn","description":"Mình là một người lấy vợ muộn. Ở tuổi 39, khi mấy thằng bạn cùng lớp đã chuẩn bị thành bố vợ thì mình mới đi chạm ngõ ăn hỏi, còn khi đám cưới cử hành mình đã bước...","image":null,"label":null,"display":"text-only","type":"text","enable_detail":true,"related":{"url":"https://truyenx.link/truyensextv/channels/related/361","request_headers":[]},"share":{"url":"https://truyenx.link/truyensextv/channels/share/lay-vo-muon"},"remote_data":{"url":"https://truyenx.link/truyensextv/channels/lay-vo-muon"}},{"id":"360-channel","name":"Cô gái đi xe đạp điện","description":"12h khuya, nó đang thả hổn với cốc chivas 18 đầy ụ trong cái không khí ngập mùi shisa, rượu và người. Hai bên tai chat chúa tiếng nhạc sàn từ bàn DJ cùng tiếng hô hào hưởng ứng...","image":null,"label":null,"display":"text-only","type":"text","enable_detail":true,"related":{"url":"https://truyenx.link/truyensextv/channels/related/360","request_headers":[]},"share":{"url":"https://truyenx.link/truyensextv/channels/share/co-gai-di-xe-dap-dien"},"remote_data":{"url":"https://truyenx.link/truyensextv/channels/co-gai-di-xe-dap-dien"}},{"id":"359-channel","name":"Tình ở nơi đâu","description":"Sài Gòn chiều nay trở gió, về nhà trên chiếc xe cà tàng của mình mà Long cảm thấy như sắp bay lên khỏi mặt đất. Những con gió vẫn gào rít thổi qua mặt nó một cách ghê rợn...","image":null,"label":null,"display":"text-only","type":"text","enable_detail":true,"related":{"url":"https://truyenx.link/truyensextv/channels/related/359","request_headers":[]},"share":{"url":"https://truyenx.link/truyensextv/channels/share/tinh-o-noi-dau"},"remote_data":{"url":"https://truyenx.link/truyensextv/channels/tinh-o-noi-dau"}},{"id":"358-channel","name":"Bé Hân thèm đụ","description":"Dựa theo nhân vật trong phim “Mãi mãi là bao lâu” Câu chuyện lấy bối cảnh ở thành phố Hồ Chí Minh, tại một căn hộ chung cư cao cấp. Nơi đây hai vợ chồng Đăng và Diệu...","image":null,"label":null,"display":"text-only","type":"text","enable_detail":true,"related":{"url":"https://truyenx.link/truyensextv/channels/related/358","request_headers":[]},"share":{"url":"https://truyenx.link/truyensextv/channels/share/be-han-them-du"},"remote_data":{"url":"https://truyenx.link/truyensextv/channels/be-han-them-du"}},{"id":"357-channel","name":"Về quê - Drop","description":"Chuyện xảy ra cũng lâu lắm rồi, lúc đó tâm trạng của tôi thật thoải mái vì mới hoàn tất xong kỳ thi tốt nghiệp PTTH và thi đại học. Kỳ thi đại học tôi làm bài cũng khá...","image":null,"label":null,"display":"text-only","type":"text","enable_detail":true,"related":{"url":"https://truyenx.link/truyensextv/channels/related/357","request_headers":[]},"share":{"url":"https://truyenx.link/truyensextv/channels/share/ve-que-drop"},"remote_data":{"url":"https://truyenx.link/truyensextv/channels/ve-que-drop"}},{"id":"356-channel","name":"Một thời để nhớ","description":"Nó tên Huy Hoàng, ở nhà từ bé vẫn thường được gọi là Nhất, vì nó nhất đủ thứ, nó là bé nhất trong nhà, trên nó có tận 4 chị gái, ông bà già chiều nó nhất vì mãi đến...","image":null,"label":null,"display":"text-only","type":"text","enable_detail":true,"related":{"url":"https://truyenx.link/truyensextv/channels/related/356","request_headers":[]},"share":{"url":"https://truyenx.link/truyensextv/channels/share/mot-thoi-de-nho"},"remote_data":{"url":"https://truyenx.link/truyensextv/channels/mot-thoi-de-nho"}},{"id":"355-channel","name":"Chạy xe mùa đông","description":"Cô là người thích cái cảm giác chạy xe giữa mùa đông, cô ngồi sau anh, ôm anh thật chặt và thì thầm vào tai anh: Em chẳng thấy lạnh gì cả. Anh với hai hàm răng run cầm cập, nói...","image":null,"label":null,"display":"text-only","type":"text","enable_detail":true,"related":{"url":"https://truyenx.link/truyensextv/channels/related/355","request_headers":[]},"share":{"url":"https://truyenx.link/truyensextv/channels/share/chay-xe-mua-dong"},"remote_data":{"url":"https://truyenx.link/truyensextv/channels/chay-xe-mua-dong"}},{"id":"354-channel","name":"Tình kỹ nữ","description":"Ê zai đẹp. Hôm nay anh có khách đặc biệt. Cho anh...","image":null,"label":null,"display":"text-only","type":"text","enable_detail":true,"related":{"url":"https://truyenx.link/truyensextv/channels/related/354","request_headers":[]},"share":{"url":"https://truyenx.link/truyensextv/channels/share/tinh-ky-nu"},"remote_data":{"url":"https://truyenx.link/truyensextv/channels/tinh-ky-nu"}},{"id":"353-channel","name":"Bắt cóc hiếp dâm","description":"Thơm đi dạo trên đường. Đã 10h tối, đường bắt đầu vắng dần đi, cô năm nay tròn 18 tuổi, đang là học sinh lớp 12, cuối năm nay là bước sang đại học năm nhất, cô đang suy...","image":null,"label":null,"display":"text-only","type":"text","enable_detail":true,"related":{"url":"https://truyenx.link/truyensextv/channels/related/353","request_headers":[]},"share":{"url":"https://truyenx.link/truyensextv/channels/share/bat-coc-hiep-dam"},"remote_data":{"url":"https://truyenx.link/truyensextv/channels/bat-coc-hiep-dam"}},{"id":"352-channel","name":"Tình yêu đẹp","description":"Tôi là Bảo Phong, mọi người vẫn thường gọi tôi là Phong Nhĩ, có nghĩa là “gió tai”. Năm nay tôi 23 tuổi, đang làm cho một công ty phần mềm của Mỹ, nhưng tôi ở Việt Nam...","image":null,"label":null,"display":"text-only","type":"text","enable_detail":true,"related":{"url":"https://truyenx.link/truyensextv/channels/related/352","request_headers":[]},"share":{"url":"https://truyenx.link/truyensextv/channels/share/tinh-yeu-dep"},"remote_data":{"url":"https://truyenx.link/truyensextv/channels/tinh-yeu-dep"}},{"id":"351-channel","name":"Quá khứ tìm về","description":"Nam quen Hà khi đến xóm trọ của cậu em cùng làm công ty dự sinh nhật. Hà là cô gái phổng phao, bộ ngực phập phồng căng tràn sức sống dưới lớp áo phông ôm sát người, cao chừng 1...","image":null,"label":null,"display":"text-only","type":"text","enable_detail":true,"related":{"url":"https://truyenx.link/truyensextv/channels/related/351","request_headers":[]},"share":{"url":"https://truyenx.link/truyensextv/channels/share/qua-khu-tim-ve"},"remote_data":{"url":"https://truyenx.link/truyensextv/channels/qua-khu-tim-ve"}},{"id":"350-channel","name":"Em vẫn yêu anh như ngày đầu tiên","description":"Chào các bạn, mình năm nay 22 tuổi, vô tình biết đến truyensextv2.cc, cũng có câu chuyện muốn chia sẻ. Đây là chuyện thật, mình đã và đang trải qua, mọi người tin thì đọc, không...","image":null,"label":null,"display":"text-only","type":"text","enable_detail":true,"related":{"url":"https://truyenx.link/truyensextv/channels/related/350","request_headers":[]},"share":{"url":"https://truyenx.link/truyensextv/channels/share/em-van-yeu-anh-nhu-ngay-dau-tien"},"remote_data":{"url":"https://truyenx.link/truyensextv/channels/em-van-yeu-anh-nhu-ngay-dau-tien"}},{"id":"349-channel","name":"Cô gái Oải Hương","description":"Người ta vẫn thường nói, khi bạn...","image":null,"label":null,"display":"text-only","type":"text","enable_detail":true,"related":{"url":"https://truyenx.link/truyensextv/channels/related/349","request_headers":[]},"share":{"url":"https://truyenx.link/truyensextv/channels/share/co-gai-oai-huong"},"remote_data":{"url":"https://truyenx.link/truyensextv/channels/co-gai-oai-huong"}}],"load_more":{"pageInfo":{"current_page":128,"last_page":140,"per_page":30,"total":4188},"paging":{"page_key":"page","size_key":"size"},"remote_data":{"url":"https://truyenx.link/truyensextv/channels"}}}