{"grid_number":1,"channels":[{"id":"3820-channel","name":"Vụng trộm","description":"Khanh lấy chồng 3 năm nhưng không tìm được hạnh phúc. Khanh không yêu chồng mà vẫn cưới, bởi lý luận của Khanh là “lấy người thương mình hơn lấy người mình thương”...","image":null,"label":null,"display":"text-only","type":"text","enable_detail":true,"related":{"url":"https://truyenx.link/truyensextv/channels/related/3820","request_headers":[]},"share":{"url":"https://truyenx.link/truyensextv/channels/share/vung-trom"},"remote_data":{"url":"https://truyenx.link/truyensextv/channels/vung-trom"}},{"id":"3819-channel","name":"Cave Ấn Độ","description":"Tôi là một thanh niên Mỹ gốc Việt, 38 tuổi rồi. Diện mạo bình thường, cao thước tám, coi cũng được, chả méo mó gì hết. Dương vật cũng bình thường nốt, dài cỡ 15 phân một...","image":null,"label":null,"display":"text-only","type":"text","enable_detail":true,"related":{"url":"https://truyenx.link/truyensextv/channels/related/3819","request_headers":[]},"share":{"url":"https://truyenx.link/truyensextv/channels/share/cave-an-do"},"remote_data":{"url":"https://truyenx.link/truyensextv/channels/cave-an-do"}},{"id":"3818-channel","name":"Bà dì tuổi ất mùi","description":"Hôm qua tôi xuống khu Phước Lộc Thọ chơi, gặp một anh bạn thân, cùng ngồi uống cà phê bụi đời gần chỗ đường Moran, được anh bạn kể cho nghe một chuyện loạn luân có thực...","image":null,"label":null,"display":"text-only","type":"text","enable_detail":true,"related":{"url":"https://truyenx.link/truyensextv/channels/related/3818","request_headers":[]},"share":{"url":"https://truyenx.link/truyensextv/channels/share/ba-di-tuoi-at-mui"},"remote_data":{"url":"https://truyenx.link/truyensextv/channels/ba-di-tuoi-at-mui"}},{"id":"3817-channel","name":"Thời học sinh oanh liệt","description":"Nên bắt đầu từ đâu nhỉ, từ lớp 1 vậy. Ngày xưa đi học đâu có chán như bây giờ. Hồi đó quê tôi còn nghèo lắm còn giờ thì khác rồi hì hì. Thú thật từ lúc còn học lớp 1...","image":null,"label":null,"display":"text-only","type":"text","enable_detail":true,"related":{"url":"https://truyenx.link/truyensextv/channels/related/3817","request_headers":[]},"share":{"url":"https://truyenx.link/truyensextv/channels/share/thoi-hoc-sinh-oanh-liet"},"remote_data":{"url":"https://truyenx.link/truyensextv/channels/thoi-hoc-sinh-oanh-liet"}},{"id":"3816-channel","name":"Vợ tôi khoe của","description":"Không biết trên đời này có bao nhiêu cô gái hoặc đàn bà có cùng sở thích giống như vợ tôi hay không, chứ nói riêng về vợ tôi, thì nàng được liệt kê vào hàng số một. Sau một...","image":null,"label":null,"display":"text-only","type":"text","enable_detail":true,"related":{"url":"https://truyenx.link/truyensextv/channels/related/3816","request_headers":[]},"share":{"url":"https://truyenx.link/truyensextv/channels/share/vo-toi-khoe-cua"},"remote_data":{"url":"https://truyenx.link/truyensextv/channels/vo-toi-khoe-cua"}},{"id":"3815-channel","name":"Tuấn","description":"Ánh nắng ban mai chiếu qua khung cửa sổ làm Nhung giật mình thức giấc, nàng ngồi dậy dựa lưng lên thành giường kéo tấm chăn che bớt thân thể lõa lồ của mình đang rõ một một...","image":null,"label":null,"display":"text-only","type":"text","enable_detail":true,"related":{"url":"https://truyenx.link/truyensextv/channels/related/3815","request_headers":[]},"share":{"url":"https://truyenx.link/truyensextv/channels/share/tuan"},"remote_data":{"url":"https://truyenx.link/truyensextv/channels/tuan"}},{"id":"3814-channel","name":"Những cái lồn thời đại học","description":"Xin chào, Tôi tên Quang, Sinh ra và lớn lên ở Hà Nội. Tôi là một thằng học sinh khá giỏi ở trong lớp. Tuy không đến mức học bá, nhưng cũng giỏi nhất nhì lớp. Khi thi đại học...","image":null,"label":null,"display":"text-only","type":"text","enable_detail":true,"related":{"url":"https://truyenx.link/truyensextv/channels/related/3814","request_headers":[]},"share":{"url":"https://truyenx.link/truyensextv/channels/share/nhung-cai-lon-thoi-dai-hoc"},"remote_data":{"url":"https://truyenx.link/truyensextv/channels/nhung-cai-lon-thoi-dai-hoc"}},{"id":"3813-channel","name":"Tử tội","description":"8 giờ sáng: Bầu trời đang chuyển sang màu xám ngoét. Người tử tù ngồi im lặng trong khám đường. Nơi đây một ngày dài như một năm, nhưng hôm nay, đối với tên tử tội, lại khác...","image":null,"label":null,"display":"text-only","type":"text","enable_detail":true,"related":{"url":"https://truyenx.link/truyensextv/channels/related/3813","request_headers":[]},"share":{"url":"https://truyenx.link/truyensextv/channels/share/tu-toi"},"remote_data":{"url":"https://truyenx.link/truyensextv/channels/tu-toi"}},{"id":"3812-channel","name":"Ông hàng xóm","description":"Tôi là Thảo, năm nay mới 16 tuổi. Đang ở giai đoạn dậy thì, tôi lại trộm vía lấy gen từ mẹ nên ngực tôi to hơn bạn đồng trang lứa, eo lại nhỏ gọn, mông lại căng tròn. Vì...","image":null,"label":null,"display":"text-only","type":"text","enable_detail":true,"related":{"url":"https://truyenx.link/truyensextv/channels/related/3812","request_headers":[]},"share":{"url":"https://truyenx.link/truyensextv/channels/share/ong-hang-xom"},"remote_data":{"url":"https://truyenx.link/truyensextv/channels/ong-hang-xom"}},{"id":"3811-channel","name":"Bisex","description":"Tôi không muốn chịu đựng cô nữa. Tôi đã cho cô biết bao nhiêu thứ mà cô muốn. Vậy mà sau lưng tôi cô đi mèo mỡ lăng nhăng với một thằng đàn ông khác. Cô làm tôi trông giống...","image":null,"label":null,"display":"text-only","type":"text","enable_detail":true,"related":{"url":"https://truyenx.link/truyensextv/channels/related/3811","request_headers":[]},"share":{"url":"https://truyenx.link/truyensextv/channels/share/bisex"},"remote_data":{"url":"https://truyenx.link/truyensextv/channels/bisex"}},{"id":"3810-channel","name":"Trò chơi tứ trụ","description":"Mẹ tôi là một hoa khôi của khu chợ Đầm, thuộc miền Nha Trang cát trắng, bà đã làm say đắm biết bao chàng trai tứ xứ. Cha tôi là một anh hùng Không Quân, vì chiến tranh, cha tôi tử...","image":null,"label":null,"display":"text-only","type":"text","enable_detail":true,"related":{"url":"https://truyenx.link/truyensextv/channels/related/3810","request_headers":[]},"share":{"url":"https://truyenx.link/truyensextv/channels/share/tro-choi-tu-tru"},"remote_data":{"url":"https://truyenx.link/truyensextv/channels/tro-choi-tu-tru"}},{"id":"3808-channel","name":"Trắng tay","description":"Nghĩ lại chuyện xảy ra của buổi tối hôm qua mà tôi vẫn còn thấy rạo rực và ngây ngất. Có lẽ kể từ ngày theo chồng sang Úc đến giờ, tôi mới tìm lại được cái cảm giác bay...","image":null,"label":null,"display":"text-only","type":"text","enable_detail":true,"related":{"url":"https://truyenx.link/truyensextv/channels/related/3808","request_headers":[]},"share":{"url":"https://truyenx.link/truyensextv/channels/share/trang-tay"},"remote_data":{"url":"https://truyenx.link/truyensextv/channels/trang-tay"}},{"id":"3809-channel","name":"Ngọn lửa tự do","description":"Trong hàng thế kỷ, Khải Huyền đã tồn tại trên mặt đất, một kẻ bất tử bị trói buộc vào dòng chảy vô tận của lịch sử. Sinh ra vào cuối thế kỷ 18, hắn đã từng chỉ là...","image":null,"label":null,"display":"text-only","type":"text","enable_detail":true,"related":{"url":"https://truyenx.link/truyensextv/channels/related/3809","request_headers":[]},"share":{"url":"https://truyenx.link/truyensextv/channels/share/ngon-lua-tu-do"},"remote_data":{"url":"https://truyenx.link/truyensextv/channels/ngon-lua-tu-do"}},{"id":"3807-channel","name":"Tôi làm gái chơi","description":"Tôi lên xe hoa với một người đàn ông xa lạ do cha mẹ lựa chọn và sắp đặt, tôi chỉ gặp mặt vài lần trước ngày cưới, và ảnh lớn hơn tôi gần gấp đôi. Tiệc cưới thật...","image":null,"label":null,"display":"text-only","type":"text","enable_detail":true,"related":{"url":"https://truyenx.link/truyensextv/channels/related/3807","request_headers":[]},"share":{"url":"https://truyenx.link/truyensextv/channels/share/toi-lam-gai-choi"},"remote_data":{"url":"https://truyenx.link/truyensextv/channels/toi-lam-gai-choi"}},{"id":"3806-channel","name":"Tình nhân","description":"Thu Loan qua Mỹ theo diện con lai. Nàng người Việt, chồng nàng lai da đen tên Hoàng. Lúc nàng đang học năm cuối bậc trung học, thì ở VN trong cơn sốt ra đi của những người con lai. Từ...","image":null,"label":null,"display":"text-only","type":"text","enable_detail":true,"related":{"url":"https://truyenx.link/truyensextv/channels/related/3806","request_headers":[]},"share":{"url":"https://truyenx.link/truyensextv/channels/share/tinh-nhan"},"remote_data":{"url":"https://truyenx.link/truyensextv/channels/tinh-nhan"}},{"id":"3805-channel","name":"Thảo Vy","description":"Tuổi 16 là cái tuổi mơn mởn của cả trai lẫn gái, tâm sinh lý mới phát triển còn muốn tìm hiểu về cơ thể bạn khác giới nên các cặp yêu nhau khối tôi xuất hiện khá nhiều cùng...","image":null,"label":null,"display":"text-only","type":"text","enable_detail":true,"related":{"url":"https://truyenx.link/truyensextv/channels/related/3805","request_headers":[]},"share":{"url":"https://truyenx.link/truyensextv/channels/share/thao-vy"},"remote_data":{"url":"https://truyenx.link/truyensextv/channels/thao-vy"}},{"id":"3804-channel","name":"Tình mẹ con","description":"Thằng Tuấn ôm bụng nhăn nhó, gục đầu lên bàn học hy vọng cho bớt cơn đau, nó thầm nguyền rủa con mẹ bán nước cạnh lớp học thêm vì trước khi vào học nó cùng bọn bạn uống...","image":null,"label":null,"display":"text-only","type":"text","enable_detail":true,"related":{"url":"https://truyenx.link/truyensextv/channels/related/3804","request_headers":[]},"share":{"url":"https://truyenx.link/truyensextv/channels/share/tinh-me-con"},"remote_data":{"url":"https://truyenx.link/truyensextv/channels/tinh-me-con"}},{"id":"3803-channel","name":"Tình hàng xóm","description":"Thành phố San Jose trong thung lũng điện toán Cali có những con đường toàn là người Việt thành thử dễ quen mặt nhau và biết cả đời tư của nhau, chồng làm hãng nào, vợ mới bị...","image":null,"label":null,"display":"text-only","type":"text","enable_detail":true,"related":{"url":"https://truyenx.link/truyensextv/channels/related/3803","request_headers":[]},"share":{"url":"https://truyenx.link/truyensextv/channels/share/tinh-hang-xom"},"remote_data":{"url":"https://truyenx.link/truyensextv/channels/tinh-hang-xom"}},{"id":"3802-channel","name":"Tiểu Vân","description":"Long đi học thêm buổi tối để lấy bằng MBA hay gì đó. Hai người học chung lớp về cách research. Ngồi kế nhau. Hai ánh mắt nhìn nhau. Thấy mến mến. Thế là quen nhau ở uni. Có thể...","image":null,"label":null,"display":"text-only","type":"text","enable_detail":true,"related":{"url":"https://truyenx.link/truyensextv/channels/related/3802","request_headers":[]},"share":{"url":"https://truyenx.link/truyensextv/channels/share/tieu-van"},"remote_data":{"url":"https://truyenx.link/truyensextv/channels/tieu-van"}},{"id":"3801-channel","name":"Chuyện của Thanh","description":"Cú điện thoại báo cáo của cô nhân viên kế toán khiến Thanh thở phào nhẹ nhõm. Cuối cùng thì tiền cũng về tài khoản. Thương vụ vậy là thành công. Thanh mất ngăn mất ngủ cả...","image":null,"label":null,"display":"text-only","type":"text","enable_detail":true,"related":{"url":"https://truyenx.link/truyensextv/channels/related/3801","request_headers":[]},"share":{"url":"https://truyenx.link/truyensextv/channels/share/chuyen-cua-thanh"},"remote_data":{"url":"https://truyenx.link/truyensextv/channels/chuyen-cua-thanh"}},{"id":"3800-channel","name":"Thêm tay thêm chân","description":"Phong, với nhiều thành tích vẻ vang, được Quan Tri Huyện bổ đi cai quản đội lính tuần phòng của tổng Bình Thạnh đã được tròn một năm nay. Phong đã có vợ và 3 con, đứa lớn...","image":null,"label":null,"display":"text-only","type":"text","enable_detail":true,"related":{"url":"https://truyenx.link/truyensextv/channels/related/3800","request_headers":[]},"share":{"url":"https://truyenx.link/truyensextv/channels/share/them-tay-them-chan"},"remote_data":{"url":"https://truyenx.link/truyensextv/channels/them-tay-them-chan"}},{"id":"3799-channel","name":"Cạo lông lồn giúp em hàng xóm","description":"Diễm nằm im để tận hưởng giây phút được bàn tay thô ráp của nhân tình nhưng rất điệu nghệ trong việc cạo sạch tất tần tật lông lồn, lông đít, lông háng, lông nách, lông...","image":null,"label":null,"display":"text-only","type":"text","enable_detail":true,"related":{"url":"https://truyenx.link/truyensextv/channels/related/3799","request_headers":[]},"share":{"url":"https://truyenx.link/truyensextv/channels/share/cao-long-lon-giup-em-hang-xom"},"remote_data":{"url":"https://truyenx.link/truyensextv/channels/cao-long-lon-giup-em-hang-xom"}},{"id":"3798-channel","name":"Quà cuối khóa","description":"Minh lên đại học rồi thì mới không có vấn đề hẹn hò kiếm bạn, chứ lúc còn ở trung học thì hơi nhát so với đám bạn cùng lứa nên chẳng có bạn gái. Mười tháng trước gã có...","image":null,"label":null,"display":"text-only","type":"text","enable_detail":true,"related":{"url":"https://truyenx.link/truyensextv/channels/related/3798","request_headers":[]},"share":{"url":"https://truyenx.link/truyensextv/channels/share/qua-cuoi-khoa"},"remote_data":{"url":"https://truyenx.link/truyensextv/channels/qua-cuoi-khoa"}},{"id":"3797-channel","name":"Phận gái hèn","description":"Thảo mến! Đầu thư chúc Thảo và gia đình được an khang thịnh vượng. Chúc anh Lâm và chị Bình được trăm năm hạnh phúc. Nhớ cho mình gửi lời thăm bác Sáu, Thảo nhé... Thảo nè...","image":null,"label":null,"display":"text-only","type":"text","enable_detail":true,"related":{"url":"https://truyenx.link/truyensextv/channels/related/3797","request_headers":[]},"share":{"url":"https://truyenx.link/truyensextv/channels/share/phan-gai-hen"},"remote_data":{"url":"https://truyenx.link/truyensextv/channels/phan-gai-hen"}},{"id":"3796-channel","name":"Ông bà Năm","description":"Từ lúc gặp Nguyệt và cưới nhau hai mươi năm trước. Vợ chồng ông Năm đã bước qua tuổi bốn mươi, Bà Nguyệt năm nay đã được bốn mươi hai và ông Năm vừa tròn năm mươi. Hai...","image":null,"label":null,"display":"text-only","type":"text","enable_detail":true,"related":{"url":"https://truyenx.link/truyensextv/channels/related/3796","request_headers":[]},"share":{"url":"https://truyenx.link/truyensextv/channels/share/ong-ba-nam"},"remote_data":{"url":"https://truyenx.link/truyensextv/channels/ong-ba-nam"}},{"id":"3795-channel","name":"Oan nghiệt","description":"Ngồi xổm xuống đất, ông Cơ tụt quần lưng lửng ngang tới đầu gối. Hai bàn tay rắn chắc của người đàn ông đưa lên, bấu chặt hai bên đùi non của con bé, bàn tay tưởng chừng...","image":null,"label":null,"display":"text-only","type":"text","enable_detail":true,"related":{"url":"https://truyenx.link/truyensextv/channels/related/3795","request_headers":[]},"share":{"url":"https://truyenx.link/truyensextv/channels/share/oan-nghiet"},"remote_data":{"url":"https://truyenx.link/truyensextv/channels/oan-nghiet"}},{"id":"3794-channel","name":"Nửa đời hạnh phúc","description":"Bà Tâm nói với người cháu chồng “Dũng ra chợ mua giùm tôi vài chai nước ngọt nhá.” Dũng nói vâng và hắn lấy xe chạy ra supermarket gần nhà. Dũng là một người cháu họ xa...","image":null,"label":null,"display":"text-only","type":"text","enable_detail":true,"related":{"url":"https://truyenx.link/truyensextv/channels/related/3794","request_headers":[]},"share":{"url":"https://truyenx.link/truyensextv/channels/share/nua-doi-hanh-phuc"},"remote_data":{"url":"https://truyenx.link/truyensextv/channels/nua-doi-hanh-phuc"}},{"id":"3793-channel","name":"Hai cô vợ dâm đãng","description":"Chuyện là tôi vừa mới biết vợ tôi có người bên ngoài. Nếu nó là con trai thì không nói đi, nhưng đó lại là con gái. Chả là hôm nay tôi đi đón vợ tại cơ quan, hôm nay được sếp...","image":null,"label":null,"display":"text-only","type":"text","enable_detail":true,"related":{"url":"https://truyenx.link/truyensextv/channels/related/3793","request_headers":[]},"share":{"url":"https://truyenx.link/truyensextv/channels/share/hai-co-vo-dam-dang"},"remote_data":{"url":"https://truyenx.link/truyensextv/channels/hai-co-vo-dam-dang"}},{"id":"3792-channel","name":"Kim Tuyền và hành trình trở thành bồn chứa dục vọng","description":"Chào, tên tôi là Hưng. Sở dĩ tôi viết những dòng này là bởi lẽ trong lòng tôi đang rất rạo rực. Một phần là bởi cái sức trẻ đang sôi sục ở cái tuổi 17 18 này, phần nữa là...","image":null,"label":null,"display":"text-only","type":"text","enable_detail":true,"related":{"url":"https://truyenx.link/truyensextv/channels/related/3792","request_headers":[]},"share":{"url":"https://truyenx.link/truyensextv/channels/share/kim-tuyen-va-hanh-trinh-tro-thanh-bon-chua-duc-vong"},"remote_data":{"url":"https://truyenx.link/truyensextv/channels/kim-tuyen-va-hanh-trinh-tro-thanh-bon-chua-duc-vong"}},{"id":"3791-channel","name":"Trú ẩn tại nhà","description":"Cũng lâu rồi này mới dám kể ra! Khi Long tròn 19 tuổi, cái tuổi nhỏ thì không phải mà lớn thì cũng hẳn... nhưng cơ suốt 19 năm không biết tình yêu là gì cũng như về tình dục và...","image":null,"label":null,"display":"text-only","type":"text","enable_detail":true,"related":{"url":"https://truyenx.link/truyensextv/channels/related/3791","request_headers":[]},"share":{"url":"https://truyenx.link/truyensextv/channels/share/tru-an-tai-nha"},"remote_data":{"url":"https://truyenx.link/truyensextv/channels/tru-an-tai-nha"}}],"load_more":{"pageInfo":{"current_page":33,"last_page":140,"per_page":30,"total":4188},"paging":{"page_key":"page","size_key":"size"},"remote_data":{"url":"https://truyenx.link/truyensextv/channels"}}}