{"grid_number":1,"channels":[{"id":"2678-channel","name":"Truyền thuyết Tokbokki","description":"Chuyện là năm đó, tôi thi đậu một trường đại học ở TP HCM, nhưng vì gia đình xảy ra một vài chuyện nên tôi không học đại học được, nói đúng hơn là tôi chỉ học tới lớp...","image":null,"label":null,"display":"text-only","type":"text","enable_detail":true,"related":{"url":"https://truyenx.link/truyensextv/channels/related/2678","request_headers":[]},"share":{"url":"https://truyenx.link/truyensextv/channels/share/truyen-thuyet-tokbokki"},"remote_data":{"url":"https://truyenx.link/truyensextv/channels/truyen-thuyet-tokbokki"}},{"id":"2677-channel","name":"Thuốc tiên","description":"Hẳn ai trong chúng ta cũng đều có những thời điểm ham muốn đến điên dại, và có lẽ cũng có một vài người có những ảo tưởng kỳ quái trong việc làm chuyện người lớn các...","image":null,"label":null,"display":"text-only","type":"text","enable_detail":true,"related":{"url":"https://truyenx.link/truyensextv/channels/related/2677","request_headers":[]},"share":{"url":"https://truyenx.link/truyensextv/channels/share/thuoc-tien"},"remote_data":{"url":"https://truyenx.link/truyensextv/channels/thuoc-tien"}},{"id":"2676-channel","name":"Hạnh phúc của tôi, niềm trăn trở của tôi","description":"Địt nhau xong. Tôi bảo: Già rồi. Thích thì vẫn thích. Nhưng rát lắm. Hay là Hùng cứ tìm tình trẻ để giải quyết sinh lý đi. Em chịu được! Vớ vẩn! Mới 60 mà sao Loan cứ bảo...","image":null,"label":null,"display":"text-only","type":"text","enable_detail":true,"related":{"url":"https://truyenx.link/truyensextv/channels/related/2676","request_headers":[]},"share":{"url":"https://truyenx.link/truyensextv/channels/share/hanh-phuc-cua-toi-niem-tran-tro-cua-toi"},"remote_data":{"url":"https://truyenx.link/truyensextv/channels/hanh-phuc-cua-toi-niem-tran-tro-cua-toi"}},{"id":"2675-channel","name":"Kiệt thiếu gia","description":"6 Giờ sáng như mọi ngày hắn thức dậy vệ sinh cá nhân của mình đến 6h15 hắn lái con xe Honda CRV của mình đi... Ngày hôm nay hắn có cuộc hẹn với đối tác trong công ty của hắn...","image":null,"label":null,"display":"text-only","type":"text","enable_detail":true,"related":{"url":"https://truyenx.link/truyensextv/channels/related/2675","request_headers":[]},"share":{"url":"https://truyenx.link/truyensextv/channels/share/kiet-thieu-gia"},"remote_data":{"url":"https://truyenx.link/truyensextv/channels/kiet-thieu-gia"}},{"id":"2674-channel","name":"Kỷ niệm cuối cùng","description":"Xin chào mọi người, mình đã theo dõi và đọc truyện trên trang từ năm 2017 đến giờ và hôm nay mình xin chia sẻ câu chuyện của mình lên đây để chia sẻ với mọi người. Mình không...","image":null,"label":null,"display":"text-only","type":"text","enable_detail":true,"related":{"url":"https://truyenx.link/truyensextv/channels/related/2674","request_headers":[]},"share":{"url":"https://truyenx.link/truyensextv/channels/share/ky-niem-cuoi-cung"},"remote_data":{"url":"https://truyenx.link/truyensextv/channels/ky-niem-cuoi-cung"}},{"id":"2673-channel","name":"Chị hàng xóm","description":"Tiếng sấm đùng đùng, giông lốc bắt đầu nổi lên. Vội vàng từ trên gác xép nó phi xuống thu quần áo vô nhà. Nó là sinh viên năm cuối của 1 trường đại học công nghệ giờ đang...","image":null,"label":null,"display":"text-only","type":"text","enable_detail":true,"related":{"url":"https://truyenx.link/truyensextv/channels/related/2673","request_headers":[]},"share":{"url":"https://truyenx.link/truyensextv/channels/share/chi-hang-xom"},"remote_data":{"url":"https://truyenx.link/truyensextv/channels/chi-hang-xom"}},{"id":"2672-channel","name":"Gia đình nô lệ","description":"Quế đá phăng Nam ngã nhào xuống giường, mặt cô đỏ bừng, cả người run lên bần bật: Anh có còn là đàn ông không? Tôi còn chưa kịp hứng thì anh đã ra mẹ rồi. Biết thế đéo...","image":null,"label":null,"display":"text-only","type":"text","enable_detail":true,"related":{"url":"https://truyenx.link/truyensextv/channels/related/2672","request_headers":[]},"share":{"url":"https://truyenx.link/truyensextv/channels/share/gia-dinh-no-le"},"remote_data":{"url":"https://truyenx.link/truyensextv/channels/gia-dinh-no-le"}},{"id":"2671-channel","name":"Chị thủ quỹ","description":"Thu và Quang quen nhau khi còn học ở trường cao đẳng Marketing, cả hai lại cùng quê với nhau. Vĩnh Long là nơi sinh của hai vợ chồng sau khi ra trường. Suốt thời gian cùng học ở...","image":null,"label":null,"display":"text-only","type":"text","enable_detail":true,"related":{"url":"https://truyenx.link/truyensextv/channels/related/2671","request_headers":[]},"share":{"url":"https://truyenx.link/truyensextv/channels/share/chi-thu-quy"},"remote_data":{"url":"https://truyenx.link/truyensextv/channels/chi-thu-quy"}},{"id":"2670-channel","name":"Ông thầy bói","description":"Chồng Linh là cán bộ quản lý. Đang sắp có đợt thay đổi nhân sự. Nên chồng Linh lo lắng ra mặt. Quan trường là chiến trường. Một là anh lên cao hai là anh xuống thấp. Có khi bị...","image":null,"label":null,"display":"text-only","type":"text","enable_detail":true,"related":{"url":"https://truyenx.link/truyensextv/channels/related/2670","request_headers":[]},"share":{"url":"https://truyenx.link/truyensextv/channels/share/ong-thay-boi"},"remote_data":{"url":"https://truyenx.link/truyensextv/channels/ong-thay-boi"}},{"id":"2669-channel","name":"Quỳnh","description":"Là hoa được rạng rỡ khoe sắc trong nắng, lung linh đùa nghịch cùng sương mai đó mới là hạnh phúc. Nhưng có loài hoa trắng xinh chỉ âm thầm nở trong đêm tối, để lặng lẽ cúi...","image":null,"label":null,"display":"text-only","type":"text","enable_detail":true,"related":{"url":"https://truyenx.link/truyensextv/channels/related/2669","request_headers":[]},"share":{"url":"https://truyenx.link/truyensextv/channels/share/quynh"},"remote_data":{"url":"https://truyenx.link/truyensextv/channels/quynh"}},{"id":"2668-channel","name":"Anh chồng không ghen","description":"Chồng không ghen. Chồng luôn tin tưởng vợ. Đây là một sự thật trong gia đình Linh. Linh lấy chồng được một năm. Linh là cô gái kiêu kỳ rất thích mặc đồ mát mẻ, sexy một chút...","image":null,"label":null,"display":"text-only","type":"text","enable_detail":true,"related":{"url":"https://truyenx.link/truyensextv/channels/related/2668","request_headers":[]},"share":{"url":"https://truyenx.link/truyensextv/channels/share/anh-chong-khong-ghen"},"remote_data":{"url":"https://truyenx.link/truyensextv/channels/anh-chong-khong-ghen"}},{"id":"2667-channel","name":"Mợ dạy cháu làm tình","description":"Tôi còn nhớ hồi nhỏ đến tuổi dậy thì, lúc đó tôi lên thành phố học được cậu bà con cho ở nhờ để đi học đỡ phải thuê phòng tốn tiền, tôi ở được máy ngày một hôm...","image":null,"label":null,"display":"text-only","type":"text","enable_detail":true,"related":{"url":"https://truyenx.link/truyensextv/channels/related/2667","request_headers":[]},"share":{"url":"https://truyenx.link/truyensextv/channels/share/mo-day-chau-lam-tinh"},"remote_data":{"url":"https://truyenx.link/truyensextv/channels/mo-day-chau-lam-tinh"}},{"id":"2666-channel","name":"419","description":"Buổi chiều hôm ấy, tôi có hẹn buổi hẹn cuối cùng khi chia tay. Tôi tới chở T đi ăn và đi chơi buổi cuối cùng trước khi chia tay. Chúng tôi đi ăn từ lúc 4h chiều sau đó chúng tôi...","image":null,"label":null,"display":"text-only","type":"text","enable_detail":true,"related":{"url":"https://truyenx.link/truyensextv/channels/related/2666","request_headers":[]},"share":{"url":"https://truyenx.link/truyensextv/channels/share/419"},"remote_data":{"url":"https://truyenx.link/truyensextv/channels/419"}},{"id":"2665-channel","name":"Chị Uyên hàng xóm","description":"Tuấn ơi, giúp chị với. Nghe tiếng gọi, tôi lật đật chạy sang nhà chị Uyên hàng xóm. Ở cái tuổi mà ông bà mình vẫn gọi là bẻ gãy sừng trâu, vì siêng năng tập thể dục, tôi...","image":null,"label":null,"display":"text-only","type":"text","enable_detail":true,"related":{"url":"https://truyenx.link/truyensextv/channels/related/2665","request_headers":[]},"share":{"url":"https://truyenx.link/truyensextv/channels/share/chi-uyen-hang-xom"},"remote_data":{"url":"https://truyenx.link/truyensextv/channels/chi-uyen-hang-xom"}},{"id":"2664-channel","name":"Gieo trộm","description":"Lần đầu tôi gặp anh Hiếu trong một quán cafe trên đường Nguyễn Xí, sáng đó mưa như trút nước kéo dài hàng tiếng đồng hồ, con đường ở phía trước quán cafe bỗng chốc trở...","image":null,"label":null,"display":"text-only","type":"text","enable_detail":true,"related":{"url":"https://truyenx.link/truyensextv/channels/related/2664","request_headers":[]},"share":{"url":"https://truyenx.link/truyensextv/channels/share/gieo-trom"},"remote_data":{"url":"https://truyenx.link/truyensextv/channels/gieo-trom"}},{"id":"2663-channel","name":"Người đàn bà đẹp","description":"Tôi đứng dậy vươn vai sau khi xem xong một tập phim truyền hình nhạt nhẽo. Những câu thoại vô hồn, những khuôn mặt giả trân, lẽ ra tôi nên cảm thấy phát ngấy khi đã có đủ...","image":null,"label":null,"display":"text-only","type":"text","enable_detail":true,"related":{"url":"https://truyenx.link/truyensextv/channels/related/2663","request_headers":[]},"share":{"url":"https://truyenx.link/truyensextv/channels/share/nguoi-dan-ba-dep"},"remote_data":{"url":"https://truyenx.link/truyensextv/channels/nguoi-dan-ba-dep"}},{"id":"2662-channel","name":"Cùng quay ngược thời gian","description":"Đưa con cho chồng, tôi bảo: Bố bế em nào để mẹ đi quấy bột rồi còn nấu ăn chứ. Ngoan nhé! Mẹ yêu em... Ông giơ tay đón con, bàn tay còn cố tình sờ nhẹ vào hai bầu vú đang tụ...","image":null,"label":null,"display":"text-only","type":"text","enable_detail":true,"related":{"url":"https://truyenx.link/truyensextv/channels/related/2662","request_headers":[]},"share":{"url":"https://truyenx.link/truyensextv/channels/share/cung-quay-nguoc-thoi-gian"},"remote_data":{"url":"https://truyenx.link/truyensextv/channels/cung-quay-nguoc-thoi-gian"}},{"id":"2661-channel","name":"Xuyên về thời Lê","description":"Tiếng còi xe cấp cứu inh ỏi xin đường, chiếc xe cấp cứu len lỏi trên con đường đông đúc giờ tan tầm, thế nhưng... ai tránh cứ tránh, ai đi cứ đi, bên trong xe, một người đầy...","image":null,"label":null,"display":"text-only","type":"text","enable_detail":true,"related":{"url":"https://truyenx.link/truyensextv/channels/related/2661","request_headers":[]},"share":{"url":"https://truyenx.link/truyensextv/channels/share/xuyen-ve-thoi-le"},"remote_data":{"url":"https://truyenx.link/truyensextv/channels/xuyen-ve-thoi-le"}},{"id":"2660-channel","name":"Cô cháu gái","description":"Trước hết xin nói qua về gia đình cũng như hoàn cảnh của mình để các bác tiện theo dõi truyện. Mình năm nay 25 tuổi, vợ mình 22 tuổi, ở 1 huyện ngoại thành của 1 tỉnh miền trung...","image":null,"label":null,"display":"text-only","type":"text","enable_detail":true,"related":{"url":"https://truyenx.link/truyensextv/channels/related/2660","request_headers":[]},"share":{"url":"https://truyenx.link/truyensextv/channels/share/co-chau-gai"},"remote_data":{"url":"https://truyenx.link/truyensextv/channels/co-chau-gai"}},{"id":"2659-channel","name":"Vòng tuần hoàn đa sắc","description":"Vừa nghe thằng Tú ọ ẹ, tôi liền xoay mình vỗ về con. Được cái nết dễ ngủ nên nó tóp tép cái cặp môi mọng đỏ như cười rồi ngủ tiếp. Tôi lật mình nằm ngửa rồi cầm tay...","image":null,"label":null,"display":"text-only","type":"text","enable_detail":true,"related":{"url":"https://truyenx.link/truyensextv/channels/related/2659","request_headers":[]},"share":{"url":"https://truyenx.link/truyensextv/channels/share/vong-tuan-hoan-da-sac"},"remote_data":{"url":"https://truyenx.link/truyensextv/channels/vong-tuan-hoan-da-sac"}},{"id":"2658-channel","name":"Con vợ đĩ thõa ngoại tình","description":"Tôi là phó giám đốc kinh doanh của 1 công ty lớn, nên thường hay phải đi công tác xa nhà. Vợ tôi rất đẹp, nàng có cao 1m68 số đo 3 vòng chuẩn như người mẫu, nàng có cặp chân dài...","image":null,"label":null,"display":"text-only","type":"text","enable_detail":true,"related":{"url":"https://truyenx.link/truyensextv/channels/related/2658","request_headers":[]},"share":{"url":"https://truyenx.link/truyensextv/channels/share/con-vo-di-thoa-ngoai-tinh"},"remote_data":{"url":"https://truyenx.link/truyensextv/channels/con-vo-di-thoa-ngoai-tinh"}},{"id":"2657-channel","name":"Đĩ Quyên","description":"Hello các anh em đồng râm. Ở đây có ai là fan của Siew Pui Yi không. Có thì cho tui xinh cánh tay nào. Sơ qua thì tui là Nguyễn Thị Minh Quyên 18 tuổi và tôi là một dâm nữ chính hiệu từ...","image":null,"label":null,"display":"text-only","type":"text","enable_detail":true,"related":{"url":"https://truyenx.link/truyensextv/channels/related/2657","request_headers":[]},"share":{"url":"https://truyenx.link/truyensextv/channels/share/di-quyen"},"remote_data":{"url":"https://truyenx.link/truyensextv/channels/di-quyen"}},{"id":"2656-channel","name":"Hàng xóm bên Mỹ","description":"Từ lúc mẹ con bà Hồng Trang tự nhiên ở đâu dọn về gần nhà ông Tư Đỉnh. Họ trở thành láng giềng trong một thị trấn nhỏ ở xứ Mỹ này. Ông Tư Đỉnh vợ chết hơn hai năm ở...","image":null,"label":null,"display":"text-only","type":"text","enable_detail":true,"related":{"url":"https://truyenx.link/truyensextv/channels/related/2656","request_headers":[]},"share":{"url":"https://truyenx.link/truyensextv/channels/share/hang-xom-ben-my"},"remote_data":{"url":"https://truyenx.link/truyensextv/channels/hang-xom-ben-my"}},{"id":"2655-channel","name":"Quyền - Sắc","description":"Buổi sáng Chu Thông đang ngồi xổm trong toilet ủy ban trấn, nghe từ bên nhà vệ sinh nữ truyền đến tiếng ho khan của phó chủ nhiệm văn phòng ủy ban Tiểu Hồng Mai, mới nhớ tới hôm...","image":null,"label":null,"display":"text-only","type":"text","enable_detail":true,"related":{"url":"https://truyenx.link/truyensextv/channels/related/2655","request_headers":[]},"share":{"url":"https://truyenx.link/truyensextv/channels/share/quyen-sac"},"remote_data":{"url":"https://truyenx.link/truyensextv/channels/quyen-sac"}},{"id":"2654-channel","name":"Thằng bóp lồn","description":"Chị Thuận, khuôn mặt nhìn được được, người hơi mập mạp, gọi là có da có thịt, tuy vậy nhìn chị rất bốc, bụng vẫn có eo o, đi biển mặc bikini vẫn có đàn ông nghéo đầu...","image":null,"label":null,"display":"text-only","type":"text","enable_detail":true,"related":{"url":"https://truyenx.link/truyensextv/channels/related/2654","request_headers":[]},"share":{"url":"https://truyenx.link/truyensextv/channels/share/thang-bop-lon"},"remote_data":{"url":"https://truyenx.link/truyensextv/channels/thang-bop-lon"}},{"id":"2653-channel","name":"Nhật ký bị phá trinh","description":"Trên chuyến bay từ Việt nam về Mỹ. Thành nhìn qua vợ. Nguyệt ngủ ngon lành. Lòng dâng lên niềm hối hận vô biên. Thành không ngờ sau ba tuần về Việt nam chơi lại có chuyện mà hắn...","image":null,"label":null,"display":"text-only","type":"text","enable_detail":true,"related":{"url":"https://truyenx.link/truyensextv/channels/related/2653","request_headers":[]},"share":{"url":"https://truyenx.link/truyensextv/channels/share/nhat-ky-bi-pha-trinh"},"remote_data":{"url":"https://truyenx.link/truyensextv/channels/nhat-ky-bi-pha-trinh"}},{"id":"2652-channel","name":"Sơn tặc mạnh nhất thế giới","description":"Hệ thống Tích... tích... tích... DUNG HỢP THÀNH CÔNG BẮT ĐẦU KHỞI ĐỘNG HỆ THỐNG... Ta đang ở nơi nào? Thiếu niên mở mắt nhìn xung quanh, phát hiện mình đang nằm trên một bia đá...","image":null,"label":null,"display":"text-only","type":"text","enable_detail":true,"related":{"url":"https://truyenx.link/truyensextv/channels/related/2652","request_headers":[]},"share":{"url":"https://truyenx.link/truyensextv/channels/share/son-tac-manh-nhat-the-gioi"},"remote_data":{"url":"https://truyenx.link/truyensextv/channels/son-tac-manh-nhat-the-gioi"}},{"id":"2651-channel","name":"Tây du","description":"Xuyên Không Thiên là một thanh niên gương mẫu, ở cái tuổi 18 chưa hề có một mối tình vắt vai nào. Gia cảnh xếp vào hạng bình thường, bạn bè cũng mến hắn. Bất quá do cái mã...","image":null,"label":null,"display":"text-only","type":"text","enable_detail":true,"related":{"url":"https://truyenx.link/truyensextv/channels/related/2651","request_headers":[]},"share":{"url":"https://truyenx.link/truyensextv/channels/share/tay-du"},"remote_data":{"url":"https://truyenx.link/truyensextv/channels/tay-du"}},{"id":"2650-channel","name":"Con đường trở thành nô lệ tình dục","description":"Tôi tên Vũ năm nay 25 tuổi, năm tôi 21 tôi quen em đến nay tròn 4 năm. Em tên Trinh kém tôi 1 tuổi, công việc của tôi thường xuyên đi đây đi đó nên cũng không ở nhà dành thời gian cho...","image":null,"label":null,"display":"text-only","type":"text","enable_detail":true,"related":{"url":"https://truyenx.link/truyensextv/channels/related/2650","request_headers":[]},"share":{"url":"https://truyenx.link/truyensextv/channels/share/con-duong-tro-thanh-no-le-tinh-duc"},"remote_data":{"url":"https://truyenx.link/truyensextv/channels/con-duong-tro-thanh-no-le-tinh-duc"}},{"id":"2649-channel","name":"Diệp Mặc","description":"Cậu nhỏ bị liệt Yến Kinh, cộng hết tất cả nhân khẩu lại cũng trên con số chục triệu, là thành phố lớn nhất Hoa Hạ. Nếu đứng trên sân thượng một tòa cao ốc nào đó nhìn...","image":null,"label":null,"display":"text-only","type":"text","enable_detail":true,"related":{"url":"https://truyenx.link/truyensextv/channels/related/2649","request_headers":[]},"share":{"url":"https://truyenx.link/truyensextv/channels/share/diep-mac"},"remote_data":{"url":"https://truyenx.link/truyensextv/channels/diep-mac"}}],"load_more":{"pageInfo":{"current_page":71,"last_page":140,"per_page":30,"total":4188},"paging":{"page_key":"page","size_key":"size"},"remote_data":{"url":"https://truyenx.link/truyensextv/channels"}}}