{
  "grid_number": 1,
  "channels": [
    {
      "id": "1188-channel",
      "name": "Đêm hè nóng bỏng",
      "description": "Mùa tựu trường năm nay thằng Hưng cảm thấy mình lớn hẳn lên, hắn nhìn các bạn cùng lớp như kẻ dưới. Buổi sáng Hữu tới nhà hắn đón trên chiếc xe xì po mới mua, hai thằng...",
      "image": null,
      "label": null,
      "display": "text-only",
      "type": "text",
      "enable_detail": true,
      "related": {
        "url": "https://truyenx.link/truyensextv/channels/related/1188",
        "request_headers": []
      },
      "share": {
        "url": "https://truyenx.link/truyensextv/channels/share/dem-he-nong-bong"
      },
      "remote_data": {
        "url": "https://truyenx.link/truyensextv/channels/dem-he-nong-bong"
      }
    },
    {
      "id": "1187-channel",
      "name": "Mối tình đầu",
      "description": "Tôi và em quen nhau trong một lớp học thêm thông qua thằng anh họ tôi, cũng là bạn học chung lớp với em. Tôi thích em từ lúc em quay sang trò chuyện với thằng anh họ tôi, em khá là xinh...",
      "image": null,
      "label": null,
      "display": "text-only",
      "type": "text",
      "enable_detail": true,
      "related": {
        "url": "https://truyenx.link/truyensextv/channels/related/1187",
        "request_headers": []
      },
      "share": {
        "url": "https://truyenx.link/truyensextv/channels/share/moi-tinh-dau"
      },
      "remote_data": {
        "url": "https://truyenx.link/truyensextv/channels/moi-tinh-dau"
      }
    },
    {
      "id": "1186-channel",
      "name": "Ngực 92",
      "description": "Chào các đồng dâm, em hiện tại đang sinh sống và làm việc tại Úc. Sang đây 1 mình nên hơi buồn, nhớ nhà, nhớ những em gái đã từng đi qua đời mình. Và đặc biệt là cô bé với...",
      "image": null,
      "label": null,
      "display": "text-only",
      "type": "text",
      "enable_detail": true,
      "related": {
        "url": "https://truyenx.link/truyensextv/channels/related/1186",
        "request_headers": []
      },
      "share": {
        "url": "https://truyenx.link/truyensextv/channels/share/nguc-92"
      },
      "remote_data": {
        "url": "https://truyenx.link/truyensextv/channels/nguc-92"
      }
    },
    {
      "id": "1185-channel",
      "name": "Cô hàng xóm mông to",
      "description": "Cô hàng xóm của tôi tên là Quỳnh. Năm nay cô đã 40 tuổi nhưng cô sở hữu 1 thân hình cực kỳ sexy. Khuôn mặt trắng trẻo, cặp vú to luôn đong đưa trước mặt như đang khiêu khích...",
      "image": null,
      "label": null,
      "display": "text-only",
      "type": "text",
      "enable_detail": true,
      "related": {
        "url": "https://truyenx.link/truyensextv/channels/related/1185",
        "request_headers": []
      },
      "share": {
        "url": "https://truyenx.link/truyensextv/channels/share/co-hang-xom-mong-to"
      },
      "remote_data": {
        "url": "https://truyenx.link/truyensextv/channels/co-hang-xom-mong-to"
      }
    },
    {
      "id": "1184-channel",
      "name": "Em đã đổi thay",
      "description": "Em vẫn là cô gái ngày nào với khuôn mặt dễ thương, đôi chân thon dài, nét mặt vô cùng kiêu hãnh của em. Nhưng khi ấy em vẫn còn là con nai tơ, ngây thơ giữa bầy sói hung hãn, cũng...",
      "image": null,
      "label": null,
      "display": "text-only",
      "type": "text",
      "enable_detail": true,
      "related": {
        "url": "https://truyenx.link/truyensextv/channels/related/1184",
        "request_headers": []
      },
      "share": {
        "url": "https://truyenx.link/truyensextv/channels/share/em-da-doi-thay"
      },
      "remote_data": {
        "url": "https://truyenx.link/truyensextv/channels/em-da-doi-thay"
      }
    },
    {
      "id": "1183-channel",
      "name": "Muốn nói với em",
      "description": "Cùng gặp lại nhau trong 1 buổi tiệc, làm ta nhớ lại những ký ức không thể nào quên, khi những làn khói vape, những giọt rượu vang, đan xen nhau qua từng hơi thở, chỉ cần 1 nụ hôn...",
      "image": null,
      "label": null,
      "display": "text-only",
      "type": "text",
      "enable_detail": true,
      "related": {
        "url": "https://truyenx.link/truyensextv/channels/related/1183",
        "request_headers": []
      },
      "share": {
        "url": "https://truyenx.link/truyensextv/channels/share/muon-noi-voi-em"
      },
      "remote_data": {
        "url": "https://truyenx.link/truyensextv/channels/muon-noi-voi-em"
      }
    },
    {
      "id": "1182-channel",
      "name": "Cảm xúc bóng đá",
      "description": "Đúng là theo tình tình chạy, không cần tình thì tình theo. Vẫn là zalo thôi. Ngày đầu năm mới đi chụp cái ảnh khá ngon, thay làm ảnh đại điện. Cũng có nhiều em 3D vào chat chít gạ...",
      "image": null,
      "label": null,
      "display": "text-only",
      "type": "text",
      "enable_detail": true,
      "related": {
        "url": "https://truyenx.link/truyensextv/channels/related/1182",
        "request_headers": []
      },
      "share": {
        "url": "https://truyenx.link/truyensextv/channels/share/cam-xuc-bong-da"
      },
      "remote_data": {
        "url": "https://truyenx.link/truyensextv/channels/cam-xuc-bong-da"
      }
    },
    {
      "id": "1181-channel",
      "name": "Người con gái mang tên Misa",
      "description": "Trong cuộc đời con người ta sống vì điều gì? Tiền bạc, danh vọng hay dục vọng... Đó là những thứ các bạn đều mong muốn cho cuộc sống mình trở nên tốt đẹp. Nhưng tôi lại...",
      "image": null,
      "label": null,
      "display": "text-only",
      "type": "text",
      "enable_detail": true,
      "related": {
        "url": "https://truyenx.link/truyensextv/channels/related/1181",
        "request_headers": []
      },
      "share": {
        "url": "https://truyenx.link/truyensextv/channels/share/nguoi-con-gai-mang-ten-misa"
      },
      "remote_data": {
        "url": "https://truyenx.link/truyensextv/channels/nguoi-con-gai-mang-ten-misa"
      }
    },
    {
      "id": "1180-channel",
      "name": "Con trai đụ mẹ",
      "description": "Tôi là người mẹ trong 1 gia đình tại Hà Nội. Đã 39 tuổi và có 1 con trai 21 tuổi đang du học ở Úc. Nhưng nhờ tập các bài tập giữ vóc dáng thường xuyên mà cơ thể tôi vẫn đẹp...",
      "image": null,
      "label": null,
      "display": "text-only",
      "type": "text",
      "enable_detail": true,
      "related": {
        "url": "https://truyenx.link/truyensextv/channels/related/1180",
        "request_headers": []
      },
      "share": {
        "url": "https://truyenx.link/truyensextv/channels/share/con-trai-du-me"
      },
      "remote_data": {
        "url": "https://truyenx.link/truyensextv/channels/con-trai-du-me"
      }
    },
    {
      "id": "1179-channel",
      "name": "Cơn mưa Sài Gòn",
      "description": "Truyện dựa trên những sự việc có thật của đời tôi, nó đã đi xa nhưng luôn là một phần kí ức đẹp với tôi. Tôi viết câu chuyện này cho những người muốn có được tình yêu...",
      "image": null,
      "label": null,
      "display": "text-only",
      "type": "text",
      "enable_detail": true,
      "related": {
        "url": "https://truyenx.link/truyensextv/channels/related/1179",
        "request_headers": []
      },
      "share": {
        "url": "https://truyenx.link/truyensextv/channels/share/con-mua-sai-gon"
      },
      "remote_data": {
        "url": "https://truyenx.link/truyensextv/channels/con-mua-sai-gon"
      }
    },
    {
      "id": "1178-channel",
      "name": "Gia đình loạn luân tập thể",
      "description": "Đã hai năm qua kể từ khi ba Dũng mất trong một tai nạn. Dũng chỉ mới 16 khi biến cố đó xảy ra. Cả hai mẹ con Dũng đều nhớ ba nó rất nhiều. Cuộc sống của gia đình rất đầy...",
      "image": null,
      "label": null,
      "display": "text-only",
      "type": "text",
      "enable_detail": true,
      "related": {
        "url": "https://truyenx.link/truyensextv/channels/related/1178",
        "request_headers": []
      },
      "share": {
        "url": "https://truyenx.link/truyensextv/channels/share/gia-dinh-loan-luan-tap-the"
      },
      "remote_data": {
        "url": "https://truyenx.link/truyensextv/channels/gia-dinh-loan-luan-tap-the"
      }
    },
    {
      "id": "1177-channel",
      "name": "Xe ôm",
      "description": "Ngửa mặt lên hứng dòng nước, hắn thở dài khoan khoái, dòng nước mát lạnh gột rửa đi những bụi bặm, mệt mỏi mà hắn hứng ngoài đường, làm dịu đi cái nóng của ngày hè oi...",
      "image": null,
      "label": null,
      "display": "text-only",
      "type": "text",
      "enable_detail": true,
      "related": {
        "url": "https://truyenx.link/truyensextv/channels/related/1177",
        "request_headers": []
      },
      "share": {
        "url": "https://truyenx.link/truyensextv/channels/share/xe-om"
      },
      "remote_data": {
        "url": "https://truyenx.link/truyensextv/channels/xe-om"
      }
    },
    {
      "id": "1176-channel",
      "name": "Cô bạn học cũ",
      "description": "Vũng Tàu những ngày đầu năm thật nhộn nhịp, khắp nơi cũng đang chuẩn bị trang trí để đón tết nguyên đán. Hôm nay là thứ 7, sau 1 tuần làm việc cũng đã được nghỉ xả hơi...",
      "image": null,
      "label": null,
      "display": "text-only",
      "type": "text",
      "enable_detail": true,
      "related": {
        "url": "https://truyenx.link/truyensextv/channels/related/1176",
        "request_headers": []
      },
      "share": {
        "url": "https://truyenx.link/truyensextv/channels/share/co-ban-hoc-cu"
      },
      "remote_data": {
        "url": "https://truyenx.link/truyensextv/channels/co-ban-hoc-cu"
      }
    },
    {
      "id": "1175-channel",
      "name": "Cha dượng",
      "description": "Bé Như ghét ông Cường ngay từ lúc gặp ông lần đầu tiên. Bé Như còn nhớ rõ lúc đó cô bé chỉ mới lên 7 tuổi thôi. Mẹ bé vừa mới ly dị với ba và đó cũng là lúc mà bé Như...",
      "image": null,
      "label": null,
      "display": "text-only",
      "type": "text",
      "enable_detail": true,
      "related": {
        "url": "https://truyenx.link/truyensextv/channels/related/1175",
        "request_headers": []
      },
      "share": {
        "url": "https://truyenx.link/truyensextv/channels/share/cha-duong"
      },
      "remote_data": {
        "url": "https://truyenx.link/truyensextv/channels/cha-duong"
      }
    },
    {
      "id": "1174-channel",
      "name": "Đêm nứng lồn sau trận chung kết",
      "description": "Năm ấy, là cuối tháng 9, những cơn mưa kéo đến do ảnh hưởng của bão về. Bất chấp thời tiết, Công ty tôi vẫn tổ chức trận chung kết giải bóng đá nam nữ, tôi thì hào hứng...",
      "image": null,
      "label": null,
      "display": "text-only",
      "type": "text",
      "enable_detail": true,
      "related": {
        "url": "https://truyenx.link/truyensextv/channels/related/1174",
        "request_headers": []
      },
      "share": {
        "url": "https://truyenx.link/truyensextv/channels/share/dem-nung-lon-sau-tran-chung-ket"
      },
      "remote_data": {
        "url": "https://truyenx.link/truyensextv/channels/dem-nung-lon-sau-tran-chung-ket"
      }
    },
    {
      "id": "1173-channel",
      "name": "Chuyện có thật của 1 du học sinh tại Anh",
      "description": "Tôi tên Phi 20 tuổi là sinh viên năm 2 đại học, cứ cuối tuần tôi lại về nhà anh chị cách trường học khoảng 3 kilomet để chơi và thỉnh thoảng cũng lai rai với anh vài ly. Anh Đạt...",
      "image": null,
      "label": null,
      "display": "text-only",
      "type": "text",
      "enable_detail": true,
      "related": {
        "url": "https://truyenx.link/truyensextv/channels/related/1173",
        "request_headers": []
      },
      "share": {
        "url": "https://truyenx.link/truyensextv/channels/share/chuyen-co-that-cua-1-du-hoc-sinh-tai-anh"
      },
      "remote_data": {
        "url": "https://truyenx.link/truyensextv/channels/chuyen-co-that-cua-1-du-hoc-sinh-tai-anh"
      }
    },
    {
      "id": "1172-channel",
      "name": "Con gái cho bố đụ",
      "description": "Năm nay tôi 19 tuổi. Là đứa con gái duy nhất trong gia đình. Mẹ tôi làm chủ 1 cửa hàng quần áo. Bố thì làm cho công ty nhà nước. Hôm nay, vào giờ ra chơi ở trường, tôi cùng vài...",
      "image": null,
      "label": null,
      "display": "text-only",
      "type": "text",
      "enable_detail": true,
      "related": {
        "url": "https://truyenx.link/truyensextv/channels/related/1172",
        "request_headers": []
      },
      "share": {
        "url": "https://truyenx.link/truyensextv/channels/share/con-gai-cho-bo-du"
      },
      "remote_data": {
        "url": "https://truyenx.link/truyensextv/channels/con-gai-cho-bo-du"
      }
    },
    {
      "id": "1171-channel",
      "name": "Cô con dâu nhà họ Chu",
      "description": "Gần đây nhà họ Chu rất bận rộn, bởi vì trong nhà có việc lớn: Con út nhà họ Chu Chu Tư Niên sẽ mang bạn gái về nhà ăn Tết. Tin tức này đến đột nhiên khiến ông Chu trở nên...",
      "image": null,
      "label": null,
      "display": "text-only",
      "type": "text",
      "enable_detail": true,
      "related": {
        "url": "https://truyenx.link/truyensextv/channels/related/1171",
        "request_headers": []
      },
      "share": {
        "url": "https://truyenx.link/truyensextv/channels/share/co-con-dau-nha-ho-chu"
      },
      "remote_data": {
        "url": "https://truyenx.link/truyensextv/channels/co-con-dau-nha-ho-chu"
      }
    },
    {
      "id": "1170-channel",
      "name": "Vợ bị thằng Tây gạ địt",
      "description": "Vợ em làm ở công ty chuyên tổ chức tour du lịch, có gia đình rồi nên làm ở văn phòng thôi không phải đi làm hướng dẫn . Hôm qua vợ em và đứa em họ em vẫn dẫn đoàn đi tham quan...",
      "image": null,
      "label": null,
      "display": "text-only",
      "type": "text",
      "enable_detail": true,
      "related": {
        "url": "https://truyenx.link/truyensextv/channels/related/1170",
        "request_headers": []
      },
      "share": {
        "url": "https://truyenx.link/truyensextv/channels/share/vo-bi-thang-tay-ga-dit"
      },
      "remote_data": {
        "url": "https://truyenx.link/truyensextv/channels/vo-bi-thang-tay-ga-dit"
      }
    },
    {
      "id": "1169-channel",
      "name": "Lừa vợ cho bạn chịch",
      "description": "Em 25 tuổi cưới vợ được 1 năm, vợ em kém 1 tuổi, người lùn nhưng ngực với mông to và săn chắc miễn bàn. Chuyện là em rất thích cuckold, thích nhìn bà xã bị địt không thương...",
      "image": null,
      "label": null,
      "display": "text-only",
      "type": "text",
      "enable_detail": true,
      "related": {
        "url": "https://truyenx.link/truyensextv/channels/related/1169",
        "request_headers": []
      },
      "share": {
        "url": "https://truyenx.link/truyensextv/channels/share/lua-vo-cho-ban-chich"
      },
      "remote_data": {
        "url": "https://truyenx.link/truyensextv/channels/lua-vo-cho-ban-chich"
      }
    },
    {
      "id": "1168-channel",
      "name": "Những kẻ cuồng dâm",
      "description": "Thằng Huy gõ cửa: Cốc cốc... Ai rứa? Tao Huy nè. Vô đi. Cái địt mẹ mày làm con cặc chi rứa? Thằng Huy trố mắt ra. Trước mặt nó là thằng bạn thân đang ngồi trên ghế tựa, hai...",
      "image": null,
      "label": null,
      "display": "text-only",
      "type": "text",
      "enable_detail": true,
      "related": {
        "url": "https://truyenx.link/truyensextv/channels/related/1168",
        "request_headers": []
      },
      "share": {
        "url": "https://truyenx.link/truyensextv/channels/share/nhung-ke-cuong-dam"
      },
      "remote_data": {
        "url": "https://truyenx.link/truyensextv/channels/nhung-ke-cuong-dam"
      }
    },
    {
      "id": "1167-channel",
      "name": "Mẹ đơn thân trên Zalo",
      "description": "Thật tình cờ, tôi có zalo của chị, chúng tôi nói chuyện rất nhiều, tâm sự cả về chuyện chăn gối, chị rất vô tư, giải đáp mọi thắc mắc giúp tôi, tôi cũng không hiểu sao...",
      "image": null,
      "label": null,
      "display": "text-only",
      "type": "text",
      "enable_detail": true,
      "related": {
        "url": "https://truyenx.link/truyensextv/channels/related/1167",
        "request_headers": []
      },
      "share": {
        "url": "https://truyenx.link/truyensextv/channels/share/me-don-than-tren-zalo"
      },
      "remote_data": {
        "url": "https://truyenx.link/truyensextv/channels/me-don-than-tren-zalo"
      }
    },
    {
      "id": "1166-channel",
      "name": "Đụ chị kế toán trưởng",
      "description": "Mình vốn là thằng IT, mình dây, nên như ông bà nói mình dây chơi nhây. Nên đi đâu cũng bị dòm ngó du mặt mày cũng bình thường, không có gì đặt biệt. Mình làm IT cho công ty XXX, chủ...",
      "image": null,
      "label": null,
      "display": "text-only",
      "type": "text",
      "enable_detail": true,
      "related": {
        "url": "https://truyenx.link/truyensextv/channels/related/1166",
        "request_headers": []
      },
      "share": {
        "url": "https://truyenx.link/truyensextv/channels/share/du-chi-ke-toan-truong"
      },
      "remote_data": {
        "url": "https://truyenx.link/truyensextv/channels/du-chi-ke-toan-truong"
      }
    },
    {
      "id": "1165-channel",
      "name": "Địt em gái nuôi",
      "description": "Mình vốn được sinh ra từ miền quê nghèo khó ở miền Tây, từ nhỏ thiếu canxi lại thức đêm nhiều để canh server nên thân hình cũng không được phương phi cho lắm, dù đã cố gắng...",
      "image": null,
      "label": null,
      "display": "text-only",
      "type": "text",
      "enable_detail": true,
      "related": {
        "url": "https://truyenx.link/truyensextv/channels/related/1165",
        "request_headers": []
      },
      "share": {
        "url": "https://truyenx.link/truyensextv/channels/share/dit-em-gai-nuoi"
      },
      "remote_data": {
        "url": "https://truyenx.link/truyensextv/channels/dit-em-gai-nuoi"
      }
    },
    {
      "id": "1164-channel",
      "name": "Tình một đêm khó quên",
      "description": "Tình một đêm không phải là cách mà tôi đến với sex. Tôi vốn nghĩ, tình một đêm không thể cho tôi cái cảm xúc trọn vẹn về sex, nhưng hôm qua, tôi biết tôi sai. Gặp em ở một...",
      "image": null,
      "label": null,
      "display": "text-only",
      "type": "text",
      "enable_detail": true,
      "related": {
        "url": "https://truyenx.link/truyensextv/channels/related/1164",
        "request_headers": []
      },
      "share": {
        "url": "https://truyenx.link/truyensextv/channels/share/tinh-mot-dem-kho-quen"
      },
      "remote_data": {
        "url": "https://truyenx.link/truyensextv/channels/tinh-mot-dem-kho-quen"
      }
    },
    {
      "id": "1163-channel",
      "name": "Trại giam tình dục",
      "description": "Nhà tù A được xây tại một khu rừng lớn, hoàn toàn tách biệt với thế giới bên ngoài. Đặc biệt là nhà tù này chỉ toàn các nữ tù nhân độ tuổi từ 19 tới 39. Jessica Nhân vật...",
      "image": null,
      "label": null,
      "display": "text-only",
      "type": "text",
      "enable_detail": true,
      "related": {
        "url": "https://truyenx.link/truyensextv/channels/related/1163",
        "request_headers": []
      },
      "share": {
        "url": "https://truyenx.link/truyensextv/channels/share/trai-giam-tinh-duc"
      },
      "remote_data": {
        "url": "https://truyenx.link/truyensextv/channels/trai-giam-tinh-duc"
      }
    },
    {
      "id": "1162-channel",
      "name": "Diệu Ly dâm đãng",
      "description": "Diệu Ly một người vợ trẻ hiền lành và có hơi dâm đãng với gương mặt xinh đẹp, mái tóc dài ngang vai, làn da trắng hồng mịn màng không tì vết, hơn thế cơ thể của cô đẹp...",
      "image": null,
      "label": null,
      "display": "text-only",
      "type": "text",
      "enable_detail": true,
      "related": {
        "url": "https://truyenx.link/truyensextv/channels/related/1162",
        "request_headers": []
      },
      "share": {
        "url": "https://truyenx.link/truyensextv/channels/share/dieu-ly-dam-dang"
      },
      "remote_data": {
        "url": "https://truyenx.link/truyensextv/channels/dieu-ly-dam-dang"
      }
    },
    {
      "id": "1161-channel",
      "name": "Cái giá phải trả",
      "description": "Lão tên Dũng, là 1 doanh nhân thành đạt, đã 45 tuổi nhìn Lão còn khá phong độ chịu chơi và xài tiền như nước chính vì thế vây quanh Lão không thiếu những phụ nữ xinh đẹp, nhưng...",
      "image": null,
      "label": null,
      "display": "text-only",
      "type": "text",
      "enable_detail": true,
      "related": {
        "url": "https://truyenx.link/truyensextv/channels/related/1161",
        "request_headers": []
      },
      "share": {
        "url": "https://truyenx.link/truyensextv/channels/share/cai-gia-phai-tra"
      },
      "remote_data": {
        "url": "https://truyenx.link/truyensextv/channels/cai-gia-phai-tra"
      }
    },
    {
      "id": "1160-channel",
      "name": "Trả nợ dùm anh trai",
      "description": "Lâm là một thằng con trai hư hỏng, ăn chơi, nhưng có một điều mà ai cũng biết đó là hắn có 1 đứa em gái rất xinh đẹp và ngoan ngoãn. Và hắn cũng rất yêu thương đứa em này. Do...",
      "image": null,
      "label": null,
      "display": "text-only",
      "type": "text",
      "enable_detail": true,
      "related": {
        "url": "https://truyenx.link/truyensextv/channels/related/1160",
        "request_headers": []
      },
      "share": {
        "url": "https://truyenx.link/truyensextv/channels/share/tra-no-dum-anh-trai"
      },
      "remote_data": {
        "url": "https://truyenx.link/truyensextv/channels/tra-no-dum-anh-trai"
      }
    },
    {
      "id": "1159-channel",
      "name": "Tâm sự mùa đông",
      "description": "Cuối năm công việc nhiều quá chả có thời gian lên truyensextv2.cc đọc truyện. Sang đầu năm mới mình xin chúc toàn thể các đồng dâm trên truyensextv2.cc một năm mới gặp nhiều may...",
      "image": null,
      "label": null,
      "display": "text-only",
      "type": "text",
      "enable_detail": true,
      "related": {
        "url": "https://truyenx.link/truyensextv/channels/related/1159",
        "request_headers": []
      },
      "share": {
        "url": "https://truyenx.link/truyensextv/channels/share/tam-su-mua-dong"
      },
      "remote_data": {
        "url": "https://truyenx.link/truyensextv/channels/tam-su-mua-dong"
      }
    }
  ],
  "load_more": {
    "pageInfo": {
      "current_page": 101,
      "last_page": 140,
      "per_page": 30,
      "total": 4188
    },
    "paging": {
      "page_key": "page",
      "size_key": "size"
    },
    "remote_data": {
      "url": "https://truyenx.link/truyensextv/channels"
    }
  }
}