{
  "grid_number": 1,
  "channels": [
    {
      "id": "2215-channel",
      "name": "Hương",
      "description": "Câu chuyện bắt đầu vào 1 tuần sau tết cách đây mấy năm, lúc đó ba mẹ mình vừa mới đi ngoại về. Máy này chụp hình đẹp quá ha mợ bảy , nhìn nè, con bé này ăn ảnh ghê luôn...",
      "image": null,
      "label": null,
      "display": "text-only",
      "type": "text",
      "enable_detail": true,
      "related": {
        "url": "https://truyenx.link/truyensextv/channels/related/2215",
        "request_headers": []
      },
      "share": {
        "url": "https://truyenx.link/truyensextv/channels/share/huong"
      },
      "remote_data": {
        "url": "https://truyenx.link/truyensextv/channels/huong"
      }
    },
    {
      "id": "2214-channel",
      "name": "Thanh xuân khờ dại",
      "description": "Có thể các bạn nghĩ đây là câu chuyện bịa ra hoặc một số bạn sẽ nghĩ nó có thật riêng tôi đây là trải nghiệm mà tới khi trưởng thành tôi vẫn chưa bao giờ quên, sai lầm có...",
      "image": null,
      "label": null,
      "display": "text-only",
      "type": "text",
      "enable_detail": true,
      "related": {
        "url": "https://truyenx.link/truyensextv/channels/related/2214",
        "request_headers": []
      },
      "share": {
        "url": "https://truyenx.link/truyensextv/channels/share/thanh-xuan-kho-dai"
      },
      "remote_data": {
        "url": "https://truyenx.link/truyensextv/channels/thanh-xuan-kho-dai"
      }
    },
    {
      "id": "2212-channel",
      "name": "Bạn của mẹ",
      "description": "Một câu chuyện từ cách đây khá lâu. Lúc ấy chắc mới học đại học năm 1. Có lẽ sẽ hơi dài dòng hoặc lủng củng thì anh em thông cảm. Mẹ tôi có 1 người bạn làm điều dưỡng...",
      "image": null,
      "label": null,
      "display": "text-only",
      "type": "text",
      "enable_detail": true,
      "related": {
        "url": "https://truyenx.link/truyensextv/channels/related/2212",
        "request_headers": []
      },
      "share": {
        "url": "https://truyenx.link/truyensextv/channels/share/ban-cua-me"
      },
      "remote_data": {
        "url": "https://truyenx.link/truyensextv/channels/ban-cua-me"
      }
    },
    {
      "id": "2213-channel",
      "name": "Cô em vợ dâm đãng",
      "description": "Tiếng xe gắn máy bấm còi trước cửa, nhìn ra là một cô gái hình như quen quen, mà tôi không nhớ rõ cho lắm, vì đả hơn ba năm rời TP HCM. Chào anh Dũng, đi mới có mấy năm mà anh Dũng...",
      "image": null,
      "label": null,
      "display": "text-only",
      "type": "text",
      "enable_detail": true,
      "related": {
        "url": "https://truyenx.link/truyensextv/channels/related/2213",
        "request_headers": []
      },
      "share": {
        "url": "https://truyenx.link/truyensextv/channels/share/co-em-vo-dam-dang"
      },
      "remote_data": {
        "url": "https://truyenx.link/truyensextv/channels/co-em-vo-dam-dang"
      }
    },
    {
      "id": "2211-channel",
      "name": "Bí mật gia đình",
      "description": "Nó là con một trong một gia đình ba thế hệ. Gia đình nó gồm có ông bà nội, bố mẹ và nó. Nó còn có một bà cô em ruột bố nó. Cô đã lấy chồng. Đôi khi cả gia đình cô cũng về...",
      "image": null,
      "label": null,
      "display": "text-only",
      "type": "text",
      "enable_detail": true,
      "related": {
        "url": "https://truyenx.link/truyensextv/channels/related/2211",
        "request_headers": []
      },
      "share": {
        "url": "https://truyenx.link/truyensextv/channels/share/bi-mat-gia-dinh"
      },
      "remote_data": {
        "url": "https://truyenx.link/truyensextv/channels/bi-mat-gia-dinh"
      }
    },
    {
      "id": "2210-channel",
      "name": "Loạn luân với em họ",
      "description": "Đi làm kiểu chiếm hết thời gian, công việc áp lực dẫn tới stress, không hứng thú gì cả. Hiện nghỉ công ty, kiểu như thất nghiệp nên hơi rảnh nên mình lên đây chia sẻ câu...",
      "image": null,
      "label": null,
      "display": "text-only",
      "type": "text",
      "enable_detail": true,
      "related": {
        "url": "https://truyenx.link/truyensextv/channels/related/2210",
        "request_headers": []
      },
      "share": {
        "url": "https://truyenx.link/truyensextv/channels/share/loan-luan-voi-em-ho"
      },
      "remote_data": {
        "url": "https://truyenx.link/truyensextv/channels/loan-luan-voi-em-ho"
      }
    },
    {
      "id": "2209-channel",
      "name": "Dì ruột yêu quý của tôi",
      "description": "Tôi tên Phong, sinh ra và lớn lên ở TPHCM, thành phố lớn nhất VN. Gia đình nội ngoại tôi rất đông và tôi có một người dì tên Mai. Mặc dù đã lớn tuổi nhưng dì vẫn còn rất...",
      "image": null,
      "label": null,
      "display": "text-only",
      "type": "text",
      "enable_detail": true,
      "related": {
        "url": "https://truyenx.link/truyensextv/channels/related/2209",
        "request_headers": []
      },
      "share": {
        "url": "https://truyenx.link/truyensextv/channels/share/di-ruot-yeu-quy-cua-toi"
      },
      "remote_data": {
        "url": "https://truyenx.link/truyensextv/channels/di-ruot-yeu-quy-cua-toi"
      }
    },
    {
      "id": "2208-channel",
      "name": "Loạn luân cùng mẹ ruột",
      "description": "Em tên là Thịnh, năm nay mới được có 21 tuổi. Do mang thai ngoài ý muốn mà năm 2018, mẹ em có một cô con dâu. Em thì là con trai duy nhất của mẹ nên bà ấy yêu thương em nhiều lắm...",
      "image": null,
      "label": null,
      "display": "text-only",
      "type": "text",
      "enable_detail": true,
      "related": {
        "url": "https://truyenx.link/truyensextv/channels/related/2208",
        "request_headers": []
      },
      "share": {
        "url": "https://truyenx.link/truyensextv/channels/share/loan-luan-cung-me-ruot"
      },
      "remote_data": {
        "url": "https://truyenx.link/truyensextv/channels/loan-luan-cung-me-ruot"
      }
    },
    {
      "id": "2207-channel",
      "name": "Hoán mệnh",
      "description": "Từ ngày bắt đầu nhận thức với thế giới này, nó liên tục đón nhận những bất hạnh xui xẻo liên miên bất tận. Ba tuổi nó bị sốt rét suýt chết. Mẹ nó ôm hết tiền trong...",
      "image": null,
      "label": null,
      "display": "text-only",
      "type": "text",
      "enable_detail": true,
      "related": {
        "url": "https://truyenx.link/truyensextv/channels/related/2207",
        "request_headers": []
      },
      "share": {
        "url": "https://truyenx.link/truyensextv/channels/share/hoan-menh"
      },
      "remote_data": {
        "url": "https://truyenx.link/truyensextv/channels/hoan-menh"
      }
    },
    {
      "id": "2206-channel",
      "name": "Tình anh em",
      "description": "Gió đông lạnh lẽo đuổi lá bay xao xác góc sân chùa, lòng tôi quặn thắt như còn thấy đâu đó nơi đây, có cặp mắt em trong veo ngấn lệ long lanh. Thu đã qua sao em vẫn mãi ngấn lệ...",
      "image": null,
      "label": null,
      "display": "text-only",
      "type": "text",
      "enable_detail": true,
      "related": {
        "url": "https://truyenx.link/truyensextv/channels/related/2206",
        "request_headers": []
      },
      "share": {
        "url": "https://truyenx.link/truyensextv/channels/share/tinh-anh-em"
      },
      "remote_data": {
        "url": "https://truyenx.link/truyensextv/channels/tinh-anh-em"
      }
    },
    {
      "id": "2205-channel",
      "name": "Đi lộn phòng",
      "description": "Cô Mùi không xấu không đẹp, nhưng thân hình chuẩn, nóng bỏng, nhờ cao to nên cô rất được đàn ông con trai ngấm nghé. Thời ở Việt nam, 16 tuổi cô bị mất trinh bởi ông hàng xóm...",
      "image": null,
      "label": null,
      "display": "text-only",
      "type": "text",
      "enable_detail": true,
      "related": {
        "url": "https://truyenx.link/truyensextv/channels/related/2205",
        "request_headers": []
      },
      "share": {
        "url": "https://truyenx.link/truyensextv/channels/share/di-lon-phong"
      },
      "remote_data": {
        "url": "https://truyenx.link/truyensextv/channels/di-lon-phong"
      }
    },
    {
      "id": "2204-channel",
      "name": "Tình đơn phương",
      "description": "Ai không một lần bước qua một lần đớn đau, để phải cảm nhận trái tim ấy chẳng bao giờ thuộc về mình... Yêu đơn phương vừa cay đắng, lại vừa ngọt ngào bởi lẽ chả bao...",
      "image": null,
      "label": null,
      "display": "text-only",
      "type": "text",
      "enable_detail": true,
      "related": {
        "url": "https://truyenx.link/truyensextv/channels/related/2204",
        "request_headers": []
      },
      "share": {
        "url": "https://truyenx.link/truyensextv/channels/share/tinh-don-phuong"
      },
      "remote_data": {
        "url": "https://truyenx.link/truyensextv/channels/tinh-don-phuong"
      }
    },
    {
      "id": "2203-channel",
      "name": "Làm tình trước mặt chồng",
      "description": "Tôi có một cô vợ khá xinh đẹp, quyến rũ và cực kỳ sung sức trong chuyện làm tình. Cưới nhau lúc cô ấy vừa tròn 22 tuổi, đến nay cô ấy đã sinh 3 đứa con, 2 trai 1 gái vậy mà...",
      "image": null,
      "label": null,
      "display": "text-only",
      "type": "text",
      "enable_detail": true,
      "related": {
        "url": "https://truyenx.link/truyensextv/channels/related/2203",
        "request_headers": []
      },
      "share": {
        "url": "https://truyenx.link/truyensextv/channels/share/lam-tinh-truoc-mat-chong"
      },
      "remote_data": {
        "url": "https://truyenx.link/truyensextv/channels/lam-tinh-truoc-mat-chong"
      }
    },
    {
      "id": "2202-channel",
      "name": "Mẹ tôi và ông hàng xóm",
      "description": "Câu chuyện đã lâu xin kể lại cho các bạn đọc cùng chia sẻ biết, nhớ lại khoảng 5 năm trước lúc ấy tôi 15t, tôi đã chứng kiến cảnh tượng mà giờ nhớ lại còn thấy tức...",
      "image": null,
      "label": null,
      "display": "text-only",
      "type": "text",
      "enable_detail": true,
      "related": {
        "url": "https://truyenx.link/truyensextv/channels/related/2202",
        "request_headers": []
      },
      "share": {
        "url": "https://truyenx.link/truyensextv/channels/share/me-toi-va-ong-hang-xom"
      },
      "remote_data": {
        "url": "https://truyenx.link/truyensextv/channels/me-toi-va-ong-hang-xom"
      }
    },
    {
      "id": "2201-channel",
      "name": "Cuộc sống mới",
      "description": "Một buổi chiều như bao nhiêu chiều khác, dù nóng hay lạnh quán bia chỗ đường đê này cũng đông khách. Trung đang ngồi nhâm nhi bia với Bình. Đã gần nửa năm anh không gặp Bình...",
      "image": null,
      "label": null,
      "display": "text-only",
      "type": "text",
      "enable_detail": true,
      "related": {
        "url": "https://truyenx.link/truyensextv/channels/related/2201",
        "request_headers": []
      },
      "share": {
        "url": "https://truyenx.link/truyensextv/channels/share/cuoc-song-moi"
      },
      "remote_data": {
        "url": "https://truyenx.link/truyensextv/channels/cuoc-song-moi"
      }
    },
    {
      "id": "2200-channel",
      "name": "Shipper may mắn",
      "description": "Tôi hiện tại đang du học bên Nhật Bổn, thiên đường của mấy anh em nghiện JAV. Tôi thì không được đi đóng phim nhưng cũng được làm tình với một em gái Nhật. Chuyện dưới đây...",
      "image": null,
      "label": null,
      "display": "text-only",
      "type": "text",
      "enable_detail": true,
      "related": {
        "url": "https://truyenx.link/truyensextv/channels/related/2200",
        "request_headers": []
      },
      "share": {
        "url": "https://truyenx.link/truyensextv/channels/share/shipper-may-man"
      },
      "remote_data": {
        "url": "https://truyenx.link/truyensextv/channels/shipper-may-man"
      }
    },
    {
      "id": "2199-channel",
      "name": "Bản ngã",
      "description": "Phù!! Cuối cùng xong. Ực ực... Sơn cầm chai nước nốc 1 hơi hết sạch, sau đó quay sang nhìn một cách chăm chú. Lúc này đây trước mặt Sơn là một cặp đào tròn căng đang đung đưa...",
      "image": null,
      "label": null,
      "display": "text-only",
      "type": "text",
      "enable_detail": true,
      "related": {
        "url": "https://truyenx.link/truyensextv/channels/related/2199",
        "request_headers": []
      },
      "share": {
        "url": "https://truyenx.link/truyensextv/channels/share/ban-nga"
      },
      "remote_data": {
        "url": "https://truyenx.link/truyensextv/channels/ban-nga"
      }
    },
    {
      "id": "2198-channel",
      "name": "Phần thưởng của mẹ",
      "description": "Nhìn lại ba năm cấp 3 của tôi thật là vất vả nhưng cũng nhiều hạnh phúc. Tất cả những hạnh phúc đó là do mẹ tôi dành cho tôi, vì bà rất yêu tôi. Mẹ tôi sinh ra tôi lúc mẹ 25...",
      "image": null,
      "label": null,
      "display": "text-only",
      "type": "text",
      "enable_detail": true,
      "related": {
        "url": "https://truyenx.link/truyensextv/channels/related/2198",
        "request_headers": []
      },
      "share": {
        "url": "https://truyenx.link/truyensextv/channels/share/phan-thuong-cua-me"
      },
      "remote_data": {
        "url": "https://truyenx.link/truyensextv/channels/phan-thuong-cua-me"
      }
    },
    {
      "id": "2197-channel",
      "name": "Kim",
      "description": "Xin chào các bạn mình tên là Kim, 24 tuổi, có cô vợ tên Nhi , mặt cũng bình thường nhưng số đo 3 vòng lại múp rùm rụm hồi mới cưới là không ngày nào mình không chơi cái lồn em...",
      "image": null,
      "label": null,
      "display": "text-only",
      "type": "text",
      "enable_detail": true,
      "related": {
        "url": "https://truyenx.link/truyensextv/channels/related/2197",
        "request_headers": []
      },
      "share": {
        "url": "https://truyenx.link/truyensextv/channels/share/kim"
      },
      "remote_data": {
        "url": "https://truyenx.link/truyensextv/channels/kim"
      }
    },
    {
      "id": "2196-channel",
      "name": "Cho mẹ ngủ nhờ",
      "description": "“Ba lại nhậu say nữa rồi!” Trung nằm trong phòng, nhắm mắt, cố lờ đi tiếng cãi nhau bên phòng ba mẹ. Ông An cha nó thường hay nhậu nhẹt với bạn bè, dù cho mẹ Trung đã...",
      "image": null,
      "label": null,
      "display": "text-only",
      "type": "text",
      "enable_detail": true,
      "related": {
        "url": "https://truyenx.link/truyensextv/channels/related/2196",
        "request_headers": []
      },
      "share": {
        "url": "https://truyenx.link/truyensextv/channels/share/cho-me-ngu-nho"
      },
      "remote_data": {
        "url": "https://truyenx.link/truyensextv/channels/cho-me-ngu-nho"
      }
    },
    {
      "id": "2195-channel",
      "name": "Dục vọng tìm về",
      "description": "Quá khứ ngủ yên “Cạch” tiếng đóng nhẹ nhàng của cánh cửa phòng ngủ không khỏi làm cho Phương Nga giật mình, kéo cô ra khỏi luồng suy nghĩ sâu thẳm về những ký ức...",
      "image": null,
      "label": null,
      "display": "text-only",
      "type": "text",
      "enable_detail": true,
      "related": {
        "url": "https://truyenx.link/truyensextv/channels/related/2195",
        "request_headers": []
      },
      "share": {
        "url": "https://truyenx.link/truyensextv/channels/share/duc-vong-tim-ve"
      },
      "remote_data": {
        "url": "https://truyenx.link/truyensextv/channels/duc-vong-tim-ve"
      }
    },
    {
      "id": "2194-channel",
      "name": "Em Loan thích đụ lang",
      "description": "Loan 34 tuổi, một phụ nữ nhà giàu có, vợ của một doanh nhân, công việc hằng ngày chỉ chăm sóc các con và đi làm đẹp hay đi shopping. Vốn dĩ Loan cũng là một giáo viên cấp 2, nhưng...",
      "image": null,
      "label": null,
      "display": "text-only",
      "type": "text",
      "enable_detail": true,
      "related": {
        "url": "https://truyenx.link/truyensextv/channels/related/2194",
        "request_headers": []
      },
      "share": {
        "url": "https://truyenx.link/truyensextv/channels/share/em-loan-thich-du-lang"
      },
      "remote_data": {
        "url": "https://truyenx.link/truyensextv/channels/em-loan-thich-du-lang"
      }
    },
    {
      "id": "2193-channel",
      "name": "Chuyến du lịch đáng nhớ",
      "description": "Sau khi tốt nghiệp, tôi chưa muốn tìm việc làm ngay mà tranh thủ đi du lịch bụi khắp nơi để trải nghiệm. Tôi một mình với một chiếc xe máy đã gắn bó với tôi suốt 4 năm Đại...",
      "image": null,
      "label": null,
      "display": "text-only",
      "type": "text",
      "enable_detail": true,
      "related": {
        "url": "https://truyenx.link/truyensextv/channels/related/2193",
        "request_headers": []
      },
      "share": {
        "url": "https://truyenx.link/truyensextv/channels/share/chuyen-du-lich-dang-nho"
      },
      "remote_data": {
        "url": "https://truyenx.link/truyensextv/channels/chuyen-du-lich-dang-nho"
      }
    },
    {
      "id": "2192-channel",
      "name": "Tình yêu tuổi trẻ",
      "description": "Tôi sinh sống tại vùng đất tây nguyên nắng mưa 2 mùa, năm nay cũng đã 22 tuổi rồi, còn nhớ những năm trước 17 18 tuổi cái tuổi mới lớn, bắt đầu biết đi chơi đêm biết yêu...",
      "image": null,
      "label": null,
      "display": "text-only",
      "type": "text",
      "enable_detail": true,
      "related": {
        "url": "https://truyenx.link/truyensextv/channels/related/2192",
        "request_headers": []
      },
      "share": {
        "url": "https://truyenx.link/truyensextv/channels/share/tinh-yeu-tuoi-tre"
      },
      "remote_data": {
        "url": "https://truyenx.link/truyensextv/channels/tinh-yeu-tuoi-tre"
      }
    },
    {
      "id": "2191-channel",
      "name": "Biến mẹ thành diễn viên khiêu dâm",
      "description": "Mẹ đã sẵn sàng chưa? Con bấm nhé. Mỗi đêm tôi và mẹ đều live stream như thế này cho hàng nghìn người xem, đúng vậy bọn tôi khá nổi tiếng đó, tuy vậy chẳng ai biết chúng tôi...",
      "image": null,
      "label": null,
      "display": "text-only",
      "type": "text",
      "enable_detail": true,
      "related": {
        "url": "https://truyenx.link/truyensextv/channels/related/2191",
        "request_headers": []
      },
      "share": {
        "url": "https://truyenx.link/truyensextv/channels/share/bien-me-thanh-dien-vien-khieu-dam"
      },
      "remote_data": {
        "url": "https://truyenx.link/truyensextv/channels/bien-me-thanh-dien-vien-khieu-dam"
      }
    },
    {
      "id": "2190-channel",
      "name": "Ra đời",
      "description": "Bước ra cổng trường, ánh nắng chói chang, làm tôi phải nheo mắt lại, chiếc kính đen tám chục nghìn do thằng bạn cứt gán nợ ván bạch thủ hai bốn cũng chẳng ngăn được ánh...",
      "image": null,
      "label": null,
      "display": "text-only",
      "type": "text",
      "enable_detail": true,
      "related": {
        "url": "https://truyenx.link/truyensextv/channels/related/2190",
        "request_headers": []
      },
      "share": {
        "url": "https://truyenx.link/truyensextv/channels/share/ra-doi"
      },
      "remote_data": {
        "url": "https://truyenx.link/truyensextv/channels/ra-doi"
      }
    },
    {
      "id": "2189-channel",
      "name": "Tri kỷ",
      "description": "Chúng tôi là...",
      "image": null,
      "label": null,
      "display": "text-only",
      "type": "text",
      "enable_detail": true,
      "related": {
        "url": "https://truyenx.link/truyensextv/channels/related/2189",
        "request_headers": []
      },
      "share": {
        "url": "https://truyenx.link/truyensextv/channels/share/tri-ky"
      },
      "remote_data": {
        "url": "https://truyenx.link/truyensextv/channels/tri-ky"
      }
    },
    {
      "id": "2188-channel",
      "name": "Cô Osin",
      "description": "Tôi có một người ông năm nay đã 78 tuổi rồi. Ông đã già lắm rồi nhưng vẫn khỏe mạnh mỗi tội đôi mắt của ông không còn sau một vụ tai nạn. Gia đình tôi đều ở nước ngoài...",
      "image": null,
      "label": null,
      "display": "text-only",
      "type": "text",
      "enable_detail": true,
      "related": {
        "url": "https://truyenx.link/truyensextv/channels/related/2188",
        "request_headers": []
      },
      "share": {
        "url": "https://truyenx.link/truyensextv/channels/share/co-osin"
      },
      "remote_data": {
        "url": "https://truyenx.link/truyensextv/channels/co-osin"
      }
    },
    {
      "id": "2187-channel",
      "name": "Idol Saegusa",
      "description": "Đây là câu chuyện có thật của tôi, nó hằn sâu trong ký ức, vừa đau buồn, vừa sướng. Tôi là cựu du học sinh Nhật Bản, một đất nước rất xinh đẹp. Tôi cũng có một chút...",
      "image": null,
      "label": null,
      "display": "text-only",
      "type": "text",
      "enable_detail": true,
      "related": {
        "url": "https://truyenx.link/truyensextv/channels/related/2187",
        "request_headers": []
      },
      "share": {
        "url": "https://truyenx.link/truyensextv/channels/share/idol-saegusa"
      },
      "remote_data": {
        "url": "https://truyenx.link/truyensextv/channels/idol-saegusa"
      }
    },
    {
      "id": "2186-channel",
      "name": "Cô tôi",
      "description": "Tôi là một người con lai, bố là người Mỹ còn mẹ là người Việt. Bây giờ dịch bên Mỹ cũng giảm rồi nên tôi mới có chuyện để kể cho anh em ở truyensextv2.cc. Tôi thì có một...",
      "image": null,
      "label": null,
      "display": "text-only",
      "type": "text",
      "enable_detail": true,
      "related": {
        "url": "https://truyenx.link/truyensextv/channels/related/2186",
        "request_headers": []
      },
      "share": {
        "url": "https://truyenx.link/truyensextv/channels/share/co-toi"
      },
      "remote_data": {
        "url": "https://truyenx.link/truyensextv/channels/co-toi"
      }
    }
  ],
  "load_more": {
    "pageInfo": {
      "current_page": 18,
      "last_page": 140,
      "per_page": 30,
      "total": 4188
    },
    "paging": {
      "page_key": "page",
      "size_key": "size"
    },
    "remote_data": {
      "url": "https://truyenx.link/truyensextv/channels"
    }
  }
}