{"grid_number":1,"channels":[{"id":"1218-channel","name":"Tình dục và cuộc đời tôi","description":"Đã bao giờ bạn tự đặt ra câu hỏi: Tình yêu là gì chưa? À, tôi thì chưa. Bởi vì với tôi, tình yêu là phải có tình dục. Chỉ cần có tình dục thì đó gọi là tình yêu. Nhưng đó...","image":null,"label":null,"display":"text-only","type":"text","enable_detail":true,"related":{"url":"https://truyenx.link/truyensextv/channels/related/1218","request_headers":[]},"share":{"url":"https://truyenx.link/truyensextv/channels/share/tinh-duc-va-cuoc-doi-toi"},"remote_data":{"url":"https://truyenx.link/truyensextv/channels/tinh-duc-va-cuoc-doi-toi"}},{"id":"1217-channel","name":"Ba đứa con trai","description":"Từ mấy ngày nay, ngày nào khi tan sở thì Tâm cũng ghé thăm thằng Hiếu ở bệnh viện trước khi về nhà. Gia đình có nhiều chị em nhưng từ hồi nào giờ, Tâm thương thằng Hiếu...","image":null,"label":null,"display":"text-only","type":"text","enable_detail":true,"related":{"url":"https://truyenx.link/truyensextv/channels/related/1217","request_headers":[]},"share":{"url":"https://truyenx.link/truyensextv/channels/share/ba-dua-con-trai"},"remote_data":{"url":"https://truyenx.link/truyensextv/channels/ba-dua-con-trai"}},{"id":"1216-channel","name":"Má vợ","description":"Hoàng rất là may mắn có được người vợ như Ngọc. Lần đầu tiên khi gặp nàng trong một dịp lễ tất niên ở công ty, Hoàng đã bị chinh phục rồi! Ngọc là một nhân viên mới vào...","image":null,"label":null,"display":"text-only","type":"text","enable_detail":true,"related":{"url":"https://truyenx.link/truyensextv/channels/related/1216","request_headers":[]},"share":{"url":"https://truyenx.link/truyensextv/channels/share/ma-vo"},"remote_data":{"url":"https://truyenx.link/truyensextv/channels/ma-vo"}},{"id":"1215-channel","name":"Em gái bán nước hoa","description":"Chào hàng xóm... xin lỗi vì đã làm phiền anh, cho em làm quen với anh được không nè... Đang ngủ ngon thì tiếng chuông báo tin nhắn tít tít vang lên, tôi với tay lấy cái iporn mới mua...","image":null,"label":null,"display":"text-only","type":"text","enable_detail":true,"related":{"url":"https://truyenx.link/truyensextv/channels/related/1215","request_headers":[]},"share":{"url":"https://truyenx.link/truyensextv/channels/share/em-gai-ban-nuoc-hoa"},"remote_data":{"url":"https://truyenx.link/truyensextv/channels/em-gai-ban-nuoc-hoa"}},{"id":"1214-channel","name":"Vừa địt vừa ngắm mông","description":"Vợ em bảo khoe vú thì dễ, thả rông, mặc áo, váy trễ ngực là xong. Nhưng khoe mông thì khó, chỉ có đúng cách mặc váy bó sát hoặc diện áo dài quần mỏng thôi. Nên chỉ khoe mông...","image":null,"label":null,"display":"text-only","type":"text","enable_detail":true,"related":{"url":"https://truyenx.link/truyensextv/channels/related/1214","request_headers":[]},"share":{"url":"https://truyenx.link/truyensextv/channels/share/vua-dit-vua-ngam-mong"},"remote_data":{"url":"https://truyenx.link/truyensextv/channels/vua-dit-vua-ngam-mong"}},{"id":"1213-channel","name":"Làm tình với người lạ","description":"Cách đây 1 năm... Vào một ngày đẹp trời và gió đã làm cái nắng Sài Gòn bớt đi oi ả. Tôi, 1 chàng sinh viên 23t có học thức... học IT ở 1 trường ĐH khá danh tiếng ở VN. Lận...","image":null,"label":null,"display":"text-only","type":"text","enable_detail":true,"related":{"url":"https://truyenx.link/truyensextv/channels/related/1213","request_headers":[]},"share":{"url":"https://truyenx.link/truyensextv/channels/share/lam-tinh-voi-nguoi-la"},"remote_data":{"url":"https://truyenx.link/truyensextv/channels/lam-tinh-voi-nguoi-la"}},{"id":"1212-channel","name":"Đụ bà cô quen ở đám cưới","description":"Hôm đó mình đi đám cưới thằng em ở Bảo Lộc, có chút men vào người rồi hứng nên xin đăng ký bài hát Góc Phố Rêu Xanh cho máu... hehe. Thật ra mình mê nhạc vàng và hát nhạc vàng...","image":null,"label":null,"display":"text-only","type":"text","enable_detail":true,"related":{"url":"https://truyenx.link/truyensextv/channels/related/1212","request_headers":[]},"share":{"url":"https://truyenx.link/truyensextv/channels/share/du-ba-co-quen-o-dam-cuoi"},"remote_data":{"url":"https://truyenx.link/truyensextv/channels/du-ba-co-quen-o-dam-cuoi"}},{"id":"1211-channel","name":"Em vợ thằng bạn","description":"Mình thì không hiểu bị dị ứng bcs hay thế nào nhưng nếu dùng mấy cái đó là cảm xúc tụt thê thảm. Có lẽ chính vì điều đó nên từ hồi trai trẻ đến giờ chẳng mấy khi giao...","image":null,"label":null,"display":"text-only","type":"text","enable_detail":true,"related":{"url":"https://truyenx.link/truyensextv/channels/related/1211","request_headers":[]},"share":{"url":"https://truyenx.link/truyensextv/channels/share/em-vo-thang-ban"},"remote_data":{"url":"https://truyenx.link/truyensextv/channels/em-vo-thang-ban"}},{"id":"1210-channel","name":"Tâm sự của dâm nữ còn trinh","description":"Yêu nhau đã hơn 5 năm tới giờ người yêu vẫn giữ cho, vẫn chỉ sượt sượt ở bên ngoài rồi anh xuất tinh. Anh lúc nào cũng bảo: Lồn em chắc khít quá. Em thì: Ước gì cặc anh nhỏ...","image":null,"label":null,"display":"text-only","type":"text","enable_detail":true,"related":{"url":"https://truyenx.link/truyensextv/channels/related/1210","request_headers":[]},"share":{"url":"https://truyenx.link/truyensextv/channels/share/tam-su-cua-dam-nu-con-trinh"},"remote_data":{"url":"https://truyenx.link/truyensextv/channels/tam-su-cua-dam-nu-con-trinh"}},{"id":"1209-channel","name":"Suýt mất vợ","description":"Vợ chồng chồng mình cưới nhau tới nay được gần 2 năm. Cả hai rất hợp nhau trong chuyện tình cảm cũng như chăn gối nên không có xích mích gì. Mình có điều kiện kinh tế vững...","image":null,"label":null,"display":"text-only","type":"text","enable_detail":true,"related":{"url":"https://truyenx.link/truyensextv/channels/related/1209","request_headers":[]},"share":{"url":"https://truyenx.link/truyensextv/channels/share/suyt-mat-vo"},"remote_data":{"url":"https://truyenx.link/truyensextv/channels/suyt-mat-vo"}},{"id":"1208-channel","name":"Địt em gái gặp ở shop quần áo","description":"Trước khi kể thì xin tự nói với anh em là số mình nó sướng hay khổ cũng chả biết mà toàn gặp mấy chị hoặc mấy cô hông à, chứ chưa thử mấy em 2k bao giờ hic hic. Vài tuần...","image":null,"label":null,"display":"text-only","type":"text","enable_detail":true,"related":{"url":"https://truyenx.link/truyensextv/channels/related/1208","request_headers":[]},"share":{"url":"https://truyenx.link/truyensextv/channels/share/dit-em-gai-gap-o-shop-quan-ao"},"remote_data":{"url":"https://truyenx.link/truyensextv/channels/dit-em-gai-gap-o-shop-quan-ao"}},{"id":"1207-channel","name":"Em rau đáng nhớ","description":"Tôi quen em khi tôi 23 tuổi còn em mới 18. Cái tuổi khát khao về mọi mặt với những người con gái nhưng với em điều đó không hoàn toàn đúng. Khi sử dụng chức năng tìm quanh đây...","image":null,"label":null,"display":"text-only","type":"text","enable_detail":true,"related":{"url":"https://truyenx.link/truyensextv/channels/related/1207","request_headers":[]},"share":{"url":"https://truyenx.link/truyensextv/channels/share/em-rau-dang-nho"},"remote_data":{"url":"https://truyenx.link/truyensextv/channels/em-rau-dang-nho"}},{"id":"1206-channel","name":"Nhớ về những người tình","description":"Tết rảnh rỗi lại làm tôi nhớ đến kỷ niệm của hai năm trước! Tôi một chàng trai quảng ngãi, cái thuở mới lớn chưa biết gì thấy thành phố đông vui cũng ham mà xông ra đây...","image":null,"label":null,"display":"text-only","type":"text","enable_detail":true,"related":{"url":"https://truyenx.link/truyensextv/channels/related/1206","request_headers":[]},"share":{"url":"https://truyenx.link/truyensextv/channels/share/nho-ve-nhung-nguoi-tinh"},"remote_data":{"url":"https://truyenx.link/truyensextv/channels/nho-ve-nhung-nguoi-tinh"}},{"id":"1205-channel","name":"Some vào đêm sinh nhật","description":"Mình quen biết anh chị khoảng giữa tháng 8. Qua trao đổi thì rất nhanh sau đó đã setup được 1 buổi massage yoni cho chị, anh chị cũng là lần đầu cũng có những suy nghĩ và những câu...","image":null,"label":null,"display":"text-only","type":"text","enable_detail":true,"related":{"url":"https://truyenx.link/truyensextv/channels/related/1205","request_headers":[]},"share":{"url":"https://truyenx.link/truyensextv/channels/share/some-vao-dem-sinh-nhat"},"remote_data":{"url":"https://truyenx.link/truyensextv/channels/some-vao-dem-sinh-nhat"}},{"id":"1204-channel","name":"Em gái thằng bạn thân","description":"Biển Đông một ngày đầy gió bão. Tôi đi công tác ngoài biển, mạng điện thoại chập chờn dở dở ương ương sau cơn bão thì bỗng dưng ‘ting’, tin nhắn zalo, mình giật mình...","image":null,"label":null,"display":"text-only","type":"text","enable_detail":true,"related":{"url":"https://truyenx.link/truyensextv/channels/related/1204","request_headers":[]},"share":{"url":"https://truyenx.link/truyensextv/channels/share/em-gai-thang-ban-than"},"remote_data":{"url":"https://truyenx.link/truyensextv/channels/em-gai-thang-ban-than"}},{"id":"1203-channel","name":"Địt bạn vợ trước mặt vợ","description":"Truyện này rất lâu rồi nên không kể được một cách chi tiết được, mong anh em truyensextv2.cc thông cảm nhé. Đó là lần vụng trộm lén lút đầu tiên của tôi. Bữa đó vợ tôi rủ...","image":null,"label":null,"display":"text-only","type":"text","enable_detail":true,"related":{"url":"https://truyenx.link/truyensextv/channels/related/1203","request_headers":[]},"share":{"url":"https://truyenx.link/truyensextv/channels/share/dit-ban-vo-truoc-mat-vo"},"remote_data":{"url":"https://truyenx.link/truyensextv/channels/dit-ban-vo-truoc-mat-vo"}},{"id":"1202-channel","name":"Dục vọng đầu đời","description":"Có lẽ trong tất cả chúng ta đây đã đều trải qua một thời trẻ với đầy ắp những ký ức, và dù vui dù buồn nhưng quãng thời gian đó đã để lại cho chúng ta những hoài tưởng...","image":null,"label":null,"display":"text-only","type":"text","enable_detail":true,"related":{"url":"https://truyenx.link/truyensextv/channels/related/1202","request_headers":[]},"share":{"url":"https://truyenx.link/truyensextv/channels/share/duc-vong-dau-doi"},"remote_data":{"url":"https://truyenx.link/truyensextv/channels/duc-vong-dau-doi"}},{"id":"1201-channel","name":"Thủ dâm cho gái bằng vòi tắm","description":"Các bác nghĩ sao khi con gái thủ dâm nhưng bằng vòi tắm hoa sen. Mình kể chuyện này là chuyện thực và mình là người trực tiếp giúp em lên đỉnh. Tình cờ mình quen được ẻm ở trên...","image":null,"label":null,"display":"text-only","type":"text","enable_detail":true,"related":{"url":"https://truyenx.link/truyensextv/channels/related/1201","request_headers":[]},"share":{"url":"https://truyenx.link/truyensextv/channels/share/thu-dam-cho-gai-bang-voi-tam"},"remote_data":{"url":"https://truyenx.link/truyensextv/channels/thu-dam-cho-gai-bang-voi-tam"}},{"id":"1200-channel","name":"Chơi em gái dịch vụ tình cảm","description":"Quen em trong ngày sinh nhật mình, sau chầu nhậu tưng bừng mấy anh em trong nhà thì nhấm nháy nhau đi hát cho xả bia vì uống buổi trưa. Vào 1 quán hát trên 1 con phố nhỏ gần Bảo Tín Minh...","image":null,"label":null,"display":"text-only","type":"text","enable_detail":true,"related":{"url":"https://truyenx.link/truyensextv/channels/related/1200","request_headers":[]},"share":{"url":"https://truyenx.link/truyensextv/channels/share/choi-em-gai-dich-vu-tinh-cam"},"remote_data":{"url":"https://truyenx.link/truyensextv/channels/choi-em-gai-dich-vu-tinh-cam"}},{"id":"1199-channel","name":"Có nên phá trinh em nó không","description":"Chuyện là như thế này, trong đêm nhậu với lũ bạn bè em út tại quán dân dã cách đây một tuần, cũng có em trên bàn nhậu, ngồi nhậu lâu lâu lại nắm tay em ấy, em ấy để mình...","image":null,"label":null,"display":"text-only","type":"text","enable_detail":true,"related":{"url":"https://truyenx.link/truyensextv/channels/related/1199","request_headers":[]},"share":{"url":"https://truyenx.link/truyensextv/channels/share/co-nen-pha-trinh-em-no-khong"},"remote_data":{"url":"https://truyenx.link/truyensextv/channels/co-nen-pha-trinh-em-no-khong"}},{"id":"1198-channel","name":"Chị bán hàng lưu niệm dâm đãng","description":"Thứ hai đầu tuần đang lang thang khu vực hồ Hoàn Kiếm, xe đi thật chậm qua công ty điện lực Hoàn Kiếm rồi gần tới khu hàm cá mập bỗng nhiên nổ cuốc khách 25k về bên kia hồ...","image":null,"label":null,"display":"text-only","type":"text","enable_detail":true,"related":{"url":"https://truyenx.link/truyensextv/channels/related/1198","request_headers":[]},"share":{"url":"https://truyenx.link/truyensextv/channels/share/chi-ban-hang-luu-niem-dam-dang"},"remote_data":{"url":"https://truyenx.link/truyensextv/channels/chi-ban-hang-luu-niem-dam-dang"}},{"id":"1197-channel","name":"Cứu nét gái đú","description":"Em thì thuộc loại mê game và có 1 niềm đam mê với game online nhập vai, đang chơi BNS nên những lúc đi công tác, hay đi công việc em hay đi trước 1 ngày để có gì kiếm net cắm đêm và...","image":null,"label":null,"display":"text-only","type":"text","enable_detail":true,"related":{"url":"https://truyenx.link/truyensextv/channels/related/1197","request_headers":[]},"share":{"url":"https://truyenx.link/truyensextv/channels/share/cuu-net-gai-du"},"remote_data":{"url":"https://truyenx.link/truyensextv/channels/cuu-net-gai-du"}},{"id":"1196-channel","name":"Có bồ nhờ TSTV","description":"Đầu đuôi câu chuyện là thế này ạ, em là người Hà Nội sắp bước sang cái tuổi 28, một cái tuổi mà theo như mọi người nói là 1 độ tuổi của sự chơi vơi, tay trắng. Nhưng...","image":null,"label":null,"display":"text-only","type":"text","enable_detail":true,"related":{"url":"https://truyenx.link/truyensextv/channels/related/1196","request_headers":[]},"share":{"url":"https://truyenx.link/truyensextv/channels/share/co-bo-nho-tstv"},"remote_data":{"url":"https://truyenx.link/truyensextv/channels/co-bo-nho-tstv"}},{"id":"1195-channel","name":"Hạnh và bố chồng","description":"Thuận sinh ra trong một gia đình khá giả ở miền tây, vì là con một nên từ nhỏ đã được sự nuông chiều của ba mẹ. Ông Kiên và bà Nguyệt là ba và mẹ của Thuận, Ông Kiên nay đã...","image":null,"label":null,"display":"text-only","type":"text","enable_detail":true,"related":{"url":"https://truyenx.link/truyensextv/channels/related/1195","request_headers":[]},"share":{"url":"https://truyenx.link/truyensextv/channels/share/hanh-va-bo-chong"},"remote_data":{"url":"https://truyenx.link/truyensextv/channels/hanh-va-bo-chong"}},{"id":"1194-channel","name":"Cô giáo dạy trường quốc tế","description":"Vào một ngày đẹp trời, Zalo của em được khai quật bởi một cô giáo 25 tuổi trẻ trung, dạy tại một trường quốc tế. Em là người thuận theo tự nhiên nên ai kết bạn em cũng chào...","image":null,"label":null,"display":"text-only","type":"text","enable_detail":true,"related":{"url":"https://truyenx.link/truyensextv/channels/related/1194","request_headers":[]},"share":{"url":"https://truyenx.link/truyensextv/channels/share/co-giao-day-truong-quoc-te"},"remote_data":{"url":"https://truyenx.link/truyensextv/channels/co-giao-day-truong-quoc-te"}},{"id":"1193-channel","name":"Gái Bách Khoa","description":"Tôi và em gặp nhau qua Zalo thần thánh, cô gái vòng 1 đẫy đà mặc áo khoác trường Bách Khoa Hà Nội. Bằng nghiệp vụ tôi nhanh chóng khai thác được em thích trai Bách Khoa, nhanh chóng...","image":null,"label":null,"display":"text-only","type":"text","enable_detail":true,"related":{"url":"https://truyenx.link/truyensextv/channels/related/1193","request_headers":[]},"share":{"url":"https://truyenx.link/truyensextv/channels/share/gai-bach-khoa"},"remote_data":{"url":"https://truyenx.link/truyensextv/channels/gai-bach-khoa"}},{"id":"1192-channel","name":"Mợ 8","description":"Câu chuyện này xảy ra cũng lâu rồi, lúc đó tôi mới học lớp 7, nhà thì làm nông mà năm đó lúa mất mùa nên cha me tôi và cậu 8 tôi mới lên Đồng Nai làm cho đồn cao su. Vì nhà tôi...","image":null,"label":null,"display":"text-only","type":"text","enable_detail":true,"related":{"url":"https://truyenx.link/truyensextv/channels/related/1192","request_headers":[]},"share":{"url":"https://truyenx.link/truyensextv/channels/share/mo-8"},"remote_data":{"url":"https://truyenx.link/truyensextv/channels/mo-8"}},{"id":"1191-channel","name":"Đụ đéo cuồng loạn","description":"Xe công cộng số 20 to lớn tráng lệ ở trên đường chậm rãi lại gần, cửa xe mở ra, có mấy người mặc âu phục giày da nhô lên cái gì đó rất lớn dưới thắt lưng. Người bán...","image":null,"label":null,"display":"text-only","type":"text","enable_detail":true,"related":{"url":"https://truyenx.link/truyensextv/channels/related/1191","request_headers":[]},"share":{"url":"https://truyenx.link/truyensextv/channels/share/du-deo-cuong-loan"},"remote_data":{"url":"https://truyenx.link/truyensextv/channels/du-deo-cuong-loan"}},{"id":"1190-channel","name":"Trò chơi tình ái","description":"Hiện tại chúng tôi đang có 1 cuộc sống rất hạnh phúc và đặc biệt là chuyện chăn gối, mặc dù cái chuyện tế nhị tôi sắp kể ra đây nghe rất biến thái bệnh hoạn nhưng điều...","image":null,"label":null,"display":"text-only","type":"text","enable_detail":true,"related":{"url":"https://truyenx.link/truyensextv/channels/related/1190","request_headers":[]},"share":{"url":"https://truyenx.link/truyensextv/channels/share/tro-choi-tinh-ai"},"remote_data":{"url":"https://truyenx.link/truyensextv/channels/tro-choi-tinh-ai"}},{"id":"1189-channel","name":"Bộ đôi sát thủ","description":"Vàoooooo... vào rồi! Trung mập vừa sút tung lưới Nam Định để đưa FC Hà Nội vượt lên dẫn trước 3 2. Bàn thắng rất đẹp nhưng đường chuyền của Hải Joh mới thực sự là...","image":null,"label":null,"display":"text-only","type":"text","enable_detail":true,"related":{"url":"https://truyenx.link/truyensextv/channels/related/1189","request_headers":[]},"share":{"url":"https://truyenx.link/truyensextv/channels/share/bo-doi-sat-thu"},"remote_data":{"url":"https://truyenx.link/truyensextv/channels/bo-doi-sat-thu"}}],"load_more":{"pageInfo":{"current_page":100,"last_page":140,"per_page":30,"total":4188},"paging":{"page_key":"page","size_key":"size"},"remote_data":{"url":"https://truyenx.link/truyensextv/channels"}}}