{"grid_number":1,"channels":[{"id":"1398-channel","name":"Bạn gái nứng lồn","description":"Hà Nội cuối tuần man mác buồn, lại nhớ về cái lần mà em làm mình đến phát điên, chẳng biết em có nhớ! Cách đây cũng đã lâu, đang vi vu trên cái đất Hà Thành nhộn nhịp mải...","image":null,"label":null,"display":"text-only","type":"text","enable_detail":true,"related":{"url":"https://truyenx.link/truyensextv/channels/related/1398","request_headers":[]},"share":{"url":"https://truyenx.link/truyensextv/channels/share/ban-gai-nung-lon"},"remote_data":{"url":"https://truyenx.link/truyensextv/channels/ban-gai-nung-lon"}},{"id":"1397-channel","name":"Bị sếp hiếp dâm","description":"Hôm nay em trốn chồng lên đây tâm sự ạ. Chuyện là lúc trước em có đi công tác rồi xảy ra 1 số chuyện ngoài ý muốn. Sáng thứ 3 hôm đó, hôn tạm biệt chồng đi làm xong, em sắp...","image":null,"label":null,"display":"text-only","type":"text","enable_detail":true,"related":{"url":"https://truyenx.link/truyensextv/channels/related/1397","request_headers":[]},"share":{"url":"https://truyenx.link/truyensextv/channels/share/bi-sep-hiep-dam"},"remote_data":{"url":"https://truyenx.link/truyensextv/channels/bi-sep-hiep-dam"}},{"id":"1396-channel","name":"Đụ gái quen qua facebook","description":"Cách đây 5 năm, mình có tình cờ quen trên facebook 1 cô bạn ngang tuổi, là vợ của một ông cảnh sát hình sự công an huyện ở ngoài Phú Yên. Ông công an huyện đó là người cùng xã...","image":null,"label":null,"display":"text-only","type":"text","enable_detail":true,"related":{"url":"https://truyenx.link/truyensextv/channels/related/1396","request_headers":[]},"share":{"url":"https://truyenx.link/truyensextv/channels/share/du-gai-quen-qua-facebook"},"remote_data":{"url":"https://truyenx.link/truyensextv/channels/du-gai-quen-qua-facebook"}},{"id":"1395-channel","name":"2 cái lồn non tơ","description":"Chẳng là mấy hôm trước có “em gái mưa” ở nơi xa tự nhiên vào chat zalo bảo chuẩn bị về Hà Nội chơi, mình chưa kịp nói gì thì em đã bảo có cả đứa em em nữa rồi gửi...","image":null,"label":null,"display":"text-only","type":"text","enable_detail":true,"related":{"url":"https://truyenx.link/truyensextv/channels/related/1395","request_headers":[]},"share":{"url":"https://truyenx.link/truyensextv/channels/share/2-cai-lon-non-to"},"remote_data":{"url":"https://truyenx.link/truyensextv/channels/2-cai-lon-non-to"}},{"id":"1394-channel","name":"Kỷ niệm thời Yahoo","description":"Cách đây cũng lâu, hồi còn Yahoo kết bạn làm quen được 1 em mặt mũi cũng khá xinh, lúc đó em vẫn chưa biết mặt nhau, mình có hẹn em đó đi chơi nhưng đột xuất gấu lên chơi không...","image":null,"label":null,"display":"text-only","type":"text","enable_detail":true,"related":{"url":"https://truyenx.link/truyensextv/channels/related/1394","request_headers":[]},"share":{"url":"https://truyenx.link/truyensextv/channels/share/ky-niem-thoi-yahoo"},"remote_data":{"url":"https://truyenx.link/truyensextv/channels/ky-niem-thoi-yahoo"}},{"id":"1393-channel","name":"Máy bay Tây Nguyên ra Hà Nội","description":"Tôi có thằng bạn nối khố học với nhau từ nhỏ, hai thằng tuy không giống tính cách nhưng lại chơi thân với nhau và đặc biệt có sở thích dâm dê như nhau. Kể qua về ku này thì có...","image":null,"label":null,"display":"text-only","type":"text","enable_detail":true,"related":{"url":"https://truyenx.link/truyensextv/channels/related/1393","request_headers":[]},"share":{"url":"https://truyenx.link/truyensextv/channels/share/may-bay-tay-nguyen-ra-ha-noi"},"remote_data":{"url":"https://truyenx.link/truyensextv/channels/may-bay-tay-nguyen-ra-ha-noi"}},{"id":"1392-channel","name":"Chuyến công tác miền Nam","description":"Mình làm lái xe 16 chỗ cho một công ty nhà nước cổ phần hóa ở Hà Nội. Cuối tháng 2 đã đính một đợt công tác đi Tây Ninh. Công việc thì bỏ qua không có gì để nói. Bực mình...","image":null,"label":null,"display":"text-only","type":"text","enable_detail":true,"related":{"url":"https://truyenx.link/truyensextv/channels/related/1392","request_headers":[]},"share":{"url":"https://truyenx.link/truyensextv/channels/share/chuyen-cong-tac-mien-nam"},"remote_data":{"url":"https://truyenx.link/truyensextv/channels/chuyen-cong-tac-mien-nam"}},{"id":"1391-channel","name":"Chị hàng xóm dáng ngon","description":"Cũng chia sẻ với anh em 1 chuyện cho vui, số là ở gần nhà mình có cặp vợ chồng lớn hơn mình tầm 5 tuổi, là hàng xóm nên cũng hay gặp nhau ngoài đường và chào xã giao thôi chứ...","image":null,"label":null,"display":"text-only","type":"text","enable_detail":true,"related":{"url":"https://truyenx.link/truyensextv/channels/related/1391","request_headers":[]},"share":{"url":"https://truyenx.link/truyensextv/channels/share/chi-hang-xom-dang-ngon"},"remote_data":{"url":"https://truyenx.link/truyensextv/channels/chi-hang-xom-dang-ngon"}},{"id":"1390-channel","name":"Cho gái vay tiền","description":"Ngày đó còn ở trọ, có lần thằng bạn rủ đi uống cà phê và dắt theo 2 đứa con gái bạn nó nữa, trong đó có 1 em hơi xấu nhưng được cái trắng và múp múp. Về xin thằng bạn sdt...","image":null,"label":null,"display":"text-only","type":"text","enable_detail":true,"related":{"url":"https://truyenx.link/truyensextv/channels/related/1390","request_headers":[]},"share":{"url":"https://truyenx.link/truyensextv/channels/share/cho-gai-vay-tien"},"remote_data":{"url":"https://truyenx.link/truyensextv/channels/cho-gai-vay-tien"}},{"id":"1389-channel","name":"Chịch máy bay đang mang bầu","description":"Chuyện là tầm năm 2014 gì đó cũng tìm zalo quanh đây và kết bạn với 1 máy bay . Máy bay này làm về tóc nữ. Lúc đó là đang ở chung với 1 thằng bồ cũng thích bóng banh. Nghe máy bay...","image":null,"label":null,"display":"text-only","type":"text","enable_detail":true,"related":{"url":"https://truyenx.link/truyensextv/channels/related/1389","request_headers":[]},"share":{"url":"https://truyenx.link/truyensextv/channels/share/chich-may-bay-dang-mang-bau"},"remote_data":{"url":"https://truyenx.link/truyensextv/channels/chich-may-bay-dang-mang-bau"}},{"id":"1388-channel","name":"Địt gái có chồng","description":"Mình hơn 30 tuổi, tổng số các rau, máy bay, người yêu đã từng qua tay mình cũng bằng xấp xỉ với số tuổi của mình. Có những thời kỳ đỉnh điểm có thể nói là chỉ ăn với...","image":null,"label":null,"display":"text-only","type":"text","enable_detail":true,"related":{"url":"https://truyenx.link/truyensextv/channels/related/1388","request_headers":[]},"share":{"url":"https://truyenx.link/truyensextv/channels/share/dit-gai-co-chong"},"remote_data":{"url":"https://truyenx.link/truyensextv/channels/dit-gai-co-chong"}},{"id":"1387-channel","name":"Tự kiếm máy bay","description":"Cách đây tầm 4 năm, công ty mở chi nhánh mới ở 1 tỉnh phía Bắc, em được cử đi để giám sát và hỗ trợ chi nhánh mới. Công việc thì cũng chẳng có gì để kể cả, làm hết giờ...","image":null,"label":null,"display":"text-only","type":"text","enable_detail":true,"related":{"url":"https://truyenx.link/truyensextv/channels/related/1387","request_headers":[]},"share":{"url":"https://truyenx.link/truyensextv/channels/share/tu-kiem-may-bay"},"remote_data":{"url":"https://truyenx.link/truyensextv/channels/tu-kiem-may-bay"}},{"id":"1386-channel","name":"Cho cha dượng đụ","description":"Tôi năm nay đã 18 tuổi, mẹ tôi đã ly dị bố tôi từ lúc tôi 10 tuổi. Mẹ tái hôn với dượng sau 1 năm ly dị bố tôi. Dượng cũng rất tốt bụng và giỏi trong khả năng nấu nướng...","image":null,"label":null,"display":"text-only","type":"text","enable_detail":true,"related":{"url":"https://truyenx.link/truyensextv/channels/related/1386","request_headers":[]},"share":{"url":"https://truyenx.link/truyensextv/channels/share/cho-cha-duong-du"},"remote_data":{"url":"https://truyenx.link/truyensextv/channels/cho-cha-duong-du"}},{"id":"1385-channel","name":"Một đề nghị quá bất ngờ","description":"Vì Ba Mẹ tôi không có điều kiện nên từ 10 tuổi tôi đã được gửi lên thành phố mà tiếp tục học trong gia đình Cậu Năm. Cậu Mợ không có con đúng ra thì Cậu Mợ có được...","image":null,"label":null,"display":"text-only","type":"text","enable_detail":true,"related":{"url":"https://truyenx.link/truyensextv/channels/related/1385","request_headers":[]},"share":{"url":"https://truyenx.link/truyensextv/channels/share/mot-de-nghi-qua-bat-ngo"},"remote_data":{"url":"https://truyenx.link/truyensextv/channels/mot-de-nghi-qua-bat-ngo"}},{"id":"1384-channel","name":"Vợ cho phép đụ bạn vợ","description":"Sự thể là vợ mình có cô bạn khá thân. Cô bạn lấy chồng, bị chồng phụ bạc, nên sống 1 mình nuôi con. Quanh năm đi làm đầu tắt mặt tối. Thi thoảng vợ chồng mình hay qua thăm...","image":null,"label":null,"display":"text-only","type":"text","enable_detail":true,"related":{"url":"https://truyenx.link/truyensextv/channels/related/1384","request_headers":[]},"share":{"url":"https://truyenx.link/truyensextv/channels/share/vo-cho-phep-du-ban-vo"},"remote_data":{"url":"https://truyenx.link/truyensextv/channels/vo-cho-phep-du-ban-vo"}},{"id":"1383-channel","name":"Nữ sinh dâm đãng","description":"Diệp là nữ học sinh dâm đãng, gia đình có quyền lực. Cô rất đẹp, thân hình nóng bỏng. Năm nay cô sẽ nhập học vào ngôi trường tình dục, xa hoa phú quý nhất thành phố. Khi vào...","image":null,"label":null,"display":"text-only","type":"text","enable_detail":true,"related":{"url":"https://truyenx.link/truyensextv/channels/related/1383","request_headers":[]},"share":{"url":"https://truyenx.link/truyensextv/channels/share/nu-sinh-dam-dang"},"remote_data":{"url":"https://truyenx.link/truyensextv/channels/nu-sinh-dam-dang"}},{"id":"1382-channel","name":"Một lần đụ mẹ vợ","description":"Thực sự là mình chưa chia sẻ với ai chuyện đời mình. Vì ở cái XH Việt Nam này, loạn luân nó là 1 cái tội to lớn lắm và đáng bị phỉ báng, thế nên có thì phải giấu trong lòng...","image":null,"label":null,"display":"text-only","type":"text","enable_detail":true,"related":{"url":"https://truyenx.link/truyensextv/channels/related/1382","request_headers":[]},"share":{"url":"https://truyenx.link/truyensextv/channels/share/mot-lan-du-me-vo"},"remote_data":{"url":"https://truyenx.link/truyensextv/channels/mot-lan-du-me-vo"}},{"id":"1381-channel","name":"Lần đầu địt bà chị","description":"Từng quen 1 bà chị . Gặp nhau ăn uống đi chơi với ẻm cũng chỉ vài lần do quen biết qua mạng. Tự nhiên 1 bữa thường là 12h mình ngủ, trễ lắm cũng 1h là cùng, hôm đó đang ghiền...","image":null,"label":null,"display":"text-only","type":"text","enable_detail":true,"related":{"url":"https://truyenx.link/truyensextv/channels/related/1381","request_headers":[]},"share":{"url":"https://truyenx.link/truyensextv/channels/share/lan-dau-dit-ba-chi"},"remote_data":{"url":"https://truyenx.link/truyensextv/channels/lan-dau-dit-ba-chi"}},{"id":"1380-channel","name":"Ăn vụng với cô em bên vợ","description":"Vợ chồng tôi làm chủ 1 cửa hàng nội thất, nói vậy cho oai chứ thực ra cái cửa hàng này là của bố mẹ tôi... 2 cụ giờ có tuổi rồi chuyển nhượng lại cho vợ chồng tôi quản...","image":null,"label":null,"display":"text-only","type":"text","enable_detail":true,"related":{"url":"https://truyenx.link/truyensextv/channels/related/1380","request_headers":[]},"share":{"url":"https://truyenx.link/truyensextv/channels/share/an-vung-voi-co-em-ben-vo"},"remote_data":{"url":"https://truyenx.link/truyensextv/channels/an-vung-voi-co-em-ben-vo"}},{"id":"1379-channel","name":"Những kỷ niệm sex đáng nhớ","description":"Lần đầu xuất tinh: Là với chị nhà bác. Mình với chị học cùng lớp. Lúc đó là vào giữa năm học lớp 9, thầy giáo bắt nộp quyển bài tập toán. Mình thuộc dạng học giỏi nên...","image":null,"label":null,"display":"text-only","type":"text","enable_detail":true,"related":{"url":"https://truyenx.link/truyensextv/channels/related/1379","request_headers":[]},"share":{"url":"https://truyenx.link/truyensextv/channels/share/nhung-ky-niem-sex-dang-nho"},"remote_data":{"url":"https://truyenx.link/truyensextv/channels/nhung-ky-niem-sex-dang-nho"}},{"id":"1378-channel","name":"Đụ đéo bà chủ","description":"Đi làm sớm nên cũng biết đụ đéo khá sớm... lần đầu tiên với bà chủ trẻ. Vì là làm hàng ăn nên gần như không có ngày nghỉ. Thật sự là cũng rình chị ý tắm lâu lắm rồi...","image":null,"label":null,"display":"text-only","type":"text","enable_detail":true,"related":{"url":"https://truyenx.link/truyensextv/channels/related/1378","request_headers":[]},"share":{"url":"https://truyenx.link/truyensextv/channels/share/du-deo-ba-chu"},"remote_data":{"url":"https://truyenx.link/truyensextv/channels/du-deo-ba-chu"}},{"id":"1377-channel","name":"Địt ở nhà người yêu cũ","description":"Chia sẻ với anh em lần mình sang nhà người yêu cũ chơi, ngày đó còn là sinh viên, vì 2 đứa cùng quê nên nghỉ hè mình cũng hay lượn sang nhà gấu chơi, vì 2 nhà cách nhau hơn 1 cây số...","image":null,"label":null,"display":"text-only","type":"text","enable_detail":true,"related":{"url":"https://truyenx.link/truyensextv/channels/related/1377","request_headers":[]},"share":{"url":"https://truyenx.link/truyensextv/channels/share/dit-o-nha-nguoi-yeu-cu"},"remote_data":{"url":"https://truyenx.link/truyensextv/channels/dit-o-nha-nguoi-yeu-cu"}},{"id":"1376-channel","name":"Câu chuyện của Linh","description":"Em tên là Linh. Năm nay em 17 tuổi cái tuổi đẹp nhất đối với một người con gái cái tuổi mà lồn bắt đầu có lông nhiều dần vú em cũng bắt đầu to dần và cái ham muốn trong cơ...","image":null,"label":null,"display":"text-only","type":"text","enable_detail":true,"related":{"url":"https://truyenx.link/truyensextv/channels/related/1376","request_headers":[]},"share":{"url":"https://truyenx.link/truyensextv/channels/share/cau-chuyen-cua-linh"},"remote_data":{"url":"https://truyenx.link/truyensextv/channels/cau-chuyen-cua-linh"}},{"id":"1375-channel","name":"Cái miệng dâm đãng","description":"2 năm trước mình ở Mỹ, cũng có công việc ổn định nhưng không cặp với ai, lên Zalo đưa đẩy thế nào thì gặp một em 19 tuổi du học sinh khá xinh và ngon dáng. Hồi ở Việt Nam nhà...","image":null,"label":null,"display":"text-only","type":"text","enable_detail":true,"related":{"url":"https://truyenx.link/truyensextv/channels/related/1375","request_headers":[]},"share":{"url":"https://truyenx.link/truyensextv/channels/share/cai-mieng-dam-dang"},"remote_data":{"url":"https://truyenx.link/truyensextv/channels/cai-mieng-dam-dang"}},{"id":"1374-channel","name":"Máy bay trong khu tập thể","description":"Một ngày buồn, lại ngồi kể chuyện anh em nghe. Một câu chuyện thật mà nghe như đùa, nó xảy ra rất giống với một số truyện mà mình từng được đọc trên truyensextv2.cc trước...","image":null,"label":null,"display":"text-only","type":"text","enable_detail":true,"related":{"url":"https://truyenx.link/truyensextv/channels/related/1374","request_headers":[]},"share":{"url":"https://truyenx.link/truyensextv/channels/share/may-bay-trong-khu-tap-the"},"remote_data":{"url":"https://truyenx.link/truyensextv/channels/may-bay-trong-khu-tap-the"}},{"id":"1373-channel","name":"Bà chị gần nhà","description":"Gần nhà em có bà chị chắc tầm 30 hay hơn 30 gì đó, cách mấy nhà. Trông cũng ngon trắng, nhà vợ chồng cũng điều kiện, 2 vợ chồng làm bánh sinh nhật. Hôm đó sang vặt xoài ở...","image":null,"label":null,"display":"text-only","type":"text","enable_detail":true,"related":{"url":"https://truyenx.link/truyensextv/channels/related/1373","request_headers":[]},"share":{"url":"https://truyenx.link/truyensextv/channels/share/ba-chi-gan-nha"},"remote_data":{"url":"https://truyenx.link/truyensextv/channels/ba-chi-gan-nha"}},{"id":"1372-channel","name":"Vợ tôi cho nhiều thằng đụ","description":"Chúng ta đã từng nghe những câu chuyện ngoại tình, và những chuyện mà người vợ hoặc chồng vô cùng đau đớn và bàng hoàng khi nhìn thấy người bạn đời của mình đang đụ với...","image":null,"label":null,"display":"text-only","type":"text","enable_detail":true,"related":{"url":"https://truyenx.link/truyensextv/channels/related/1372","request_headers":[]},"share":{"url":"https://truyenx.link/truyensextv/channels/share/vo-toi-cho-nhieu-thang-du"},"remote_data":{"url":"https://truyenx.link/truyensextv/channels/vo-toi-cho-nhieu-thang-du"}},{"id":"1371-channel","name":"Nhục dâm","description":"Từ ngày lên chức kế toán trưởng thì Thảo Ly luôn bận rộn và nhiều khi bị áp lực, vì thế Cường đã ủng hộ và khích lệ cho vợ đi dự bữa tiệc do công ty tổ chức mặc dù...","image":null,"label":null,"display":"text-only","type":"text","enable_detail":true,"related":{"url":"https://truyenx.link/truyensextv/channels/related/1371","request_headers":[]},"share":{"url":"https://truyenx.link/truyensextv/channels/share/nhuc-dam"},"remote_data":{"url":"https://truyenx.link/truyensextv/channels/nhuc-dam"}},{"id":"1370-channel","name":"Làm tình với chị ba","description":"Thằng Hiếu được về quê nghỉ hè nên cả nhà vui hẳn lên. Ba má nó thì rất hãnh diện với hàng xóm có được thằng con trai học Ðại học trên tận Sài Gòn, còn chị Tâm thì trố...","image":null,"label":null,"display":"text-only","type":"text","enable_detail":true,"related":{"url":"https://truyenx.link/truyensextv/channels/related/1370","request_headers":[]},"share":{"url":"https://truyenx.link/truyensextv/channels/share/lam-tinh-voi-chi-ba"},"remote_data":{"url":"https://truyenx.link/truyensextv/channels/lam-tinh-voi-chi-ba"}},{"id":"1369-channel","name":"Em Linh nứng lồn thủ dâm","description":"Xin chào mọi người, tôi tên Linh. Năm nay tôi 16 tuổi rồi, một độ tuổi khá là đẹp nhỉ. Tôi có một cơ thể tuyệt đẹp, cặp vú tuy không to mấy nhưng nó cực kỳ mềm. Tôi có...","image":null,"label":null,"display":"text-only","type":"text","enable_detail":true,"related":{"url":"https://truyenx.link/truyensextv/channels/related/1369","request_headers":[]},"share":{"url":"https://truyenx.link/truyensextv/channels/share/em-linh-nung-lon-thu-dam"},"remote_data":{"url":"https://truyenx.link/truyensextv/channels/em-linh-nung-lon-thu-dam"}}],"load_more":{"pageInfo":{"current_page":94,"last_page":140,"per_page":30,"total":4188},"paging":{"page_key":"page","size_key":"size"},"remote_data":{"url":"https://truyenx.link/truyensextv/channels"}}}