{"grid_number":1,"channels":[{"id":"1248-channel","name":"Dưới hiên nhà","description":"Con hẻm vắng tĩnh lặng như ngủ quên giữa phố phường hoa lệ. Dưới ánh đèn đường mờ nhạt, Thư bước vội qua con hẻm nhỏ với vẻ mặt âu lo, thỉnh thoảng nàng lại đảo đôi...","image":null,"label":null,"display":"text-only","type":"text","enable_detail":true,"related":{"url":"https://truyenx.link/truyensextv/channels/related/1248","request_headers":[]},"share":{"url":"https://truyenx.link/truyensextv/channels/share/duoi-hien-nha"},"remote_data":{"url":"https://truyenx.link/truyensextv/channels/duoi-hien-nha"}},{"id":"1247-channel","name":"Đối đầu","description":"Một vùng quê thanh bình với những cánh đồng lúa bát ngát xanh tươi đang đảo chiều múa hát dưới những cơn gió, hình ảnh tôi và chị hai tôi cứ chập chờn ẩn hiện bên những...","image":null,"label":null,"display":"text-only","type":"text","enable_detail":true,"related":{"url":"https://truyenx.link/truyensextv/channels/related/1247","request_headers":[]},"share":{"url":"https://truyenx.link/truyensextv/channels/share/doi-dau"},"remote_data":{"url":"https://truyenx.link/truyensextv/channels/doi-dau"}},{"id":"1246-channel","name":"Gấu cũ bị hiếp dâm","description":"Chuyện của mình thì hơi buồn chút. Gấu cũ mình sn95, cao 1m60, xinh xắn nên cũng có nhiều thằng để ý. Mình với ex yêu nhau từ hồi em ý mới học lớp 9 nhưng chỉ dám hôn hít thôi...","image":null,"label":null,"display":"text-only","type":"text","enable_detail":true,"related":{"url":"https://truyenx.link/truyensextv/channels/related/1246","request_headers":[]},"share":{"url":"https://truyenx.link/truyensextv/channels/share/gau-cu-bi-hiep-dam"},"remote_data":{"url":"https://truyenx.link/truyensextv/channels/gau-cu-bi-hiep-dam"}},{"id":"1245-channel","name":"Đêm tân hôn","description":"Chỉ còn mấy ngày nữa là đám cưới giữa tôi và Hồng Thu diễn ra, mọi chuyện vẫn êm đềm cho đến khi tôi vô tình biết được những bí mật của vợ sắp cưới mà chính những...","image":null,"label":null,"display":"text-only","type":"text","enable_detail":true,"related":{"url":"https://truyenx.link/truyensextv/channels/related/1245","request_headers":[]},"share":{"url":"https://truyenx.link/truyensextv/channels/share/dem-tan-hon"},"remote_data":{"url":"https://truyenx.link/truyensextv/channels/dem-tan-hon"}},{"id":"1244-channel","name":"Địt chung người yêu với thằng bạn thân","description":"Không biết có anh em nào ở đây giống em không. Em cũng thèm some lắm nhưng mà gạ mãi thì gấu không cho. Rồi có 1 đợt bọn em chia tay em gạ thằng bạn thân tán gấu, hồi ý cũng trẩu...","image":null,"label":null,"display":"text-only","type":"text","enable_detail":true,"related":{"url":"https://truyenx.link/truyensextv/channels/related/1244","request_headers":[]},"share":{"url":"https://truyenx.link/truyensextv/channels/share/dit-chung-nguoi-yeu-voi-thang-ban-than"},"remote_data":{"url":"https://truyenx.link/truyensextv/channels/dit-chung-nguoi-yeu-voi-thang-ban-than"}},{"id":"1243-channel","name":"Chuyện về em Hoài dâm đãng","description":"Thúy Hoài bị mất trinh năm 16 tuổi, do bị ông anh họ làm. Hoài đã bị anh họ của mình dụ dỗ khi người lớn không có nhà và cả hai đã vào phòng ngủ thực hiện lần làm tình lần...","image":null,"label":null,"display":"text-only","type":"text","enable_detail":true,"related":{"url":"https://truyenx.link/truyensextv/channels/related/1243","request_headers":[]},"share":{"url":"https://truyenx.link/truyensextv/channels/share/chuyen-ve-em-hoai-dam-dang"},"remote_data":{"url":"https://truyenx.link/truyensextv/channels/chuyen-ve-em-hoai-dam-dang"}},{"id":"1242-channel","name":"Đụ vợ ông anh bị thiếu hơi cặc","description":"Giới thiệu chút thì tôi là một thằng đang FA, vừa chia tay mối tình 3 năm làm việc tại 1 doanh nghiệp du lịch lớn. Còn em một tiểu thư, 1 giáo viên piano xinh đẹp, tài năng và khá...","image":null,"label":null,"display":"text-only","type":"text","enable_detail":true,"related":{"url":"https://truyenx.link/truyensextv/channels/related/1242","request_headers":[]},"share":{"url":"https://truyenx.link/truyensextv/channels/share/du-vo-ong-anh-bi-thieu-hoi-cac"},"remote_data":{"url":"https://truyenx.link/truyensextv/channels/du-vo-ong-anh-bi-thieu-hoi-cac"}},{"id":"1241-channel","name":"Ba số phận","description":"Câu chuyện tôi viết ra sau đây có 70% là sự thật, 30% còn lại chưa thể xác định hay chí ít nó cũng có thể đã xảy ra ở đâu đó trong cuộc sống này... ... Tôi sinh ra ở quê... Quê...","image":null,"label":null,"display":"text-only","type":"text","enable_detail":true,"related":{"url":"https://truyenx.link/truyensextv/channels/related/1241","request_headers":[]},"share":{"url":"https://truyenx.link/truyensextv/channels/share/ba-so-phan"},"remote_data":{"url":"https://truyenx.link/truyensextv/channels/ba-so-phan"}},{"id":"1240-channel","name":"Đụ chị Vy nứng lồn","description":"Chuyện xảy ra vào khoảng thời gian mình và bạn gái chia tay rồi quay lại mới làm đám cưới, tầm hơn 1 năm. Mình nhớ là mình với chị cũng nói chuyện được một thời gian, từ lúc...","image":null,"label":null,"display":"text-only","type":"text","enable_detail":true,"related":{"url":"https://truyenx.link/truyensextv/channels/related/1240","request_headers":[]},"share":{"url":"https://truyenx.link/truyensextv/channels/share/du-chi-vy-nung-lon"},"remote_data":{"url":"https://truyenx.link/truyensextv/channels/du-chi-vy-nung-lon"}},{"id":"1239-channel","name":"Chuyện ngoại tình của Thảo","description":"Thảo và Thanh quen nhau thời cấp ba. Thanh lớn hơn Thảo 2 tuổi. Họ gặp nhau trong một buổi giao lưu âm nhạc của địa phương, Thảo khi ấy mới là một cô thiếu nữ mới bước vào...","image":null,"label":null,"display":"text-only","type":"text","enable_detail":true,"related":{"url":"https://truyenx.link/truyensextv/channels/related/1239","request_headers":[]},"share":{"url":"https://truyenx.link/truyensextv/channels/share/chuyen-ngoai-tinh-cua-thao"},"remote_data":{"url":"https://truyenx.link/truyensextv/channels/chuyen-ngoai-tinh-cua-thao"}},{"id":"1238-channel","name":"Liếm lồn cô giáo","description":"An Huyên tỉnh dậy sau giấc ngủ dài. Cô đã ngủ tổng cộng mười bốn tiếng kể từ khi rời khỏi cổng trường. Cô vốn là một cô giáo mới chuyển về học viện Tông Tứ ít hôm...","image":null,"label":null,"display":"text-only","type":"text","enable_detail":true,"related":{"url":"https://truyenx.link/truyensextv/channels/related/1238","request_headers":[]},"share":{"url":"https://truyenx.link/truyensextv/channels/share/liem-lon-co-giao"},"remote_data":{"url":"https://truyenx.link/truyensextv/channels/liem-lon-co-giao"}},{"id":"1237-channel","name":"Cô giáo Hằng","description":"Cô Hằng năm nay 35 tuổi, có chồng và một con, là một giáo viên dạy môn ngoại ngữ. Tôi tên Thuần, là sinh viên năm 4, và là cựu học trò của cô Hằng. Khi tôi vào lớp 10 với bản...","image":null,"label":null,"display":"text-only","type":"text","enable_detail":true,"related":{"url":"https://truyenx.link/truyensextv/channels/related/1237","request_headers":[]},"share":{"url":"https://truyenx.link/truyensextv/channels/share/co-giao-hang"},"remote_data":{"url":"https://truyenx.link/truyensextv/channels/co-giao-hang"}},{"id":"1236-channel","name":"Nhỏ em gái thích bắt nạt anh trai","description":"[Vài phút giới thiệu về hoàn cảnh gia đình vì truyện của tôi thật 80% còn 20% còn lại là thêm thắt vào lời loại cho nó hấp cmn dẫn] Cũng đã 3 ngày kể từ lúc tôi chuyển nhà ra...","image":null,"label":null,"display":"text-only","type":"text","enable_detail":true,"related":{"url":"https://truyenx.link/truyensextv/channels/related/1236","request_headers":[]},"share":{"url":"https://truyenx.link/truyensextv/channels/share/nho-em-gai-thich-bat-nat-anh-trai"},"remote_data":{"url":"https://truyenx.link/truyensextv/channels/nho-em-gai-thich-bat-nat-anh-trai"}},{"id":"1235-channel","name":"Bạn mới","description":"Tôi và em quen nhau qua lời giới thiệu của thằng bạn thân. Em và tôi bằng tuổi với nhau. Sau khi biết được facebook thì tôi và em cùng nhau tán gẫu nói chuyện. Sau 4 ngày miệt mài thì...","image":null,"label":null,"display":"text-only","type":"text","enable_detail":true,"related":{"url":"https://truyenx.link/truyensextv/channels/related/1235","request_headers":[]},"share":{"url":"https://truyenx.link/truyensextv/channels/share/ban-moi"},"remote_data":{"url":"https://truyenx.link/truyensextv/channels/ban-moi"}},{"id":"1234-channel","name":"Cô giáo Loan dâm đãng","description":"Tôi chỉ mới vào...","image":null,"label":null,"display":"text-only","type":"text","enable_detail":true,"related":{"url":"https://truyenx.link/truyensextv/channels/related/1234","request_headers":[]},"share":{"url":"https://truyenx.link/truyensextv/channels/share/co-giao-loan-dam-dang"},"remote_data":{"url":"https://truyenx.link/truyensextv/channels/co-giao-loan-dam-dang"}},{"id":"1233-channel","name":"Cô em họ xinh xắn","description":"Tên tôi là Minh, năm đó, vừa tròn 18 tuổi, không dám tự khen mình nhưng ai cũng khen tôi đẹp trai, thư sinh, tôi cao 1m75, tôi rất hay chạy bộ và đá bóng nên body rắn chắc, khỏe...","image":null,"label":null,"display":"text-only","type":"text","enable_detail":true,"related":{"url":"https://truyenx.link/truyensextv/channels/related/1233","request_headers":[]},"share":{"url":"https://truyenx.link/truyensextv/channels/share/co-em-ho-xinh-xan"},"remote_data":{"url":"https://truyenx.link/truyensextv/channels/co-em-ho-xinh-xan"}},{"id":"1232-channel","name":"Vợ kể chuyện some khi ngoại tình","description":"Chuyện là lúc vợ mình năm 4 đại học , thuộc dạng dâm ngầm thôi, bình thường thì vẫn ngoan. Vợ mình học tương đối cũng dạng trung bình thôi nên hay tổ chức học nhóm, trong nhóm...","image":null,"label":null,"display":"text-only","type":"text","enable_detail":true,"related":{"url":"https://truyenx.link/truyensextv/channels/related/1232","request_headers":[]},"share":{"url":"https://truyenx.link/truyensextv/channels/share/vo-ke-chuyen-some-khi-ngoai-tinh"},"remote_data":{"url":"https://truyenx.link/truyensextv/channels/vo-ke-chuyen-some-khi-ngoai-tinh"}},{"id":"1231-channel","name":"Ngoại tình với Tuyết Mai","description":"Giới thiệu nhân vật: Tuyết Mai: 26 tuổi có chồng và 1 con trai, từ bỏ công việc ở quê lên Bình dương làm công nhân cho 1 công ty giày da. Tôi là Quy 22 tuổi vừa tốt nghiệp đại...","image":null,"label":null,"display":"text-only","type":"text","enable_detail":true,"related":{"url":"https://truyenx.link/truyensextv/channels/related/1231","request_headers":[]},"share":{"url":"https://truyenx.link/truyensextv/channels/share/ngoai-tinh-voi-tuyet-mai"},"remote_data":{"url":"https://truyenx.link/truyensextv/channels/ngoai-tinh-voi-tuyet-mai"}},{"id":"1230-channel","name":"Chị Thoa hàng xóm","description":"Kim Thoa lấy chồng từ năm 18 tuổi, Thoa cùng chồng là Thanh sau khi kết hôn cùng nhau lên Sài Gòn làm thuê được 7 năm tích góp được số vốn nhỏ cả hai về quê mở một quán nước...","image":null,"label":null,"display":"text-only","type":"text","enable_detail":true,"related":{"url":"https://truyenx.link/truyensextv/channels/related/1230","request_headers":[]},"share":{"url":"https://truyenx.link/truyensextv/channels/share/chi-thoa-hang-xom"},"remote_data":{"url":"https://truyenx.link/truyensextv/channels/chi-thoa-hang-xom"}},{"id":"1229-channel","name":"Chị chủ trọ dâm đãng","description":"Sau khi thi tốt nghiệp do không đủ điểm ở trường đại học tôi đành phải học ở 1 trường cao đẳng nghề, 19 tuổi, một đứa trai mới lớn chân ướt chân ráo lên thành phố...","image":null,"label":null,"display":"text-only","type":"text","enable_detail":true,"related":{"url":"https://truyenx.link/truyensextv/channels/related/1229","request_headers":[]},"share":{"url":"https://truyenx.link/truyensextv/channels/share/chi-chu-tro-dam-dang"},"remote_data":{"url":"https://truyenx.link/truyensextv/channels/chi-chu-tro-dam-dang"}},{"id":"1228-channel","name":"Hắc Long - Quyển 1","description":"Không... mẹ... không... Tiếng hét thảm thiết của Thiên trước việc chứng kiến cái chết của mẹ khiến cậu không thể nào chịu đựng được. Cậu nhìn lên phía trên. Trước mắt...","image":null,"label":null,"display":"text-only","type":"text","enable_detail":true,"related":{"url":"https://truyenx.link/truyensextv/channels/related/1228","request_headers":[]},"share":{"url":"https://truyenx.link/truyensextv/channels/share/hac-long-quyen-1"},"remote_data":{"url":"https://truyenx.link/truyensextv/channels/hac-long-quyen-1"}},{"id":"1227-channel","name":"Thầy Tùng quản sinh","description":"Trời nóng oi ả, hôm nay là sinh nhật của thầy Tùng, một thầy quản sinh của trường học tiếng nọ. Cũng bởi ổng là người khó tính mắc bệnh dâm nên không một học sinh nào ưa...","image":null,"label":null,"display":"text-only","type":"text","enable_detail":true,"related":{"url":"https://truyenx.link/truyensextv/channels/related/1227","request_headers":[]},"share":{"url":"https://truyenx.link/truyensextv/channels/share/thay-tung-quan-sinh"},"remote_data":{"url":"https://truyenx.link/truyensextv/channels/thay-tung-quan-sinh"}},{"id":"1226-channel","name":"Những em gái thèm đụ","description":"Em tên D, sinh năm 94, cuộc đời em cũng bình thường, như bao người khác. Học cấp 3 thì cũng bỏ học chơi game nên gái gú ngày c3 chỉ là phù du thôi ạ. Học xong c3 thì em chuyển lên tp...","image":null,"label":null,"display":"text-only","type":"text","enable_detail":true,"related":{"url":"https://truyenx.link/truyensextv/channels/related/1226","request_headers":[]},"share":{"url":"https://truyenx.link/truyensextv/channels/share/nhung-em-gai-them-du"},"remote_data":{"url":"https://truyenx.link/truyensextv/channels/nhung-em-gai-them-du"}},{"id":"1225-channel","name":"Cho em họ đụ người yêu","description":"Hồi trước mình có quen 1 em gấu khá xinh, dáng chuẩn do cũng hay tập yoga. Ban đầu quen nhau rất là ngại ngùng nhưng từ từ cái tính dâm nữ nó bộc lộ ra các bác ạ. Mình với em ấy...","image":null,"label":null,"display":"text-only","type":"text","enable_detail":true,"related":{"url":"https://truyenx.link/truyensextv/channels/related/1225","request_headers":[]},"share":{"url":"https://truyenx.link/truyensextv/channels/share/cho-em-ho-du-nguoi-yeu"},"remote_data":{"url":"https://truyenx.link/truyensextv/channels/cho-em-ho-du-nguoi-yeu"}},{"id":"1224-channel","name":"Địt vợ ông anh quen trên mạng","description":"Lang thang trên mạng, tôi bỗng nhiên quen được 1 anh bạn lúc đầu chỉ nghĩ là hội đồng dâm trao đổi rau thôi nhưng ngày nào cũng nói chuyện với nhau, tôi với anh bạn ấy nói chuyện...","image":null,"label":null,"display":"text-only","type":"text","enable_detail":true,"related":{"url":"https://truyenx.link/truyensextv/channels/related/1224","request_headers":[]},"share":{"url":"https://truyenx.link/truyensextv/channels/share/dit-vo-ong-anh-quen-tren-mang"},"remote_data":{"url":"https://truyenx.link/truyensextv/channels/dit-vo-ong-anh-quen-tren-mang"}},{"id":"1223-channel","name":"Vợ tôi vú xệ","description":"Với sở thích thích thả rông và cho nhiều thằng xoa bóp, theo năm tháng thì vú vợ tôi cũng đã bị xệ. Tuy nhiên xệ cũng có cái hay cái đẹp của xệ. Mỗi lần vợ thả rông ra ngoài...","image":null,"label":null,"display":"text-only","type":"text","enable_detail":true,"related":{"url":"https://truyenx.link/truyensextv/channels/related/1223","request_headers":[]},"share":{"url":"https://truyenx.link/truyensextv/channels/share/vo-toi-vu-xe"},"remote_data":{"url":"https://truyenx.link/truyensextv/channels/vo-toi-vu-xe"}},{"id":"1222-channel","name":"Địt vợ trong cơn ghen","description":"Lời đầu tiên em chúc tất cả đồng dâm có một cuộc sống ngập tràn niềm vui và hạnh phúc trong cuộc sống. Sau bao nhiêu ngày tham gia truyensextv2.cc và xem chùa, nay em xin mạn phép chia...","image":null,"label":null,"display":"text-only","type":"text","enable_detail":true,"related":{"url":"https://truyenx.link/truyensextv/channels/related/1222","request_headers":[]},"share":{"url":"https://truyenx.link/truyensextv/channels/share/dit-vo-trong-con-ghen"},"remote_data":{"url":"https://truyenx.link/truyensextv/channels/dit-vo-trong-con-ghen"}},{"id":"1221-channel","name":"Một lần chăn rau khá chán","description":"Chả qua mấy ngày vừa rồi thời tiết Đà Nẵng thích thật, cứ se lạnh, làm con người ta khó chịu quá trời. Em cũng không biết sao trong đầu không có ý định gì, thì tự nhiên mấy...","image":null,"label":null,"display":"text-only","type":"text","enable_detail":true,"related":{"url":"https://truyenx.link/truyensextv/channels/related/1221","request_headers":[]},"share":{"url":"https://truyenx.link/truyensextv/channels/share/mot-lan-chan-rau-kha-chan"},"remote_data":{"url":"https://truyenx.link/truyensextv/channels/mot-lan-chan-rau-kha-chan"}},{"id":"1220-channel","name":"Em gái người lai","description":"Đầu những tháng 12 khí trời ở Sài Gòn cũng chả mát lên là bao, vẫn oi bức nóng nực, nhưng vẫn đỡ ẩm ướt hơn những tháng còn lại. Lúc này chỉ mong được như Hà Nội, vừa...","image":null,"label":null,"display":"text-only","type":"text","enable_detail":true,"related":{"url":"https://truyenx.link/truyensextv/channels/related/1220","request_headers":[]},"share":{"url":"https://truyenx.link/truyensextv/channels/share/em-gai-nguoi-lai"},"remote_data":{"url":"https://truyenx.link/truyensextv/channels/em-gai-nguoi-lai"}},{"id":"1219-channel","name":"Hải Phòng và em","description":"Sau những ngày cuồng nhiệt cùng đội tuyển VN, tôi mệt nhoài trên giường hết ngày chủ nhật. Tối đến buồn chân buồn tay thôi thì lách cách xách xe chạy lên phố nhâm nhi cốc cafe...","image":null,"label":null,"display":"text-only","type":"text","enable_detail":true,"related":{"url":"https://truyenx.link/truyensextv/channels/related/1219","request_headers":[]},"share":{"url":"https://truyenx.link/truyensextv/channels/share/hai-phong-va-em"},"remote_data":{"url":"https://truyenx.link/truyensextv/channels/hai-phong-va-em"}}],"load_more":{"pageInfo":{"current_page":99,"last_page":140,"per_page":30,"total":4188},"paging":{"page_key":"page","size_key":"size"},"remote_data":{"url":"https://truyenx.link/truyensextv/channels"}}}