{
  "grid_number": 1,
  "channels": [
    {
      "id": "1008-channel",
      "name": "Sài Gòn xa hoa",
      "description": "Mặc dù sống ở Sài Gòn đi học và làm chỉ có 4 năm rưỡi nhưng mình đã trải nghiệm rất nhiều, quen biết rất nhiều và đầy ắp kỷ niệm nơi này. Trong thời gian mình sống ở đó...",
      "image": null,
      "label": null,
      "display": "text-only",
      "type": "text",
      "enable_detail": true,
      "related": {
        "url": "https://truyenx.link/truyensextv/channels/related/1008",
        "request_headers": []
      },
      "share": {
        "url": "https://truyenx.link/truyensextv/channels/share/sai-gon-xa-hoa"
      },
      "remote_data": {
        "url": "https://truyenx.link/truyensextv/channels/sai-gon-xa-hoa"
      }
    },
    {
      "id": "1007-channel",
      "name": "Thấu Thị Toàn Năng",
      "description": "“Lâm Phong! Cậu làm gì mà lén lén lút lút thế! ” Một âm thanh rất lạnh lùng nhưng cũng rất ngọt ngào quát từ phía sau Lâm Phong làm hắn lạnh gáy. Quay về phía sau mỉm cười nhìn...",
      "image": null,
      "label": null,
      "display": "text-only",
      "type": "text",
      "enable_detail": true,
      "related": {
        "url": "https://truyenx.link/truyensextv/channels/related/1007",
        "request_headers": []
      },
      "share": {
        "url": "https://truyenx.link/truyensextv/channels/share/thau-thi-toan-nang"
      },
      "remote_data": {
        "url": "https://truyenx.link/truyensextv/channels/thau-thi-toan-nang"
      }
    },
    {
      "id": "1006-channel",
      "name": "Truyện sex Ấn Độ 3",
      "description": "Chúng tôi là một gia đình Hồi giáo chính thống, sống ở bang Uttar Pradesh, Ấn Độ. Ba tôi tên là Saifuddin Khan, 50 tuổi, là một thợ mộc, ông ta làm việc ở Dubai đã hơn 10 năm nay...",
      "image": null,
      "label": null,
      "display": "text-only",
      "type": "text",
      "enable_detail": true,
      "related": {
        "url": "https://truyenx.link/truyensextv/channels/related/1006",
        "request_headers": []
      },
      "share": {
        "url": "https://truyenx.link/truyensextv/channels/share/truyen-sex-an-do-3"
      },
      "remote_data": {
        "url": "https://truyenx.link/truyensextv/channels/truyen-sex-an-do-3"
      }
    },
    {
      "id": "1005-channel",
      "name": "Tiểu Mai - Ngoại truyện 2",
      "description": "Ngày thằng Chiến thất tình, anh em quả thực rất buồn cho nó. Tội nghiệp thằng bạn chân chất nhất hội bàn tròn, bị cô gái mà nó yêu thích suốt mấy năm trời “cắm sừng”...",
      "image": null,
      "label": null,
      "display": "text-only",
      "type": "text",
      "enable_detail": true,
      "related": {
        "url": "https://truyenx.link/truyensextv/channels/related/1005",
        "request_headers": []
      },
      "share": {
        "url": "https://truyenx.link/truyensextv/channels/share/tieu-mai-ngoai-truyen-2"
      },
      "remote_data": {
        "url": "https://truyenx.link/truyensextv/channels/tieu-mai-ngoai-truyen-2"
      }
    },
    {
      "id": "1004-channel",
      "name": "Võ Lâm Truyền Kỳ",
      "description": "Trong vũ trụ bao la huyền bí, còn rất nhiều điều mà con người chưa biết hoặc giải thích được. Một căn hộ nhỏ trong nội ô thành phố, một thanh niên đang ngồi trước màn hình...",
      "image": null,
      "label": null,
      "display": "text-only",
      "type": "text",
      "enable_detail": true,
      "related": {
        "url": "https://truyenx.link/truyensextv/channels/related/1004",
        "request_headers": []
      },
      "share": {
        "url": "https://truyenx.link/truyensextv/channels/share/vo-lam-truyen-ky"
      },
      "remote_data": {
        "url": "https://truyenx.link/truyensextv/channels/vo-lam-truyen-ky"
      }
    },
    {
      "id": "1003-channel",
      "name": "Bị ép đóng phim",
      "description": "“Mày phải giúp tao, tao nói nghiêm túc đó. Tao không biết phải làm gì nữa đây. Khu vườn nhà tao là thứ duy nhất để giữ cho mẹ con tao khỏi chết đói. Nếu tao không có tiền cuối...",
      "image": null,
      "label": null,
      "display": "text-only",
      "type": "text",
      "enable_detail": true,
      "related": {
        "url": "https://truyenx.link/truyensextv/channels/related/1003",
        "request_headers": []
      },
      "share": {
        "url": "https://truyenx.link/truyensextv/channels/share/bi-ep-dong-phim"
      },
      "remote_data": {
        "url": "https://truyenx.link/truyensextv/channels/bi-ep-dong-phim"
      }
    },
    {
      "id": "1002-channel",
      "name": "Ma thần",
      "description": "Tại một căn phòng trọ, có một đôi nam nữ đang hôn hít nhau. Ư... ưm... ưm... Bỗng nhiên, cô gái đẩy chàng trai ra và cầm con dao dấu sẵn ở trong túi ra và đâm chàng trai. Cô...",
      "image": null,
      "label": null,
      "display": "text-only",
      "type": "text",
      "enable_detail": true,
      "related": {
        "url": "https://truyenx.link/truyensextv/channels/related/1002",
        "request_headers": []
      },
      "share": {
        "url": "https://truyenx.link/truyensextv/channels/share/ma-than"
      },
      "remote_data": {
        "url": "https://truyenx.link/truyensextv/channels/ma-than"
      }
    },
    {
      "id": "1001-channel",
      "name": "Some",
      "description": "Mình là con gái, mất trinh từ năm 14 tuổi rồi. Tại hồi đó nông nổi nên ham vui, ham đi chơi lắm. Mình thì phổng phao và xinh đẹp hơn một số bạn cùng lứa. Năm đó là lớp 8, mình...",
      "image": null,
      "label": null,
      "display": "text-only",
      "type": "text",
      "enable_detail": true,
      "related": {
        "url": "https://truyenx.link/truyensextv/channels/related/1001",
        "request_headers": []
      },
      "share": {
        "url": "https://truyenx.link/truyensextv/channels/share/some"
      },
      "remote_data": {
        "url": "https://truyenx.link/truyensextv/channels/some"
      }
    },
    {
      "id": "1000-channel",
      "name": "Anh hàng xóm",
      "description": "Mình là nữ sinh năm 1993, do bản tính dâm đãng nên biết được một số web phim sex và truyensextv2.cc. Đọc được một vài câu chuyện của các bạn, nay mình cũng tự chia sẻ câu chuyện...",
      "image": null,
      "label": null,
      "display": "text-only",
      "type": "text",
      "enable_detail": true,
      "related": {
        "url": "https://truyenx.link/truyensextv/channels/related/1000",
        "request_headers": []
      },
      "share": {
        "url": "https://truyenx.link/truyensextv/channels/share/anh-hang-xom"
      },
      "remote_data": {
        "url": "https://truyenx.link/truyensextv/channels/anh-hang-xom"
      }
    },
    {
      "id": "999-channel",
      "name": "Cưỡng dâm",
      "description": "CHUYỆN THỨ 1: HIẾP GÁI 1 CON. Ngọc Vy còn khá yếu ớt vì mới sinh em bé được hơn 3 tháng, hôm đó như mọi ngày Minh chồng nàng chạy ra đầu phố tranh thủ uống ly cafe rồi mua đồ...",
      "image": null,
      "label": null,
      "display": "text-only",
      "type": "text",
      "enable_detail": true,
      "related": {
        "url": "https://truyenx.link/truyensextv/channels/related/999",
        "request_headers": []
      },
      "share": {
        "url": "https://truyenx.link/truyensextv/channels/share/cuong-dam"
      },
      "remote_data": {
        "url": "https://truyenx.link/truyensextv/channels/cuong-dam"
      }
    },
    {
      "id": "998-channel",
      "name": "Tiểu Mai - Ngoại truyện 1",
      "description": "Trót dại lỡ tay làm gãy một thỏi son Shu Uemura, tôi trong cơn bối rối bèn chơi một nước cờ cao tay là tiên hạ thủ vi cường, chủ động thú nhận với Tiểu Mai: Con Leo đó, nó...",
      "image": null,
      "label": null,
      "display": "text-only",
      "type": "text",
      "enable_detail": true,
      "related": {
        "url": "https://truyenx.link/truyensextv/channels/related/998",
        "request_headers": []
      },
      "share": {
        "url": "https://truyenx.link/truyensextv/channels/share/tieu-mai-ngoai-truyen-1"
      },
      "remote_data": {
        "url": "https://truyenx.link/truyensextv/channels/tieu-mai-ngoai-truyen-1"
      }
    },
    {
      "id": "997-channel",
      "name": "Người mẹ mang thai",
      "description": "Tôi được 15 tuổi khi ba mẹ ly dị nhau vì ba tôi có tính lăng nhăng. Ông ta luôn ngoại tình với mấy bà vợ hàng xóm hay mấy người đàn bà ở chỗ làm. Mẹ hết chịu nổi thói trăng...",
      "image": null,
      "label": null,
      "display": "text-only",
      "type": "text",
      "enable_detail": true,
      "related": {
        "url": "https://truyenx.link/truyensextv/channels/related/997",
        "request_headers": []
      },
      "share": {
        "url": "https://truyenx.link/truyensextv/channels/share/nguoi-me-mang-thai"
      },
      "remote_data": {
        "url": "https://truyenx.link/truyensextv/channels/nguoi-me-mang-thai"
      }
    },
    {
      "id": "996-channel",
      "name": "Sai lầm của người cha",
      "description": "Hào là một chàng trai cao lớn vạm vỡ, 18 tuổi. Đang kỳ nghỉ hè, nó ở nhà hầu như hàng ngày với mẹ nó. Bà Oanh là một bà mẹ xinh đẹp ở lứa tuổi 39, với đôi chân dài trắng...",
      "image": null,
      "label": null,
      "display": "text-only",
      "type": "text",
      "enable_detail": true,
      "related": {
        "url": "https://truyenx.link/truyensextv/channels/related/996",
        "request_headers": []
      },
      "share": {
        "url": "https://truyenx.link/truyensextv/channels/share/sai-lam-cua-nguoi-cha"
      },
      "remote_data": {
        "url": "https://truyenx.link/truyensextv/channels/sai-lam-cua-nguoi-cha"
      }
    },
    {
      "id": "995-channel",
      "name": "Bà Thanh dâm đãng",
      "description": "Bà Thanh vào quỳ gối trong nhà thờ xưng tội với vị Linh Mục. Năm nay trên 40 năm tuổi, bà nhìn như 30, trẻ, nóng bỏng, gợi cảm. Bình thường bà mặc mấy cái quần Jeans chật cứng...",
      "image": null,
      "label": null,
      "display": "text-only",
      "type": "text",
      "enable_detail": true,
      "related": {
        "url": "https://truyenx.link/truyensextv/channels/related/995",
        "request_headers": []
      },
      "share": {
        "url": "https://truyenx.link/truyensextv/channels/share/ba-thanh-dam-dang"
      },
      "remote_data": {
        "url": "https://truyenx.link/truyensextv/channels/ba-thanh-dam-dang"
      }
    },
    {
      "id": "994-channel",
      "name": "Tôi và dượng 6",
      "description": "Hè năm nào tôi cũng đều về quê nội ở vài tuần, có khi 1 tháng. Nhưng năm nay nhà nội tôi phải xây lại vì dột nhiều nên tôi phải ở nhờ nhà cô 6. Cô 6 tôi có 3 người con và...",
      "image": null,
      "label": null,
      "display": "text-only",
      "type": "text",
      "enable_detail": true,
      "related": {
        "url": "https://truyenx.link/truyensextv/channels/related/994",
        "request_headers": []
      },
      "share": {
        "url": "https://truyenx.link/truyensextv/channels/share/toi-va-duong-6"
      },
      "remote_data": {
        "url": "https://truyenx.link/truyensextv/channels/toi-va-duong-6"
      }
    },
    {
      "id": "993-channel",
      "name": "Kẻ nhút nhát",
      "description": "Từ nhỏ tôi đã sợ giông bão. Đêm nào có sấm sét, tôi đều chạy vô phòng ngủ của ba mẹ rồi leo lên giường khổ vua để cho mẹ ôm tôi đến khi cơn bão giảm bớt. Tôi run rẩy vì...",
      "image": null,
      "label": null,
      "display": "text-only",
      "type": "text",
      "enable_detail": true,
      "related": {
        "url": "https://truyenx.link/truyensextv/channels/related/993",
        "request_headers": []
      },
      "share": {
        "url": "https://truyenx.link/truyensextv/channels/share/ke-nhut-nhat"
      },
      "remote_data": {
        "url": "https://truyenx.link/truyensextv/channels/ke-nhut-nhat"
      }
    },
    {
      "id": "992-channel",
      "name": "Loạn luân với mẹ",
      "description": "Tôi là Quân, năm nay 17 tuổi. Tôi sống với mẹ mình một người mẹ đơn thân, vì ba tôi đã bỏ nhà đi khi tôi còn rất nhỏ. Mẹ tôi tên Kha, tuy đã 35 nhưng trông mẹ trẻ...",
      "image": null,
      "label": null,
      "display": "text-only",
      "type": "text",
      "enable_detail": true,
      "related": {
        "url": "https://truyenx.link/truyensextv/channels/related/992",
        "request_headers": []
      },
      "share": {
        "url": "https://truyenx.link/truyensextv/channels/share/loan-luan-voi-me"
      },
      "remote_data": {
        "url": "https://truyenx.link/truyensextv/channels/loan-luan-voi-me"
      }
    },
    {
      "id": "991-channel",
      "name": "Tình - yêu",
      "description": "Còn vài tháng nữa là phải quyết định con đường cho tương lại, nhưng cũng không ảnh hưởng tới việc đôi lứa tìm đến với nhau. Hai người yêu nhau không có nghĩa là sẽ lấy...",
      "image": null,
      "label": null,
      "display": "text-only",
      "type": "text",
      "enable_detail": true,
      "related": {
        "url": "https://truyenx.link/truyensextv/channels/related/991",
        "request_headers": []
      },
      "share": {
        "url": "https://truyenx.link/truyensextv/channels/share/tinh-yeu"
      },
      "remote_data": {
        "url": "https://truyenx.link/truyensextv/channels/tinh-yeu"
      }
    },
    {
      "id": "990-channel",
      "name": "2 đời chồng thỏa mãn",
      "description": "Sau một vài mối tình lãng mạn với thiếu gia Sài Gòn nhưng không thèm cưới tôi vì thân phận tôi chỉ là gái quê lên thành phố học và gia cảnh không phải đại gia, không môn đăng...",
      "image": null,
      "label": null,
      "display": "text-only",
      "type": "text",
      "enable_detail": true,
      "related": {
        "url": "https://truyenx.link/truyensextv/channels/related/990",
        "request_headers": []
      },
      "share": {
        "url": "https://truyenx.link/truyensextv/channels/share/2-doi-chong-thoa-man"
      },
      "remote_data": {
        "url": "https://truyenx.link/truyensextv/channels/2-doi-chong-thoa-man"
      }
    },
    {
      "id": "989-channel",
      "name": "Sex thú hạng nặng",
      "description": "Có những khoảnh khắc quyết định trong cuộc đời của bạn mà bạn không bao giờ quên. Khoảnh khắc quyết định của tôi đến ngay sau lần sinh nhật thứ 19 của mình, khi tôi nhận...",
      "image": null,
      "label": null,
      "display": "text-only",
      "type": "text",
      "enable_detail": true,
      "related": {
        "url": "https://truyenx.link/truyensextv/channels/related/989",
        "request_headers": []
      },
      "share": {
        "url": "https://truyenx.link/truyensextv/channels/share/sex-thu-hang-nang"
      },
      "remote_data": {
        "url": "https://truyenx.link/truyensextv/channels/sex-thu-hang-nang"
      }
    },
    {
      "id": "988-channel",
      "name": "Duyên",
      "description": "Chỉ là bữa tiệc đầy tháng cho đứa bé thôi nhưng chủ nhân của bữa tiệc không tiếc tiền khi tổ chức tại một khách sạn 3 sao trong thành phố. Khách đến dự nườm nượp ước...",
      "image": null,
      "label": null,
      "display": "text-only",
      "type": "text",
      "enable_detail": true,
      "related": {
        "url": "https://truyenx.link/truyensextv/channels/related/988",
        "request_headers": []
      },
      "share": {
        "url": "https://truyenx.link/truyensextv/channels/share/duyen"
      },
      "remote_data": {
        "url": "https://truyenx.link/truyensextv/channels/duyen"
      }
    },
    {
      "id": "987-channel",
      "name": "Thỏa thuận",
      "description": "Công việc kinh doanh thất bại khiến tôi đứng trước nguy cơ phá sản và mất tất cả nhưng đang lúc khó khăn thì Thắng xuất hiện, Thắng là 1 bác sỹ giỏi của 1 bệnh viện lớn...",
      "image": null,
      "label": null,
      "display": "text-only",
      "type": "text",
      "enable_detail": true,
      "related": {
        "url": "https://truyenx.link/truyensextv/channels/related/987",
        "request_headers": []
      },
      "share": {
        "url": "https://truyenx.link/truyensextv/channels/share/thoa-thuan"
      },
      "remote_data": {
        "url": "https://truyenx.link/truyensextv/channels/thoa-thuan"
      }
    },
    {
      "id": "986-channel",
      "name": "Quan hệ với mợ",
      "description": "Tôi tên T tôi năm nay 17 tuổi, vì nhà xa trường nên tôi phải ở nhà ông bà ngoại cho tiện việc học hành, ông bà ngoại tôi có 2 người con trai là cậu H và và cậu T. Cậu H năm nay 30...",
      "image": null,
      "label": null,
      "display": "text-only",
      "type": "text",
      "enable_detail": true,
      "related": {
        "url": "https://truyenx.link/truyensextv/channels/related/986",
        "request_headers": []
      },
      "share": {
        "url": "https://truyenx.link/truyensextv/channels/share/quan-he-voi-mo"
      },
      "remote_data": {
        "url": "https://truyenx.link/truyensextv/channels/quan-he-voi-mo"
      }
    },
    {
      "id": "985-channel",
      "name": "Quan hệ với mẹ ruột",
      "description": "Tôi xin được giấu tên, năm nay tôi 16 tuổi sống trong một gia đình như bao người khác. Mẹ tôi là 1 người đàn bà đã 40 tuổi nhưng cơ thể mẹ tràn đầy nhựa sống. Tôi đã 16...",
      "image": null,
      "label": null,
      "display": "text-only",
      "type": "text",
      "enable_detail": true,
      "related": {
        "url": "https://truyenx.link/truyensextv/channels/related/985",
        "request_headers": []
      },
      "share": {
        "url": "https://truyenx.link/truyensextv/channels/share/quan-he-voi-me-ruot"
      },
      "remote_data": {
        "url": "https://truyenx.link/truyensextv/channels/quan-he-voi-me-ruot"
      }
    },
    {
      "id": "984-channel",
      "name": "Loạn luân với chị Ba",
      "description": "Tôi sinh ra trong một gia đình có thể gọi là khá giả ở một tỉnh nhỏ. Gia đình tôi có năm người, cha mẹ và hai người chị. Chị hai thì lớn hơn tôi 8 tuổi, nên có thể vì thế...",
      "image": null,
      "label": null,
      "display": "text-only",
      "type": "text",
      "enable_detail": true,
      "related": {
        "url": "https://truyenx.link/truyensextv/channels/related/984",
        "request_headers": []
      },
      "share": {
        "url": "https://truyenx.link/truyensextv/channels/share/loan-luan-voi-chi-ba"
      },
      "remote_data": {
        "url": "https://truyenx.link/truyensextv/channels/loan-luan-voi-chi-ba"
      }
    },
    {
      "id": "983-channel",
      "name": "Hai gã ăn xin may mắn",
      "description": "Lão Tín năm nay đã ngoài 50 vẻ ngoài của lão đen nhẻm, da dẻ nhăn nheo nghĩ cũng đúng, công việc của lão là hằng ngày là lê lết ở các trụ đèn giao thông để đi ăn xin, lão làm...",
      "image": null,
      "label": null,
      "display": "text-only",
      "type": "text",
      "enable_detail": true,
      "related": {
        "url": "https://truyenx.link/truyensextv/channels/related/983",
        "request_headers": []
      },
      "share": {
        "url": "https://truyenx.link/truyensextv/channels/share/hai-ga-an-xin-may-man"
      },
      "remote_data": {
        "url": "https://truyenx.link/truyensextv/channels/hai-ga-an-xin-may-man"
      }
    },
    {
      "id": "982-channel",
      "name": "Hạnh phúc mới",
      "description": "Mẹ tôi kết hôn với ba tôi khi mẹ vừa tròn 20 tuổi còn ba thì 30 tuổi. Dù có khoảng cách lớn về tuổi tác giữa hai người nhưng cuộc sống hôn nhân thời kỳ đầu của ba mẹ rất...",
      "image": null,
      "label": null,
      "display": "text-only",
      "type": "text",
      "enable_detail": true,
      "related": {
        "url": "https://truyenx.link/truyensextv/channels/related/982",
        "request_headers": []
      },
      "share": {
        "url": "https://truyenx.link/truyensextv/channels/share/hanh-phuc-moi"
      },
      "remote_data": {
        "url": "https://truyenx.link/truyensextv/channels/hanh-phuc-moi"
      }
    },
    {
      "id": "981-channel",
      "name": "Mẹ nuốt tinh con",
      "description": "Tôi tên Hải, là một người đàn ông 33 tuổi, đã lập gia đình. Ba mẹ tôi có hai gái hai trai, hai chị em tôi đã đi lấy chồng còn em tôi có vợ ở Thanh Hóa. Còn tôi đã có nhà riêng...",
      "image": null,
      "label": null,
      "display": "text-only",
      "type": "text",
      "enable_detail": true,
      "related": {
        "url": "https://truyenx.link/truyensextv/channels/related/981",
        "request_headers": []
      },
      "share": {
        "url": "https://truyenx.link/truyensextv/channels/share/me-nuot-tinh-con"
      },
      "remote_data": {
        "url": "https://truyenx.link/truyensextv/channels/me-nuot-tinh-con"
      }
    },
    {
      "id": "980-channel",
      "name": "Mưa chiều",
      "description": "Ký ức ngập ngừng như nỗi chơi vơi. Dấu chấm lặng hàng hàng giăng mưa nối. Phố xá vẫn đông. Còn em không tới. Lặng lẽ bên đời cuộc hẹn đã đánh rơi. Có thể bạn đọc...",
      "image": null,
      "label": null,
      "display": "text-only",
      "type": "text",
      "enable_detail": true,
      "related": {
        "url": "https://truyenx.link/truyensextv/channels/related/980",
        "request_headers": []
      },
      "share": {
        "url": "https://truyenx.link/truyensextv/channels/share/mua-chieu"
      },
      "remote_data": {
        "url": "https://truyenx.link/truyensextv/channels/mua-chieu"
      }
    },
    {
      "id": "979-channel",
      "name": "Bú sữa mẹ",
      "description": "Tôi không biết tại sao, nhưng tôi có một bộ nhớ đáng kinh ngạc của mọi thứ trong quá khứ với những hồi ức thậm chí xảy ra từ khi tôi còn là một đứa bé. Mẹ tôi 36 tuổi khi...",
      "image": null,
      "label": null,
      "display": "text-only",
      "type": "text",
      "enable_detail": true,
      "related": {
        "url": "https://truyenx.link/truyensextv/channels/related/979",
        "request_headers": []
      },
      "share": {
        "url": "https://truyenx.link/truyensextv/channels/share/bu-sua-me"
      },
      "remote_data": {
        "url": "https://truyenx.link/truyensextv/channels/bu-sua-me"
      }
    }
  ],
  "load_more": {
    "pageInfo": {
      "current_page": 107,
      "last_page": 140,
      "per_page": 30,
      "total": 4188
    },
    "paging": {
      "page_key": "page",
      "size_key": "size"
    },
    "remote_data": {
      "url": "https://truyenx.link/truyensextv/channels"
    }
  }
}