{"grid_number":1,"channels":[{"id":"2185-channel","name":"Vương quốc","description":"Hoàng tử Atheling cẩn thận ngắm bắn với chiếc nỏ của mình và để cho mũi tên bay đi. Con chim tội nghiệp không có cơ hội khi mũi tên đâm vào nó và nó rời khỏi bầu trời. Nhưng...","image":null,"label":null,"display":"text-only","type":"text","enable_detail":true,"related":{"url":"https://truyenx.link/truyensextv/channels/related/2185","request_headers":[]},"share":{"url":"https://truyenx.link/truyensextv/channels/share/vuong-quoc"},"remote_data":{"url":"https://truyenx.link/truyensextv/channels/vuong-quoc"}},{"id":"2184-channel","name":"Thăm mợ","description":"Tôi đứng trước căn nhà gỗ nhỏ im lặng nhìn những đỉnh núi nhấp nhô trải dài tít xa xăm, sau đó vươn vai hít một hơi dài khoan khoái, trong lòng thầm cảm thán... “Thật đẹp...","image":null,"label":null,"display":"text-only","type":"text","enable_detail":true,"related":{"url":"https://truyenx.link/truyensextv/channels/related/2184","request_headers":[]},"share":{"url":"https://truyenx.link/truyensextv/channels/share/tham-mo"},"remote_data":{"url":"https://truyenx.link/truyensextv/channels/tham-mo"}},{"id":"2183-channel","name":"Cho vợ địt nhau với đồng nghiệp","description":"Đang ngồi ăn cơm tối thì vợ tôi bỗng hỏi: Hè năm nay bố định cho mấy mẹ con đi chơi đâu nhỉ? Tôi đưa tay vuốt ve cái đùi trần mát rười rượi của vợ rồi trả lời đầy...","image":null,"label":null,"display":"text-only","type":"text","enable_detail":true,"related":{"url":"https://truyenx.link/truyensextv/channels/related/2183","request_headers":[]},"share":{"url":"https://truyenx.link/truyensextv/channels/share/cho-vo-dit-nhau-voi-dong-nghiep"},"remote_data":{"url":"https://truyenx.link/truyensextv/channels/cho-vo-dit-nhau-voi-dong-nghiep"}},{"id":"2182-channel","name":"Thím yêu của cháu","description":"Bà nội mình có 6 người con . Chia đều 3 bắc 3 nam. Bố mình là thứ 5, sau bố còn 1 chú ở nam. Sơ lược về gia đình cũng xong giờ vào việc chính. Chú mình có vợ tên T quê ở miền...","image":null,"label":null,"display":"text-only","type":"text","enable_detail":true,"related":{"url":"https://truyenx.link/truyensextv/channels/related/2182","request_headers":[]},"share":{"url":"https://truyenx.link/truyensextv/channels/share/thim-yeu-cua-chau"},"remote_data":{"url":"https://truyenx.link/truyensextv/channels/thim-yeu-cua-chau"}},{"id":"2181-channel","name":"Tâm sự của một bạn nữ","description":"Mình sinh ra vốn trong 1 gia đình giàu có, Mẹ mình mất khi mình vừa chào đời, năm mình 4 tuổi ba mình đi thêm bước nữa và cũng có con gái. Năm mình 9 tuổi ba mình có nhận nuôi 1 bé...","image":null,"label":null,"display":"text-only","type":"text","enable_detail":true,"related":{"url":"https://truyenx.link/truyensextv/channels/related/2181","request_headers":[]},"share":{"url":"https://truyenx.link/truyensextv/channels/share/tam-su-cua-mot-ban-nu"},"remote_data":{"url":"https://truyenx.link/truyensextv/channels/tam-su-cua-mot-ban-nu"}},{"id":"2180-channel","name":"Thằng Tâm - Quyển 1","description":"Trời Hà Nội vào thu những vẫn nắng gắt. Cái nắng chói chang của 3h chiều làm ai cũng tìm cách tránh né. Nữ mặc đồ ninja, không thì lại như phụ nữ hồi giáo. Nam thì áo dài tay...","image":null,"label":null,"display":"text-only","type":"text","enable_detail":true,"related":{"url":"https://truyenx.link/truyensextv/channels/related/2180","request_headers":[]},"share":{"url":"https://truyenx.link/truyensextv/channels/share/thang-tam-quyen-1"},"remote_data":{"url":"https://truyenx.link/truyensextv/channels/thang-tam-quyen-1"}},{"id":"2179-channel","name":"Số hưởng","description":"Tôi sinh năm 2005, tính đến thời điểm hiện tại là 16 tuổi rồi. Năm tôi 15 tuổi, mẹ tôi mất vì ung thư giai đoạn cuối. Trong thời gian mẹ tôi “thập tử nhất sinh” thì...","image":null,"label":null,"display":"text-only","type":"text","enable_detail":true,"related":{"url":"https://truyenx.link/truyensextv/channels/related/2179","request_headers":[]},"share":{"url":"https://truyenx.link/truyensextv/channels/share/so-huong"},"remote_data":{"url":"https://truyenx.link/truyensextv/channels/so-huong"}},{"id":"2178-channel","name":"Chị Nguyệt","description":"Vất xe vào chỗ đỗ, tôi quẹt thẻ thang máy và điên cuồng bấm chuông khi đứng trước cửa. Cửa mở ra, tôi đã lách vào nhà, rồi ôm chầm lấy người phụ nữ đang đứng sau cửa...","image":null,"label":null,"display":"text-only","type":"text","enable_detail":true,"related":{"url":"https://truyenx.link/truyensextv/channels/related/2178","request_headers":[]},"share":{"url":"https://truyenx.link/truyensextv/channels/share/chi-nguyet"},"remote_data":{"url":"https://truyenx.link/truyensextv/channels/chi-nguyet"}},{"id":"2177-channel","name":"Bà thím nhỏ","description":"Chỉ là một người đàn bà nội trợ trong gia đình nhưng thím xuân đã có chồng và 2 đứa con vẫn nẩy nang và đẫy đà nếu ai không biết thì nhầm tưởng đó mới chỉ là người...","image":null,"label":null,"display":"text-only","type":"text","enable_detail":true,"related":{"url":"https://truyenx.link/truyensextv/channels/related/2177","request_headers":[]},"share":{"url":"https://truyenx.link/truyensextv/channels/share/ba-thim-nho"},"remote_data":{"url":"https://truyenx.link/truyensextv/channels/ba-thim-nho"}},{"id":"2176-channel","name":"Mẹ vợ vú to","description":"Mẹ vợ tôi trong mắt vợ là một người phụ nữ xinh đẹp, tính cách thì rất tuyệt vời. Nhưng với tôi, mẹ chỉ là một con đĩ goá chồng và khát tình mà thôi. Đó là lần gia đình...","image":null,"label":null,"display":"text-only","type":"text","enable_detail":true,"related":{"url":"https://truyenx.link/truyensextv/channels/related/2176","request_headers":[]},"share":{"url":"https://truyenx.link/truyensextv/channels/share/me-vo-vu-to"},"remote_data":{"url":"https://truyenx.link/truyensextv/channels/me-vo-vu-to"}},{"id":"2175-channel","name":"Phá trinh chị họ cực phê","description":"Xin chào anh em, đọc truyện trên truyensextv2.cc đã lâu bây giờ mới dịp được kể lể với anh em về câu chuyện của mình. Mặc dù đã nhiều lần định dành thời gian để viết và...","image":null,"label":null,"display":"text-only","type":"text","enable_detail":true,"related":{"url":"https://truyenx.link/truyensextv/channels/related/2175","request_headers":[]},"share":{"url":"https://truyenx.link/truyensextv/channels/share/pha-trinh-chi-ho-cuc-phe"},"remote_data":{"url":"https://truyenx.link/truyensextv/channels/pha-trinh-chi-ho-cuc-phe"}},{"id":"2174-channel","name":"Nữ thần xinh đẹp của tôi","description":"Chào các đồng dâm, ta là xdomino, tác giả của câu truyện sẽ sắp viết dưới đây. Thực ra truyện mà ta sắp viết là 1 phiên bản khác của truyện “Cô giáo môn văn”. Vậy vì...","image":null,"label":null,"display":"text-only","type":"text","enable_detail":true,"related":{"url":"https://truyenx.link/truyensextv/channels/related/2174","request_headers":[]},"share":{"url":"https://truyenx.link/truyensextv/channels/share/nu-than-xinh-dep-cua-toi"},"remote_data":{"url":"https://truyenx.link/truyensextv/channels/nu-than-xinh-dep-cua-toi"}},{"id":"2173-channel","name":"Con nuôi","description":"Ông bà Hoàng trước khi qua Mỹ định cư họ đã có một người con gái, sức khỏe của ông Hoàng không tốt, về sinh lý ông yếu đuối không thấy có con nửa, trong thời gian. Bà Tâm vợ...","image":null,"label":null,"display":"text-only","type":"text","enable_detail":true,"related":{"url":"https://truyenx.link/truyensextv/channels/related/2173","request_headers":[]},"share":{"url":"https://truyenx.link/truyensextv/channels/share/con-nuoi"},"remote_data":{"url":"https://truyenx.link/truyensextv/channels/con-nuoi"}},{"id":"2172-channel","name":"Mẹ tôi rất hấp dẫn","description":"Khi đang ngồi viết truyện này, tôi vẫn khó mà tin được câu chuyện này lại có thể xảy ra. Mọi chuyện bắt đầu khi vợ tôi sắp đẻ. Loan và tôi đã kết hôn được ba năm. Tôi...","image":null,"label":null,"display":"text-only","type":"text","enable_detail":true,"related":{"url":"https://truyenx.link/truyensextv/channels/related/2172","request_headers":[]},"share":{"url":"https://truyenx.link/truyensextv/channels/share/me-toi-rat-hap-dan"},"remote_data":{"url":"https://truyenx.link/truyensextv/channels/me-toi-rat-hap-dan"}},{"id":"2171-channel","name":"Cháu chồng","description":"Thằng Tùng, qua Mỹ 12 tuổi, trong xóm nghèo phần đông người da đen và Mễ, họ gọi nó là “Tùng khùng” 16 tuổi đã theo bạn đi phá xóm làng ai cũng sợ né xa, nhưng thật ra...","image":null,"label":null,"display":"text-only","type":"text","enable_detail":true,"related":{"url":"https://truyenx.link/truyensextv/channels/related/2171","request_headers":[]},"share":{"url":"https://truyenx.link/truyensextv/channels/share/chau-chong"},"remote_data":{"url":"https://truyenx.link/truyensextv/channels/chau-chong"}},{"id":"2170-channel","name":"Cấm luyến","description":"Sinh nhật đáng nhớ Trịnh Vy sinh ra và lớn lên trong một gia đình tài phiệt, cha mẹ luôn bận rộn với công việc của riêng mình nên có rất ít thời gian cho cô, từ nhỏ cô và anh...","image":null,"label":null,"display":"text-only","type":"text","enable_detail":true,"related":{"url":"https://truyenx.link/truyensextv/channels/related/2170","request_headers":[]},"share":{"url":"https://truyenx.link/truyensextv/channels/share/cam-luyen"},"remote_data":{"url":"https://truyenx.link/truyensextv/channels/cam-luyen"}},{"id":"2169-channel","name":"Nghiện vú mẹ ruột","description":"Tôi là Hân vừa sinh con được vài tháng và về quê chồng chơi, bên chồng tôi chỉ có bố anh ấy và anh ấy, mẹ chồng tôi mất khá lâu rồi. Tôi và con trai được chồng đưa về quê...","image":null,"label":null,"display":"text-only","type":"text","enable_detail":true,"related":{"url":"https://truyenx.link/truyensextv/channels/related/2169","request_headers":[]},"share":{"url":"https://truyenx.link/truyensextv/channels/share/nghien-vu-me-ruot"},"remote_data":{"url":"https://truyenx.link/truyensextv/channels/nghien-vu-me-ruot"}},{"id":"2168-channel","name":"Hiếp dâm mối tình đầu","description":"Chỉ mới 17 tuổi nhưng Thành đã là một đại ca giang hồ cộm cán. Tuy nhiên hắn lại hay ẩn mình dưới lớp vỏ thư sinh mà cũng nhờ đó hắn mới quen được một cô gái con của một...","image":null,"label":null,"display":"text-only","type":"text","enable_detail":true,"related":{"url":"https://truyenx.link/truyensextv/channels/related/2168","request_headers":[]},"share":{"url":"https://truyenx.link/truyensextv/channels/share/hiep-dam-moi-tinh-dau"},"remote_data":{"url":"https://truyenx.link/truyensextv/channels/hiep-dam-moi-tinh-dau"}},{"id":"2167-channel","name":"Chị Hằng dâm đãng","description":"Tuấn là nhân vật chính của câu chuyện này, hắn năm nay vừa tròn ba mươi tuổi có vợ tên Nguyệt hai mươi lăm tuổi. Cả hai đang thuê nhà trọ tại quận 12, Nguyệt đang là công nhân...","image":null,"label":null,"display":"text-only","type":"text","enable_detail":true,"related":{"url":"https://truyenx.link/truyensextv/channels/related/2167","request_headers":[]},"share":{"url":"https://truyenx.link/truyensextv/channels/share/chi-hang-dam-dang"},"remote_data":{"url":"https://truyenx.link/truyensextv/channels/chi-hang-dam-dang"}},{"id":"2166-channel","name":"Dượng và tôi địt nhau","description":"Sau khi ba mẹ ly hôn, tôi ở với mẹ và dượng Phong. Mới đầu nhìn dượng lồn tôi đã rỉ nước ra, đầu ti săn cứng lại muốn được dượng bú chúng. Tôi tên Yến 18 tuổi, dượng...","image":null,"label":null,"display":"text-only","type":"text","enable_detail":true,"related":{"url":"https://truyenx.link/truyensextv/channels/related/2166","request_headers":[]},"share":{"url":"https://truyenx.link/truyensextv/channels/share/duong-va-toi-dit-nhau"},"remote_data":{"url":"https://truyenx.link/truyensextv/channels/duong-va-toi-dit-nhau"}},{"id":"2165-channel","name":"Thằng con rể may mắn","description":"Hôm nay có mẹ vợ lên chơi bà ấy tên Hoa nhưng nhìn vẫn còn thắm lắm, vẫn quen thói cũ Đạt ở nhà hay thả rông. Anh nằm dài trên ghế sofa với quần short ngắn chơi game, làm lộ...","image":null,"label":null,"display":"text-only","type":"text","enable_detail":true,"related":{"url":"https://truyenx.link/truyensextv/channels/related/2165","request_headers":[]},"share":{"url":"https://truyenx.link/truyensextv/channels/share/thang-con-re-may-man"},"remote_data":{"url":"https://truyenx.link/truyensextv/channels/thang-con-re-may-man"}},{"id":"2164-channel","name":"Cuộc phỏng vấn trợ lý tình dục","description":"Sau khi tốt nghiệp tôi xin vào 1 công việc có mức lương khá cao chỉ là điểm phỏng vấn lại là một căn biệt thự ở ngoại thành. Tới điểm phỏng vấn tôi thấy có rất nhiều ứng...","image":null,"label":null,"display":"text-only","type":"text","enable_detail":true,"related":{"url":"https://truyenx.link/truyensextv/channels/related/2164","request_headers":[]},"share":{"url":"https://truyenx.link/truyensextv/channels/share/cuoc-phong-van-tro-ly-tinh-duc"},"remote_data":{"url":"https://truyenx.link/truyensextv/channels/cuoc-phong-van-tro-ly-tinh-duc"}},{"id":"2163-channel","name":"Anh họ","description":"Mình Tên Là Quỳnh Anh, Xin tự giới thiệu về bản thân mình một chút thì năm nay mình vừa tròn 18, Học Tại trường X, Không phải tự khen bản thân nhưng mà mình được thừa hưởng...","image":null,"label":null,"display":"text-only","type":"text","enable_detail":true,"related":{"url":"https://truyenx.link/truyensextv/channels/related/2163","request_headers":[]},"share":{"url":"https://truyenx.link/truyensextv/channels/share/anh-ho"},"remote_data":{"url":"https://truyenx.link/truyensextv/channels/anh-ho"}},{"id":"2162-channel","name":"Hiếp dâm vợ bạn","description":"Nàng mút mạnh dương vật của chồng nàng, hai tay mân mê hòn dái của ông xã liên tục, nàng thấy nó thật dễ thương, Đức, chồng nàng nằm ngửa người, mắt lim dim hưởng thụ đôi...","image":null,"label":null,"display":"text-only","type":"text","enable_detail":true,"related":{"url":"https://truyenx.link/truyensextv/channels/related/2162","request_headers":[]},"share":{"url":"https://truyenx.link/truyensextv/channels/share/hiep-dam-vo-ban"},"remote_data":{"url":"https://truyenx.link/truyensextv/channels/hiep-dam-vo-ban"}},{"id":"2161-channel","name":"Hạnh phúc sau tan vỡ","description":"Tôi và Nhung quen nhau từ thời Đại học. Tốt nghiệp xong thì hai đứa quyết định ở lại Sài Gòn lập nghiệp. Tôi xin vào làm tại một công ty may mặc vì các công ty đúng chuyên ngành...","image":null,"label":null,"display":"text-only","type":"text","enable_detail":true,"related":{"url":"https://truyenx.link/truyensextv/channels/related/2161","request_headers":[]},"share":{"url":"https://truyenx.link/truyensextv/channels/share/hanh-phuc-sau-tan-vo"},"remote_data":{"url":"https://truyenx.link/truyensextv/channels/hanh-phuc-sau-tan-vo"}},{"id":"2159-channel","name":"Trưởng thành","description":"Cố gắng kéo hai mi nặng trịch mở mắt, ánh sáng mờ mờ trong phòng dần rõ hơn, tiếng điều hòa lào xào, những tiếng ngáy nặng nhọc, tôi nặng nhọc cất mình nhổm dậy và lảo...","image":null,"label":null,"display":"text-only","type":"text","enable_detail":true,"related":{"url":"https://truyenx.link/truyensextv/channels/related/2159","request_headers":[]},"share":{"url":"https://truyenx.link/truyensextv/channels/share/truong-thanh"},"remote_data":{"url":"https://truyenx.link/truyensextv/channels/truong-thanh"}},{"id":"2160-channel","name":"Thảm kịch","description":"Nhắc đến Việt Nam cộng hòa, trước 1975 người ta sẽ nghĩ ngay đến Biệt Động quân, gồm những đơn vị bộ binh tinh nhuệ, được huấn luyện đặc biệt. Mà tham mưu trưởng của...","image":null,"label":null,"display":"text-only","type":"text","enable_detail":true,"related":{"url":"https://truyenx.link/truyensextv/channels/related/2160","request_headers":[]},"share":{"url":"https://truyenx.link/truyensextv/channels/share/tham-kich"},"remote_data":{"url":"https://truyenx.link/truyensextv/channels/tham-kich"}},{"id":"2158-channel","name":"Bà hàng xóm khó tính","description":"5 vừa rồi thôi. Chẳng là tôi là một thằng thanh niên 24 tuổi, to cao nhưng không được đẹp trai cho lắm, nhưng phải nói là tôi tự hào về body của tôi, 6 múi, vai u thịt bắp, làn da...","image":null,"label":null,"display":"text-only","type":"text","enable_detail":true,"related":{"url":"https://truyenx.link/truyensextv/channels/related/2158","request_headers":[]},"share":{"url":"https://truyenx.link/truyensextv/channels/share/ba-hang-xom-kho-tinh"},"remote_data":{"url":"https://truyenx.link/truyensextv/channels/ba-hang-xom-kho-tinh"}},{"id":"2157-channel","name":"Chuyến dã ngoại cuối cấp","description":"Thế là Khánh Huyền đã là học sinh cấp ba, những năm học cuối cùng trong đời học sinh, sau 3 năm học tại trường Phổ thông trung học sẽ là giảng đường Đại học chờ đợi...","image":null,"label":null,"display":"text-only","type":"text","enable_detail":true,"related":{"url":"https://truyenx.link/truyensextv/channels/related/2157","request_headers":[]},"share":{"url":"https://truyenx.link/truyensextv/channels/share/chuyen-da-ngoai-cuoi-cap"},"remote_data":{"url":"https://truyenx.link/truyensextv/channels/chuyen-da-ngoai-cuoi-cap"}},{"id":"2156-channel","name":"Truyện sex không tên số 1","description":"Gia đình tôi cũng thuộc dạng khá giả nên từ nhỏ tôi đã chẳng phải lo ăn mặc. Suốt những năm cấp 3 tôi chỉ biết vùi đầu vào sách vở nên chẳng để ý chuyện yêu đương...","image":null,"label":null,"display":"text-only","type":"text","enable_detail":true,"related":{"url":"https://truyenx.link/truyensextv/channels/related/2156","request_headers":[]},"share":{"url":"https://truyenx.link/truyensextv/channels/share/truyen-sex-khong-ten-so-1"},"remote_data":{"url":"https://truyenx.link/truyensextv/channels/truyen-sex-khong-ten-so-1"}}],"load_more":{"pageInfo":{"current_page":19,"last_page":140,"per_page":30,"total":4188},"paging":{"page_key":"page","size_key":"size"},"remote_data":{"url":"https://truyenx.link/truyensextv/channels"}}}