{"grid_number":1,"channels":[{"id":"528-channel","name":"Chuyến tàu TN1","description":"1-5. Sau gần 10 tiếng chôn mình trên xe Cúc Tư, cuối cùng tôi cũng về tới Phú Yên! Cái cảm giác đầu tiên khi xuống xe là một bầu không khí hoàn toàn khác! Tạm xa cái đất TpHCM...","image":null,"label":null,"display":"text-only","type":"text","enable_detail":true,"related":{"url":"https://truyenx.link/truyensextv/channels/related/528","request_headers":[]},"share":{"url":"https://truyenx.link/truyensextv/channels/share/chuyen-tau-tn1"},"remote_data":{"url":"https://truyenx.link/truyensextv/channels/chuyen-tau-tn1"}},{"id":"527-channel","name":"Kỷ niệm xem phim sex","description":"Ngày xưa cái thời mạng xã hội với trang web không thịnh hành như bây giờ nên việc muốn xem phim sex cũng rất hiếm hoi. Nếu muốn xem chỉ có băng đĩa thôi hoặc bác nào có tiền dùng...","image":null,"label":null,"display":"text-only","type":"text","enable_detail":true,"related":{"url":"https://truyenx.link/truyensextv/channels/related/527","request_headers":[]},"share":{"url":"https://truyenx.link/truyensextv/channels/share/ky-niem-xem-phim-sex"},"remote_data":{"url":"https://truyenx.link/truyensextv/channels/ky-niem-xem-phim-sex"}},{"id":"526-channel","name":"Con vợ đĩ điếm","description":"Những ngày còn ở trong Sài Gòn, tôi thường xuyên rủ đồng nghiệp về nhà chơi với vợ chồng tôi. Trong số đó có Trọng rất vui vẻ cởi mở, hắn còn trẻ và đẹp trai nhất, nên...","image":null,"label":null,"display":"text-only","type":"text","enable_detail":true,"related":{"url":"https://truyenx.link/truyensextv/channels/related/526","request_headers":[]},"share":{"url":"https://truyenx.link/truyensextv/channels/share/con-vo-di-diem"},"remote_data":{"url":"https://truyenx.link/truyensextv/channels/con-vo-di-diem"}},{"id":"525-channel","name":"Ký ức buồn","description":"Em sinh ra tại ngoại thành, cách thành phố khoảng 20km theo đường chuột chạy, nhà em cũng làm nông nghiệp như những người khác ở miền quê yên bình với những cánh đồng bát ngát...","image":null,"label":null,"display":"text-only","type":"text","enable_detail":true,"related":{"url":"https://truyenx.link/truyensextv/channels/related/525","request_headers":[]},"share":{"url":"https://truyenx.link/truyensextv/channels/share/ky-uc-buon"},"remote_data":{"url":"https://truyenx.link/truyensextv/channels/ky-uc-buon"}},{"id":"524-channel","name":"Hai chồng một vợ","description":"Từ một người thành đạt, nhiều tiền, bỗng nhiên thất nghiệp, lao đao vì chứng khoán. Chán nản, tôi quyết định ở nhà một thời gian để định hướng lại mình sẽ làm gì? Từ...","image":null,"label":null,"display":"text-only","type":"text","enable_detail":true,"related":{"url":"https://truyenx.link/truyensextv/channels/related/524","request_headers":[]},"share":{"url":"https://truyenx.link/truyensextv/channels/share/hai-chong-mot-vo"},"remote_data":{"url":"https://truyenx.link/truyensextv/channels/hai-chong-mot-vo"}},{"id":"523-channel","name":"Cô Dung hàng xóm","description":"Cô Dung gần nhà tôi ở quê. Ở quê ruộng vườn nhà ai cũng rộng, tuy nhà gần nhau nhưng đến đoạn đường khoảng hơn trăm mét. Cô Dung là người hàng xóm. Cô khoảng 46 47 tuổi gì đó...","image":null,"label":null,"display":"text-only","type":"text","enable_detail":true,"related":{"url":"https://truyenx.link/truyensextv/channels/related/523","request_headers":[]},"share":{"url":"https://truyenx.link/truyensextv/channels/share/co-dung-hang-xom"},"remote_data":{"url":"https://truyenx.link/truyensextv/channels/co-dung-hang-xom"}},{"id":"522-channel","name":"Nghề chăn gái - Quyển 1","description":"Chắc anh em ai cũng từng một lần đi đá phò, hoặc chí ít cũng từng gặp hoặc nghe đến những cô gái làm cái nghề mà xã hội cho là mạt hạng này. Tuy nhiên đó là cái nhìn khinh rẻ...","image":null,"label":null,"display":"text-only","type":"text","enable_detail":true,"related":{"url":"https://truyenx.link/truyensextv/channels/related/522","request_headers":[]},"share":{"url":"https://truyenx.link/truyensextv/channels/share/nghe-chan-gai-quyen-1"},"remote_data":{"url":"https://truyenx.link/truyensextv/channels/nghe-chan-gai-quyen-1"}},{"id":"521-channel","name":"Đêm kinh hoàng","description":"Ngồi trong lớp học nhưng đầu óc thằng Tâm chỉ nhớ đến những thước phim mà nó mới xem ngày hôm qua, một bộ phim sex rất hay, một bộ phim nói về chủ đề loạn luân, những cảnh...","image":null,"label":null,"display":"text-only","type":"text","enable_detail":true,"related":{"url":"https://truyenx.link/truyensextv/channels/related/521","request_headers":[]},"share":{"url":"https://truyenx.link/truyensextv/channels/share/dem-kinh-hoang"},"remote_data":{"url":"https://truyenx.link/truyensextv/channels/dem-kinh-hoang"}},{"id":"520-channel","name":"Địt bồ thằng bạn","description":"Thời học đại học mình có 1 đống bạn bè, nào là cùng lớp, đồng hương, đoàn đội, tình nguyện, câu lạc bộ...rồi bạn online. Mà câu chuyện này thì là về bạn cùng lớp. Ra...","image":null,"label":null,"display":"text-only","type":"text","enable_detail":true,"related":{"url":"https://truyenx.link/truyensextv/channels/related/520","request_headers":[]},"share":{"url":"https://truyenx.link/truyensextv/channels/share/dit-bo-thang-ban"},"remote_data":{"url":"https://truyenx.link/truyensextv/channels/dit-bo-thang-ban"}},{"id":"519-channel","name":"Phá trinh em gái kết nghĩa","description":"Sài Gòn đang mùa mưa, công nhận là khó chịu thật. Cứ chiều chiều tầm 3 hay 4 giờ là bắt đầu trời âm u. Sau đó là cái cơn mưa khó chịu kéo tới, có khi kéo dài tới hết đêm...","image":null,"label":null,"display":"text-only","type":"text","enable_detail":true,"related":{"url":"https://truyenx.link/truyensextv/channels/related/519","request_headers":[]},"share":{"url":"https://truyenx.link/truyensextv/channels/share/pha-trinh-em-gai-ket-nghia"},"remote_data":{"url":"https://truyenx.link/truyensextv/channels/pha-trinh-em-gai-ket-nghia"}},{"id":"518-channel","name":"Chuyện tình nơi biên giới","description":"Cái quán bún chả ấy nằm khuất sau đường lộ, gần mấy quầy mà bên ngoài bầy mấy cái đồ điện tử china còn bên trong bán cái mà ai cũng biết là cái gì... Quán ngoài bún còn có...","image":null,"label":null,"display":"text-only","type":"text","enable_detail":true,"related":{"url":"https://truyenx.link/truyensextv/channels/related/518","request_headers":[]},"share":{"url":"https://truyenx.link/truyensextv/channels/share/chuyen-tinh-noi-bien-gioi"},"remote_data":{"url":"https://truyenx.link/truyensextv/channels/chuyen-tinh-noi-bien-gioi"}},{"id":"517-channel","name":"Em tôi","description":"Ngày ấy 20 năm về trước... Nhà có 2 anh em, chênh nhau 4 tuổi. Năm đó bố tôi đi học tập chưa về, mọi thứ gánh lên đôi vai của mẹ. Hai anh em ở nhà chơi với nhau. Tôi lo cho em...","image":null,"label":null,"display":"text-only","type":"text","enable_detail":true,"related":{"url":"https://truyenx.link/truyensextv/channels/related/517","request_headers":[]},"share":{"url":"https://truyenx.link/truyensextv/channels/share/em-toi"},"remote_data":{"url":"https://truyenx.link/truyensextv/channels/em-toi"}},{"id":"516-channel","name":"Cô giáo môn văn","description":"Khuôn mặt xinh đẹp, mịn màng không tì vết, bộ ngực cao vút đầy đặn, cái éo thon như gái 20, đôi chân dài trắng muốt, nốt ruồi nhỏ dâm đãng điểm ở cạnh đôi môi đỏ...","image":null,"label":null,"display":"text-only","type":"text","enable_detail":true,"related":{"url":"https://truyenx.link/truyensextv/channels/related/516","request_headers":[]},"share":{"url":"https://truyenx.link/truyensextv/channels/share/co-giao-mon-van"},"remote_data":{"url":"https://truyenx.link/truyensextv/channels/co-giao-mon-van"}},{"id":"515-channel","name":"Đụ chị cùng nhà trọ","description":"Không biết các bạn có từng ở cái kiểu 1 đám không quen biết nhau tụ tập cùng nhau thuê 1 căn nhà lớn để ở chưa nhỉ. Hồi ấy cái phòng mình ở đang hết hợp đồng. Thế là...","image":null,"label":null,"display":"text-only","type":"text","enable_detail":true,"related":{"url":"https://truyenx.link/truyensextv/channels/related/515","request_headers":[]},"share":{"url":"https://truyenx.link/truyensextv/channels/share/du-chi-cung-nha-tro"},"remote_data":{"url":"https://truyenx.link/truyensextv/channels/du-chi-cung-nha-tro"}},{"id":"514-channel","name":"Ba mẹ con nhà hàng xóm","description":"Trời đang mưa, cơn mưa rào cứ ào ào đổ xuống không biết bao giờ mới dứt. Mặc kệ thời tiết bên ngoài như thế nào, tôi vẫn tập trung đánh chén bát mì tôm nóng hổi vừa chín...","image":null,"label":null,"display":"text-only","type":"text","enable_detail":true,"related":{"url":"https://truyenx.link/truyensextv/channels/related/514","request_headers":[]},"share":{"url":"https://truyenx.link/truyensextv/channels/share/ba-me-con-nha-hang-xom"},"remote_data":{"url":"https://truyenx.link/truyensextv/channels/ba-me-con-nha-hang-xom"}},{"id":"513-channel","name":"Sóng gió cuộc đời","description":"Trường đại học XYZ ngày nhập học một ngày đầu tháng 9... Ôi thôi, tiền lại đút tận trong balo rồi, cô chờ em một lát ạ... một thằng tân sinh viên đứng cạnh tôi đang loay hoay...","image":null,"label":null,"display":"text-only","type":"text","enable_detail":true,"related":{"url":"https://truyenx.link/truyensextv/channels/related/513","request_headers":[]},"share":{"url":"https://truyenx.link/truyensextv/channels/share/song-gio-cuoc-doi"},"remote_data":{"url":"https://truyenx.link/truyensextv/channels/song-gio-cuoc-doi"}},{"id":"512-channel","name":"Bí mật của vợ tôi","description":"2012... London Anh... Vậy là chỉ còn hai ngày nữa thôi là Mạnh sẽ được về quê hương sau bốn cái mùa đông lạnh giá học tập tại vương quốc Anh. Năm nào nó cũng muốn về nhưng vì...","image":null,"label":null,"display":"text-only","type":"text","enable_detail":true,"related":{"url":"https://truyenx.link/truyensextv/channels/related/512","request_headers":[]},"share":{"url":"https://truyenx.link/truyensextv/channels/share/bi-mat-cua-vo-toi"},"remote_data":{"url":"https://truyenx.link/truyensextv/channels/bi-mat-cua-vo-toi"}},{"id":"511-channel","name":"Câu chuyện đời tôi","description":"Chuyến xe khách lặng lẽ chạy trên trên đường. Hai bên đường tối đen như mực, nếu không có đèn của những chiếc xe khác trong đêm thì đúng là một sự cô đơn đến nao lòng...","image":null,"label":null,"display":"text-only","type":"text","enable_detail":true,"related":{"url":"https://truyenx.link/truyensextv/channels/related/511","request_headers":[]},"share":{"url":"https://truyenx.link/truyensextv/channels/share/cau-chuyen-doi-toi"},"remote_data":{"url":"https://truyenx.link/truyensextv/channels/cau-chuyen-doi-toi"}},{"id":"510-channel","name":"Tôi và em","description":"Ánh nắng chói chang của buổi chiều mùa hè cũng đã dịu dần trên những ngọn cây đằng xa. Lại sắp qua một ngày nữa, tôi chán nản thu dây câu ra về. Trời đã xế chiều, từng cơn...","image":null,"label":null,"display":"text-only","type":"text","enable_detail":true,"related":{"url":"https://truyenx.link/truyensextv/channels/related/510","request_headers":[]},"share":{"url":"https://truyenx.link/truyensextv/channels/share/toi-va-em"},"remote_data":{"url":"https://truyenx.link/truyensextv/channels/toi-va-em"}},{"id":"509-channel","name":"Những cô bạn tình thời học sinh","description":"Bữa nay ngồi mò mò đọc truyện sex trên truyensextv2.cc xong lại nhớ ra ngày xưa học cấp 3 cũng mê cái này lắm. Đợt ấy hình như học kì 1 lớp 11 thì phải. Hôm ấy là thứ 6, lúc tan...","image":null,"label":null,"display":"text-only","type":"text","enable_detail":true,"related":{"url":"https://truyenx.link/truyensextv/channels/related/509","request_headers":[]},"share":{"url":"https://truyenx.link/truyensextv/channels/share/nhung-co-ban-tinh-thoi-hoc-sinh"},"remote_data":{"url":"https://truyenx.link/truyensextv/channels/nhung-co-ban-tinh-thoi-hoc-sinh"}},{"id":"508-channel","name":"Quỳnh và Huyền","description":"Những năm cuối cấp ba tất cả tập trung vào thi cử rồi liên hoan và những câu chuyện tình cảm tuổi học trò. Lúc đó tôi với Quỳnh mới cảm thấy thích nhau một chút. Buổi đó...","image":null,"label":null,"display":"text-only","type":"text","enable_detail":true,"related":{"url":"https://truyenx.link/truyensextv/channels/related/508","request_headers":[]},"share":{"url":"https://truyenx.link/truyensextv/channels/share/quynh-va-huyen"},"remote_data":{"url":"https://truyenx.link/truyensextv/channels/quynh-va-huyen"}},{"id":"507-channel","name":"Bạn bè","description":"Nhắc tới bạn bè, mình lại nhớ đám bạn thời còn học đại học. Hồi ấy chơi với nhau cũng thân, vui vẻ lắm. Nhóm được 7 đứa con gái và 9 thằng con trai. Cả đám nguyên là ban...","image":null,"label":null,"display":"text-only","type":"text","enable_detail":true,"related":{"url":"https://truyenx.link/truyensextv/channels/related/507","request_headers":[]},"share":{"url":"https://truyenx.link/truyensextv/channels/share/ban-be"},"remote_data":{"url":"https://truyenx.link/truyensextv/channels/ban-be"}},{"id":"506-channel","name":"“Xoạc” bạn thân","description":"11 tổ chức văn nghệ ở trường xong thì ai cũng vui, thế là cả đám ban tổ chức mình bắt đầu mua bia về nhậu. Uống cũng vài ba ly cho sung rồi tiệc tàn. 12h đêm nên đứa nào cũng...","image":null,"label":null,"display":"text-only","type":"text","enable_detail":true,"related":{"url":"https://truyenx.link/truyensextv/channels/related/506","request_headers":[]},"share":{"url":"https://truyenx.link/truyensextv/channels/share/xoac-ban-than"},"remote_data":{"url":"https://truyenx.link/truyensextv/channels/xoac-ban-than"}},{"id":"505-channel","name":"Chuyện tình lúc đi sinh viên tình nguyện","description":"Bữa chiều nay mới có mấy em tình nguyện viên của cái chương trình Hành Trình Xanh gì đó qua công ty mình xin tài trợ làm mình nhớ ngày xưa sinh viên cũng đi tình nguyện ghê. Đợt ấy...","image":null,"label":null,"display":"text-only","type":"text","enable_detail":true,"related":{"url":"https://truyenx.link/truyensextv/channels/related/505","request_headers":[]},"share":{"url":"https://truyenx.link/truyensextv/channels/share/chuyen-tinh-luc-di-sinh-vien-tinh-nguyen"},"remote_data":{"url":"https://truyenx.link/truyensextv/channels/chuyen-tinh-luc-di-sinh-vien-tinh-nguyen"}},{"id":"504-channel","name":"Chuyện chàng xích lô","description":"Toàn cong lưng đạp chiếc xích lô lên dốc, suốt cả ngày hôm nay chàng chỉ kiếm được có 1 chuyến, còn chưa đủ tiền để sinh hoạt cho ngày mai. Trời mùa đông đã khuya lắm rồi...","image":null,"label":null,"display":"text-only","type":"text","enable_detail":true,"related":{"url":"https://truyenx.link/truyensextv/channels/related/504","request_headers":[]},"share":{"url":"https://truyenx.link/truyensextv/channels/share/chuyen-chang-xich-lo"},"remote_data":{"url":"https://truyenx.link/truyensextv/channels/chuyen-chang-xich-lo"}},{"id":"503-channel","name":"Đụ chị đồng nghiệp","description":"Tháng 6, giời Hà Nội nóng đến gần 40 độ, chạy được đến Công ty mồ hôi mẹ mồ hôi con ... lã chã... Đẩy cửa phòng hành chính vào thấy vắng hoe, nhìn quanh có mỗi bà chị văn...","image":null,"label":null,"display":"text-only","type":"text","enable_detail":true,"related":{"url":"https://truyenx.link/truyensextv/channels/related/503","request_headers":[]},"share":{"url":"https://truyenx.link/truyensextv/channels/share/du-chi-dong-nghiep"},"remote_data":{"url":"https://truyenx.link/truyensextv/channels/du-chi-dong-nghiep"}},{"id":"502-channel","name":"Cho bạn đứa con","description":"Tháng sáu... Trời đụ... Sáng sớm tinh sương đã phải chui vào cái bệnh viện phụ sản này để thăm bà đẻ, “hãm” kinh người! Trời tháng 6 mà sáng sớm đã oi nồng lên, ghé...","image":null,"label":null,"display":"text-only","type":"text","enable_detail":true,"related":{"url":"https://truyenx.link/truyensextv/channels/related/502","request_headers":[]},"share":{"url":"https://truyenx.link/truyensextv/channels/share/cho-ban-dua-con"},"remote_data":{"url":"https://truyenx.link/truyensextv/channels/cho-ban-dua-con"}},{"id":"501-channel","name":"Đêm đầu tiên","description":"Khoảng thời gian đó, tôi được nhận vào làm việc ở cái công ty này cũng đã gần 1 năm, chưa phải là nhiều nhưng cũng đủ để thân với một số người, lợi thế của 1 thằng...","image":null,"label":null,"display":"text-only","type":"text","enable_detail":true,"related":{"url":"https://truyenx.link/truyensextv/channels/related/501","request_headers":[]},"share":{"url":"https://truyenx.link/truyensextv/channels/share/dem-dau-tien"},"remote_data":{"url":"https://truyenx.link/truyensextv/channels/dem-dau-tien"}},{"id":"500-channel","name":"Học sinh cấp 2","description":"Ngay từ khi học cấp 2, Hòa đã quậy có tiếng. Không những biết điệu và làm dáng, thích phá phách mà Hòa đã biết yêu từ năm học lớp 8 khi một thằng bạn lớp 9 tên V tặng cho Hòa...","image":null,"label":null,"display":"text-only","type":"text","enable_detail":true,"related":{"url":"https://truyenx.link/truyensextv/channels/related/500","request_headers":[]},"share":{"url":"https://truyenx.link/truyensextv/channels/share/hoc-sinh-cap-2"},"remote_data":{"url":"https://truyenx.link/truyensextv/channels/hoc-sinh-cap-2"}},{"id":"499-channel","name":"Chuyến du lịch Đà Nẵng","description":"Chuyến bay mang số hiệu VJ08xxx từ Hà nội đi Đà nẵng của Hãng Vietjet Air sắp cất cánh, đề nghị quý khách khẩn trương... Tôi cúi người kéo vội cái vali chạy ra cửa check in, một...","image":null,"label":null,"display":"text-only","type":"text","enable_detail":true,"related":{"url":"https://truyenx.link/truyensextv/channels/related/499","request_headers":[]},"share":{"url":"https://truyenx.link/truyensextv/channels/share/chuyen-du-lich-da-nang"},"remote_data":{"url":"https://truyenx.link/truyensextv/channels/chuyen-du-lich-da-nang"}}],"load_more":{"pageInfo":{"current_page":123,"last_page":140,"per_page":30,"total":4188},"paging":{"page_key":"page","size_key":"size"},"remote_data":{"url":"https://truyenx.link/truyensextv/channels"}}}