{"grid_number":1,"channels":[{"id":"48-channel","name":"Đứa cháu vợ","description":"Đứa cháu vợ ở với vợ chồng tôi đã được khoảng 3 năm kể từ ngày cha nó vào tù. Khi còn tại vị, cha nó là giám đốc công ty thương mại tỉnh, vì vướng vô ba cái chuyện tham...","image":null,"label":null,"display":"text-only","type":"text","enable_detail":true,"related":{"url":"https://truyenx.link/truyensextv/channels/related/48","request_headers":[]},"share":{"url":"https://truyenx.link/truyensextv/channels/share/dua-chau-vo"},"remote_data":{"url":"https://truyenx.link/truyensextv/channels/dua-chau-vo"}},{"id":"47-channel","name":"Đụ chị thằng bạn","description":"Trong lớp thì thằng bạn thân nhất sống chết cùng nhau của Tuấn tên là Quốc Đạt. Hai thằng không ngồi cùng bàn, không ở cùng tổ nhưng lại chơi thân với nhau như bóng với hình...","image":null,"label":null,"display":"text-only","type":"text","enable_detail":true,"related":{"url":"https://truyenx.link/truyensextv/channels/related/47","request_headers":[]},"share":{"url":"https://truyenx.link/truyensextv/channels/share/du-chi-thang-ban"},"remote_data":{"url":"https://truyenx.link/truyensextv/channels/du-chi-thang-ban"}},{"id":"46-channel","name":"Mối tình loạn luân","description":"Hoàn có 5 chị gái gồm chị Hai Hảo, chị Ba Hường, chị Tư Vân, chị Năm Hoàng và chị Sáu Minh có chị Tư Vân là người chị mà Hoàn yêu thương và kính trọng nhất vì chị rất có...","image":null,"label":null,"display":"text-only","type":"text","enable_detail":true,"related":{"url":"https://truyenx.link/truyensextv/channels/related/46","request_headers":[]},"share":{"url":"https://truyenx.link/truyensextv/channels/share/moi-tinh-loan-luan"},"remote_data":{"url":"https://truyenx.link/truyensextv/channels/moi-tinh-loan-luan"}},{"id":"45-channel","name":"Chị em cùng đóng phim","description":"Chị Tám Hiền, người chị ruột thứ tám của Thông, cô con gái út hiện đang là một niềm danh vọng rỡ ràng đầy hào quang cho cả gia đình. Sở dĩ như vậy vì chị là một sinh viên...","image":null,"label":null,"display":"text-only","type":"text","enable_detail":true,"related":{"url":"https://truyenx.link/truyensextv/channels/related/45","request_headers":[]},"share":{"url":"https://truyenx.link/truyensextv/channels/share/chi-em-cung-dong-phim"},"remote_data":{"url":"https://truyenx.link/truyensextv/channels/chi-em-cung-dong-phim"}},{"id":"44-channel","name":"Phá trinh cô thư ký","description":"Tên tôi là Hùng, Mạnh Hùng, tô là một con người bình thường, chuyện tôi muốn kể ra đây cho các bạn biết qua về quá trình, thân thế, ái tình và sự nghiệp của tôi. Gia đình tôi...","image":null,"label":null,"display":"text-only","type":"text","enable_detail":true,"related":{"url":"https://truyenx.link/truyensextv/channels/related/44","request_headers":[]},"share":{"url":"https://truyenx.link/truyensextv/channels/share/pha-trinh-co-thu-ky"},"remote_data":{"url":"https://truyenx.link/truyensextv/channels/pha-trinh-co-thu-ky"}},{"id":"43-channel","name":"Làm tình gái Huế","description":"Thực ra ban đầu, chuyến đi này không phải là chuyến đi tôi có chủ định tới Huế để nếm thử của lạ của con gái xứ Huế, mặc dù thú thực tôi cũng rất tò mò. Lần trước...","image":null,"label":null,"display":"text-only","type":"text","enable_detail":true,"related":{"url":"https://truyenx.link/truyensextv/channels/related/43","request_headers":[]},"share":{"url":"https://truyenx.link/truyensextv/channels/share/lam-tinh-gai-hue"},"remote_data":{"url":"https://truyenx.link/truyensextv/channels/lam-tinh-gai-hue"}},{"id":"42-channel","name":"Người con gái đưa đò","description":"Mưa. Những cơn mưa mùa hè dường như kéo dài bất tận. Mưa lớn mịt mùng trắng cả bến sông. Đóng vội cửa quán, tôi quấn chăn ngồi thu lu trên giường mong cho mưa mau tạnh. Tôi...","image":null,"label":null,"display":"text-only","type":"text","enable_detail":true,"related":{"url":"https://truyenx.link/truyensextv/channels/related/42","request_headers":[]},"share":{"url":"https://truyenx.link/truyensextv/channels/share/nguoi-con-gai-dua-do"},"remote_data":{"url":"https://truyenx.link/truyensextv/channels/nguoi-con-gai-dua-do"}},{"id":"41-channel","name":"Chuyện tình đêm mưa","description":"Sau mối tình loạn luân tội lỗi với chị Vân, mang trong mình tâm trạng vừa buồn phiền hối hận vừa bàng hoàng nhung nhớ, Tuấn trở về Bà Rịa sống trong chuỗi ngày cô đơn chán...","image":null,"label":null,"display":"text-only","type":"text","enable_detail":true,"related":{"url":"https://truyenx.link/truyensextv/channels/related/41","request_headers":[]},"share":{"url":"https://truyenx.link/truyensextv/channels/share/chuyen-tinh-dem-mua"},"remote_data":{"url":"https://truyenx.link/truyensextv/channels/chuyen-tinh-dem-mua"}},{"id":"40-channel","name":"Suýt thành triệu phú","description":"Chiếc xe Mercedes đời 2000 màu trắng lướt nhanh trong bóng đêm của một cơn mưa mùa hè tầm tã. Những hạt mưa rơi trên kính phát ra những tiếng “bụp, bụp” cứ như muốn phá...","image":null,"label":null,"display":"text-only","type":"text","enable_detail":true,"related":{"url":"https://truyenx.link/truyensextv/channels/related/40","request_headers":[]},"share":{"url":"https://truyenx.link/truyensextv/channels/share/suyt-thanh-trieu-phu"},"remote_data":{"url":"https://truyenx.link/truyensextv/channels/suyt-thanh-trieu-phu"}},{"id":"39-channel","name":"Bà chị vợ dâm đãng","description":"Sau năm 75, đại gia đình chúng tôi từ khắp các tỉnh tụ về một căn nhà nhỏ ở Sài gòn. Dĩ nhiên tối đến mọi người ngủ như cá hộp xếp cạnh nhau. Tôi mới lấy vợ được sáu...","image":null,"label":null,"display":"text-only","type":"text","enable_detail":true,"related":{"url":"https://truyenx.link/truyensextv/channels/related/39","request_headers":[]},"share":{"url":"https://truyenx.link/truyensextv/channels/share/ba-chi-vo-dam-dang"},"remote_data":{"url":"https://truyenx.link/truyensextv/channels/ba-chi-vo-dam-dang"}},{"id":"38-channel","name":"Cô con gái và người ba nuôi","description":"Ba nuôi tôi là một người kỹ sư, đẹp trai và rất phong độ, tôi lớn lên trong sự trìu mến của gia đình. Ba nuôi rất thương tôi, tôi vòi gì ba cũng cho, trong phòng tôi không thiếu...","image":null,"label":null,"display":"text-only","type":"text","enable_detail":true,"related":{"url":"https://truyenx.link/truyensextv/channels/related/38","request_headers":[]},"share":{"url":"https://truyenx.link/truyensextv/channels/share/co-con-gai-va-nguoi-ba-nuoi"},"remote_data":{"url":"https://truyenx.link/truyensextv/channels/co-con-gai-va-nguoi-ba-nuoi"}},{"id":"37-channel","name":"Làm tình với bác sĩ","description":"Cô gái đang nằm đợi trong một căn phòng với ánh sáng mờ mờ của một viện thẩm mỹ. Đây là một chỗ chuyên môn giải phẫu và phục hồi những cơ phận bị khiếm khuyết hay bị...","image":null,"label":null,"display":"text-only","type":"text","enable_detail":true,"related":{"url":"https://truyenx.link/truyensextv/channels/related/37","request_headers":[]},"share":{"url":"https://truyenx.link/truyensextv/channels/share/lam-tinh-voi-bac-si"},"remote_data":{"url":"https://truyenx.link/truyensextv/channels/lam-tinh-voi-bac-si"}},{"id":"36-channel","name":"Thằng cu may mắn","description":"Thu nhìn thằng Hùng năm nay mới 16 tuổi nằm ngủ co ro trên tấm phản kê góc nhà, nó ở trần truồng mặc mỗi cái quần xà lỏn dù trời khá lạnh khiến nàng cảm thấy thương hại...","image":null,"label":null,"display":"text-only","type":"text","enable_detail":true,"related":{"url":"https://truyenx.link/truyensextv/channels/related/36","request_headers":[]},"share":{"url":"https://truyenx.link/truyensextv/channels/share/thang-cu-may-man"},"remote_data":{"url":"https://truyenx.link/truyensextv/channels/thang-cu-may-man"}},{"id":"35-channel","name":"Bố chồng tuổi 70","description":"Ông Hưng làm nghề thợ mộc, vì nghèo nên không dám lấy vợ. Mãi đến năm 42 tuổi mới cưới vợ, sinh được duy nhất một cậu con trai, tên là Long. Không may vợ ông bị tai nạn giao...","image":null,"label":null,"display":"text-only","type":"text","enable_detail":true,"related":{"url":"https://truyenx.link/truyensextv/channels/related/35","request_headers":[]},"share":{"url":"https://truyenx.link/truyensextv/channels/share/bo-chong-tuoi-70"},"remote_data":{"url":"https://truyenx.link/truyensextv/channels/bo-chong-tuoi-70"}},{"id":"34-channel","name":"Chị Huyền hàng xóm","description":"Lớn lên tôi mới biết là chị Huyền không phải họ hàng gì với tôi như tôi đã từng nghĩ mà chị chỉ là người hàng xóm tốt bụng rất gần gũi thân thiết với gia đình tôi mà...","image":null,"label":null,"display":"text-only","type":"text","enable_detail":true,"related":{"url":"https://truyenx.link/truyensextv/channels/related/34","request_headers":[]},"share":{"url":"https://truyenx.link/truyensextv/channels/share/chi-huyen-hang-xom"},"remote_data":{"url":"https://truyenx.link/truyensextv/channels/chi-huyen-hang-xom"}},{"id":"33-channel","name":"Người chị dâu dâm dục","description":"Chị lấy chồng. Đêm động phòng chị còn ngượng ngùng khi để cho một người đàn ông cởi quần. Hai người thật vụng về. Rồi đâu cũng vào đấy. Người chồng hiền lành yếu...","image":null,"label":null,"display":"text-only","type":"text","enable_detail":true,"related":{"url":"https://truyenx.link/truyensextv/channels/related/33","request_headers":[]},"share":{"url":"https://truyenx.link/truyensextv/channels/share/nguoi-chi-dau-dam-duc"},"remote_data":{"url":"https://truyenx.link/truyensextv/channels/nguoi-chi-dau-dam-duc"}},{"id":"32-channel","name":"Đụ bà chủ đa tình","description":"Lâm đang cảm giác một sự rung động từ khi ông chủ nó có hẹn một chuyến bay chiều nay. Ông chủ luôn luôn đến phòng ngủ của vợ trước khi đi một chuyến công tác dài ngày. Lâm...","image":null,"label":null,"display":"text-only","type":"text","enable_detail":true,"related":{"url":"https://truyenx.link/truyensextv/channels/related/32","request_headers":[]},"share":{"url":"https://truyenx.link/truyensextv/channels/share/du-ba-chu-da-tinh"},"remote_data":{"url":"https://truyenx.link/truyensextv/channels/du-ba-chu-da-tinh"}},{"id":"31-channel","name":"Cặp song sinh","description":"Nó là anh còn người em song sinh của nó lại là một người con gái. Chứ không giống như các cặp sinh đôi khác thường là cùng chung giới tính. Nó tên là Quân còn em nó là Quỳnh. Từ...","image":null,"label":null,"display":"text-only","type":"text","enable_detail":true,"related":{"url":"https://truyenx.link/truyensextv/channels/related/31","request_headers":[]},"share":{"url":"https://truyenx.link/truyensextv/channels/share/cap-song-sinh"},"remote_data":{"url":"https://truyenx.link/truyensextv/channels/cap-song-sinh"}},{"id":"30-channel","name":"Tình một đêm","description":"Những người trẻ tuổi thường có tính bốc đồng. Tình yêu đối với họ dường như rất xa lạ, là thứ xa xỉ và cái họ có chỉ là những chuyện tình một đêm. Linh, một cô gái 17...","image":null,"label":null,"display":"text-only","type":"text","enable_detail":true,"related":{"url":"https://truyenx.link/truyensextv/channels/related/30","request_headers":[]},"share":{"url":"https://truyenx.link/truyensextv/channels/share/tinh-mot-dem"},"remote_data":{"url":"https://truyenx.link/truyensextv/channels/tinh-mot-dem"}},{"id":"29-channel","name":"Hiếp dâm cô giáo Dung","description":"Câu chuyện bắt đầu vào một ngày nọ khi tôi còn đang học lớp 11. Chúng tôi rủ nhau tới nhà thằng Trung để học bài (mà sau này tôi mới biết la để xem phim con heo. Cái cảm giác...","image":null,"label":null,"display":"text-only","type":"text","enable_detail":true,"related":{"url":"https://truyenx.link/truyensextv/channels/related/29","request_headers":[]},"share":{"url":"https://truyenx.link/truyensextv/channels/share/hiep-dam-co-giao-dung"},"remote_data":{"url":"https://truyenx.link/truyensextv/channels/hiep-dam-co-giao-dung"}},{"id":"28-channel","name":"Mỹ Dung","description":"Từ sau khi tốt nghiệp trung cấp nghề điện tử. Tôi xin được công việc ở cửa hàng sửa chữa điện tử máy tính. Cửa hàng nằm về phía bên kia chân cầu Hậu Huyền so với nhà tôi...","image":null,"label":null,"display":"text-only","type":"text","enable_detail":true,"related":{"url":"https://truyenx.link/truyensextv/channels/related/28","request_headers":[]},"share":{"url":"https://truyenx.link/truyensextv/channels/share/my-dung"},"remote_data":{"url":"https://truyenx.link/truyensextv/channels/my-dung"}},{"id":"27-channel","name":"Tuần trang mật sung sướng","description":"Đến hôm nay em mới được rảnh rang để viết thư thăm chị bày tỏ lòng hạnh phúc đang dâng trào trong tim em để chị hiểu thế nào là ân ái của một cô gái còn trinh tiết lần...","image":null,"label":null,"display":"text-only","type":"text","enable_detail":true,"related":{"url":"https://truyenx.link/truyensextv/channels/related/27","request_headers":[]},"share":{"url":"https://truyenx.link/truyensextv/channels/share/tuan-trang-mat-sung-suong"},"remote_data":{"url":"https://truyenx.link/truyensextv/channels/tuan-trang-mat-sung-suong"}},{"id":"26-channel","name":"Chuyện từ chiều thứ 7","description":"Chiều thứ bảy khi tôi về nhà trời đổ mưa rào tối tăm như màn đêm buông xuống. Trận mưa kéo theo trận cúp điện trên toàn bộ quận Phú Nhuận, ngõ hẻm đã ngập nước lại tối...","image":null,"label":null,"display":"text-only","type":"text","enable_detail":true,"related":{"url":"https://truyenx.link/truyensextv/channels/related/26","request_headers":[]},"share":{"url":"https://truyenx.link/truyensextv/channels/share/chuyen-tu-chieu-thu-7"},"remote_data":{"url":"https://truyenx.link/truyensextv/channels/chuyen-tu-chieu-thu-7"}},{"id":"25-channel","name":"Đứa con thích loạn luân","description":"Thường ông Hùng đi công tác từ sáu tới tám tuần, Kiều Thu mới đầu còn buồn nhưng sau đó xem sự vắng mặt của ông Hùng là một sự bình thường. Đức thật thích thú và tò mò...","image":null,"label":null,"display":"text-only","type":"text","enable_detail":true,"related":{"url":"https://truyenx.link/truyensextv/channels/related/25","request_headers":[]},"share":{"url":"https://truyenx.link/truyensextv/channels/share/dua-con-thich-loan-luan"},"remote_data":{"url":"https://truyenx.link/truyensextv/channels/dua-con-thich-loan-luan"}},{"id":"24-channel","name":"Bị cướp hiếp dâm tập thể","description":"Hằng thở dốc khi bước ra khỏi thang máy và bước tới cửa căn hộ của mình trên tầng bốn. Hôm nay là thứ bảy nên như thường lệ nàng đi mua sắm một số thứ đồ cần thiết cho...","image":null,"label":null,"display":"text-only","type":"text","enable_detail":true,"related":{"url":"https://truyenx.link/truyensextv/channels/related/24","request_headers":[]},"share":{"url":"https://truyenx.link/truyensextv/channels/share/bi-cuop-hiep-dam-tap-the"},"remote_data":{"url":"https://truyenx.link/truyensextv/channels/bi-cuop-hiep-dam-tap-the"}},{"id":"23-channel","name":"Chuyến du lịch Hạ Long","description":"Sau hôm đi chơi cave ở Hà Nội, tôi và Tuấn còn đi chơi gái chung mấy lần nữa, đều là hắn bao để cảm ơn tôi giúp hắn kiếm được mấy món lớn làm ăn ở công ty. Sau một vụ áp...","image":null,"label":null,"display":"text-only","type":"text","enable_detail":true,"related":{"url":"https://truyenx.link/truyensextv/channels/related/23","request_headers":[]},"share":{"url":"https://truyenx.link/truyensextv/channels/share/chuyen-du-lich-ha-long"},"remote_data":{"url":"https://truyenx.link/truyensextv/channels/chuyen-du-lich-ha-long"}},{"id":"22-channel","name":"Con dâu thời nay","description":"Ông Tâm ngồi ở ghế sô pha uống trà buổi sáng, mỗi khi thức dậy ông có thói quen này đã gần mười mấy năm, ngoài kia trời đã sáng rỏ mặt trời đã lên khá cao, áng sáng chan hòa...","image":null,"label":null,"display":"text-only","type":"text","enable_detail":true,"related":{"url":"https://truyenx.link/truyensextv/channels/related/22","request_headers":[]},"share":{"url":"https://truyenx.link/truyensextv/channels/share/con-dau-thoi-nay"},"remote_data":{"url":"https://truyenx.link/truyensextv/channels/con-dau-thoi-nay"}},{"id":"21-channel","name":"Bà mẹ vợ dâm đãng","description":"Hưng tắt máy, đậu xe trước cửa nhà bà mẹ vợ. Mới bước ra khỏi xe thì gặp ngay bà Nga, má vợ vừa từ chợ về nhà. Hưng chưa kịp chào thì bà Nga đã lên tiếng trước : ”...","image":null,"label":null,"display":"text-only","type":"text","enable_detail":true,"related":{"url":"https://truyenx.link/truyensextv/channels/related/21","request_headers":[]},"share":{"url":"https://truyenx.link/truyensextv/channels/share/ba-me-vo-dam-dang"},"remote_data":{"url":"https://truyenx.link/truyensextv/channels/ba-me-vo-dam-dang"}},{"id":"20-channel","name":"Truyện của Ngân và đứa cháu","description":"Ông Sơn đã 50 tuổi, vợ ông là bà Ngân thì 45 tuổi. Vợ chồng ông vốn không có con, nhưng lại ăn nên làm ra. Hai ông bà muốn xin con nuôi để trong nhà còn có trẻ nhỏ vui đùa, nhưng...","image":null,"label":null,"display":"text-only","type":"text","enable_detail":true,"related":{"url":"https://truyenx.link/truyensextv/channels/related/20","request_headers":[]},"share":{"url":"https://truyenx.link/truyensextv/channels/share/truyen-cua-ngan-va-dua-chau"},"remote_data":{"url":"https://truyenx.link/truyensextv/channels/truyen-cua-ngan-va-dua-chau"}},{"id":"19-channel","name":"Cô thư ký","description":"Về đến nhà, ba gọi nhờ việc tôi ngay. Ba giao cho tôi chìa khóa sở, căn dặn rõ cách thức vào phải giải mã ám số như thế nào để không báo động đến cơ quan công quyền, rồi...","image":null,"label":null,"display":"text-only","type":"text","enable_detail":true,"related":{"url":"https://truyenx.link/truyensextv/channels/related/19","request_headers":[]},"share":{"url":"https://truyenx.link/truyensextv/channels/share/co-thu-ky"},"remote_data":{"url":"https://truyenx.link/truyensextv/channels/co-thu-ky"}}],"load_more":{"pageInfo":{"current_page":139,"last_page":140,"per_page":30,"total":4188},"paging":{"page_key":"page","size_key":"size"},"remote_data":{"url":"https://truyenx.link/truyensextv/channels"}}}