{"grid_number":1,"channels":[{"id":"3730-channel","name":"Đen như mõm chó","description":"Vậy là vài ngày nữa My đủ 18 tuổi rồi. Sáng nay My lại thức dậy sớm đến trước gương để ngắm nghía bản thân mình. My đẹp thật, nàng nhìn gương mà tự hào về chính bản...","image":null,"label":null,"display":"text-only","type":"text","enable_detail":true,"related":{"url":"https://truyenx.link/truyensextv/channels/related/3730","request_headers":[]},"share":{"url":"https://truyenx.link/truyensextv/channels/share/den-nhu-mom-cho"},"remote_data":{"url":"https://truyenx.link/truyensextv/channels/den-nhu-mom-cho"}},{"id":"3729-channel","name":"Hai cô giáo","description":"Đây là hai cô giáo hiện tại của tôi, tôi đang học c3 cô Hải 53 tuổi cô Nguyệt 23 tuổi. Hai người hộ rất thân với nhau họ coi nhau như là chị em vậy. Khoảng 1 tháng trước khi sang...","image":null,"label":null,"display":"text-only","type":"text","enable_detail":true,"related":{"url":"https://truyenx.link/truyensextv/channels/related/3729","request_headers":[]},"share":{"url":"https://truyenx.link/truyensextv/channels/share/hai-co-giao"},"remote_data":{"url":"https://truyenx.link/truyensextv/channels/hai-co-giao"}},{"id":"3728-channel","name":"Đau lòng","description":"Jane trở mình tỉnh giấc khi cô nghe tiếng mẹ mình gọi í ới vọng ra từ bếp: Jane, bịch bột ngũ cốc đâu hết rồi hả con? Con lại đi chơi khuya về và lại ăn hết rồi phải không...","image":null,"label":null,"display":"text-only","type":"text","enable_detail":true,"related":{"url":"https://truyenx.link/truyensextv/channels/related/3728","request_headers":[]},"share":{"url":"https://truyenx.link/truyensextv/channels/share/dau-long"},"remote_data":{"url":"https://truyenx.link/truyensextv/channels/dau-long"}},{"id":"3727-channel","name":"Đạo đức","description":"Đứa bé lẫm chẫm trên bãi cỏ rồi ngã sóng soài, người thiếu phụ trẻ lật đật bế nó vào lòng, bàn tay tí hon của nó sờ soạng và túm chặt lấy ngực mẹ làm cho nàng đỏ mặt...","image":null,"label":null,"display":"text-only","type":"text","enable_detail":true,"related":{"url":"https://truyenx.link/truyensextv/channels/related/3727","request_headers":[]},"share":{"url":"https://truyenx.link/truyensextv/channels/share/dao-duc"},"remote_data":{"url":"https://truyenx.link/truyensextv/channels/dao-duc"}},{"id":"3726-channel","name":"Đắc Đen","description":"Những người trong khu chung cư thở phào nhẹ nhõm khi hay tin hắn đã bỏ đi. Mọi người đều tránh xa hắn như tránh xa hủi, vì sợ bị vạ lây nếu như quen biết với hắn. Cũng tại...","image":null,"label":null,"display":"text-only","type":"text","enable_detail":true,"related":{"url":"https://truyenx.link/truyensextv/channels/related/3726","request_headers":[]},"share":{"url":"https://truyenx.link/truyensextv/channels/share/dac-den"},"remote_data":{"url":"https://truyenx.link/truyensextv/channels/dac-den"}},{"id":"3725-channel","name":"Mẹ và chị loạn dâm","description":"Trong tâm trạng chán nản vì được điểm bốn cái môn toán khó nhằn, tôi bực dọc trở về nhà, lên phòng đóng cửa lại nằm thừ ra ghế. Bố tôi là một sĩ quan tàu viễn dương nên...","image":null,"label":null,"display":"text-only","type":"text","enable_detail":true,"related":{"url":"https://truyenx.link/truyensextv/channels/related/3725","request_headers":[]},"share":{"url":"https://truyenx.link/truyensextv/channels/share/me-va-chi-loan-dam"},"remote_data":{"url":"https://truyenx.link/truyensextv/channels/me-va-chi-loan-dam"}},{"id":"3724-channel","name":"Cuồng loạn","description":"Đi chơi đĩ đi Vũ. Tao còn 10 đồng làm sao đủ. Đưa tao chơi trước, về Sài Gòn mày chơi bù. Vũ móc tiền đưa cho Nghĩa. Nghiêm mặt cảnh cáo: Không đủ thì thôi, cấm chơi chạy. Tao...","image":null,"label":null,"display":"text-only","type":"text","enable_detail":true,"related":{"url":"https://truyenx.link/truyensextv/channels/related/3724","request_headers":[]},"share":{"url":"https://truyenx.link/truyensextv/channels/share/cuong-loan"},"remote_data":{"url":"https://truyenx.link/truyensextv/channels/cuong-loan"}},{"id":"3723-channel","name":"Địt em gái Trúc Phương","description":"Chào mọi người tôi là 1 người anh trai trong 1 gia đình 4 người và tôi có một người em gái là Trúc Phương đến từ một gia đình khá giả, 4 thành viên, sống ở quận 1 thành phố...","image":null,"label":null,"display":"text-only","type":"text","enable_detail":true,"related":{"url":"https://truyenx.link/truyensextv/channels/related/3723","request_headers":[]},"share":{"url":"https://truyenx.link/truyensextv/channels/share/dit-em-gai-truc-phuong"},"remote_data":{"url":"https://truyenx.link/truyensextv/channels/dit-em-gai-truc-phuong"}},{"id":"3722-channel","name":"Cơn lũ","description":"Dậy! Dậy! Xasa dậy mau! Vừa nói Ivan vừa lay lay đứa em gái của mình, đó là hai anh em mồ côi cha mẹ từ bé, sống với nhau ở một làng hẻo lánh xa thủ đô. Con bé Xasa mở mắt...","image":null,"label":null,"display":"text-only","type":"text","enable_detail":true,"related":{"url":"https://truyenx.link/truyensextv/channels/related/3722","request_headers":[]},"share":{"url":"https://truyenx.link/truyensextv/channels/share/con-lu"},"remote_data":{"url":"https://truyenx.link/truyensextv/channels/con-lu"}},{"id":"3721-channel","name":"Cô nữ sinh ngây thơ","description":"Phương năm nay bước vào tuổi 16 và bắt đầu lên học cấp 3, trường Nguyễn Thị Minh Khai, cấp học cuối cùng của phổ thông. Vào độ tuổi rực rỡ nhất của người con gái nên...","image":null,"label":null,"display":"text-only","type":"text","enable_detail":true,"related":{"url":"https://truyenx.link/truyensextv/channels/related/3721","request_headers":[]},"share":{"url":"https://truyenx.link/truyensextv/channels/share/co-nu-sinh-ngay-tho"},"remote_data":{"url":"https://truyenx.link/truyensextv/channels/co-nu-sinh-ngay-tho"}},{"id":"3720-channel","name":"Con Loan","description":"Nhỏ Loan hồi đó mới mười một, mười hai tuổi, nhà ở ngay bên nhà thờ một xóm đạo gần Biên Hòa. Mẹ mất sớm, nhà chỉ có hai bố con. Bố nó lái xe cá mập chở khách du lịch...","image":null,"label":null,"display":"text-only","type":"text","enable_detail":true,"related":{"url":"https://truyenx.link/truyensextv/channels/related/3720","request_headers":[]},"share":{"url":"https://truyenx.link/truyensextv/channels/share/con-loan"},"remote_data":{"url":"https://truyenx.link/truyensextv/channels/con-loan"}},{"id":"3719-channel","name":"Cô giáo Quỳnh Thư","description":"Ê! Thằng kia đọc truyện gì mà say sưa dữ vậy mày? Tôi hỏi thằng Luân, thằng lớp phó học tập ngồi cùng bàn với tôi. Ê mày... đừng la lớn nha... để cho tao nghiên cứu! Tân nói...","image":null,"label":null,"display":"text-only","type":"text","enable_detail":true,"related":{"url":"https://truyenx.link/truyensextv/channels/related/3719","request_headers":[]},"share":{"url":"https://truyenx.link/truyensextv/channels/share/co-giao-quynh-thu"},"remote_data":{"url":"https://truyenx.link/truyensextv/channels/co-giao-quynh-thu"}},{"id":"3718-channel","name":"Con chồng con vợ","description":"Lời tác giả: Đây là câu chuyện xảy ra trong một gia đình người Mỹ trung lưu, gồm có 4 người: Người chồng với đứa con trai riêng tục huyền với người vợ có đứa con gái...","image":null,"label":null,"display":"text-only","type":"text","enable_detail":true,"related":{"url":"https://truyenx.link/truyensextv/channels/related/3718","request_headers":[]},"share":{"url":"https://truyenx.link/truyensextv/channels/share/con-chong-con-vo"},"remote_data":{"url":"https://truyenx.link/truyensextv/channels/con-chong-con-vo"}},{"id":"3717-channel","name":"Cô gái láng giềng","description":"Nữa khuya đang ngủ ngon giấc, Thu Hạnh giật mình, vì có bàn tay nào sờ vào chân mình. Cảm giác kinh hải len nhanh vào trong trí óc, mơ hồ, khuấy động. Bàn tay xoa xoa nhè nhẹ trên bắp...","image":null,"label":null,"display":"text-only","type":"text","enable_detail":true,"related":{"url":"https://truyenx.link/truyensextv/channels/related/3717","request_headers":[]},"share":{"url":"https://truyenx.link/truyensextv/channels/share/co-gai-lang-gieng"},"remote_data":{"url":"https://truyenx.link/truyensextv/channels/co-gai-lang-gieng"}},{"id":"3716-channel","name":"Mẹ và chị của thằng bạn thân","description":"Tôi và Thắng là hai đứa học cùng lớp và rất thân với nhau. Hai đứa chúng tôi đều bình thường về sức học nhưng hai đứa đều khá đẹp trai và là con nhà giàu. Thắng cao 1m75 và...","image":null,"label":null,"display":"text-only","type":"text","enable_detail":true,"related":{"url":"https://truyenx.link/truyensextv/channels/related/3716","request_headers":[]},"share":{"url":"https://truyenx.link/truyensextv/channels/share/me-va-chi-cua-thang-ban-than"},"remote_data":{"url":"https://truyenx.link/truyensextv/channels/me-va-chi-cua-thang-ban-than"}},{"id":"3715-channel","name":"Cô bé lọ lem","description":"Ngày xửa ngày xưa, ở một vương quốc nọ có một gia đình công tước Hamilton sống rất hạnh phúc. Công tước có một người vợ đẹp tuyệt trần tên là Laura. Sau một năm chung sống...","image":null,"label":null,"display":"text-only","type":"text","enable_detail":true,"related":{"url":"https://truyenx.link/truyensextv/channels/related/3715","request_headers":[]},"share":{"url":"https://truyenx.link/truyensextv/channels/share/co-be-lo-lem"},"remote_data":{"url":"https://truyenx.link/truyensextv/channels/co-be-lo-lem"}},{"id":"3714-channel","name":"Lối đi nào cho em","description":"Nơi tôi ở, chính xác là một vùng quê trồng toàn vải. Những gốc vài chục năm tuổi xòe bóng mát khắp vườn đồi. Tôi là Khánh, một thanh niên cường tráng. Nói chung là do làm nông...","image":null,"label":null,"display":"text-only","type":"text","enable_detail":true,"related":{"url":"https://truyenx.link/truyensextv/channels/related/3714","request_headers":[]},"share":{"url":"https://truyenx.link/truyensextv/channels/share/loi-di-nao-cho-em"},"remote_data":{"url":"https://truyenx.link/truyensextv/channels/loi-di-nao-cho-em"}},{"id":"3713-channel","name":"Bé Vy","description":"Vy nó mới 15 thôi mà. Mày không hiểu được đâu... Bé Vy, Nguyễn Ngọc Vy, dáng người tầm 1m65 cũng tính là đủ cao, nhưng mà múp! Múp lắm. Để mà nói thì, nhìn dáng em như muốn nổ...","image":null,"label":null,"display":"text-only","type":"text","enable_detail":true,"related":{"url":"https://truyenx.link/truyensextv/channels/related/3713","request_headers":[]},"share":{"url":"https://truyenx.link/truyensextv/channels/share/be-vy"},"remote_data":{"url":"https://truyenx.link/truyensextv/channels/be-vy"}},{"id":"3712-channel","name":"Gái dâm","description":"Tôi là Huy và bạn gái tôi là Na. Chúng tôi đã hẹn hò được 2 năm rồi. Duy trì được mối quan hệ lâu như vậy cũng là nhờ chúng tôi hợp chuyện giường chiếu. Và cũng chính nhờ...","image":null,"label":null,"display":"text-only","type":"text","enable_detail":true,"related":{"url":"https://truyenx.link/truyensextv/channels/related/3712","request_headers":[]},"share":{"url":"https://truyenx.link/truyensextv/channels/share/gai-dam"},"remote_data":{"url":"https://truyenx.link/truyensextv/channels/gai-dam"}},{"id":"3711-channel","name":"Chuyện phim","description":"Bà Trang thức dậy nữa khuya, mồ hôi toát ra, sự sướng ngất cực điểm trong giấc mơ, làm âm hộ bà nhớt ra ướt đẫm. Trong đời bà chưa bao giờ bà thấy như thế. Bên cạnh ông...","image":null,"label":null,"display":"text-only","type":"text","enable_detail":true,"related":{"url":"https://truyenx.link/truyensextv/channels/related/3711","request_headers":[]},"share":{"url":"https://truyenx.link/truyensextv/channels/share/chuyen-phim"},"remote_data":{"url":"https://truyenx.link/truyensextv/channels/chuyen-phim"}},{"id":"3710-channel","name":"Chuyến đi thay đổi","description":"Mùa hè qua tôi và vợ tôi quyết định lấy vacation ở một đảo nhỏ thuộc quần đảo Caribbean. Tụi tôi đem theo cô em vợ, gọi là quà tốt nghiệp high school. Tưởng cũng nên kể thêm...","image":null,"label":null,"display":"text-only","type":"text","enable_detail":true,"related":{"url":"https://truyenx.link/truyensextv/channels/related/3710","request_headers":[]},"share":{"url":"https://truyenx.link/truyensextv/channels/share/chuyen-di-thay-doi"},"remote_data":{"url":"https://truyenx.link/truyensextv/channels/chuyen-di-thay-doi"}},{"id":"3709-channel","name":"Chuyện bạn tôi","description":"Hôm nay Nguyên An đóng vai một người bạn rất may mắn trong cuộc đời, may mắn hơn cả An. Chúng tôi giống nhau ở điểm cùng được làm tình với chị vợ và chị dâu, nhưng bạn tôi...","image":null,"label":null,"display":"text-only","type":"text","enable_detail":true,"related":{"url":"https://truyenx.link/truyensextv/channels/related/3709","request_headers":[]},"share":{"url":"https://truyenx.link/truyensextv/channels/share/chuyen-ban-toi"},"remote_data":{"url":"https://truyenx.link/truyensextv/channels/chuyen-ban-toi"}},{"id":"3708-channel","name":"Chị vợ làm nail","description":"Đời sống ở Mỹ có những cái khác ở bên nhà, có những cái khác khó chịu vì lạ nước lạ cái, nhưng cũng có những cái khác thích thú, như chuyện thằng tôi với bà chị vợ. Khi...","image":null,"label":null,"display":"text-only","type":"text","enable_detail":true,"related":{"url":"https://truyenx.link/truyensextv/channels/related/3708","request_headers":[]},"share":{"url":"https://truyenx.link/truyensextv/channels/share/chi-vo-lam-nail"},"remote_data":{"url":"https://truyenx.link/truyensextv/channels/chi-vo-lam-nail"}},{"id":"3707-channel","name":"Chị tôi, em tôi và tôi","description":"Tôi đã 29 tuổi, Ở Mỹ gần 10 năm. Thật là chán quá đi thôi. Gái thiếu trai thừa. Tôi không thể nào tìm ra một con vợ. Lúc khí tồn tại não thì tôi đi chơi gái Mỹ. Lồn mấy con...","image":null,"label":null,"display":"text-only","type":"text","enable_detail":true,"related":{"url":"https://truyenx.link/truyensextv/channels/related/3707","request_headers":[]},"share":{"url":"https://truyenx.link/truyensextv/channels/share/chi-toi-em-toi-va-toi"},"remote_data":{"url":"https://truyenx.link/truyensextv/channels/chi-toi-em-toi-va-toi"}},{"id":"3706-channel","name":"Chị Lan","description":"Lan lấy chồng lúc 25 tuổi, đến 29 thì có một đứa con trai hai tuổi. Nàng rất trẻ trung vui tính, chồng nàng hiền lành, nên tất cả bạn bè thương mến. Chồng nàng đi làm ca đêm...","image":null,"label":null,"display":"text-only","type":"text","enable_detail":true,"related":{"url":"https://truyenx.link/truyensextv/channels/related/3706","request_headers":[]},"share":{"url":"https://truyenx.link/truyensextv/channels/share/chi-lan"},"remote_data":{"url":"https://truyenx.link/truyensextv/channels/chi-lan"}},{"id":"3705-channel","name":"Kẻ cắp","description":"“Ôi, mình lại bị điểm kém, về nhà thế nào mẹ cũng mắng mình đây” vừa đi tôi vừa lo nghĩ về chuyện làm thế nào để nói chuyện học hành cho mẹ biết, càng nghĩ càng...","image":null,"label":null,"display":"text-only","type":"text","enable_detail":true,"related":{"url":"https://truyenx.link/truyensextv/channels/related/3705","request_headers":[]},"share":{"url":"https://truyenx.link/truyensextv/channels/share/ke-cap"},"remote_data":{"url":"https://truyenx.link/truyensextv/channels/ke-cap"}},{"id":"3704-channel","name":"Cháu Hoa","description":"Từ hôm đi dự đám cưới đứa cháu ở Houston về đến nay, tôi cảm thấy khi thì khó chịu khi thì tiếc rẻ mỗi khi ngồi nghĩ lại cuối tuần đặc biệt đó. Gia đình từ xa đến dự...","image":null,"label":null,"display":"text-only","type":"text","enable_detail":true,"related":{"url":"https://truyenx.link/truyensextv/channels/related/3704","request_headers":[]},"share":{"url":"https://truyenx.link/truyensextv/channels/share/chau-hoa"},"remote_data":{"url":"https://truyenx.link/truyensextv/channels/chau-hoa"}},{"id":"3703-channel","name":"Cắm trại","description":"Một ngày tháng tư mát mẻ hơn 1300 thước cao trên núi Laguna bên ngoài San Diego, nam Cali. Gã dẫn đứa con gái riêng của vợ là Nga, 17 tuổi cùng bạn trai của nó là Hùng đi cắm trại qua...","image":null,"label":null,"display":"text-only","type":"text","enable_detail":true,"related":{"url":"https://truyenx.link/truyensextv/channels/related/3703","request_headers":[]},"share":{"url":"https://truyenx.link/truyensextv/channels/share/cam-trai"},"remote_data":{"url":"https://truyenx.link/truyensextv/channels/cam-trai"}},{"id":"3702-channel","name":"Hối hận muộn màng","description":"Tôi với Hoàng chơi với nhau rất thân. Từ hồi để chỏm hai đứa đã chơi cùng nhau rồi. Hoàng khá là láu cá và tinh nghịch, những trò đùa của Hoàng thường chẳng giống ai cả...","image":null,"label":null,"display":"text-only","type":"text","enable_detail":true,"related":{"url":"https://truyenx.link/truyensextv/channels/related/3702","request_headers":[]},"share":{"url":"https://truyenx.link/truyensextv/channels/share/hoi-han-muon-mang"},"remote_data":{"url":"https://truyenx.link/truyensextv/channels/hoi-han-muon-mang"}},{"id":"3701-channel","name":"Cả nhà cùng yêu thương nhau","description":"Tối chủ nhật, trời trong, trăng sáng, gió mát. Vừa tắm táp xong, Tuấn để nguyên thân thể trần truồng như thế bước vào phòng mình. Cậu đứng trước gương ngắm nghía, xuýt xoa...","image":null,"label":null,"display":"text-only","type":"text","enable_detail":true,"related":{"url":"https://truyenx.link/truyensextv/channels/related/3701","request_headers":[]},"share":{"url":"https://truyenx.link/truyensextv/channels/share/ca-nha-cung-yeu-thuong-nhau"},"remote_data":{"url":"https://truyenx.link/truyensextv/channels/ca-nha-cung-yeu-thuong-nhau"}}],"load_more":{"pageInfo":{"current_page":36,"last_page":140,"per_page":30,"total":4188},"paging":{"page_key":"page","size_key":"size"},"remote_data":{"url":"https://truyenx.link/truyensextv/channels"}}}