{
  "grid_number": 1,
  "channels": [
    {
      "id": "2065-channel",
      "name": "Nhật ký bị gái “cưa” đổ",
      "description": "Trước khi kể chuyện, em có vài lời muốn nói, đây là chuyện có thật của em. Chuyện về 1 người con gái là người chủ động đã cưa đổ em như thế nào. Các bác có quyền không tin...",
      "image": null,
      "label": null,
      "display": "text-only",
      "type": "text",
      "enable_detail": true,
      "related": {
        "url": "https://truyenx.link/truyensextv/channels/related/2065",
        "request_headers": []
      },
      "share": {
        "url": "https://truyenx.link/truyensextv/channels/share/nhat-ky-bi-gai-cua-do"
      },
      "remote_data": {
        "url": "https://truyenx.link/truyensextv/channels/nhat-ky-bi-gai-cua-do"
      }
    },
    {
      "id": "2064-channel",
      "name": "Lớp trưởng",
      "description": "Nhỏ lớp trưởng lớp tôi cũng khá xinh nhưng vì chảnh nên trong lớp chẳng ai cưa được và trong đó cũng có tôi. Lý do nhỏ từ chối tôi là vì tôi nghèo và xấu nên tôi luôn ôm cục...",
      "image": null,
      "label": null,
      "display": "text-only",
      "type": "text",
      "enable_detail": true,
      "related": {
        "url": "https://truyenx.link/truyensextv/channels/related/2064",
        "request_headers": []
      },
      "share": {
        "url": "https://truyenx.link/truyensextv/channels/share/lop-truong"
      },
      "remote_data": {
        "url": "https://truyenx.link/truyensextv/channels/lop-truong"
      }
    },
    {
      "id": "2063-channel",
      "name": "Thầy giáo dâm đãng và cô nữ sinh vú to",
      "description": "Hiền là một cô gái xinh đẹp và thân hình đầy đặn, vòng một căng tròn lúc nào cũng đầy sức sống. Có lẽ vì thế mà tính cô nàng cũng khá là dâm, hay khoe những nơi trên cơ thể...",
      "image": null,
      "label": null,
      "display": "text-only",
      "type": "text",
      "enable_detail": true,
      "related": {
        "url": "https://truyenx.link/truyensextv/channels/related/2063",
        "request_headers": []
      },
      "share": {
        "url": "https://truyenx.link/truyensextv/channels/share/thay-giao-dam-dang-va-co-nu-sinh-vu-to"
      },
      "remote_data": {
        "url": "https://truyenx.link/truyensextv/channels/thay-giao-dam-dang-va-co-nu-sinh-vu-to"
      }
    },
    {
      "id": "2062-channel",
      "name": "Cực phẩm loạn luân",
      "description": "Tôi sinh ra ở một vùng quê miền núi phía bắc đang có những bước phát triển lớn về mặt kinh tế. Ba tôi là giám đốc của một Công ty liên doanh với nước ngoài, do đó công việc...",
      "image": null,
      "label": null,
      "display": "text-only",
      "type": "text",
      "enable_detail": true,
      "related": {
        "url": "https://truyenx.link/truyensextv/channels/related/2062",
        "request_headers": []
      },
      "share": {
        "url": "https://truyenx.link/truyensextv/channels/share/cuc-pham-loan-luan"
      },
      "remote_data": {
        "url": "https://truyenx.link/truyensextv/channels/cuc-pham-loan-luan"
      }
    },
    {
      "id": "2061-channel",
      "name": "Những người con gái tôi không thể quên",
      "description": "Tôi sinh ra ở vùng quê nghèo Nho Quan Ninh Bình, thuộc thế hệ 7x. Đến năm 6 tuổi thì ba mẹ chuyển ra thị xã Ninh Bình ở . Mọi chuyện hồi nhỏ không có gì đáng kể, ba mẹ tôi chỉ...",
      "image": null,
      "label": null,
      "display": "text-only",
      "type": "text",
      "enable_detail": true,
      "related": {
        "url": "https://truyenx.link/truyensextv/channels/related/2061",
        "request_headers": []
      },
      "share": {
        "url": "https://truyenx.link/truyensextv/channels/share/nhung-nguoi-con-gai-toi-khong-the-quen"
      },
      "remote_data": {
        "url": "https://truyenx.link/truyensextv/channels/nhung-nguoi-con-gai-toi-khong-the-quen"
      }
    },
    {
      "id": "2060-channel",
      "name": "Loạn luân cùng mẹ",
      "description": "Xin chào, tôi tên là Tuấn năm nay đã gần 20 tuổi. Được sinh gia trong 1 gia đình bề thế quan hệ rộng! Bố tôi là 1 ông chủ của nhiều cửa hàng đồ gỗ lớn, vì là 1 người có tầm...",
      "image": null,
      "label": null,
      "display": "text-only",
      "type": "text",
      "enable_detail": true,
      "related": {
        "url": "https://truyenx.link/truyensextv/channels/related/2060",
        "request_headers": []
      },
      "share": {
        "url": "https://truyenx.link/truyensextv/channels/share/loan-luan-cung-me"
      },
      "remote_data": {
        "url": "https://truyenx.link/truyensextv/channels/loan-luan-cung-me"
      }
    },
    {
      "id": "2059-channel",
      "name": "Lấy vợ người Hải Phòng",
      "description": "Chỉ nghĩ đến vợ tao thôi mà nước đái cũng đầm đìa cả hai lớp quần. Tao sinh ra và lớn lên ở Hà Nội. Thế hệ cuối 7x. Sống luôn ở phố Aladanh và cây xi lanh. Nói đến đây...",
      "image": null,
      "label": null,
      "display": "text-only",
      "type": "text",
      "enable_detail": true,
      "related": {
        "url": "https://truyenx.link/truyensextv/channels/related/2059",
        "request_headers": []
      },
      "share": {
        "url": "https://truyenx.link/truyensextv/channels/share/lay-vo-nguoi-hai-phong"
      },
      "remote_data": {
        "url": "https://truyenx.link/truyensextv/channels/lay-vo-nguoi-hai-phong"
      }
    },
    {
      "id": "2058-channel",
      "name": "Phá trinh lớp trưởng",
      "description": "Mình xin phép được bỏ qua phần giới thiệu các kiểu nhé, mình xin vào thẳng câu chuyện luôn, hồi đó mình đang học cấp 2 chính xác là lớp 7, mình chuyển vào cái lớp đó, vừa vào...",
      "image": null,
      "label": null,
      "display": "text-only",
      "type": "text",
      "enable_detail": true,
      "related": {
        "url": "https://truyenx.link/truyensextv/channels/related/2058",
        "request_headers": []
      },
      "share": {
        "url": "https://truyenx.link/truyensextv/channels/share/pha-trinh-lop-truong"
      },
      "remote_data": {
        "url": "https://truyenx.link/truyensextv/channels/pha-trinh-lop-truong"
      }
    },
    {
      "id": "2057-channel",
      "name": "Hành trình chinh phục những nữ giáo viên xinh đẹp",
      "description": "Tác giả: Hắc Gia Thời học sinh có nhiều điều để nhớ, đa số những kỷ niệm của mỗi người về thời học sinh đều rất đẹp nhưng vẫn có những câu chuyện rất khác mang phong...",
      "image": null,
      "label": null,
      "display": "text-only",
      "type": "text",
      "enable_detail": true,
      "related": {
        "url": "https://truyenx.link/truyensextv/channels/related/2057",
        "request_headers": []
      },
      "share": {
        "url": "https://truyenx.link/truyensextv/channels/share/hanh-trinh-chinh-phuc-nhung-nu-giao-vien-xinh-dep"
      },
      "remote_data": {
        "url": "https://truyenx.link/truyensextv/channels/hanh-trinh-chinh-phuc-nhung-nu-giao-vien-xinh-dep"
      }
    },
    {
      "id": "2056-channel",
      "name": "Chị chủ nhà",
      "description": "Alo... Chị đang làm gì thế? Chị đang ở ngoài cửa hàng. Em thì sao? Mai em đi Thanh Hóa công tác vài ngày. Tối nấu cơm em nhá. Vậy à? Em đi đến đâu rồi? Em vừa mới rời công ty...",
      "image": null,
      "label": null,
      "display": "text-only",
      "type": "text",
      "enable_detail": true,
      "related": {
        "url": "https://truyenx.link/truyensextv/channels/related/2056",
        "request_headers": []
      },
      "share": {
        "url": "https://truyenx.link/truyensextv/channels/share/chi-chu-nha"
      },
      "remote_data": {
        "url": "https://truyenx.link/truyensextv/channels/chi-chu-nha"
      }
    },
    {
      "id": "2055-channel",
      "name": "Một lần thử với da đen",
      "description": "Hôm đó em có công chuyện phải đi lên quận 12 mà em chưa quen đường trên đó nên định đi xe bus cho biết luôn vì trước giờ em hình như chưa đi xe bus lần nào, em nghe mấy đứa bạn...",
      "image": null,
      "label": null,
      "display": "text-only",
      "type": "text",
      "enable_detail": true,
      "related": {
        "url": "https://truyenx.link/truyensextv/channels/related/2055",
        "request_headers": []
      },
      "share": {
        "url": "https://truyenx.link/truyensextv/channels/share/mot-lan-thu-voi-da-den"
      },
      "remote_data": {
        "url": "https://truyenx.link/truyensextv/channels/mot-lan-thu-voi-da-den"
      }
    },
    {
      "id": "2053-channel",
      "name": "Bác chủ nhà",
      "description": "Trông căn biệt thự căn biệt thự 2 tầng ngồi trong phòng khách là ông Khải ông đang cơm trưa, nói là cơm trưa cho sang thực ra chỉ là cơm hộp mua ở ngoài đầu đường, vì ông sống...",
      "image": null,
      "label": null,
      "display": "text-only",
      "type": "text",
      "enable_detail": true,
      "related": {
        "url": "https://truyenx.link/truyensextv/channels/related/2053",
        "request_headers": []
      },
      "share": {
        "url": "https://truyenx.link/truyensextv/channels/share/bac-chu-nha"
      },
      "remote_data": {
        "url": "https://truyenx.link/truyensextv/channels/bac-chu-nha"
      }
    },
    {
      "id": "2054-channel",
      "name": "Mợ Hiền",
      "description": "Gia đình bên ngoại nhà tôi có 4 người, mẹ tôi là chị cả, sau mẹ tôi là có ba người anh em. Cậu hai của tôi lấy một người mợ tên là Hiền, sinh ra một người con trai. Mợ Hiền...",
      "image": null,
      "label": null,
      "display": "text-only",
      "type": "text",
      "enable_detail": true,
      "related": {
        "url": "https://truyenx.link/truyensextv/channels/related/2054",
        "request_headers": []
      },
      "share": {
        "url": "https://truyenx.link/truyensextv/channels/share/mo-hien"
      },
      "remote_data": {
        "url": "https://truyenx.link/truyensextv/channels/mo-hien"
      }
    },
    {
      "id": "2052-channel",
      "name": "Bí mật của mẹ tôi",
      "description": "Gia đình tôi là một gia đình bình thường ở một xã nghèo, cũng có thể nói là gia đình khá giả so với mọi người xung quanh. Ba tôi là kỹ sư, ông mở một tiệm sửa chữa, bán đồ...",
      "image": null,
      "label": null,
      "display": "text-only",
      "type": "text",
      "enable_detail": true,
      "related": {
        "url": "https://truyenx.link/truyensextv/channels/related/2052",
        "request_headers": []
      },
      "share": {
        "url": "https://truyenx.link/truyensextv/channels/share/bi-mat-cua-me-toi"
      },
      "remote_data": {
        "url": "https://truyenx.link/truyensextv/channels/bi-mat-cua-me-toi"
      }
    },
    {
      "id": "2051-channel",
      "name": "Dì tôi",
      "description": "Tôi sinh ra ở một thành phố nhỏ ở phía Bắc, mặc dù tôi cũng ở thành phố từ nhỏ. Dì tôi tên là Hoa một cô gái rất đẹp và hiền lành. Lúc đó tôi mới học năm 2 thì dì làm...",
      "image": null,
      "label": null,
      "display": "text-only",
      "type": "text",
      "enable_detail": true,
      "related": {
        "url": "https://truyenx.link/truyensextv/channels/related/2051",
        "request_headers": []
      },
      "share": {
        "url": "https://truyenx.link/truyensextv/channels/share/di-toi"
      },
      "remote_data": {
        "url": "https://truyenx.link/truyensextv/channels/di-toi"
      }
    },
    {
      "id": "2050-channel",
      "name": "Cô nhân viên ngân hàng",
      "description": "Hai vợ chồng Khánh Long và Như Quỳnh yêu nhau từ thời sinh viên. Sau khi ra trường có việc làm, họ tổ chức đám cưới, Như Quỳnh làm giao dịch viên tại một ngân hàng. Khánh Long làm...",
      "image": null,
      "label": null,
      "display": "text-only",
      "type": "text",
      "enable_detail": true,
      "related": {
        "url": "https://truyenx.link/truyensextv/channels/related/2050",
        "request_headers": []
      },
      "share": {
        "url": "https://truyenx.link/truyensextv/channels/share/co-nhan-vien-ngan-hang"
      },
      "remote_data": {
        "url": "https://truyenx.link/truyensextv/channels/co-nhan-vien-ngan-hang"
      }
    },
    {
      "id": "2049-channel",
      "name": "Nỗi niềm oan của em",
      "description": "Thấm thoát mà tụi em cũng cưới nhau gần 3 năm rồi, về bên gia đình chồng cũng không có gì quá ghê gớm đáng sợ như em từng tưởng tượng ra, ba mẹ chồng cũng đối xử với em...",
      "image": null,
      "label": null,
      "display": "text-only",
      "type": "text",
      "enable_detail": true,
      "related": {
        "url": "https://truyenx.link/truyensextv/channels/related/2049",
        "request_headers": []
      },
      "share": {
        "url": "https://truyenx.link/truyensextv/channels/share/noi-niem-oan-cua-em"
      },
      "remote_data": {
        "url": "https://truyenx.link/truyensextv/channels/noi-niem-oan-cua-em"
      }
    },
    {
      "id": "2048-channel",
      "name": "Tết xưa",
      "description": "Tết xưa tôi ưng lắm, bắt đầu từ ông công táo là không khí lắm, nhà nào cũng mua lá dong, đem ra giếng rửa, khu nhà tôi có 1 cái giếng chung, bờ giếng nứt nẻ luôn rỉ nước vàng...",
      "image": null,
      "label": null,
      "display": "text-only",
      "type": "text",
      "enable_detail": true,
      "related": {
        "url": "https://truyenx.link/truyensextv/channels/related/2048",
        "request_headers": []
      },
      "share": {
        "url": "https://truyenx.link/truyensextv/channels/share/tet-xua"
      },
      "remote_data": {
        "url": "https://truyenx.link/truyensextv/channels/tet-xua"
      }
    },
    {
      "id": "2047-channel",
      "name": "Cháu ơi! Anh yêu em",
      "description": "Tôi gặp em khi cả hai vừa đặt chân vào ngưỡng cửa đại học. Tôi học bên ngành kỹ thuật còn em lại học bên ngành hành hành chính. Lần đầu gặp em tôi đã bị thu hút bởi vẻ...",
      "image": null,
      "label": null,
      "display": "text-only",
      "type": "text",
      "enable_detail": true,
      "related": {
        "url": "https://truyenx.link/truyensextv/channels/related/2047",
        "request_headers": []
      },
      "share": {
        "url": "https://truyenx.link/truyensextv/channels/share/chau-oi-anh-yeu-em"
      },
      "remote_data": {
        "url": "https://truyenx.link/truyensextv/channels/chau-oi-anh-yeu-em"
      }
    },
    {
      "id": "2046-channel",
      "name": "Ngân",
      "description": "Nó tên Hiếu, sinh năm 1994. Nó sinh ra và lớn lên trong một gia đình bình thường nếu không muốn nói là nghèo hơn so với chúng bạn cùng tuổi. Tuổi thơ của nó thiếu thốn về mọi...",
      "image": null,
      "label": null,
      "display": "text-only",
      "type": "text",
      "enable_detail": true,
      "related": {
        "url": "https://truyenx.link/truyensextv/channels/related/2046",
        "request_headers": []
      },
      "share": {
        "url": "https://truyenx.link/truyensextv/channels/share/ngan"
      },
      "remote_data": {
        "url": "https://truyenx.link/truyensextv/channels/ngan"
      }
    },
    {
      "id": "2045-channel",
      "name": "Lạc lõng",
      "description": "Ro... ro... ro... tiếng quạt máy vẫn quay đều đều theo không gian yên ắng của căn phòng... Ngả lưng mình xuống cái giường thân thuộc, vậy là... 1 năm cô đơn rồi nhỉ, đúng một...",
      "image": null,
      "label": null,
      "display": "text-only",
      "type": "text",
      "enable_detail": true,
      "related": {
        "url": "https://truyenx.link/truyensextv/channels/related/2045",
        "request_headers": []
      },
      "share": {
        "url": "https://truyenx.link/truyensextv/channels/share/lac-long"
      },
      "remote_data": {
        "url": "https://truyenx.link/truyensextv/channels/lac-long"
      }
    },
    {
      "id": "2044-channel",
      "name": "Chuyện làm dâu xứ người của Thanh Hà",
      "description": "Đám cưới Mùa Thu này, Hà sẽ làm đám cưới với Nick một chàng trai người Đức kém cô 3 tuổi. Hà đã 35 và có một con riêng với người chồng trước, nhưng cô còn rất mặn mà. Cô...",
      "image": null,
      "label": null,
      "display": "text-only",
      "type": "text",
      "enable_detail": true,
      "related": {
        "url": "https://truyenx.link/truyensextv/channels/related/2044",
        "request_headers": []
      },
      "share": {
        "url": "https://truyenx.link/truyensextv/channels/share/chuyen-lam-dau-xu-nguoi-cua-thanh-ha"
      },
      "remote_data": {
        "url": "https://truyenx.link/truyensextv/channels/chuyen-lam-dau-xu-nguoi-cua-thanh-ha"
      }
    },
    {
      "id": "2043-channel",
      "name": "Người chị họ dâm đãng",
      "description": "2015... Hà Nội, dưới cái hè nắng gắt tôi phải mở quạt với cái điều hòa. Tôi là Minh năm nay 16 tuổi, một thanh niên đang học lớp 10A. Và bây giờ là thời gian nghỉ hè của tôi...",
      "image": null,
      "label": null,
      "display": "text-only",
      "type": "text",
      "enable_detail": true,
      "related": {
        "url": "https://truyenx.link/truyensextv/channels/related/2043",
        "request_headers": []
      },
      "share": {
        "url": "https://truyenx.link/truyensextv/channels/share/nguoi-chi-ho-dam-dang"
      },
      "remote_data": {
        "url": "https://truyenx.link/truyensextv/channels/nguoi-chi-ho-dam-dang"
      }
    },
    {
      "id": "2042-channel",
      "name": "Giúp con đỗ đại học",
      "description": "Tôi là Ngọc Như, năm nay bước sang tuổi 40, cái độ tuổi của người phụ nữ mà trẻ thì không trẻ nhưng già thì chưa phải là già. Xuất thân ở miền Tây nên tôi lấy chồng và sinh...",
      "image": null,
      "label": null,
      "display": "text-only",
      "type": "text",
      "enable_detail": true,
      "related": {
        "url": "https://truyenx.link/truyensextv/channels/related/2042",
        "request_headers": []
      },
      "share": {
        "url": "https://truyenx.link/truyensextv/channels/share/giup-con-do-dai-hoc"
      },
      "remote_data": {
        "url": "https://truyenx.link/truyensextv/channels/giup-con-do-dai-hoc"
      }
    },
    {
      "id": "2041-channel",
      "name": "Chí tôn vô cực",
      "description": "Ta Là Ranger GR Krish Skypria World Hành tinh to gấp 1, 5 lần Trái Đất hiện tại. Bao trùm toàn bộ bề mặt là đại dương bao la rộng lớn chỉ toàn nước với nước. Còn phần đất liền...",
      "image": null,
      "label": null,
      "display": "text-only",
      "type": "text",
      "enable_detail": true,
      "related": {
        "url": "https://truyenx.link/truyensextv/channels/related/2041",
        "request_headers": []
      },
      "share": {
        "url": "https://truyenx.link/truyensextv/channels/share/chi-ton-vo-cuc"
      },
      "remote_data": {
        "url": "https://truyenx.link/truyensextv/channels/chi-ton-vo-cuc"
      }
    },
    {
      "id": "2040-channel",
      "name": "Cô láng giềng",
      "description": "Vào một buổi chiều muộn mùa hè. Tôi vừa đến nhà, đặt lưng xuống giường cho đỡ mỏi. Đang thiu thiu ngủ, bỗng có người cất tiếng gọi. Em ơi ở nhà không? Tôi ngước nhìn ra...",
      "image": null,
      "label": null,
      "display": "text-only",
      "type": "text",
      "enable_detail": true,
      "related": {
        "url": "https://truyenx.link/truyensextv/channels/related/2040",
        "request_headers": []
      },
      "share": {
        "url": "https://truyenx.link/truyensextv/channels/share/co-lang-gieng"
      },
      "remote_data": {
        "url": "https://truyenx.link/truyensextv/channels/co-lang-gieng"
      }
    },
    {
      "id": "2039-channel",
      "name": "Cô giáo Thùy",
      "description": "Thùy và Cường là vợ chồng. Cường hiện tại 24 tuổi, Thùy 22 tuổi, Cường làm nhân viên ngân hàng, Thùy thì làm giáo viên cấp 3, dạy sinh. Thùy và Cường quen nhau được 4 năm rồi...",
      "image": null,
      "label": null,
      "display": "text-only",
      "type": "text",
      "enable_detail": true,
      "related": {
        "url": "https://truyenx.link/truyensextv/channels/related/2039",
        "request_headers": []
      },
      "share": {
        "url": "https://truyenx.link/truyensextv/channels/share/co-giao-thuy"
      },
      "remote_data": {
        "url": "https://truyenx.link/truyensextv/channels/co-giao-thuy"
      }
    },
    {
      "id": "2038-channel",
      "name": "Lần nào cũng là lần cuối",
      "description": "Chào cả nhà! Hai đứa mình đến bây giờ thực sự là tình nhân. Hai con người lầm lỡ nhiều tổn thương trong cuộc đời và đã đến bên nhau. Chia sẻ nhau những nỗi buồn. Cho nhau...",
      "image": null,
      "label": null,
      "display": "text-only",
      "type": "text",
      "enable_detail": true,
      "related": {
        "url": "https://truyenx.link/truyensextv/channels/related/2038",
        "request_headers": []
      },
      "share": {
        "url": "https://truyenx.link/truyensextv/channels/share/lan-nao-cung-la-lan-cuoi"
      },
      "remote_data": {
        "url": "https://truyenx.link/truyensextv/channels/lan-nao-cung-la-lan-cuoi"
      }
    },
    {
      "id": "2037-channel",
      "name": "Nhỏ cùng công ty",
      "description": "Đầu bài em cũng muốn tâm sự chút về mình, đây cũng là lần đầu tiên viết truyện, em thì mới cưới vợ xong... mà câu chuyện này lại chả liên quan gì đến vợ em... Thôi bắt...",
      "image": null,
      "label": null,
      "display": "text-only",
      "type": "text",
      "enable_detail": true,
      "related": {
        "url": "https://truyenx.link/truyensextv/channels/related/2037",
        "request_headers": []
      },
      "share": {
        "url": "https://truyenx.link/truyensextv/channels/share/nho-cung-cong-ty"
      },
      "remote_data": {
        "url": "https://truyenx.link/truyensextv/channels/nho-cung-cong-ty"
      }
    },
    {
      "id": "2036-channel",
      "name": "Thằng cháu",
      "description": "“Reng reng... Reng reng... Reng reng...” Tiếng chuông báo thức ám ảnh của chiếc điện thoại làm nó uể oải với tay ra lấy rồi tắt đi ngủ tiếp. Minh ơi, dậy chưa? Xuống ăn...",
      "image": null,
      "label": null,
      "display": "text-only",
      "type": "text",
      "enable_detail": true,
      "related": {
        "url": "https://truyenx.link/truyensextv/channels/related/2036",
        "request_headers": []
      },
      "share": {
        "url": "https://truyenx.link/truyensextv/channels/share/thang-chau"
      },
      "remote_data": {
        "url": "https://truyenx.link/truyensextv/channels/thang-chau"
      }
    }
  ],
  "load_more": {
    "pageInfo": {
      "current_page": 23,
      "last_page": 140,
      "per_page": 30,
      "total": 4188
    },
    "paging": {
      "page_key": "page",
      "size_key": "size"
    },
    "remote_data": {
      "url": "https://truyenx.link/truyensextv/channels"
    }
  }
}