{
  "grid_number": 1,
  "channels": [
    {
      "id": "558-channel",
      "name": "Đụ chị gái quen qua Zalo",
      "description": "Câu chuyện cách đây 1 năm rưỡi về trước, quen chị trên zalo chị sinh năm 91, gái y và đang học liên thông thạc sĩ bên Đài Loan hay Hồng Kong gì ấy. Mình 94 bên Đông Anh còn chị Long...",
      "image": null,
      "label": null,
      "display": "text-only",
      "type": "text",
      "enable_detail": true,
      "related": {
        "url": "https://truyenx.link/truyensextv/channels/related/558",
        "request_headers": []
      },
      "share": {
        "url": "https://truyenx.link/truyensextv/channels/share/du-chi-gai-quen-qua-zalo"
      },
      "remote_data": {
        "url": "https://truyenx.link/truyensextv/channels/du-chi-gai-quen-qua-zalo"
      }
    },
    {
      "id": "557-channel",
      "name": "2 tiếng phá trinh",
      "description": "Quen em trong lần tình cờ dạo 1 phần mềm kết bạn và chuyển qua zalo thần thánh. Sự khởi đầu với những câu hỏi han về bản thân và có những câu đưa đẩy với nhau. Chúng tôi...",
      "image": null,
      "label": null,
      "display": "text-only",
      "type": "text",
      "enable_detail": true,
      "related": {
        "url": "https://truyenx.link/truyensextv/channels/related/557",
        "request_headers": []
      },
      "share": {
        "url": "https://truyenx.link/truyensextv/channels/share/2-tieng-pha-trinh"
      },
      "remote_data": {
        "url": "https://truyenx.link/truyensextv/channels/2-tieng-pha-trinh"
      }
    },
    {
      "id": "556-channel",
      "name": "Vợ kể truyện sex cho chồng nghe",
      "description": "11h30... Chuẩn bị đi ăn...",
      "image": null,
      "label": null,
      "display": "text-only",
      "type": "text",
      "enable_detail": true,
      "related": {
        "url": "https://truyenx.link/truyensextv/channels/related/556",
        "request_headers": []
      },
      "share": {
        "url": "https://truyenx.link/truyensextv/channels/share/vo-ke-truyen-sex-cho-chong-nghe"
      },
      "remote_data": {
        "url": "https://truyenx.link/truyensextv/channels/vo-ke-truyen-sex-cho-chong-nghe"
      }
    },
    {
      "id": "555-channel",
      "name": "Địt trước mặt chồng của bạn tình",
      "description": "Không biết các bác như thế nào, chứ em thì làm tình với bao em thì sướng nhất vẫn là làm tình với 1 bà chị tầm hơn 30 tuổi việt kiều new zealand quen qua beetalk. Lúc nhắn tin nói...",
      "image": null,
      "label": null,
      "display": "text-only",
      "type": "text",
      "enable_detail": true,
      "related": {
        "url": "https://truyenx.link/truyensextv/channels/related/555",
        "request_headers": []
      },
      "share": {
        "url": "https://truyenx.link/truyensextv/channels/share/dit-truoc-mat-chong-cua-ban-tinh"
      },
      "remote_data": {
        "url": "https://truyenx.link/truyensextv/channels/dit-truoc-mat-chong-cua-ban-tinh"
      }
    },
    {
      "id": "554-channel",
      "name": "Sói săn mồi - Quyển 1",
      "description": "Ở Sài Gòn, ai cũng biết đến gia tộc họ Trần, một gia tộc giàu có nhất nhì mảnh đất này. Chủ gia đình ông Trần Khải có 3 thằng con trai, lần lượt Trần Đình Tuấn, Trần Đình...",
      "image": null,
      "label": null,
      "display": "text-only",
      "type": "text",
      "enable_detail": true,
      "related": {
        "url": "https://truyenx.link/truyensextv/channels/related/554",
        "request_headers": []
      },
      "share": {
        "url": "https://truyenx.link/truyensextv/channels/share/soi-san-moi-quyen-1"
      },
      "remote_data": {
        "url": "https://truyenx.link/truyensextv/channels/soi-san-moi-quyen-1"
      }
    },
    {
      "id": "553-channel",
      "name": "Em cave 19 tuổi",
      "description": "Tôi, 1 người đàn ông trung niên đã có vợ con. Em, một cô gái làng chơi chỉ mới 19 tuổi tiếp khách cũng được 5-6 tháng. Chúng tôi bèo nước gặp nhau. Tôi không chơi bời nhiều. Có...",
      "image": null,
      "label": null,
      "display": "text-only",
      "type": "text",
      "enable_detail": true,
      "related": {
        "url": "https://truyenx.link/truyensextv/channels/related/553",
        "request_headers": []
      },
      "share": {
        "url": "https://truyenx.link/truyensextv/channels/share/em-cave-19-tuoi"
      },
      "remote_data": {
        "url": "https://truyenx.link/truyensextv/channels/em-cave-19-tuoi"
      }
    },
    {
      "id": "552-channel",
      "name": "Chiều thứ 5",
      "description": "Chiều thứ 5, em và tôi hẹn hò, em mặc chiếc quần sọt jeans bó sát trông thật hấp dẫn. Không bảo nhau nhưng hai người tự nhiên cảm hứng dâng trào, nơi nào cần đến không cần nói...",
      "image": null,
      "label": null,
      "display": "text-only",
      "type": "text",
      "enable_detail": true,
      "related": {
        "url": "https://truyenx.link/truyensextv/channels/related/552",
        "request_headers": []
      },
      "share": {
        "url": "https://truyenx.link/truyensextv/channels/share/chieu-thu-5"
      },
      "remote_data": {
        "url": "https://truyenx.link/truyensextv/channels/chieu-thu-5"
      }
    },
    {
      "id": "551-channel",
      "name": "Ngoại tình với cháu dâu",
      "description": "Một thời gian sau, lúc này con nó được hơn 1 tuổi. Thỉnh thoảng cháu dâu chạy sang xin tý mì chính cho vào bột, cháo cho con nó, nếu mình ở nhà, thì bảo nó tự vào mà lấy, vì mình...",
      "image": null,
      "label": null,
      "display": "text-only",
      "type": "text",
      "enable_detail": true,
      "related": {
        "url": "https://truyenx.link/truyensextv/channels/related/551",
        "request_headers": []
      },
      "share": {
        "url": "https://truyenx.link/truyensextv/channels/share/ngoai-tinh-voi-chau-dau"
      },
      "remote_data": {
        "url": "https://truyenx.link/truyensextv/channels/ngoai-tinh-voi-chau-dau"
      }
    },
    {
      "id": "550-channel",
      "name": "Chuyện bựa thời đi học",
      "description": "Lớp 3: Bắt đầu manh nha có máu kinh doanh. Đi xin lại mấy hình thủy thủ mặt trăng của anh hàng xóm bán lại cho mấy đứa cùng lớp. Không thì gập mấy hình quả bóng, con chim, bán...",
      "image": null,
      "label": null,
      "display": "text-only",
      "type": "text",
      "enable_detail": true,
      "related": {
        "url": "https://truyenx.link/truyensextv/channels/related/550",
        "request_headers": []
      },
      "share": {
        "url": "https://truyenx.link/truyensextv/channels/share/chuyen-bua-thoi-di-hoc"
      },
      "remote_data": {
        "url": "https://truyenx.link/truyensextv/channels/chuyen-bua-thoi-di-hoc"
      }
    },
    {
      "id": "549-channel",
      "name": "Bác Hằng",
      "description": "Năm nay tôi 16 tuổi, tuy chưa lớn mấy nhưng tôi lại đam mê sex. Một lần khi đang học bài, vì khát nước lên tôi sang nhà bác xin nước tại vì nhà hết nước rồi. Khi vừa bước tới...",
      "image": null,
      "label": null,
      "display": "text-only",
      "type": "text",
      "enable_detail": true,
      "related": {
        "url": "https://truyenx.link/truyensextv/channels/related/549",
        "request_headers": []
      },
      "share": {
        "url": "https://truyenx.link/truyensextv/channels/share/bac-hang"
      },
      "remote_data": {
        "url": "https://truyenx.link/truyensextv/channels/bac-hang"
      }
    },
    {
      "id": "548-channel",
      "name": "Gái quê",
      "description": "Chị Hai Thơm quẹo cái ghe từ ngoài dòng kênh lớn vô cái nhánh rạch ngoằn ngoèo, cái ghe luồn qua những đám cây um tùm hai bên bờ, chui đầu dưới mấy cái cầu khỉ bắt ngoắt ngoẻo...",
      "image": null,
      "label": null,
      "display": "text-only",
      "type": "text",
      "enable_detail": true,
      "related": {
        "url": "https://truyenx.link/truyensextv/channels/related/548",
        "request_headers": []
      },
      "share": {
        "url": "https://truyenx.link/truyensextv/channels/share/gai-que"
      },
      "remote_data": {
        "url": "https://truyenx.link/truyensextv/channels/gai-que"
      }
    },
    {
      "id": "547-channel",
      "name": "Vùng quê yên bình",
      "description": "Mùa hè năm nay Thằng Dũng và con Mai được ba má nó cho về quê ngoại nghỉ hè một chuyến. Số là 2 anh em nó... thằng anh vừa tốt nghiệp cấp 3 và đậu vào 1 trường đại học. còn...",
      "image": null,
      "label": null,
      "display": "text-only",
      "type": "text",
      "enable_detail": true,
      "related": {
        "url": "https://truyenx.link/truyensextv/channels/related/547",
        "request_headers": []
      },
      "share": {
        "url": "https://truyenx.link/truyensextv/channels/share/vung-que-yen-binh"
      },
      "remote_data": {
        "url": "https://truyenx.link/truyensextv/channels/vung-que-yen-binh"
      }
    },
    {
      "id": "546-channel",
      "name": "Chuyến đi phượt đáng nhớ",
      "description": "Câu chuyện tôi sắp kể ra đây các bạn có thể tin là thật, là bịa, hay là nhảm cũng được. Tôi chỉ xin tường thuật lại với lời văn của mình một cách chân thực nhất có thể...",
      "image": null,
      "label": null,
      "display": "text-only",
      "type": "text",
      "enable_detail": true,
      "related": {
        "url": "https://truyenx.link/truyensextv/channels/related/546",
        "request_headers": []
      },
      "share": {
        "url": "https://truyenx.link/truyensextv/channels/share/chuyen-di-phuot-dang-nho"
      },
      "remote_data": {
        "url": "https://truyenx.link/truyensextv/channels/chuyen-di-phuot-dang-nho"
      }
    },
    {
      "id": "545-channel",
      "name": "Khoảnh khắc",
      "description": "Tôi biết chú ý đến con gái từ khá sớm. Đâu đó trong khoản thời gian mẫu giáo, nhận thức về gái xinh đã hình thành, cô gái đầu tiên thu hút cái nhìn cùng suy nghĩ của tôi đến...",
      "image": null,
      "label": null,
      "display": "text-only",
      "type": "text",
      "enable_detail": true,
      "related": {
        "url": "https://truyenx.link/truyensextv/channels/related/545",
        "request_headers": []
      },
      "share": {
        "url": "https://truyenx.link/truyensextv/channels/share/khoanh-khac"
      },
      "remote_data": {
        "url": "https://truyenx.link/truyensextv/channels/khoanh-khac"
      }
    },
    {
      "id": "544-channel",
      "name": "Nhìn vợ ngoại tình",
      "description": "Không biết khi nói ra chuyện của vợ chồng tôi thì người đáng trách là ai, nhưng điều đó hình như không còn quan trọng với chúng tôi, bởi lẽ cả 2 chúng tôi hiện vẫn rất hạnh...",
      "image": null,
      "label": null,
      "display": "text-only",
      "type": "text",
      "enable_detail": true,
      "related": {
        "url": "https://truyenx.link/truyensextv/channels/related/544",
        "request_headers": []
      },
      "share": {
        "url": "https://truyenx.link/truyensextv/channels/share/nhin-vo-ngoai-tinh"
      },
      "remote_data": {
        "url": "https://truyenx.link/truyensextv/channels/nhin-vo-ngoai-tinh"
      }
    },
    {
      "id": "543-channel",
      "name": "Dì Thu",
      "description": "Tôi còn nhớ đó là lần đầu tiên tôi đến chơi nhà chú Thành. Nhà chú ở vùng ngoại ô xa xôi, chú chuyển đến đây sống từ khi mới lập gia đình hai năm trước. Vì nhà tôi ở xa...",
      "image": null,
      "label": null,
      "display": "text-only",
      "type": "text",
      "enable_detail": true,
      "related": {
        "url": "https://truyenx.link/truyensextv/channels/related/543",
        "request_headers": []
      },
      "share": {
        "url": "https://truyenx.link/truyensextv/channels/share/di-thu"
      },
      "remote_data": {
        "url": "https://truyenx.link/truyensextv/channels/di-thu"
      }
    },
    {
      "id": "542-channel",
      "name": "Xem trộm",
      "description": "Năm ấy Long mới học lớp 9, có một chuyện đã diễn ra và làm thay đổi cuộc đời nó hoàn toàn. Long còn nhớ đó là một buổi sáng Chủ Nhật, nó đi học thêm môn Toán nhưng thầy...",
      "image": null,
      "label": null,
      "display": "text-only",
      "type": "text",
      "enable_detail": true,
      "related": {
        "url": "https://truyenx.link/truyensextv/channels/related/542",
        "request_headers": []
      },
      "share": {
        "url": "https://truyenx.link/truyensextv/channels/share/xem-trom"
      },
      "remote_data": {
        "url": "https://truyenx.link/truyensextv/channels/xem-trom"
      }
    },
    {
      "id": "541-channel",
      "name": "Con lươn",
      "description": "Tèo nhìn trộm chị của Tèo và bạn trai của cô ta, tối hôm đó nó trốn trong tủ nó và sáng hôm sau thuật lại câu chuyện cho mẹ cậu nghe như sau: ... Bạn đang đọc truyện sex tại...",
      "image": null,
      "label": null,
      "display": "text-only",
      "type": "text",
      "enable_detail": true,
      "related": {
        "url": "https://truyenx.link/truyensextv/channels/related/541",
        "request_headers": []
      },
      "share": {
        "url": "https://truyenx.link/truyensextv/channels/share/con-luon"
      },
      "remote_data": {
        "url": "https://truyenx.link/truyensextv/channels/con-luon"
      }
    },
    {
      "id": "540-channel",
      "name": "Huyền đụ với chó",
      "description": "Huyền là một nữ sinh gốc Việt ở Mỹ... Sau khi kết thúc năm thứ nhất đại học, Huyền đã ghi danh làm từ nguyện bán thời gian ở khu bảo dưỡng động vật hoang dã. Huyền yêu...",
      "image": null,
      "label": null,
      "display": "text-only",
      "type": "text",
      "enable_detail": true,
      "related": {
        "url": "https://truyenx.link/truyensextv/channels/related/540",
        "request_headers": []
      },
      "share": {
        "url": "https://truyenx.link/truyensextv/channels/share/huyen-du-voi-cho"
      },
      "remote_data": {
        "url": "https://truyenx.link/truyensextv/channels/huyen-du-voi-cho"
      }
    },
    {
      "id": "539-channel",
      "name": "Phụng Lê - người yêu cũ của bạn",
      "description": "Gặp lại Phụng trong một quán caffe gần bến xe miền Đông, tôi không khỏi thổn thức vì nàng hôm nay trông đẹp và quyến rũ hẳn lên. Đôi môi hồng nhỏ nhắn quyến rũ hôm nay được...",
      "image": null,
      "label": null,
      "display": "text-only",
      "type": "text",
      "enable_detail": true,
      "related": {
        "url": "https://truyenx.link/truyensextv/channels/related/539",
        "request_headers": []
      },
      "share": {
        "url": "https://truyenx.link/truyensextv/channels/share/phung-le-nguoi-yeu-cu-cua-ban"
      },
      "remote_data": {
        "url": "https://truyenx.link/truyensextv/channels/phung-le-nguoi-yeu-cu-cua-ban"
      }
    },
    {
      "id": "538-channel",
      "name": "Mèo con",
      "description": "Đôi nét về mình: tên Hưng , làm thông dịch viên cho các sếp, soạn tài liệu, hợp đồng các kiểu. Ngoài ra công ty đối tác nước ngoài khá nhiều nên cũng thường xuyên bay sang Nhật...",
      "image": null,
      "label": null,
      "display": "text-only",
      "type": "text",
      "enable_detail": true,
      "related": {
        "url": "https://truyenx.link/truyensextv/channels/related/538",
        "request_headers": []
      },
      "share": {
        "url": "https://truyenx.link/truyensextv/channels/share/meo-con"
      },
      "remote_data": {
        "url": "https://truyenx.link/truyensextv/channels/meo-con"
      }
    },
    {
      "id": "537-channel",
      "name": "Lần đầu đụ gái",
      "description": "Sinh ra trong một gia đình không đến nỗi là hoàn cảnh, nhưng cũng không phải là điều kiện thật sự tốt. Tuy vậy, bố mẹ tôi cũng cho anh chị em chúng tôi có một cuộc sống đầy...",
      "image": null,
      "label": null,
      "display": "text-only",
      "type": "text",
      "enable_detail": true,
      "related": {
        "url": "https://truyenx.link/truyensextv/channels/related/537",
        "request_headers": []
      },
      "share": {
        "url": "https://truyenx.link/truyensextv/channels/share/lan-dau-du-gai"
      },
      "remote_data": {
        "url": "https://truyenx.link/truyensextv/channels/lan-dau-du-gai"
      }
    },
    {
      "id": "536-channel",
      "name": "Vợ bị hiếp khi mang thai",
      "description": "Đến bây giờ tôi vẫn không hiểu tại sao những rắc rối lại liên tiếp xảy ra với chúng tôi. Cả tôi và Diệu Linh, 2 vợ chồng cùng 28 tuổi và chúng tôi làm chung công ty. Vì có khả...",
      "image": null,
      "label": null,
      "display": "text-only",
      "type": "text",
      "enable_detail": true,
      "related": {
        "url": "https://truyenx.link/truyensextv/channels/related/536",
        "request_headers": []
      },
      "share": {
        "url": "https://truyenx.link/truyensextv/channels/share/vo-bi-hiep-khi-mang-thai"
      },
      "remote_data": {
        "url": "https://truyenx.link/truyensextv/channels/vo-bi-hiep-khi-mang-thai"
      }
    },
    {
      "id": "535-channel",
      "name": "Đụ nát lồn crush",
      "description": "Tôi đang đi trên một con đường màu trắng, xung quanh đều toàn một màu trắng xóa. Ánh nắng lan tỏa khắp mọi nơi, làm khung cảnh thật thơ mộng. Phía cuối con đường, có một...",
      "image": null,
      "label": null,
      "display": "text-only",
      "type": "text",
      "enable_detail": true,
      "related": {
        "url": "https://truyenx.link/truyensextv/channels/related/535",
        "request_headers": []
      },
      "share": {
        "url": "https://truyenx.link/truyensextv/channels/share/du-nat-lon-crush"
      },
      "remote_data": {
        "url": "https://truyenx.link/truyensextv/channels/du-nat-lon-crush"
      }
    },
    {
      "id": "534-channel",
      "name": "Những người con gái đi qua đời tôi",
      "description": "Chào các anh em trong truyensextv2.cc . Đây là câu chuyện thật của em, không thêm mắm muối 1% nào. Em viết ra như 1 cách hồi tưởng lại những người con gái em đã yêu. Em là thế hệ...",
      "image": null,
      "label": null,
      "display": "text-only",
      "type": "text",
      "enable_detail": true,
      "related": {
        "url": "https://truyenx.link/truyensextv/channels/related/534",
        "request_headers": []
      },
      "share": {
        "url": "https://truyenx.link/truyensextv/channels/share/nhung-nguoi-con-gai-di-qua-doi-toi"
      },
      "remote_data": {
        "url": "https://truyenx.link/truyensextv/channels/nhung-nguoi-con-gai-di-qua-doi-toi"
      }
    },
    {
      "id": "533-channel",
      "name": "Phá trinh 4 mỹ nhân – Quyển 2",
      "description": "Sau những phút giây mừng vui rộn rã. Mọi người bắt đầu lên đường trở lại Cửu Thiên Sơn. Có thể nói, niềm vui gặp lại đã khiến cho họ quên đi rất điều khổ đau mà suốt...",
      "image": null,
      "label": null,
      "display": "text-only",
      "type": "text",
      "enable_detail": true,
      "related": {
        "url": "https://truyenx.link/truyensextv/channels/related/533",
        "request_headers": []
      },
      "share": {
        "url": "https://truyenx.link/truyensextv/channels/share/pha-trinh-4-my-nhan-quyen-2"
      },
      "remote_data": {
        "url": "https://truyenx.link/truyensextv/channels/pha-trinh-4-my-nhan-quyen-2"
      }
    },
    {
      "id": "532-channel",
      "name": "Chị chủ phòng trọ",
      "description": "Tháng 8, tháng cao điểm của các nhà trọ ở mấy thành phố lớn, nhất là những khu nhà trọ gần trường đại học. Mọi khu ở trọ hầu như đã hết phòng. Tôi tuy mới lên thành phố...",
      "image": null,
      "label": null,
      "display": "text-only",
      "type": "text",
      "enable_detail": true,
      "related": {
        "url": "https://truyenx.link/truyensextv/channels/related/532",
        "request_headers": []
      },
      "share": {
        "url": "https://truyenx.link/truyensextv/channels/share/chi-chu-phong-tro"
      },
      "remote_data": {
        "url": "https://truyenx.link/truyensextv/channels/chi-chu-phong-tro"
      }
    },
    {
      "id": "531-channel",
      "name": "Những cô nàng nghiện sex",
      "description": "Thằng Linh là thằng bạn nối khố với tôi thằng Tuấn và Tú. Ở cái xóm lao động này thì nhà nào cũng như nhà nào đều là công nhân cả. Tụi trẻ con thường quần xà lỏn mà đi...",
      "image": null,
      "label": null,
      "display": "text-only",
      "type": "text",
      "enable_detail": true,
      "related": {
        "url": "https://truyenx.link/truyensextv/channels/related/531",
        "request_headers": []
      },
      "share": {
        "url": "https://truyenx.link/truyensextv/channels/share/nhung-co-nang-nghien-sex"
      },
      "remote_data": {
        "url": "https://truyenx.link/truyensextv/channels/nhung-co-nang-nghien-sex"
      }
    },
    {
      "id": "530-channel",
      "name": "Hoán đổi thân xác",
      "description": "Thi Võ Vốn là đại tướng nam chinh, sức mạnh của hắn thì khỏi bàn cãi, và dĩ nhiên, cùng với sức mạnh ấy hắn thu về bản thân vô số chiến công, chiến thắng. Quân đoàn viễn...",
      "image": null,
      "label": null,
      "display": "text-only",
      "type": "text",
      "enable_detail": true,
      "related": {
        "url": "https://truyenx.link/truyensextv/channels/related/530",
        "request_headers": []
      },
      "share": {
        "url": "https://truyenx.link/truyensextv/channels/share/hoan-doi-than-xac"
      },
      "remote_data": {
        "url": "https://truyenx.link/truyensextv/channels/hoan-doi-than-xac"
      }
    },
    {
      "id": "529-channel",
      "name": "Con cu vô địch",
      "description": "Ngọc nhi, ngươi lại trốn đi đâu rồi ? Mặc cho tiếng gọi của thiếu nữ. Một cậu bé tầm 14, 15 tuổi vẫn lủi người chạy đi rất nhanh. Cậu bé chạy một mạch gần 200 trượng...",
      "image": null,
      "label": null,
      "display": "text-only",
      "type": "text",
      "enable_detail": true,
      "related": {
        "url": "https://truyenx.link/truyensextv/channels/related/529",
        "request_headers": []
      },
      "share": {
        "url": "https://truyenx.link/truyensextv/channels/share/con-cu-vo-dich"
      },
      "remote_data": {
        "url": "https://truyenx.link/truyensextv/channels/con-cu-vo-dich"
      }
    }
  ],
  "load_more": {
    "pageInfo": {
      "current_page": 122,
      "last_page": 140,
      "per_page": 30,
      "total": 4188
    },
    "paging": {
      "page_key": "page",
      "size_key": "size"
    },
    "remote_data": {
      "url": "https://truyenx.link/truyensextv/channels"
    }
  }
}